[2020-04-22 20:23:11.013279 CEST] [3439] [info] Process cmdline: '/root/benchmarks/ior-3.2.1/src/ior -a POSIX -b 64m -F -t 4m -B -w -r -o /mnt/gkfs/output-F-1'
[2020-04-22 20:23:11.013561 CEST] [3439] [info] Initializing RPC subsystem...
[2020-04-22 20:23:11.017699 CEST] [3440] [info] Process cmdline: '/root/benchmarks/ior-3.2.1/src/ior -a POSIX -b 64m -F -t 4m -B -w -r -o /mnt/gkfs/output-F-1'
[2020-04-22 20:23:11.017941 CEST] [3440] [info] Initializing RPC subsystem...
[2020-04-22 20:23:11.017743 CEST] [3441] [info] Process cmdline: '/root/benchmarks/ior-3.2.1/src/ior -a POSIX -b 64m -F -t 4m -B -w -r -o /mnt/gkfs/output-F-1'
[2020-04-22 20:23:11.017994 CEST] [3441] [info] Initializing RPC subsystem...
[2020-04-22 20:23:11.018088 CEST] [3442] [info] Process cmdline: '/root/benchmarks/ior-3.2.1/src/ior -a POSIX -b 64m -F -t 4m -B -w -r -o /mnt/gkfs/output-F-1'
[2020-04-22 20:23:11.018318 CEST] [3442] [info] Initializing RPC subsystem...
[2020-04-22 20:23:11.021266 CEST] [3439] [info] Loading peer addresses...
[2020-04-22 20:23:11.023753 CEST] [3439] [info] Hosts pool size: 12
[2020-04-22 20:23:11.023602 CEST] [3443] [info] Process cmdline: '/root/benchmarks/ior-3.2.1/src/ior -a POSIX -b 64m -F -t 4m -B -w -r -o /mnt/gkfs/output-F-1'
[2020-04-22 20:23:11.023839 CEST] [3443] [info] Initializing RPC subsystem...
[2020-04-22 20:23:11.027731 CEST] [3444] [info] Process cmdline: '/root/benchmarks/ior-3.2.1/src/ior -a POSIX -b 64m -F -t 4m -B -w -r -o /mnt/gkfs/output-F-1'
[2020-04-22 20:23:11.027957 CEST] [3444] [info] Initializing RPC subsystem...
[2020-04-22 20:23:11.028463 CEST] [3445] [info] Process cmdline: '/root/benchmarks/ior-3.2.1/src/ior -a POSIX -b 64m -F -t 4m -B -w -r -o /mnt/gkfs/output-F-1'
[2020-04-22 20:23:11.028682 CEST] [3445] [info] Initializing RPC subsystem...
[2020-04-22 20:23:11.030415 CEST] [3446] [info] Process cmdline: '/root/benchmarks/ior-3.2.1/src/ior -a POSIX -b 64m -F -t 4m -B -w -r -o /mnt/gkfs/output-F-1'
[2020-04-22 20:23:11.030638 CEST] [3446] [info] Initializing RPC subsystem...
[2020-04-22 20:23:11.039315 CEST] [3441] [info] Loading peer addresses...
[2020-04-22 20:23:11.039903 CEST] [3442] [info] Loading peer addresses...
[2020-04-22 20:23:11.040498 CEST] [3440] [info] Loading peer addresses...
[2020-04-22 20:23:11.041261 CEST] [3441] [info] Hosts pool size: 12
[2020-04-22 20:23:11.041459 CEST] [3442] [info] Hosts pool size: 12
[2020-04-22 20:23:11.042319 CEST] [3440] [info] Hosts pool size: 12
[2020-04-22 20:23:11.047384 CEST] [3443] [info] Loading peer addresses...
[2020-04-22 20:23:11.049603 CEST] [3443] [info] Hosts pool size: 12
[2020-04-22 20:23:11.050990 CEST] [3446] [info] Loading peer addresses...
[2020-04-22 20:23:11.052438 CEST] [3445] [info] Loading peer addresses...
[2020-04-22 20:23:11.052950 CEST] [3446] [info] Hosts pool size: 12
[2020-04-22 20:23:11.054320 CEST] [3445] [info] Hosts pool size: 12
[2020-04-22 20:23:11.054510 CEST] [3444] [info] Loading peer addresses...
[2020-04-22 20:23:11.057733 CEST] [3444] [info] Hosts pool size: 12
[2020-04-22 20:23:11.184449 CEST] [3443] [info] Forwarding map loaded for 'gros-14' as '5'
[2020-04-22 20:23:11.184468 CEST] [3439] [info] Forwarding map loaded for 'gros-14' as '5'
[2020-04-22 20:23:11.184481 CEST] [3444] [info] Forwarding map loaded for 'gros-14' as '5'
[2020-04-22 20:23:11.184487 CEST] [3442] [info] Forwarding map loaded for 'gros-14' as '5'
[2020-04-22 20:23:11.184489 CEST] [3441] [info] Forwarding map loaded for 'gros-14' as '5'
[2020-04-22 20:23:11.184501 CEST] [3446] [info] Forwarding map loaded for 'gros-14' as '5'
[2020-04-22 20:23:11.184525 CEST] [3440] [info] Forwarding map loaded for 'gros-14' as '5'
[2020-04-22 20:23:11.184618 CEST] [3443] [info] init_ld_environment_() Forward to 5
[2020-04-22 20:23:11.184639 CEST] [3439] [info] init_ld_environment_() Forward to 5
[2020-04-22 20:23:11.184649 CEST] [3444] [info] init_ld_environment_() Forward to 5
[2020-04-22 20:23:11.184661 CEST] [3442] [info] init_ld_environment_() Forward to 5
[2020-04-22 20:23:11.184671 CEST] [3441] [info] init_ld_environment_() Forward to 5
[2020-04-22 20:23:11.184697 CEST] [3440] [info] init_ld_environment_() Forward to 5
[2020-04-22 20:23:11.184747 CEST] [3443] [info] Retrieving file system configuration...
[2020-04-22 20:23:11.184683 CEST] [3446] [info] init_ld_environment_() Forward to 5
[2020-04-22 20:23:11.184769 CEST] [3439] [info] Retrieving file system configuration...
[2020-04-22 20:23:11.184773 CEST] [3444] [info] Retrieving file system configuration...
[2020-04-22 20:23:11.184784 CEST] [3442] [info] Retrieving file system configuration...
[2020-04-22 20:23:11.184809 CEST] [3441] [info] Retrieving file system configuration...
[2020-04-22 20:23:11.184821 CEST] [3440] [info] Retrieving file system configuration...
[2020-04-22 20:23:11.184859 CEST] [3446] [info] Retrieving file system configuration...
[2020-04-22 20:23:11.184895 CEST] [3445] [info] Forwarding map loaded for 'gros-14' as '5'
[2020-04-22 20:23:11.185062 CEST] [3445] [info] init_ld_environment_() Forward to 5
[2020-04-22 20:23:11.185206 CEST] [3445] [info] Retrieving file system configuration...
[2020-04-22 20:23:11.190841 CEST] [3441] [info] Mountdir: '/mnt/gkfs'
[2020-04-22 20:23:11.190881 CEST] [3445] [info] Mountdir: '/mnt/gkfs'
[2020-04-22 20:23:11.190882 CEST] [3440] [info] Mountdir: '/mnt/gkfs'
[2020-04-22 20:23:11.190964 CEST] [3441] [info] Environment initialization successful.
[2020-04-22 20:23:11.190914 CEST] [3444] [info] Mountdir: '/mnt/gkfs'
[2020-04-22 20:23:11.190999 CEST] [3445] [info] Environment initialization successful.
[2020-04-22 20:23:11.191009 CEST] [3440] [info] Environment initialization successful.
[2020-04-22 20:23:11.191051 CEST] [3444] [info] Environment initialization successful.
[2020-04-22 20:23:11.198997 CEST] [3443] [info] Mountdir: '/mnt/gkfs'
[2020-04-22 20:23:11.199117 CEST] [3443] [info] Environment initialization successful.
[2020-04-22 20:23:11.233667 CEST] [3480] [info] Forwarding map loaded for 'gros-14' as '5'
[2020-04-22 20:23:11.233729 CEST] [3479] [info] Forwarding map loaded for 'gros-14' as '5'
[2020-04-22 20:23:11.233821 CEST] [3480] [info] forwarding_mapper() Forward to 5
[2020-04-22 20:23:11.233885 CEST] [3479] [info] forwarding_mapper() Forward to 5
[2020-04-22 20:23:11.233884 CEST] [3481] [info] Forwarding map loaded for 'gros-14' as '5'
[2020-04-22 20:23:11.234042 CEST] [3481] [info] forwarding_mapper() Forward to 5
[2020-04-22 20:23:11.234138 CEST] [3482] [info] Forwarding map loaded for 'gros-14' as '5'
[2020-04-22 20:23:11.234309 CEST] [3482] [info] forwarding_mapper() Forward to 5
[2020-04-22 20:23:11.236267 CEST] [3487] [info] Forwarding map loaded for 'gros-14' as '5'
[2020-04-22 20:23:11.236420 CEST] [3487] [info] forwarding_mapper() Forward to 5
[2020-04-22 20:23:12.189352 CEST] [3446] [info] Mountdir: '/mnt/gkfs'
[2020-04-22 20:23:12.189507 CEST] [3446] [info] Environment initialization successful.
[2020-04-22 20:23:12.189560 CEST] [3442] [info] Mountdir: '/mnt/gkfs'
[2020-04-22 20:23:12.189713 CEST] [3442] [info] Environment initialization successful.
[2020-04-22 20:23:12.189661 CEST] [3439] [info] Mountdir: '/mnt/gkfs'
[2020-04-22 20:23:12.189802 CEST] [3439] [info] Environment initialization successful.
[2020-04-22 20:23:12.218617 CEST] [3494] [info] Forwarding map loaded for 'gros-14' as '5'
[2020-04-22 20:23:12.218874 CEST] [3494] [info] forwarding_mapper() Forward to 5
[2020-04-22 20:23:12.219120 CEST] [3495] [info] Forwarding map loaded for 'gros-14' as '5'
[2020-04-22 20:23:12.219333 CEST] [3495] [info] forwarding_mapper() Forward to 5
[2020-04-22 20:23:12.219513 CEST] [3496] [info] Forwarding map loaded for 'gros-14' as '5'
[2020-04-22 20:23:12.219672 CEST] [3496] [info] forwarding_mapper() Forward to 5
[2020-04-22 20:23:21.239961 CEST] [3479] [info] Forwarding map loaded for 'gros-14' as '5'
[2020-04-22 20:23:21.240140 CEST] [3479] [info] forwarding_mapper() Forward to 5
[2020-04-22 20:23:21.241375 CEST] [3482] [info] Forwarding map loaded for 'gros-14' as '5'
[2020-04-22 20:23:21.241394 CEST] [3481] [info] Forwarding map loaded for 'gros-14' as '5'
[2020-04-22 20:23:21.241543 CEST] [3482] [info] forwarding_mapper() Forward to 5
[2020-04-22 20:23:21.241556 CEST] [3481] [info] forwarding_mapper() Forward to 5
[2020-04-22 20:23:21.241748 CEST] [3480] [info] Forwarding map loaded for 'gros-14' as '5'
[2020-04-22 20:23:21.241899 CEST] [3480] [info] forwarding_mapper() Forward to 5
[2020-04-22 20:23:21.244789 CEST] [3487] [info] Forwarding map loaded for 'gros-14' as '5'
[2020-04-22 20:23:21.244957 CEST] [3487] [info] forwarding_mapper() Forward to 5
[2020-04-22 20:23:22.226996 CEST] [3494] [info] Forwarding map loaded for 'gros-14' as '5'
[2020-04-22 20:23:22.227157 CEST] [3494] [info] forwarding_mapper() Forward to 5
[2020-04-22 20:23:22.228807 CEST] [3496] [info] Forwarding map loaded for 'gros-14' as '5'
[2020-04-22 20:23:22.229018 CEST] [3496] [info] forwarding_mapper() Forward to 5
[2020-04-22 20:23:22.230044 CEST] [3495] [info] Forwarding map loaded for 'gros-14' as '5'
[2020-04-22 20:23:22.230219 CEST] [3495] [info] forwarding_mapper() Forward to 5
[2020-04-22 20:23:31.245505 CEST] [3479] [info] Forwarding map loaded for 'gros-14' as '5'
[2020-04-22 20:23:31.245651 CEST] [3479] [info] forwarding_mapper() Forward to 5
[2020-04-22 20:23:31.246678 CEST] [3482] [info] Forwarding map loaded for 'gros-14' as '5'
[2020-04-22 20:23:31.246827 CEST] [3482] [info] forwarding_mapper() Forward to 5
[2020-04-22 20:23:31.253074 CEST] [3480] [info] Forwarding map loaded for 'gros-14' as '5'
[2020-04-22 20:23:31.253148 CEST] [3480] [info] forwarding_mapper() Forward to 5
[2020-04-22 20:23:31.254676 CEST] [3481] [info] Forwarding map loaded for 'gros-14' as '5'
[2020-04-22 20:23:31.254823 CEST] [3481] [info] forwarding_mapper() Forward to 5
[2020-04-22 20:23:31.257979 CEST] [3487] [info] Forwarding map loaded for 'gros-14' as '5'
[2020-04-22 20:23:31.258126 CEST] [3487] [info] forwarding_mapper() Forward to 5
[2020-04-22 20:23:32.232968 CEST] [3494] [info] Forwarding map loaded for 'gros-14' as '5'
[2020-04-22 20:23:32.233110 CEST] [3494] [info] forwarding_mapper() Forward to 5
[2020-04-22 20:23:32.233654 CEST] [3495] [info] Forwarding map loaded for 'gros-14' as '5'
[2020-04-22 20:23:32.233724 CEST] [3495] [info] forwarding_mapper() Forward to 5
[2020-04-22 20:23:32.234061 CEST] [3496] [info] Forwarding map loaded for 'gros-14' as '5'
[2020-04-22 20:23:32.234216 CEST] [3496] [info] forwarding_mapper() Forward to 5
[2020-04-22 20:23:41.250825 CEST] [3479] [info] Forwarding map loaded for 'gros-14' as '5'
[2020-04-22 20:23:41.250969 CEST] [3479] [info] forwarding_mapper() Forward to 5
[2020-04-22 20:23:41.252631 CEST] [3482] [info] Forwarding map loaded for 'gros-14' as '5'
[2020-04-22 20:23:41.252777 CEST] [3482] [info] forwarding_mapper() Forward to 5
[2020-04-22 20:23:41.259613 CEST] [3480] [info] Forwarding map loaded for 'gros-14' as '5'
[2020-04-22 20:23:41.259685 CEST] [3480] [info] forwarding_mapper() Forward to 5
[2020-04-22 20:23:41.262689 CEST] [3481] [info] Forwarding map loaded for 'gros-14' as '5'
[2020-04-22 20:23:41.262831 CEST] [3481] [info] forwarding_mapper() Forward to 5
[2020-04-22 20:23:41.266214 CEST] [3487] [info] Forwarding map loaded for 'gros-14' as '5'
[2020-04-22 20:23:41.266361 CEST] [3487] [info] forwarding_mapper() Forward to 5
[2020-04-22 20:23:42.238634 CEST] [3495] [info] Forwarding map loaded for 'gros-14' as '5'
[2020-04-22 20:23:42.238699 CEST] [3495] [info] forwarding_mapper() Forward to 5
[2020-04-22 20:23:42.239333 CEST] [3496] [info] Forwarding map loaded for 'gros-14' as '5'
[2020-04-22 20:23:42.239475 CEST] [3496] [info] forwarding_mapper() Forward to 5
[2020-04-22 20:23:42.243529 CEST] [3494] [info] Forwarding map loaded for 'gros-14' as '5'
[2020-04-22 20:23:42.243676 CEST] [3494] [info] forwarding_mapper() Forward to 5
[2020-04-22 20:23:51.256021 CEST] [3479] [info] Forwarding map loaded for 'gros-14' as '5'
[2020-04-22 20:23:51.256166 CEST] [3479] [info] forwarding_mapper() Forward to 5
[2020-04-22 20:23:51.258614 CEST] [3482] [info] Forwarding map loaded for 'gros-14' as '5'
[2020-04-22 20:23:51.258757 CEST] [3482] [info] forwarding_mapper() Forward to 5
[2020-04-22 20:23:51.271018 CEST] [3480] [info] Forwarding map loaded for 'gros-14' as '5'
[2020-04-22 20:23:51.271094 CEST] [3480] [info] forwarding_mapper() Forward to 5
[2020-04-22 20:23:51.275880 CEST] [3481] [info] Forwarding map loaded for 'gros-14' as '5'
[2020-04-22 20:23:51.276019 CEST] [3481] [info] forwarding_mapper() Forward to 5
[2020-04-22 20:23:51.279259 CEST] [3487] [info] Forwarding map loaded for 'gros-14' as '5'
[2020-04-22 20:23:51.279402 CEST] [3487] [info] forwarding_mapper() Forward to 5
[2020-04-22 20:23:52.242609 CEST] [3495] [info] Forwarding map loaded for 'gros-14' as '5'
[2020-04-22 20:23:52.242672 CEST] [3495] [info] forwarding_mapper() Forward to 5
[2020-04-22 20:23:52.244793 CEST] [3496] [info] Forwarding map loaded for 'gros-14' as '5'
[2020-04-22 20:23:52.244931 CEST] [3496] [info] forwarding_mapper() Forward to 5
[2020-04-22 20:23:52.249392 CEST] [3494] [info] Forwarding map loaded for 'gros-14' as '5'
[2020-04-22 20:23:52.249535 CEST] [3494] [info] forwarding_mapper() Forward to 5
[2020-04-22 20:24:01.261246 CEST] [3479] [info] Forwarding map loaded for 'gros-14' as '5'
[2020-04-22 20:24:01.261389 CEST] [3479] [info] forwarding_mapper() Forward to 5
[2020-04-22 20:24:01.263628 CEST] [3482] [info] Forwarding map loaded for 'gros-14' as '5'
[2020-04-22 20:24:01.263770 CEST] [3482] [info] forwarding_mapper() Forward to 5
[2020-04-22 20:24:01.277572 CEST] [3480] [info] Forwarding map loaded for 'gros-14' as '5'
[2020-04-22 20:24:01.277637 CEST] [3480] [info] forwarding_mapper() Forward to 5
[2020-04-22 20:24:01.284303 CEST] [3481] [info] Forwarding map loaded for 'gros-14' as '5'
[2020-04-22 20:24:01.284444 CEST] [3481] [info] forwarding_mapper() Forward to 5
[2020-04-22 20:24:01.287638 CEST] [3487] [info] Forwarding map loaded for 'gros-14' as '5'
[2020-04-22 20:24:01.287783 CEST] [3487] [info] forwarding_mapper() Forward to 5
[2020-04-22 20:24:02.246635 CEST] [3495] [info] Forwarding map loaded for 'gros-14' as '5'
[2020-04-22 20:24:02.246698 CEST] [3495] [info] forwarding_mapper() Forward to 5
[2020-04-22 20:24:02.249969 CEST] [3496] [info] Forwarding map loaded for 'gros-14' as '5'
[2020-04-22 20:24:02.250113 CEST] [3496] [info] forwarding_mapper() Forward to 5
[2020-04-22 20:24:02.260289 CEST] [3494] [info] Forwarding map loaded for 'gros-14' as '5'
[2020-04-22 20:24:02.260433 CEST] [3494] [info] forwarding_mapper() Forward to 5
[2020-04-22 20:24:11.266565 CEST] [3479] [info] Forwarding map loaded for 'gros-14' as '5'
[2020-04-22 20:24:11.266704 CEST] [3479] [info] forwarding_mapper() Forward to 5
[2020-04-22 20:24:11.268609 CEST] [3482] [info] Forwarding map loaded for 'gros-14' as '5'
[2020-04-22 20:24:11.268753 CEST] [3482] [info] forwarding_mapper() Forward to 5
[2020-04-22 20:24:11.288689 CEST] [3480] [info] Forwarding map loaded for 'gros-14' as '5'
[2020-04-22 20:24:11.288753 CEST] [3480] [info] forwarding_mapper() Forward to 5
[2020-04-22 20:24:11.297552 CEST] [3481] [info] Forwarding map loaded for 'gros-14' as '5'
[2020-04-22 20:24:11.297693 CEST] [3481] [info] forwarding_mapper() Forward to 5
[2020-04-22 20:24:11.300616 CEST] [3487] [info] Forwarding map loaded for 'gros-14' as '5'
[2020-04-22 20:24:11.300761 CEST] [3487] [info] forwarding_mapper() Forward to 5
[2020-04-22 20:24:12.250578 CEST] [3495] [info] Forwarding map loaded for 'gros-14' as '5'
[2020-04-22 20:24:12.250641 CEST] [3495] [info] forwarding_mapper() Forward to 5
[2020-04-22 20:24:12.255477 CEST] [3496] [info] Forwarding map loaded for 'gros-14' as '5'
[2020-04-22 20:24:12.255622 CEST] [3496] [info] forwarding_mapper() Forward to 5
[2020-04-22 20:24:12.266640 CEST] [3494] [info] Forwarding map loaded for 'gros-14' as '5'
[2020-04-22 20:24:12.266784 CEST] [3494] [info] forwarding_mapper() Forward to 5
[2020-04-22 20:24:21.271798 CEST] [3479] [info] Forwarding map loaded for 'gros-14' as '5'
[2020-04-22 20:24:21.271940 CEST] [3479] [info] forwarding_mapper() Forward to 5
[2020-04-22 20:24:21.273617 CEST] [3482] [info] Forwarding map loaded for 'gros-14' as '5'
[2020-04-22 20:24:21.273759 CEST] [3482] [info] forwarding_mapper() Forward to 5
[2020-04-22 20:24:21.295327 CEST] [3480] [info] Forwarding map loaded for 'gros-14' as '5'
[2020-04-22 20:24:21.295396 CEST] [3480] [info] forwarding_mapper() Forward to 5
[2020-04-22 20:24:21.306059 CEST] [3481] [info] Forwarding map loaded for 'gros-14' as '5'
[2020-04-22 20:24:21.306207 CEST] [3481] [info] forwarding_mapper() Forward to 5
[2020-04-22 20:24:21.308917 CEST] [3487] [info] Forwarding map loaded for 'gros-14' as '5'
[2020-04-22 20:24:21.309060 CEST] [3487] [info] forwarding_mapper() Forward to 5
[2020-04-22 20:24:22.259458 CEST] [3495] [info] Forwarding map loaded for 'gros-14' as '5'
[2020-04-22 20:24:22.259520 CEST] [3495] [info] forwarding_mapper() Forward to 5
[2020-04-22 20:24:22.260983 CEST] [3496] [info] Forwarding map loaded for 'gros-14' as '5'
[2020-04-22 20:24:22.261125 CEST] [3496] [info] forwarding_mapper() Forward to 5
[2020-04-22 20:24:22.275167 CEST] [3494] [info] Forwarding map loaded for 'gros-14' as '5'
[2020-04-22 20:24:22.275319 CEST] [3494] [info] forwarding_mapper() Forward to 5
[2020-04-22 20:24:31.276949 CEST] [3479] [info] Forwarding map loaded for 'gros-14' as '5'
[2020-04-22 20:24:31.277090 CEST] [3479] [info] forwarding_mapper() Forward to 5
[2020-04-22 20:24:31.278586 CEST] [3482] [info] Forwarding map loaded for 'gros-14' as '5'
[2020-04-22 20:24:31.278728 CEST] [3482] [info] forwarding_mapper() Forward to 5
[2020-04-22 20:24:31.306569 CEST] [3480] [info] Forwarding map loaded for 'gros-14' as '5'
[2020-04-22 20:24:31.306632 CEST] [3480] [info] forwarding_mapper() Forward to 5
[2020-04-22 20:24:31.319393 CEST] [3481] [info] Forwarding map loaded for 'gros-14' as '5'
[2020-04-22 20:24:31.319533 CEST] [3481] [info] forwarding_mapper() Forward to 5
[2020-04-22 20:24:31.321952 CEST] [3487] [info] Forwarding map loaded for 'gros-14' as '5'
[2020-04-22 20:24:31.322097 CEST] [3487] [info] forwarding_mapper() Forward to 5
[2020-04-22 20:24:32.263303 CEST] [3495] [info] Forwarding map loaded for 'gros-14' as '5'
[2020-04-22 20:24:32.263366 CEST] [3495] [info] forwarding_mapper() Forward to 5
[2020-04-22 20:24:32.266140 CEST] [3496] [info] Forwarding map loaded for 'gros-14' as '5'
[2020-04-22 20:24:32.266294 CEST] [3496] [info] forwarding_mapper() Forward to 5
[2020-04-22 20:24:32.281380 CEST] [3494] [info] Forwarding map loaded for 'gros-14' as '5'
[2020-04-22 20:24:32.281524 CEST] [3494] [info] forwarding_mapper() Forward to 5
[2020-04-22 20:24:41.282593 CEST] [3479] [info] Forwarding map loaded for 'gros-14' as '5'
[2020-04-22 20:24:41.282740 CEST] [3479] [info] forwarding_mapper() Forward to 5
[2020-04-22 20:24:41.287395 CEST] [3482] [info] Forwarding map loaded for 'gros-14' as '5'
[2020-04-22 20:24:41.287539 CEST] [3482] [info] forwarding_mapper() Forward to 5
[2020-04-22 20:24:41.313020 CEST] [3480] [info] Forwarding map loaded for 'gros-14' as '5'
[2020-04-22 20:24:41.313084 CEST] [3480] [info] forwarding_mapper() Forward to 5
[2020-04-22 20:24:41.327910 CEST] [3481] [info] Forwarding map loaded for 'gros-14' as '5'
[2020-04-22 20:24:41.328051 CEST] [3481] [info] forwarding_mapper() Forward to 5
[2020-04-22 20:24:41.330206 CEST] [3487] [info] Forwarding map loaded for 'gros-14' as '5'
[2020-04-22 20:24:41.330350 CEST] [3487] [info] forwarding_mapper() Forward to 5
[2020-04-22 20:24:42.271567 CEST] [3495] [info] Forwarding map loaded for 'gros-14' as '5'
[2020-04-22 20:24:42.271628 CEST] [3495] [info] forwarding_mapper() Forward to 5
[2020-04-22 20:24:42.271948 CEST] [3496] [info] Forwarding map loaded for 'gros-14' as '5'
[2020-04-22 20:24:42.272090 CEST] [3496] [info] forwarding_mapper() Forward to 5
[2020-04-22 20:24:42.292470 CEST] [3494] [info] Forwarding map loaded for 'gros-14' as '5'
[2020-04-22 20:24:42.292614 CEST] [3494] [info] forwarding_mapper() Forward to 5
[2020-04-22 20:24:51.288209 CEST] [3479] [info] Forwarding map loaded for 'gros-14' as '5'
[2020-04-22 20:24:51.288354 CEST] [3479] [info] forwarding_mapper() Forward to 5
[2020-04-22 20:24:51.300961 CEST] [3482] [info] Forwarding map loaded for 'gros-14' as '5'
[2020-04-22 20:24:51.301105 CEST] [3482] [info] forwarding_mapper() Forward to 5
[2020-04-22 20:24:51.324318 CEST] [3480] [info] Forwarding map loaded for 'gros-14' as '5'
[2020-04-22 20:24:51.324382 CEST] [3480] [info] forwarding_mapper() Forward to 5
[2020-04-22 20:24:51.335877 CEST] [3487] [info] Forwarding map loaded for 'gros-14' as '5'
[2020-04-22 20:24:51.336021 CEST] [3487] [info] forwarding_mapper() Forward to 5
[2020-04-22 20:24:51.341658 CEST] [3481] [info] Forwarding map loaded for 'gros-14' as '5'
[2020-04-22 20:24:51.341801 CEST] [3481] [info] forwarding_mapper() Forward to 5
[2020-04-22 20:24:52.275615 CEST] [3495] [info] Forwarding map loaded for 'gros-14' as '5'
[2020-04-22 20:24:52.275677 CEST] [3495] [info] forwarding_mapper() Forward to 5
[2020-04-22 20:24:52.278010 CEST] [3496] [info] Forwarding map loaded for 'gros-14' as '5'
[2020-04-22 20:24:52.278153 CEST] [3496] [info] forwarding_mapper() Forward to 5
[2020-04-22 20:24:52.298865 CEST] [3494] [info] Forwarding map loaded for 'gros-14' as '5'
[2020-04-22 20:24:52.299006 CEST] [3494] [info] forwarding_mapper() Forward to 5
[2020-04-22 20:25:01.293920 CEST] [3479] [info] Forwarding map loaded for 'gros-14' as '5'
[2020-04-22 20:25:01.294065 CEST] [3479] [info] forwarding_mapper() Forward to 5
[2020-04-22 20:25:01.306316 CEST] [3482] [info] Forwarding map loaded for 'gros-14' as '5'
[2020-04-22 20:25:01.306458 CEST] [3482] [info] forwarding_mapper() Forward to 5
[2020-04-22 20:25:01.330796 CEST] [3480] [info] Forwarding map loaded for 'gros-14' as '5'
[2020-04-22 20:25:01.330859 CEST] [3480] [info] forwarding_mapper() Forward to 5
[2020-04-22 20:25:01.344697 CEST] [3487] [info] Forwarding map loaded for 'gros-14' as '5'
[2020-04-22 20:25:01.344840 CEST] [3487] [info] forwarding_mapper() Forward to 5
[2020-04-22 20:25:01.350606 CEST] [3481] [info] Forwarding map loaded for 'gros-14' as '5'
[2020-04-22 20:25:01.350752 CEST] [3481] [info] forwarding_mapper() Forward to 5
[2020-04-22 20:25:02.279865 CEST] [3495] [info] Forwarding map loaded for 'gros-14' as '5'
[2020-04-22 20:25:02.279928 CEST] [3495] [info] forwarding_mapper() Forward to 5
[2020-04-22 20:25:02.285064 CEST] [3496] [info] Forwarding map loaded for 'gros-14' as '5'
[2020-04-22 20:25:02.285216 CEST] [3496] [info] forwarding_mapper() Forward to 5
[2020-04-22 20:25:02.310028 CEST] [3494] [info] Forwarding map loaded for 'gros-14' as '5'
[2020-04-22 20:25:02.310179 CEST] [3494] [info] forwarding_mapper() Forward to 5
[2020-04-22 20:25:11.305795 CEST] [3479] [info] Forwarding map loaded for 'gros-14' as '5'
[2020-04-22 20:25:11.305942 CEST] [3479] [info] forwarding_mapper() Forward to 5
[2020-04-22 20:25:11.319922 CEST] [3482] [info] Forwarding map loaded for 'gros-14' as '5'
[2020-04-22 20:25:11.320065 CEST] [3482] [info] forwarding_mapper() Forward to 5
[2020-04-22 20:25:11.342185 CEST] [3480] [info] Forwarding map loaded for 'gros-14' as '5'
[2020-04-22 20:25:11.342249 CEST] [3480] [info] forwarding_mapper() Forward to 5
[2020-04-22 20:25:11.358145 CEST] [3487] [info] Forwarding map loaded for 'gros-14' as '5'
[2020-04-22 20:25:11.358298 CEST] [3487] [info] forwarding_mapper() Forward to 5
[2020-04-22 20:25:11.364214 CEST] [3481] [info] Forwarding map loaded for 'gros-14' as '5'
[2020-04-22 20:25:11.364360 CEST] [3481] [info] forwarding_mapper() Forward to 5
[2020-04-22 20:25:12.284225 CEST] [3495] [info] Forwarding map loaded for 'gros-14' as '5'
[2020-04-22 20:25:12.284294 CEST] [3495] [info] forwarding_mapper() Forward to 5
[2020-04-22 20:25:12.290445 CEST] [3496] [info] Forwarding map loaded for 'gros-14' as '5'
[2020-04-22 20:25:12.290588 CEST] [3496] [info] forwarding_mapper() Forward to 5
[2020-04-22 20:25:12.316453 CEST] [3494] [info] Forwarding map loaded for 'gros-14' as '5'
[2020-04-22 20:25:12.316597 CEST] [3494] [info] forwarding_mapper() Forward to 5
[2020-04-22 20:25:21.311280 CEST] [3479] [info] Forwarding map loaded for 'gros-14' as '5'
[2020-04-22 20:25:21.311425 CEST] [3479] [info] forwarding_mapper() Forward to 5
[2020-04-22 20:25:21.328710 CEST] [3482] [info] Forwarding map loaded for 'gros-14' as '5'
[2020-04-22 20:25:21.328855 CEST] [3482] [info] forwarding_mapper() Forward to 5
[2020-04-22 20:25:21.348700 CEST] [3480] [info] Forwarding map loaded for 'gros-14' as '5'
[2020-04-22 20:25:21.348764 CEST] [3480] [info] forwarding_mapper() Forward to 5
[2020-04-22 20:25:21.366943 CEST] [3487] [info] Forwarding map loaded for 'gros-14' as '5'
[2020-04-22 20:25:21.367087 CEST] [3487] [info] forwarding_mapper() Forward to 5
[2020-04-22 20:25:21.372929 CEST] [3481] [info] Forwarding map loaded for 'gros-14' as '5'
[2020-04-22 20:25:21.373074 CEST] [3481] [info] forwarding_mapper() Forward to 5
[2020-04-22 20:25:22.292918 CEST] [3495] [info] Forwarding map loaded for 'gros-14' as '5'
[2020-04-22 20:25:22.292980 CEST] [3495] [info] forwarding_mapper() Forward to 5
[2020-04-22 20:25:22.295589 CEST] [3496] [info] Forwarding map loaded for 'gros-14' as '5'
[2020-04-22 20:25:22.295733 CEST] [3496] [info] forwarding_mapper() Forward to 5
[2020-04-22 20:25:22.324654 CEST] [3494] [info] Forwarding map loaded for 'gros-14' as '5'
[2020-04-22 20:25:22.324797 CEST] [3494] [info] forwarding_mapper() Forward to 5
[2020-04-22 20:25:31.317723 CEST] [3441] [info] All subsystems shut down. Client shutdown complete.
[2020-04-22 20:25:31.405138 CEST] [3444] [info] All subsystems shut down. Client shutdown complete.
[2020-04-22 20:25:31.406932 CEST] [3440] [info] All subsystems shut down. Client shutdown complete.
[2020-04-22 20:25:31.407452 CEST] [3445] [info] All subsystems shut down. Client shutdown complete.
[2020-04-22 20:25:31.423141 CEST] [3443] [info] All subsystems shut down. Client shutdown complete.
[2020-04-22 20:25:32.303219 CEST] [3442] [info] All subsystems shut down. Client shutdown complete.
[2020-04-22 20:25:32.340354 CEST] [3446] [info] All subsystems shut down. Client shutdown complete.
[2020-04-22 20:25:32.403660 CEST] [3439] [info] All subsystems shut down. Client shutdown complete.
