[2020-04-22 21:14:44.289803 CEST] [3632] [info] Process cmdline: '/root/benchmarks/s3asim-1.00/s3asim-test --total-fragments 128 --query-count 100 --query-size-min 1 --query-size-max 10 --database-sequence-size-min 6 --database-sequence-size-max 45088768 --result-size-min 1 --result-count-min 1 --result-count-max 5 --compute-speed 10.0 --io-method 0 --parallel-io 0 --query-sync 0 --output_file /mnt/gkfs/output-H-1 --atomicity 0'
[2020-04-22 21:14:44.290088 CEST] [3632] [info] Initializing RPC subsystem...
[2020-04-22 21:14:44.304138 CEST] [3632] [info] Loading peer addresses...
[2020-04-22 21:14:44.308813 CEST] [3632] [info] Hosts pool size: 12
[2020-04-22 21:14:44.316494 CEST] [3632] [info] Forwarding map loaded for 'gros-39' as '8'
[2020-04-22 21:14:44.316660 CEST] [3632] [info] init_ld_environment_() Forward to 8
[2020-04-22 21:14:44.316793 CEST] [3632] [info] Retrieving file system configuration...
[2020-04-22 21:14:44.320096 CEST] [3632] [info] Mountdir: '/mnt/gkfs'
[2020-04-22 21:14:44.320218 CEST] [3632] [info] Environment initialization successful.
[2020-04-22 21:14:44.350370 CEST] [3637] [info] Forwarding map loaded for 'gros-39' as '8'
[2020-04-22 21:14:44.350584 CEST] [3637] [info] forwarding_mapper() Forward to 8
[2020-04-22 21:14:54.362474 CEST] [3637] [info] Forwarding map loaded for 'gros-39' as '8'
[2020-04-22 21:14:54.362655 CEST] [3637] [info] forwarding_mapper() Forward to 8
[2020-04-22 21:15:04.369731 CEST] [3637] [info] Forwarding map loaded for 'gros-39' as '8'
[2020-04-22 21:15:04.369932 CEST] [3637] [info] forwarding_mapper() Forward to 8
[2020-04-22 21:15:14.381368 CEST] [3637] [info] Forwarding map loaded for 'gros-39' as '8'
[2020-04-22 21:15:14.381554 CEST] [3637] [info] forwarding_mapper() Forward to 8
[2020-04-22 21:15:24.388256 CEST] [3637] [info] Forwarding map loaded for 'gros-39' as '8'
[2020-04-22 21:15:24.388445 CEST] [3637] [info] forwarding_mapper() Forward to 8
[2020-04-22 21:15:34.400248 CEST] [3637] [info] Forwarding map loaded for 'gros-39' as '8'
[2020-04-22 21:15:34.400437 CEST] [3637] [info] forwarding_mapper() Forward to 8
[2020-04-22 21:15:44.407409 CEST] [3637] [info] Forwarding map loaded for 'gros-39' as '8'
[2020-04-22 21:15:44.407583 CEST] [3637] [info] forwarding_mapper() Forward to 8
[2020-04-22 21:15:54.419299 CEST] [3637] [info] Forwarding map loaded for 'gros-39' as '8'
[2020-04-22 21:15:54.419485 CEST] [3637] [info] forwarding_mapper() Forward to 8
[2020-04-22 21:16:04.426619 CEST] [3637] [info] Forwarding map loaded for 'gros-39' as '8'
[2020-04-22 21:16:04.426810 CEST] [3637] [info] forwarding_mapper() Forward to 8
[2020-04-22 21:16:14.438308 CEST] [3637] [info] Forwarding map loaded for 'gros-39' as '8'
[2020-04-22 21:16:14.438480 CEST] [3637] [info] forwarding_mapper() Forward to 8
[2020-04-22 21:16:24.445091 CEST] [3637] [info] Forwarding map loaded for 'gros-39' as '8'
[2020-04-22 21:16:24.445252 CEST] [3637] [info] forwarding_mapper() Forward to 8
[2020-04-22 21:16:34.456268 CEST] [3637] [info] Forwarding map loaded for 'gros-39' as '8'
[2020-04-22 21:16:34.456427 CEST] [3637] [info] forwarding_mapper() Forward to 8
[2020-04-22 21:16:44.463409 CEST] [3637] [info] Forwarding map loaded for 'gros-39' as '8'
[2020-04-22 21:16:44.463553 CEST] [3637] [info] forwarding_mapper() Forward to 8
[2020-04-22 21:16:54.474648 CEST] [3637] [info] Forwarding map loaded for 'gros-39' as '8'
[2020-04-22 21:16:54.474794 CEST] [3637] [info] forwarding_mapper() Forward to 8
[2020-04-22 21:17:04.481780 CEST] [3637] [info] Forwarding map loaded for 'gros-39' as '8'
[2020-04-22 21:17:04.481935 CEST] [3637] [info] forwarding_mapper() Forward to 8
[2020-04-22 21:17:14.493562 CEST] [3637] [info] Forwarding map loaded for 'gros-39' as '8'
[2020-04-22 21:17:14.493707 CEST] [3637] [info] forwarding_mapper() Forward to 8
[2020-04-22 21:17:24.500695 CEST] [3637] [info] Forwarding map loaded for 'gros-39' as '8'
[2020-04-22 21:17:24.500838 CEST] [3637] [info] forwarding_mapper() Forward to 8
[2020-04-22 21:17:34.512490 CEST] [3637] [info] Forwarding map loaded for 'gros-39' as '8'
[2020-04-22 21:17:34.512636 CEST] [3637] [info] forwarding_mapper() Forward to 8
[2020-04-22 21:17:44.519611 CEST] [3637] [info] Forwarding map loaded for 'gros-39' as '8'
[2020-04-22 21:17:44.519755 CEST] [3637] [info] forwarding_mapper() Forward to 8
[2020-04-22 21:17:54.531507 CEST] [3637] [info] Forwarding map loaded for 'gros-39' as '8'
[2020-04-22 21:17:54.531650 CEST] [3637] [info] forwarding_mapper() Forward to 8
[2020-04-22 21:18:04.538496 CEST] [3637] [info] Forwarding map loaded for 'gros-39' as '8'
[2020-04-22 21:18:04.538639 CEST] [3637] [info] forwarding_mapper() Forward to 8
[2020-04-22 21:18:14.550156 CEST] [3637] [info] Forwarding map loaded for 'gros-39' as '8'
[2020-04-22 21:18:14.550301 CEST] [3637] [info] forwarding_mapper() Forward to 8
[2020-04-22 21:18:24.557067 CEST] [3637] [info] Forwarding map loaded for 'gros-39' as '8'
[2020-04-22 21:18:24.557211 CEST] [3637] [info] forwarding_mapper() Forward to 8
[2020-04-22 21:18:34.568670 CEST] [3637] [info] Forwarding map loaded for 'gros-39' as '8'
[2020-04-22 21:18:34.568815 CEST] [3637] [info] forwarding_mapper() Forward to 8
[2020-04-22 21:18:44.575648 CEST] [3637] [info] Forwarding map loaded for 'gros-39' as '8'
[2020-04-22 21:18:44.575793 CEST] [3637] [info] forwarding_mapper() Forward to 8
[2020-04-22 21:18:54.678473 CEST] [3632] [info] All subsystems shut down. Client shutdown complete.
