[2020-04-22 21:19:25.852431 CEST] [3687] [info] Process cmdline: '/root/benchmarks/ior-3.2.1/src/ior -a POSIX -b 64m -F -t 4m -B -w -r -o /mnt/gkfs/output-F-1'
[2020-04-22 21:19:25.852680 CEST] [3687] [info] Initializing RPC subsystem...
[2020-04-22 21:19:25.860118 CEST] [3690] [info] Process cmdline: '/root/benchmarks/ior-3.2.1/src/ior -a POSIX -b 64m -F -t 4m -B -w -r -o /mnt/gkfs/output-F-1'
[2020-04-22 21:19:25.860340 CEST] [3690] [info] Initializing RPC subsystem...
[2020-04-22 21:19:25.860885 CEST] [3689] [info] Process cmdline: '/root/benchmarks/ior-3.2.1/src/ior -a POSIX -b 64m -F -t 4m -B -w -r -o /mnt/gkfs/output-F-1'
[2020-04-22 21:19:25.861109 CEST] [3689] [info] Initializing RPC subsystem...
[2020-04-22 21:19:25.865219 CEST] [3686] [info] Loading peer addresses...
[2020-04-22 21:19:25.866074 CEST] [3688] [info] Process cmdline: '/root/benchmarks/ior-3.2.1/src/ior -a POSIX -b 64m -F -t 4m -B -w -r -o /mnt/gkfs/output-F-1'
[2020-04-22 21:19:25.866319 CEST] [3688] [info] Initializing RPC subsystem...
[2020-04-22 21:19:25.866686 CEST] [3685] [info] Loading peer addresses...
[2020-04-22 21:19:25.867211 CEST] [3687] [info] Loading peer addresses...
[2020-04-22 21:19:25.868760 CEST] [3691] [info] Process cmdline: '/root/benchmarks/ior-3.2.1/src/ior -a POSIX -b 64m -F -t 4m -B -w -r -o /mnt/gkfs/output-F-1'
[2020-04-22 21:19:25.869003 CEST] [3691] [info] Initializing RPC subsystem...
[2020-04-22 21:19:25.871105 CEST] [3692] [info] Process cmdline: '/root/benchmarks/ior-3.2.1/src/ior -a POSIX -b 64m -F -t 4m -B -w -r -o /mnt/gkfs/output-F-1'
[2020-04-22 21:19:25.871317 CEST] [3687] [info] Hosts pool size: 12
[2020-04-22 21:19:25.871317 CEST] [3686] [info] Hosts pool size: 12
[2020-04-22 21:19:25.871348 CEST] [3692] [info] Initializing RPC subsystem...
[2020-04-22 21:19:25.871653 CEST] [3685] [info] Hosts pool size: 12
[2020-04-22 21:19:25.878266 CEST] [3687] [info] Forwarding map loaded for 'gros-106' as '10'
[2020-04-22 21:19:25.878338 CEST] [3687] [info] init_ld_environment_() Forward to 10
[2020-04-22 21:19:25.878362 CEST] [3685] [info] Forwarding map loaded for 'gros-106' as '10'
[2020-04-22 21:19:25.878396 CEST] [3687] [info] Retrieving file system configuration...
[2020-04-22 21:19:25.878433 CEST] [3685] [info] init_ld_environment_() Forward to 10
[2020-04-22 21:19:25.878491 CEST] [3685] [info] Retrieving file system configuration...
[2020-04-22 21:19:25.878602 CEST] [3686] [info] Forwarding map loaded for 'gros-106' as '10'
[2020-04-22 21:19:25.878681 CEST] [3686] [info] init_ld_environment_() Forward to 10
[2020-04-22 21:19:25.878741 CEST] [3686] [info] Retrieving file system configuration...
[2020-04-22 21:19:25.879415 CEST] [3689] [info] Loading peer addresses...
[2020-04-22 21:19:25.879423 CEST] [3690] [info] Loading peer addresses...
[2020-04-22 21:19:25.881346 CEST] [3689] [info] Hosts pool size: 12
[2020-04-22 21:19:25.881697 CEST] [3690] [info] Hosts pool size: 12
[2020-04-22 21:19:25.881799 CEST] [3687] [info] Mountdir: '/mnt/gkfs'
[2020-04-22 21:19:25.881846 CEST] [3687] [info] Environment initialization successful.
[2020-04-22 21:19:25.882154 CEST] [3686] [info] Mountdir: '/mnt/gkfs'
[2020-04-22 21:19:25.882225 CEST] [3686] [info] Environment initialization successful.
[2020-04-22 21:19:25.882167 CEST] [3685] [info] Mountdir: '/mnt/gkfs'
[2020-04-22 21:19:25.882299 CEST] [3685] [info] Environment initialization successful.
[2020-04-22 21:19:25.883277 CEST] [3688] [info] Loading peer addresses...
[2020-04-22 21:19:25.885323 CEST] [3688] [info] Hosts pool size: 12
[2020-04-22 21:19:25.885435 CEST] [3690] [info] Forwarding map loaded for 'gros-106' as '10'
[2020-04-22 21:19:25.885497 CEST] [3690] [info] init_ld_environment_() Forward to 10
[2020-04-22 21:19:25.885544 CEST] [3690] [info] Retrieving file system configuration...
[2020-04-22 21:19:25.885670 CEST] [3692] [info] Loading peer addresses...
[2020-04-22 21:19:25.885723 CEST] [3691] [info] Loading peer addresses...
[2020-04-22 21:19:25.885919 CEST] [3689] [info] Forwarding map loaded for 'gros-106' as '10'
[2020-04-22 21:19:25.886005 CEST] [3689] [info] init_ld_environment_() Forward to 10
[2020-04-22 21:19:25.886073 CEST] [3689] [info] Retrieving file system configuration...
[2020-04-22 21:19:25.886829 CEST] [3690] [info] Mountdir: '/mnt/gkfs'
[2020-04-22 21:19:25.886877 CEST] [3690] [info] Environment initialization successful.
[2020-04-22 21:19:25.887492 CEST] [3692] [info] Hosts pool size: 12
[2020-04-22 21:19:25.887930 CEST] [3689] [info] Mountdir: '/mnt/gkfs'
[2020-04-22 21:19:25.887983 CEST] [3689] [info] Environment initialization successful.
[2020-04-22 21:19:25.888000 CEST] [3691] [info] Hosts pool size: 12
[2020-04-22 21:19:25.889163 CEST] [3688] [info] Forwarding map loaded for 'gros-106' as '10'
[2020-04-22 21:19:25.889223 CEST] [3688] [info] init_ld_environment_() Forward to 10
[2020-04-22 21:19:25.889273 CEST] [3688] [info] Retrieving file system configuration...
[2020-04-22 21:19:25.890424 CEST] [3688] [info] Mountdir: '/mnt/gkfs'
[2020-04-22 21:19:25.890496 CEST] [3688] [info] Environment initialization successful.
[2020-04-22 21:19:25.890891 CEST] [3692] [info] Forwarding map loaded for 'gros-106' as '10'
[2020-04-22 21:19:25.890950 CEST] [3692] [info] init_ld_environment_() Forward to 10
[2020-04-22 21:19:25.890995 CEST] [3692] [info] Retrieving file system configuration...
[2020-04-22 21:19:25.891318 CEST] [3691] [info] Forwarding map loaded for 'gros-106' as '10'
[2020-04-22 21:19:25.891380 CEST] [3691] [info] init_ld_environment_() Forward to 10
[2020-04-22 21:19:25.891427 CEST] [3691] [info] Retrieving file system configuration...
[2020-04-22 21:19:25.892519 CEST] [3692] [info] Mountdir: '/mnt/gkfs'
[2020-04-22 21:19:25.892628 CEST] [3692] [info] Environment initialization successful.
[2020-04-22 21:19:25.892643 CEST] [3691] [info] Mountdir: '/mnt/gkfs'
[2020-04-22 21:19:25.892683 CEST] [3691] [info] Environment initialization successful.
[2020-04-22 21:19:25.911654 CEST] [3725] [info] Forwarding map loaded for 'gros-106' as '10'
[2020-04-22 21:19:25.911745 CEST] [3725] [info] forwarding_mapper() Forward to 10
[2020-04-22 21:19:25.919647 CEST] [3726] [info] Forwarding map loaded for 'gros-106' as '10'
[2020-04-22 21:19:25.919773 CEST] [3726] [info] forwarding_mapper() Forward to 10
[2020-04-22 21:19:25.922781 CEST] [3728] [info] Forwarding map loaded for 'gros-106' as '10'
[2020-04-22 21:19:25.922917 CEST] [3728] [info] forwarding_mapper() Forward to 10
[2020-04-22 21:19:25.925766 CEST] [3729] [info] Forwarding map loaded for 'gros-106' as '10'
[2020-04-22 21:19:25.925939 CEST] [3729] [info] forwarding_mapper() Forward to 10
[2020-04-22 21:19:25.926127 CEST] [3730] [info] Forwarding map loaded for 'gros-106' as '10'
[2020-04-22 21:19:25.926292 CEST] [3730] [info] forwarding_mapper() Forward to 10
[2020-04-22 21:19:25.928600 CEST] [3732] [info] Forwarding map loaded for 'gros-106' as '10'
[2020-04-22 21:19:25.928766 CEST] [3732] [info] forwarding_mapper() Forward to 10
[2020-04-22 21:19:25.930173 CEST] [3737] [info] Forwarding map loaded for 'gros-106' as '10'
[2020-04-22 21:19:25.930330 CEST] [3737] [info] forwarding_mapper() Forward to 10
[2020-04-22 21:19:25.934228 CEST] [3741] [info] Forwarding map loaded for 'gros-106' as '10'
[2020-04-22 21:19:25.934407 CEST] [3741] [info] forwarding_mapper() Forward to 10
[2020-04-22 21:19:35.917998 CEST] [3725] [info] Forwarding map loaded for 'gros-106' as '10'
[2020-04-22 21:19:35.918172 CEST] [3725] [info] forwarding_mapper() Forward to 10
[2020-04-22 21:19:35.925182 CEST] [3726] [info] Forwarding map loaded for 'gros-106' as '10'
[2020-04-22 21:19:35.925345 CEST] [3726] [info] forwarding_mapper() Forward to 10
[2020-04-22 21:19:35.927747 CEST] [3728] [info] Forwarding map loaded for 'gros-106' as '10'
[2020-04-22 21:19:35.927904 CEST] [3728] [info] forwarding_mapper() Forward to 10
[2020-04-22 21:19:35.930985 CEST] [3729] [info] Forwarding map loaded for 'gros-106' as '10'
[2020-04-22 21:19:35.931153 CEST] [3729] [info] forwarding_mapper() Forward to 10
[2020-04-22 21:19:35.931154 CEST] [3730] [info] Forwarding map loaded for 'gros-106' as '10'
[2020-04-22 21:19:35.931322 CEST] [3730] [info] forwarding_mapper() Forward to 10
[2020-04-22 21:19:35.933606 CEST] [3732] [info] Forwarding map loaded for 'gros-106' as '10'
[2020-04-22 21:19:35.933760 CEST] [3732] [info] forwarding_mapper() Forward to 10
[2020-04-22 21:19:35.935245 CEST] [3737] [info] Forwarding map loaded for 'gros-106' as '10'
[2020-04-22 21:19:35.935408 CEST] [3737] [info] forwarding_mapper() Forward to 10
[2020-04-22 21:19:35.939699 CEST] [3741] [info] Forwarding map loaded for 'gros-106' as '10'
[2020-04-22 21:19:35.939862 CEST] [3741] [info] forwarding_mapper() Forward to 10
[2020-04-22 21:19:46.202191 CEST] [3725] [info] Forwarding map loaded for 'gros-106' as '0'
[2020-04-22 21:19:46.202385 CEST] [3725] [info] forwarding_mapper() Forward to 0
[2020-04-22 21:19:46.203166 CEST] [3726] [info] Forwarding map loaded for 'gros-106' as '0'
[2020-04-22 21:19:46.203354 CEST] [3726] [info] forwarding_mapper() Forward to 0
[2020-04-22 21:19:46.205794 CEST] [3728] [info] Forwarding map loaded for 'gros-106' as '0'
[2020-04-22 21:19:46.205962 CEST] [3728] [info] forwarding_mapper() Forward to 0
[2020-04-22 21:19:46.207185 CEST] [3737] [info] Forwarding map loaded for 'gros-106' as '0'
[2020-04-22 21:19:46.207369 CEST] [3737] [info] forwarding_mapper() Forward to 0
[2020-04-22 21:19:46.208356 CEST] [3741] [info] Forwarding map loaded for 'gros-106' as '0'
[2020-04-22 21:19:46.208525 CEST] [3741] [info] forwarding_mapper() Forward to 0
[2020-04-22 21:19:46.209682 CEST] [3729] [info] Forwarding map loaded for 'gros-106' as '0'
[2020-04-22 21:19:46.209851 CEST] [3729] [info] forwarding_mapper() Forward to 0
[2020-04-22 21:19:46.209788 CEST] [3730] [info] Forwarding map loaded for 'gros-106' as '0'
[2020-04-22 21:19:46.209956 CEST] [3730] [info] forwarding_mapper() Forward to 0
[2020-04-22 21:19:46.210385 CEST] [3732] [info] Forwarding map loaded for 'gros-106' as '0'
[2020-04-22 21:19:46.210554 CEST] [3732] [info] forwarding_mapper() Forward to 0
[2020-04-22 21:19:56.209147 CEST] [3725] [info] Forwarding map loaded for 'gros-106' as '0'
[2020-04-22 21:19:56.209311 CEST] [3725] [info] forwarding_mapper() Forward to 0
[2020-04-22 21:19:56.209541 CEST] [3726] [info] Forwarding map loaded for 'gros-106' as '0'
[2020-04-22 21:19:56.209689 CEST] [3726] [info] forwarding_mapper() Forward to 0
[2020-04-22 21:19:56.211501 CEST] [3728] [info] Forwarding map loaded for 'gros-106' as '0'
[2020-04-22 21:19:56.211650 CEST] [3728] [info] forwarding_mapper() Forward to 0
[2020-04-22 21:19:56.213109 CEST] [3737] [info] Forwarding map loaded for 'gros-106' as '0'
[2020-04-22 21:19:56.213277 CEST] [3737] [info] forwarding_mapper() Forward to 0
[2020-04-22 21:19:56.213503 CEST] [3741] [info] Forwarding map loaded for 'gros-106' as '0'
[2020-04-22 21:19:56.213653 CEST] [3741] [info] forwarding_mapper() Forward to 0
[2020-04-22 21:19:56.214767 CEST] [3730] [info] Forwarding map loaded for 'gros-106' as '0'
[2020-04-22 21:19:56.214918 CEST] [3730] [info] forwarding_mapper() Forward to 0
[2020-04-22 21:19:56.215258 CEST] [3729] [info] Forwarding map loaded for 'gros-106' as '0'
[2020-04-22 21:19:56.215408 CEST] [3729] [info] forwarding_mapper() Forward to 0
[2020-04-22 21:19:56.215828 CEST] [3732] [info] Forwarding map loaded for 'gros-106' as '0'
[2020-04-22 21:19:56.215989 CEST] [3732] [info] forwarding_mapper() Forward to 0
[2020-04-22 21:20:06.218947 CEST] [3726] [info] Forwarding map loaded for 'gros-106' as '0'
[2020-04-22 21:20:06.219109 CEST] [3726] [info] forwarding_mapper() Forward to 0
[2020-04-22 21:20:06.219240 CEST] [3741] [info] Forwarding map loaded for 'gros-106' as '0'
[2020-04-22 21:20:06.219405 CEST] [3741] [info] forwarding_mapper() Forward to 0
[2020-04-22 21:20:06.219681 CEST] [3725] [info] Forwarding map loaded for 'gros-106' as '0'
[2020-04-22 21:20:06.219838 CEST] [3725] [info] forwarding_mapper() Forward to 0
[2020-04-22 21:20:06.219903 CEST] [3730] [info] Forwarding map loaded for 'gros-106' as '0'
[2020-04-22 21:20:06.220056 CEST] [3730] [info] forwarding_mapper() Forward to 0
[2020-04-22 21:20:06.220466 CEST] [3737] [info] Forwarding map loaded for 'gros-106' as '0'
[2020-04-22 21:20:06.220632 CEST] [3737] [info] forwarding_mapper() Forward to 0
[2020-04-22 21:20:06.220738 CEST] [3732] [info] Forwarding map loaded for 'gros-106' as '0'
[2020-04-22 21:20:06.220819 CEST] [3728] [info] Forwarding map loaded for 'gros-106' as '0'
[2020-04-22 21:20:06.220893 CEST] [3732] [info] forwarding_mapper() Forward to 0
[2020-04-22 21:20:06.220968 CEST] [3728] [info] forwarding_mapper() Forward to 0
[2020-04-22 21:20:06.221333 CEST] [3729] [info] Forwarding map loaded for 'gros-106' as '0'
[2020-04-22 21:20:06.221491 CEST] [3729] [info] forwarding_mapper() Forward to 0
[2020-04-22 21:20:16.224915 CEST] [3741] [info] Forwarding map loaded for 'gros-106' as '0'
[2020-04-22 21:20:16.225077 CEST] [3741] [info] forwarding_mapper() Forward to 0
[2020-04-22 21:20:16.225355 CEST] [3726] [info] Forwarding map loaded for 'gros-106' as '0'
[2020-04-22 21:20:16.225507 CEST] [3726] [info] forwarding_mapper() Forward to 0
[2020-04-22 21:20:16.225574 CEST] [3725] [info] Forwarding map loaded for 'gros-106' as '0'
[2020-04-22 21:20:16.225728 CEST] [3725] [info] forwarding_mapper() Forward to 0
[2020-04-22 21:20:16.225864 CEST] [3732] [info] Forwarding map loaded for 'gros-106' as '0'
[2020-04-22 21:20:16.225874 CEST] [3730] [info] Forwarding map loaded for 'gros-106' as '0'
[2020-04-22 21:20:16.226019 CEST] [3732] [info] forwarding_mapper() Forward to 0
[2020-04-22 21:20:16.226031 CEST] [3730] [info] forwarding_mapper() Forward to 0
[2020-04-22 21:20:16.226263 CEST] [3737] [info] Forwarding map loaded for 'gros-106' as '0'
[2020-04-22 21:20:16.226413 CEST] [3737] [info] forwarding_mapper() Forward to 0
[2020-04-22 21:20:16.226574 CEST] [3728] [info] Forwarding map loaded for 'gros-106' as '0'
[2020-04-22 21:20:16.226722 CEST] [3728] [info] forwarding_mapper() Forward to 0
[2020-04-22 21:20:16.227332 CEST] [3729] [info] Forwarding map loaded for 'gros-106' as '0'
[2020-04-22 21:20:16.227488 CEST] [3729] [info] forwarding_mapper() Forward to 0
[2020-04-22 21:20:26.230538 CEST] [3725] [info] Forwarding map loaded for 'gros-106' as '0'
[2020-04-22 21:20:26.230600 CEST] [3741] [info] Forwarding map loaded for 'gros-106' as '0'
[2020-04-22 21:20:26.230693 CEST] [3725] [info] forwarding_mapper() Forward to 0
[2020-04-22 21:20:26.230753 CEST] [3741] [info] forwarding_mapper() Forward to 0
[2020-04-22 21:20:26.230894 CEST] [3730] [info] Forwarding map loaded for 'gros-106' as '0'
[2020-04-22 21:20:26.230935 CEST] [3732] [info] Forwarding map loaded for 'gros-106' as '0'
[2020-04-22 21:20:26.231044 CEST] [3730] [info] forwarding_mapper() Forward to 0
[2020-04-22 21:20:26.231087 CEST] [3732] [info] forwarding_mapper() Forward to 0
[2020-04-22 21:20:26.232334 CEST] [3726] [info] Forwarding map loaded for 'gros-106' as '0'
[2020-04-22 21:20:26.232486 CEST] [3726] [info] forwarding_mapper() Forward to 0
[2020-04-22 21:20:26.232457 CEST] [3728] [info] Forwarding map loaded for 'gros-106' as '0'
[2020-04-22 21:20:26.232533 CEST] [3729] [info] Forwarding map loaded for 'gros-106' as '0'
[2020-04-22 21:20:26.232604 CEST] [3728] [info] forwarding_mapper() Forward to 0
[2020-04-22 21:20:26.232681 CEST] [3729] [info] forwarding_mapper() Forward to 0
[2020-04-22 21:20:26.233078 CEST] [3737] [info] Forwarding map loaded for 'gros-106' as '0'
[2020-04-22 21:20:26.233229 CEST] [3737] [info] forwarding_mapper() Forward to 0
[2020-04-22 21:20:36.236092 CEST] [3741] [info] Forwarding map loaded for 'gros-106' as '0'
[2020-04-22 21:20:36.236255 CEST] [3741] [info] forwarding_mapper() Forward to 0
[2020-04-22 21:20:36.236622 CEST] [3725] [info] Forwarding map loaded for 'gros-106' as '0'
[2020-04-22 21:20:36.236776 CEST] [3725] [info] forwarding_mapper() Forward to 0
[2020-04-22 21:20:36.236932 CEST] [3730] [info] Forwarding map loaded for 'gros-106' as '0'
[2020-04-22 21:20:36.237084 CEST] [3730] [info] forwarding_mapper() Forward to 0
[2020-04-22 21:20:36.237191 CEST] [3732] [info] Forwarding map loaded for 'gros-106' as '0'
[2020-04-22 21:20:36.237355 CEST] [3732] [info] forwarding_mapper() Forward to 0
[2020-04-22 21:20:36.237364 CEST] [3728] [info] Forwarding map loaded for 'gros-106' as '0'
[2020-04-22 21:20:36.237529 CEST] [3728] [info] forwarding_mapper() Forward to 0
[2020-04-22 21:20:36.237737 CEST] [3729] [info] Forwarding map loaded for 'gros-106' as '0'
[2020-04-22 21:20:36.237887 CEST] [3729] [info] forwarding_mapper() Forward to 0
[2020-04-22 21:20:36.238072 CEST] [3726] [info] Forwarding map loaded for 'gros-106' as '0'
[2020-04-22 21:20:36.238221 CEST] [3726] [info] forwarding_mapper() Forward to 0
[2020-04-22 21:20:36.239346 CEST] [3737] [info] Forwarding map loaded for 'gros-106' as '0'
[2020-04-22 21:20:36.239499 CEST] [3737] [info] forwarding_mapper() Forward to 0
[2020-04-22 21:20:46.241709 CEST] [3741] [info] Forwarding map loaded for 'gros-106' as '0'
[2020-04-22 21:20:46.241870 CEST] [3741] [info] forwarding_mapper() Forward to 0
[2020-04-22 21:20:46.242102 CEST] [3725] [info] Forwarding map loaded for 'gros-106' as '0'
[2020-04-22 21:20:46.242154 CEST] [3730] [info] Forwarding map loaded for 'gros-106' as '0'
[2020-04-22 21:20:46.242261 CEST] [3725] [info] forwarding_mapper() Forward to 0
[2020-04-22 21:20:46.242204 CEST] [3732] [info] Forwarding map loaded for 'gros-106' as '0'
[2020-04-22 21:20:46.242215 CEST] [3728] [info] Forwarding map loaded for 'gros-106' as '0'
[2020-04-22 21:20:46.242312 CEST] [3730] [info] forwarding_mapper() Forward to 0
[2020-04-22 21:20:46.242367 CEST] [3732] [info] forwarding_mapper() Forward to 0
[2020-04-22 21:20:46.242378 CEST] [3728] [info] forwarding_mapper() Forward to 0
[2020-04-22 21:20:46.242926 CEST] [3729] [info] Forwarding map loaded for 'gros-106' as '0'
[2020-04-22 21:20:46.243076 CEST] [3729] [info] forwarding_mapper() Forward to 0
[2020-04-22 21:20:46.246730 CEST] [3737] [info] Forwarding map loaded for 'gros-106' as '0'
[2020-04-22 21:20:46.246880 CEST] [3737] [info] forwarding_mapper() Forward to 0
[2020-04-22 21:20:46.248997 CEST] [3726] [info] Forwarding map loaded for 'gros-106' as '0'
[2020-04-22 21:20:46.249153 CEST] [3726] [info] forwarding_mapper() Forward to 0
[2020-04-22 21:20:56.247143 CEST] [3725] [info] Forwarding map loaded for 'gros-106' as '0'
[2020-04-22 21:20:56.247159 CEST] [3741] [info] Forwarding map loaded for 'gros-106' as '0'
[2020-04-22 21:20:56.247306 CEST] [3725] [info] forwarding_mapper() Forward to 0
[2020-04-22 21:20:56.247321 CEST] [3741] [info] forwarding_mapper() Forward to 0
[2020-04-22 21:20:56.247764 CEST] [3732] [info] Forwarding map loaded for 'gros-106' as '0'
[2020-04-22 21:20:56.247918 CEST] [3732] [info] forwarding_mapper() Forward to 0
[2020-04-22 21:20:56.247966 CEST] [3728] [info] Forwarding map loaded for 'gros-106' as '0'
[2020-04-22 21:20:56.248053 CEST] [3730] [info] Forwarding map loaded for 'gros-106' as '0'
[2020-04-22 21:20:56.248113 CEST] [3728] [info] forwarding_mapper() Forward to 0
[2020-04-22 21:20:56.248202 CEST] [3730] [info] forwarding_mapper() Forward to 0
[2020-04-22 21:20:56.248486 CEST] [3729] [info] Forwarding map loaded for 'gros-106' as '0'
[2020-04-22 21:20:56.248632 CEST] [3729] [info] forwarding_mapper() Forward to 0
[2020-04-22 21:20:56.252625 CEST] [3737] [info] Forwarding map loaded for 'gros-106' as '0'
[2020-04-22 21:20:56.252774 CEST] [3737] [info] forwarding_mapper() Forward to 0
[2020-04-22 21:20:56.255182 CEST] [3726] [info] Forwarding map loaded for 'gros-106' as '0'
[2020-04-22 21:20:56.255353 CEST] [3726] [info] forwarding_mapper() Forward to 0
[2020-04-22 21:21:06.252638 CEST] [3725] [info] Forwarding map loaded for 'gros-106' as '0'
[2020-04-22 21:21:06.252795 CEST] [3725] [info] forwarding_mapper() Forward to 0
[2020-04-22 21:21:06.252765 CEST] [3728] [info] Forwarding map loaded for 'gros-106' as '0'
[2020-04-22 21:21:06.252769 CEST] [3732] [info] Forwarding map loaded for 'gros-106' as '0'
[2020-04-22 21:21:06.252913 CEST] [3728] [info] forwarding_mapper() Forward to 0
[2020-04-22 21:21:06.252927 CEST] [3732] [info] forwarding_mapper() Forward to 0
[2020-04-22 21:21:06.253028 CEST] [3730] [info] Forwarding map loaded for 'gros-106' as '0'
[2020-04-22 21:21:06.253181 CEST] [3730] [info] forwarding_mapper() Forward to 0
[2020-04-22 21:21:06.253442 CEST] [3741] [info] Forwarding map loaded for 'gros-106' as '0'
[2020-04-22 21:21:06.253600 CEST] [3741] [info] forwarding_mapper() Forward to 0
[2020-04-22 21:21:06.254530 CEST] [3729] [info] Forwarding map loaded for 'gros-106' as '0'
[2020-04-22 21:21:06.254687 CEST] [3729] [info] forwarding_mapper() Forward to 0
[2020-04-22 21:21:06.259193 CEST] [3737] [info] Forwarding map loaded for 'gros-106' as '0'
[2020-04-22 21:21:06.259353 CEST] [3737] [info] forwarding_mapper() Forward to 0
[2020-04-22 21:21:06.260490 CEST] [3726] [info] Forwarding map loaded for 'gros-106' as '0'
[2020-04-22 21:21:06.260647 CEST] [3726] [info] forwarding_mapper() Forward to 0
[2020-04-22 21:21:16.258213 CEST] [3725] [info] Forwarding map loaded for 'gros-106' as '0'
[2020-04-22 21:21:16.258380 CEST] [3725] [info] forwarding_mapper() Forward to 0
[2020-04-22 21:21:16.258600 CEST] [3732] [info] Forwarding map loaded for 'gros-106' as '0'
[2020-04-22 21:21:16.258756 CEST] [3732] [info] forwarding_mapper() Forward to 0
[2020-04-22 21:21:16.258926 CEST] [3741] [info] Forwarding map loaded for 'gros-106' as '0'
[2020-04-22 21:21:16.258935 CEST] [3730] [info] Forwarding map loaded for 'gros-106' as '0'
[2020-04-22 21:21:16.259076 CEST] [3741] [info] forwarding_mapper() Forward to 0
[2020-04-22 21:21:16.259088 CEST] [3730] [info] forwarding_mapper() Forward to 0
[2020-04-22 21:21:16.259162 CEST] [3728] [info] Forwarding map loaded for 'gros-106' as '0'
[2020-04-22 21:21:16.259345 CEST] [3728] [info] forwarding_mapper() Forward to 0
[2020-04-22 21:21:16.260596 CEST] [3729] [info] Forwarding map loaded for 'gros-106' as '0'
[2020-04-22 21:21:16.260757 CEST] [3729] [info] forwarding_mapper() Forward to 0
[2020-04-22 21:21:16.265408 CEST] [3737] [info] Forwarding map loaded for 'gros-106' as '0'
[2020-04-22 21:21:16.265558 CEST] [3737] [info] forwarding_mapper() Forward to 0
[2020-04-22 21:21:16.266697 CEST] [3726] [info] Forwarding map loaded for 'gros-106' as '0'
[2020-04-22 21:21:16.266854 CEST] [3726] [info] forwarding_mapper() Forward to 0
[2020-04-22 21:21:26.263893 CEST] [3725] [info] Forwarding map loaded for 'gros-106' as '0'
[2020-04-22 21:21:26.263934 CEST] [3741] [info] Forwarding map loaded for 'gros-106' as '0'
[2020-04-22 21:21:26.263965 CEST] [3730] [info] Forwarding map loaded for 'gros-106' as '0'
[2020-04-22 21:21:26.264051 CEST] [3725] [info] forwarding_mapper() Forward to 0
[2020-04-22 21:21:26.264085 CEST] [3741] [info] forwarding_mapper() Forward to 0
[2020-04-22 21:21:26.264115 CEST] [3730] [info] forwarding_mapper() Forward to 0
[2020-04-22 21:21:26.264369 CEST] [3732] [info] Forwarding map loaded for 'gros-106' as '0'
[2020-04-22 21:21:26.264395 CEST] [3728] [info] Forwarding map loaded for 'gros-106' as '0'
[2020-04-22 21:21:26.264525 CEST] [3732] [info] forwarding_mapper() Forward to 0
[2020-04-22 21:21:26.264547 CEST] [3728] [info] forwarding_mapper() Forward to 0
[2020-04-22 21:21:26.268226 CEST] [3729] [info] Forwarding map loaded for 'gros-106' as '0'
[2020-04-22 21:21:26.268376 CEST] [3729] [info] forwarding_mapper() Forward to 0
[2020-04-22 21:21:26.275768 CEST] [3726] [info] Forwarding map loaded for 'gros-106' as '0'
[2020-04-22 21:21:26.275924 CEST] [3726] [info] forwarding_mapper() Forward to 0
[2020-04-22 21:21:26.276513 CEST] [3737] [info] Forwarding map loaded for 'gros-106' as '0'
[2020-04-22 21:21:26.276667 CEST] [3737] [info] forwarding_mapper() Forward to 0
[2020-04-22 21:21:36.269277 CEST] [3725] [info] Forwarding map loaded for 'gros-106' as '0'
[2020-04-22 21:21:36.269423 CEST] [3725] [info] forwarding_mapper() Forward to 0
[2020-04-22 21:21:36.269560 CEST] [3728] [info] Forwarding map loaded for 'gros-106' as '0'
[2020-04-22 21:21:36.269700 CEST] [3728] [info] forwarding_mapper() Forward to 0
[2020-04-22 21:21:36.269683 CEST] [3730] [info] Forwarding map loaded for 'gros-106' as '0'
[2020-04-22 21:21:36.269824 CEST] [3730] [info] forwarding_mapper() Forward to 0
[2020-04-22 21:21:36.269799 CEST] [3741] [info] Forwarding map loaded for 'gros-106' as '0'
[2020-04-22 21:21:36.269823 CEST] [3732] [info] Forwarding map loaded for 'gros-106' as '0'
[2020-04-22 21:21:36.269953 CEST] [3741] [info] forwarding_mapper() Forward to 0
[2020-04-22 21:21:36.269965 CEST] [3732] [info] forwarding_mapper() Forward to 0
[2020-04-22 21:21:36.273710 CEST] [3729] [info] Forwarding map loaded for 'gros-106' as '0'
[2020-04-22 21:21:36.273854 CEST] [3729] [info] forwarding_mapper() Forward to 0
[2020-04-22 21:21:36.281685 CEST] [3737] [info] Forwarding map loaded for 'gros-106' as '0'
[2020-04-22 21:21:36.281822 CEST] [3737] [info] forwarding_mapper() Forward to 0
[2020-04-22 21:21:36.282411 CEST] [3726] [info] Forwarding map loaded for 'gros-106' as '0'
[2020-04-22 21:21:36.282554 CEST] [3726] [info] forwarding_mapper() Forward to 0
[2020-04-22 21:21:46.285872 CEST] [3725] [info] Forwarding map loaded for 'gros-106' as '0'
[2020-04-22 21:21:46.286021 CEST] [3725] [info] forwarding_mapper() Forward to 0
[2020-04-22 21:21:46.285975 CEST] [3728] [info] Forwarding map loaded for 'gros-106' as '0'
[2020-04-22 21:21:46.286120 CEST] [3728] [info] forwarding_mapper() Forward to 0
[2020-04-22 21:21:46.286390 CEST] [3730] [info] Forwarding map loaded for 'gros-106' as '0'
[2020-04-22 21:21:46.286449 CEST] [3741] [info] Forwarding map loaded for 'gros-106' as '0'
[2020-04-22 21:21:46.286535 CEST] [3730] [info] forwarding_mapper() Forward to 0
[2020-04-22 21:21:46.286592 CEST] [3741] [info] forwarding_mapper() Forward to 0
[2020-04-22 21:21:46.287845 CEST] [3732] [info] Forwarding map loaded for 'gros-106' as '0'
[2020-04-22 21:21:46.287996 CEST] [3732] [info] forwarding_mapper() Forward to 0
[2020-04-22 21:21:46.288340 CEST] [3729] [info] Forwarding map loaded for 'gros-106' as '0'
[2020-04-22 21:21:46.288492 CEST] [3729] [info] forwarding_mapper() Forward to 0
[2020-04-22 21:21:46.294153 CEST] [3737] [info] Forwarding map loaded for 'gros-106' as '0'
[2020-04-22 21:21:46.294308 CEST] [3737] [info] forwarding_mapper() Forward to 0
[2020-04-22 21:21:46.294803 CEST] [3726] [info] Forwarding map loaded for 'gros-106' as '0'
[2020-04-22 21:21:46.294950 CEST] [3726] [info] forwarding_mapper() Forward to 0
[2020-04-22 21:21:56.291601 CEST] [3725] [info] Forwarding map loaded for 'gros-106' as '0'
[2020-04-22 21:21:56.291747 CEST] [3725] [info] forwarding_mapper() Forward to 0
[2020-04-22 21:21:56.291871 CEST] [3728] [info] Forwarding map loaded for 'gros-106' as '0'
[2020-04-22 21:21:56.292013 CEST] [3728] [info] forwarding_mapper() Forward to 0
[2020-04-22 21:21:56.292133 CEST] [3741] [info] Forwarding map loaded for 'gros-106' as '0'
[2020-04-22 21:21:56.292283 CEST] [3741] [info] forwarding_mapper() Forward to 0
[2020-04-22 21:21:56.292395 CEST] [3730] [info] Forwarding map loaded for 'gros-106' as '0'
[2020-04-22 21:21:56.292536 CEST] [3730] [info] forwarding_mapper() Forward to 0
[2020-04-22 21:21:56.293316 CEST] [3729] [info] Forwarding map loaded for 'gros-106' as '0'
[2020-04-22 21:21:56.293461 CEST] [3729] [info] forwarding_mapper() Forward to 0
[2020-04-22 21:21:56.293960 CEST] [3732] [info] Forwarding map loaded for 'gros-106' as '0'
[2020-04-22 21:21:56.294106 CEST] [3732] [info] forwarding_mapper() Forward to 0
[2020-04-22 21:21:56.299305 CEST] [3737] [info] Forwarding map loaded for 'gros-106' as '0'
[2020-04-22 21:21:56.299448 CEST] [3737] [info] forwarding_mapper() Forward to 0
[2020-04-22 21:21:56.299814 CEST] [3726] [info] Forwarding map loaded for 'gros-106' as '0'
[2020-04-22 21:21:56.299955 CEST] [3726] [info] forwarding_mapper() Forward to 0
[2020-04-22 21:22:06.296904 CEST] [3725] [info] Forwarding map loaded for 'gros-106' as '0'
[2020-04-22 21:22:06.297051 CEST] [3725] [info] forwarding_mapper() Forward to 0
[2020-04-22 21:22:06.297169 CEST] [3741] [info] Forwarding map loaded for 'gros-106' as '0'
[2020-04-22 21:22:06.297320 CEST] [3741] [info] forwarding_mapper() Forward to 0
[2020-04-22 21:22:06.297346 CEST] [3730] [info] Forwarding map loaded for 'gros-106' as '0'
[2020-04-22 21:22:06.297349 CEST] [3728] [info] Forwarding map loaded for 'gros-106' as '0'
[2020-04-22 21:22:06.297484 CEST] [3730] [info] forwarding_mapper() Forward to 0
[2020-04-22 21:22:06.297496 CEST] [3728] [info] forwarding_mapper() Forward to 0
[2020-04-22 21:22:06.298570 CEST] [3729] [info] Forwarding map loaded for 'gros-106' as '0'
[2020-04-22 21:22:06.298709 CEST] [3729] [info] forwarding_mapper() Forward to 0
[2020-04-22 21:22:06.299236 CEST] [3732] [info] Forwarding map loaded for 'gros-106' as '0'
[2020-04-22 21:22:06.299387 CEST] [3732] [info] forwarding_mapper() Forward to 0
[2020-04-22 21:22:06.304446 CEST] [3737] [info] Forwarding map loaded for 'gros-106' as '0'
[2020-04-22 21:22:06.304586 CEST] [3737] [info] forwarding_mapper() Forward to 0
[2020-04-22 21:22:06.304809 CEST] [3726] [info] Forwarding map loaded for 'gros-106' as '0'
[2020-04-22 21:22:06.304947 CEST] [3726] [info] forwarding_mapper() Forward to 0
[2020-04-22 21:22:16.301119 CEST] [3741] [info] Forwarding map loaded for 'gros-106' as '0'
[2020-04-22 21:22:16.301210 CEST] [3741] [info] forwarding_mapper() Forward to 0
[2020-04-22 21:22:16.301298 CEST] [3728] [info] Forwarding map loaded for 'gros-106' as '0'
[2020-04-22 21:22:16.301376 CEST] [3728] [info] forwarding_mapper() Forward to 0
[2020-04-22 21:22:16.302291 CEST] [3725] [info] Forwarding map loaded for 'gros-106' as '0'
[2020-04-22 21:22:16.302356 CEST] [3730] [info] Forwarding map loaded for 'gros-106' as '0'
[2020-04-22 21:22:16.302436 CEST] [3725] [info] forwarding_mapper() Forward to 0
[2020-04-22 21:22:16.302512 CEST] [3730] [info] forwarding_mapper() Forward to 0
[2020-04-22 21:22:16.304128 CEST] [3732] [info] Forwarding map loaded for 'gros-106' as '0'
[2020-04-22 21:22:16.304282 CEST] [3732] [info] forwarding_mapper() Forward to 0
[2020-04-22 21:22:16.304826 CEST] [3729] [info] Forwarding map loaded for 'gros-106' as '0'
[2020-04-22 21:22:16.304976 CEST] [3729] [info] forwarding_mapper() Forward to 0
[2020-04-22 21:22:16.308444 CEST] [3726] [info] Forwarding map loaded for 'gros-106' as '0'
[2020-04-22 21:22:16.308515 CEST] [3726] [info] forwarding_mapper() Forward to 0
[2020-04-22 21:22:16.309908 CEST] [3737] [info] Forwarding map loaded for 'gros-106' as '0'
[2020-04-22 21:22:16.310058 CEST] [3737] [info] forwarding_mapper() Forward to 0
[2020-04-22 21:22:26.314799 CEST] [3686] [info] All subsystems shut down. Client shutdown complete.
[2020-04-22 21:22:26.327667 CEST] [3691] [info] All subsystems shut down. Client shutdown complete.
[2020-04-22 21:22:26.338356 CEST] [3692] [info] All subsystems shut down. Client shutdown complete.
[2020-04-22 21:22:26.344614 CEST] [3685] [info] All subsystems shut down. Client shutdown complete.
[2020-04-22 21:22:26.367473 CEST] [3689] [info] All subsystems shut down. Client shutdown complete.
[2020-04-22 21:22:26.372766 CEST] [3690] [info] All subsystems shut down. Client shutdown complete.
[2020-04-22 21:22:26.383629 CEST] [3687] [info] All subsystems shut down. Client shutdown complete.
[2020-04-22 21:22:26.406724 CEST] [3688] [info] All subsystems shut down. Client shutdown complete.
