[2020-04-22 20:23:11.035042 CEST] [3337] [info] Process cmdline: '/root/benchmarks/ior-3.2.1/src/ior -a POSIX -b 64m -F -t 4m -B -w -r -o /mnt/gkfs/output-F-1'
[2020-04-22 20:23:11.035076 CEST] [3334] [info] Process cmdline: '/root/benchmarks/ior-3.2.1/src/ior -a POSIX -b 64m -F -t 4m -B -w -r -o /mnt/gkfs/output-F-1'
[2020-04-22 20:23:11.035086 CEST] [3336] [info] Process cmdline: '/root/benchmarks/ior-3.2.1/src/ior -a POSIX -b 64m -F -t 4m -B -w -r -o /mnt/gkfs/output-F-1'
[2020-04-22 20:23:11.035082 CEST] [3332] [info] Process cmdline: '/root/benchmarks/ior-3.2.1/src/ior -a POSIX -b 64m -F -t 4m -B -w -r -o /mnt/gkfs/output-F-1'
[2020-04-22 20:23:11.035310 CEST] [3337] [info] Initializing RPC subsystem...
[2020-04-22 20:23:11.035315 CEST] [3334] [info] Initializing RPC subsystem...
[2020-04-22 20:23:11.035318 CEST] [3336] [info] Initializing RPC subsystem...
[2020-04-22 20:23:11.035325 CEST] [3332] [info] Initializing RPC subsystem...
[2020-04-22 20:23:11.037552 CEST] [3335] [info] Process cmdline: '/root/benchmarks/ior-3.2.1/src/ior -a POSIX -b 64m -F -t 4m -B -w -r -o /mnt/gkfs/output-F-1'
[2020-04-22 20:23:11.037772 CEST] [3335] [info] Initializing RPC subsystem...
[2020-04-22 20:23:11.039139 CEST] [3330] [info] Process cmdline: '/root/benchmarks/ior-3.2.1/src/ior -a POSIX -b 64m -F -t 4m -B -w -r -o /mnt/gkfs/output-F-1'
[2020-04-22 20:23:11.039365 CEST] [3330] [info] Initializing RPC subsystem...
[2020-04-22 20:23:11.048840 CEST] [3333] [info] Process cmdline: '/root/benchmarks/ior-3.2.1/src/ior -a POSIX -b 64m -F -t 4m -B -w -r -o /mnt/gkfs/output-F-1'
[2020-04-22 20:23:11.049089 CEST] [3333] [info] Initializing RPC subsystem...
[2020-04-22 20:23:11.049722 CEST] [3331] [info] Process cmdline: '/root/benchmarks/ior-3.2.1/src/ior -a POSIX -b 64m -F -t 4m -B -w -r -o /mnt/gkfs/output-F-1'
[2020-04-22 20:23:11.049948 CEST] [3331] [info] Initializing RPC subsystem...
[2020-04-22 20:23:11.075260 CEST] [3337] [info] Loading peer addresses...
[2020-04-22 20:23:11.079889 CEST] [3337] [info] Hosts pool size: 12
[2020-04-22 20:23:11.083130 CEST] [3331] [info] Loading peer addresses...
[2020-04-22 20:23:11.085522 CEST] [3336] [info] Loading peer addresses...
[2020-04-22 20:23:11.085618 CEST] [3331] [info] Hosts pool size: 12
[2020-04-22 20:23:11.087351 CEST] [3330] [info] Loading peer addresses...
[2020-04-22 20:23:11.087642 CEST] [3336] [info] Hosts pool size: 12
[2020-04-22 20:23:11.089049 CEST] [3335] [info] Loading peer addresses...
[2020-04-22 20:23:11.089224 CEST] [3330] [info] Hosts pool size: 12
[2020-04-22 20:23:11.091426 CEST] [3335] [info] Hosts pool size: 12
[2020-04-22 20:23:11.091931 CEST] [3332] [info] Loading peer addresses...
[2020-04-22 20:23:11.092553 CEST] [3334] [info] Loading peer addresses...
[2020-04-22 20:23:11.094486 CEST] [3332] [info] Hosts pool size: 12
[2020-04-22 20:23:11.094820 CEST] [3333] [info] Loading peer addresses...
[2020-04-22 20:23:11.095091 CEST] [3334] [info] Hosts pool size: 12
[2020-04-22 20:23:11.097939 CEST] [3333] [info] Hosts pool size: 12
[2020-04-22 20:23:11.177617 CEST] [3331] [info] Forwarding map loaded for 'gros-109' as '4'
[2020-04-22 20:23:11.177787 CEST] [3331] [info] init_ld_environment_() Forward to 4
[2020-04-22 20:23:11.177917 CEST] [3331] [info] Retrieving file system configuration...
[2020-04-22 20:23:11.178191 CEST] [3336] [info] Forwarding map loaded for 'gros-109' as '4'
[2020-04-22 20:23:11.178377 CEST] [3336] [info] init_ld_environment_() Forward to 4
[2020-04-22 20:23:11.178513 CEST] [3336] [info] Retrieving file system configuration...
[2020-04-22 20:23:11.179783 CEST] [3333] [info] Forwarding map loaded for 'gros-109' as '4'
[2020-04-22 20:23:11.179952 CEST] [3333] [info] init_ld_environment_() Forward to 4
[2020-04-22 20:23:11.180076 CEST] [3333] [info] Retrieving file system configuration...
[2020-04-22 20:23:11.181194 CEST] [3331] [info] Mountdir: '/mnt/gkfs'
[2020-04-22 20:23:11.181351 CEST] [3331] [info] Environment initialization successful.
[2020-04-22 20:23:11.181595 CEST] [3332] [info] Forwarding map loaded for 'gros-109' as '4'
[2020-04-22 20:23:11.181805 CEST] [3332] [info] init_ld_environment_() Forward to 4
[2020-04-22 20:23:11.181986 CEST] [3332] [info] Retrieving file system configuration...
[2020-04-22 20:23:11.182633 CEST] [3337] [info] Forwarding map loaded for 'gros-109' as '4'
[2020-04-22 20:23:11.182799 CEST] [3337] [info] init_ld_environment_() Forward to 4
[2020-04-22 20:23:11.182922 CEST] [3337] [info] Retrieving file system configuration...
[2020-04-22 20:23:11.183101 CEST] [3334] [info] Forwarding map loaded for 'gros-109' as '4'
[2020-04-22 20:23:11.183275 CEST] [3334] [info] init_ld_environment_() Forward to 4
[2020-04-22 20:23:11.183415 CEST] [3334] [info] Retrieving file system configuration...
[2020-04-22 20:23:11.183969 CEST] [3330] [info] Forwarding map loaded for 'gros-109' as '4'
[2020-04-22 20:23:11.184195 CEST] [3330] [info] init_ld_environment_() Forward to 4
[2020-04-22 20:23:11.184376 CEST] [3330] [info] Retrieving file system configuration...
[2020-04-22 20:23:11.184838 CEST] [3335] [info] Forwarding map loaded for 'gros-109' as '4'
[2020-04-22 20:23:11.184960 CEST] [3336] [info] Mountdir: '/mnt/gkfs'
[2020-04-22 20:23:11.185012 CEST] [3335] [info] init_ld_environment_() Forward to 4
[2020-04-22 20:23:11.185083 CEST] [3336] [info] Environment initialization successful.
[2020-04-22 20:23:11.185136 CEST] [3335] [info] Retrieving file system configuration...
[2020-04-22 20:23:11.185814 CEST] [3333] [info] Mountdir: '/mnt/gkfs'
[2020-04-22 20:23:11.185928 CEST] [3333] [info] Environment initialization successful.
[2020-04-22 20:23:11.187595 CEST] [3332] [info] Mountdir: '/mnt/gkfs'
[2020-04-22 20:23:11.187720 CEST] [3332] [info] Environment initialization successful.
[2020-04-22 20:23:11.188567 CEST] [3337] [info] Mountdir: '/mnt/gkfs'
[2020-04-22 20:23:11.188695 CEST] [3337] [info] Environment initialization successful.
[2020-04-22 20:23:11.192367 CEST] [3334] [info] Mountdir: '/mnt/gkfs'
[2020-04-22 20:23:11.192490 CEST] [3334] [info] Environment initialization successful.
[2020-04-22 20:23:11.193220 CEST] [3330] [info] Mountdir: '/mnt/gkfs'
[2020-04-22 20:23:11.193364 CEST] [3330] [info] Environment initialization successful.
[2020-04-22 20:23:11.217927 CEST] [3370] [info] Forwarding map loaded for 'gros-109' as '4'
[2020-04-22 20:23:11.218087 CEST] [3370] [info] forwarding_mapper() Forward to 4
[2020-04-22 20:23:11.224179 CEST] [3371] [info] Forwarding map loaded for 'gros-109' as '4'
[2020-04-22 20:23:11.224360 CEST] [3371] [info] forwarding_mapper() Forward to 4
[2020-04-22 20:23:11.229495 CEST] [3372] [info] Forwarding map loaded for 'gros-109' as '4'
[2020-04-22 20:23:11.229661 CEST] [3372] [info] forwarding_mapper() Forward to 4
[2020-04-22 20:23:11.234700 CEST] [3373] [info] Forwarding map loaded for 'gros-109' as '4'
[2020-04-22 20:23:11.234895 CEST] [3373] [info] forwarding_mapper() Forward to 4
[2020-04-22 20:23:11.234996 CEST] [3376] [info] Forwarding map loaded for 'gros-109' as '4'
[2020-04-22 20:23:11.235162 CEST] [3376] [info] forwarding_mapper() Forward to 4
[2020-04-22 20:23:11.235497 CEST] [3377] [info] Forwarding map loaded for 'gros-109' as '4'
[2020-04-22 20:23:11.235591 CEST] [3377] [info] forwarding_mapper() Forward to 4
[2020-04-22 20:23:11.236461 CEST] [3378] [info] Forwarding map loaded for 'gros-109' as '4'
[2020-04-22 20:23:11.236631 CEST] [3378] [info] forwarding_mapper() Forward to 4
[2020-04-22 20:23:12.189516 CEST] [3335] [info] Mountdir: '/mnt/gkfs'
[2020-04-22 20:23:12.189675 CEST] [3335] [info] Environment initialization successful.
[2020-04-22 20:23:12.221780 CEST] [3391] [info] Forwarding map loaded for 'gros-109' as '4'
[2020-04-22 20:23:12.221959 CEST] [3391] [info] forwarding_mapper() Forward to 4
[2020-04-22 20:23:21.227589 CEST] [3370] [info] Forwarding map loaded for 'gros-109' as '4'
[2020-04-22 20:23:21.227767 CEST] [3370] [info] forwarding_mapper() Forward to 4
[2020-04-22 20:23:21.230024 CEST] [3371] [info] Forwarding map loaded for 'gros-109' as '4'
[2020-04-22 20:23:21.230187 CEST] [3371] [info] forwarding_mapper() Forward to 4
[2020-04-22 20:23:21.238136 CEST] [3372] [info] Forwarding map loaded for 'gros-109' as '4'
[2020-04-22 20:23:21.238304 CEST] [3372] [info] forwarding_mapper() Forward to 4
[2020-04-22 20:23:21.240028 CEST] [3376] [info] Forwarding map loaded for 'gros-109' as '4'
[2020-04-22 20:23:21.240183 CEST] [3376] [info] forwarding_mapper() Forward to 4
[2020-04-22 20:23:21.241483 CEST] [3373] [info] Forwarding map loaded for 'gros-109' as '4'
[2020-04-22 20:23:21.241583 CEST] [3378] [info] Forwarding map loaded for 'gros-109' as '4'
[2020-04-22 20:23:21.241652 CEST] [3373] [info] forwarding_mapper() Forward to 4
[2020-04-22 20:23:21.241738 CEST] [3378] [info] forwarding_mapper() Forward to 4
[2020-04-22 20:23:21.244067 CEST] [3377] [info] Forwarding map loaded for 'gros-109' as '4'
[2020-04-22 20:23:21.244228 CEST] [3377] [info] forwarding_mapper() Forward to 4
[2020-04-22 20:23:22.227791 CEST] [3391] [info] Forwarding map loaded for 'gros-109' as '4'
[2020-04-22 20:23:22.227954 CEST] [3391] [info] forwarding_mapper() Forward to 4
[2020-04-22 20:23:31.236913 CEST] [3371] [info] Forwarding map loaded for 'gros-109' as '4'
[2020-04-22 20:23:31.237074 CEST] [3371] [info] forwarding_mapper() Forward to 4
[2020-04-22 20:23:31.240849 CEST] [3370] [info] Forwarding map loaded for 'gros-109' as '4'
[2020-04-22 20:23:31.241014 CEST] [3370] [info] forwarding_mapper() Forward to 4
[2020-04-22 20:23:31.246916 CEST] [3373] [info] Forwarding map loaded for 'gros-109' as '4'
[2020-04-22 20:23:31.247069 CEST] [3373] [info] forwarding_mapper() Forward to 4
[2020-04-22 20:23:31.247398 CEST] [3378] [info] Forwarding map loaded for 'gros-109' as '4'
[2020-04-22 20:23:31.247555 CEST] [3378] [info] forwarding_mapper() Forward to 4
[2020-04-22 20:23:31.250892 CEST] [3372] [info] Forwarding map loaded for 'gros-109' as '4'
[2020-04-22 20:23:31.251046 CEST] [3372] [info] forwarding_mapper() Forward to 4
[2020-04-22 20:23:31.253059 CEST] [3376] [info] Forwarding map loaded for 'gros-109' as '4'
[2020-04-22 20:23:31.253211 CEST] [3376] [info] forwarding_mapper() Forward to 4
[2020-04-22 20:23:31.257520 CEST] [3377] [info] Forwarding map loaded for 'gros-109' as '4'
[2020-04-22 20:23:31.257681 CEST] [3377] [info] forwarding_mapper() Forward to 4
[2020-04-22 20:23:32.234420 CEST] [3391] [info] Forwarding map loaded for 'gros-109' as '4'
[2020-04-22 20:23:32.234578 CEST] [3391] [info] forwarding_mapper() Forward to 4
[2020-04-22 20:23:41.242988 CEST] [3371] [info] Forwarding map loaded for 'gros-109' as '4'
[2020-04-22 20:23:41.243160 CEST] [3371] [info] forwarding_mapper() Forward to 4
[2020-04-22 20:23:41.249519 CEST] [3370] [info] Forwarding map loaded for 'gros-109' as '4'
[2020-04-22 20:23:41.249674 CEST] [3370] [info] forwarding_mapper() Forward to 4
[2020-04-22 20:23:41.252082 CEST] [3373] [info] Forwarding map loaded for 'gros-109' as '4'
[2020-04-22 20:23:41.252236 CEST] [3373] [info] forwarding_mapper() Forward to 4
[2020-04-22 20:23:41.252684 CEST] [3378] [info] Forwarding map loaded for 'gros-109' as '4'
[2020-04-22 20:23:41.252849 CEST] [3378] [info] forwarding_mapper() Forward to 4
[2020-04-22 20:23:41.258552 CEST] [3376] [info] Forwarding map loaded for 'gros-109' as '4'
[2020-04-22 20:23:41.258710 CEST] [3376] [info] forwarding_mapper() Forward to 4
[2020-04-22 20:23:41.259385 CEST] [3372] [info] Forwarding map loaded for 'gros-109' as '4'
[2020-04-22 20:23:41.259544 CEST] [3372] [info] forwarding_mapper() Forward to 4
[2020-04-22 20:23:41.266677 CEST] [3377] [info] Forwarding map loaded for 'gros-109' as '4'
[2020-04-22 20:23:41.266845 CEST] [3377] [info] forwarding_mapper() Forward to 4
[2020-04-22 20:23:42.240671 CEST] [3391] [info] Forwarding map loaded for 'gros-109' as '4'
[2020-04-22 20:23:42.240834 CEST] [3391] [info] forwarding_mapper() Forward to 4
[2020-04-22 20:23:51.249210 CEST] [3371] [info] Forwarding map loaded for 'gros-109' as '4'
[2020-04-22 20:23:51.249389 CEST] [3371] [info] forwarding_mapper() Forward to 4
[2020-04-22 20:23:51.258105 CEST] [3378] [info] Forwarding map loaded for 'gros-109' as '4'
[2020-04-22 20:23:51.258265 CEST] [3378] [info] forwarding_mapper() Forward to 4
[2020-04-22 20:23:51.262421 CEST] [3370] [info] Forwarding map loaded for 'gros-109' as '4'
[2020-04-22 20:23:51.262575 CEST] [3370] [info] forwarding_mapper() Forward to 4
[2020-04-22 20:23:51.263056 CEST] [3373] [info] Forwarding map loaded for 'gros-109' as '4'
[2020-04-22 20:23:51.263210 CEST] [3373] [info] forwarding_mapper() Forward to 4
[2020-04-22 20:23:51.263836 CEST] [3376] [info] Forwarding map loaded for 'gros-109' as '4'
[2020-04-22 20:23:51.263997 CEST] [3376] [info] forwarding_mapper() Forward to 4
[2020-04-22 20:23:51.273207 CEST] [3372] [info] Forwarding map loaded for 'gros-109' as '4'
[2020-04-22 20:23:51.273374 CEST] [3372] [info] forwarding_mapper() Forward to 4
[2020-04-22 20:23:51.280676 CEST] [3377] [info] Forwarding map loaded for 'gros-109' as '4'
[2020-04-22 20:23:51.280838 CEST] [3377] [info] forwarding_mapper() Forward to 4
[2020-04-22 20:23:52.247320 CEST] [3391] [info] Forwarding map loaded for 'gros-109' as '4'
[2020-04-22 20:23:52.247492 CEST] [3391] [info] forwarding_mapper() Forward to 4
[2020-04-22 20:24:01.255846 CEST] [3371] [info] Forwarding map loaded for 'gros-109' as '4'
[2020-04-22 20:24:01.256012 CEST] [3371] [info] forwarding_mapper() Forward to 4
[2020-04-22 20:24:01.263968 CEST] [3378] [info] Forwarding map loaded for 'gros-109' as '4'
[2020-04-22 20:24:01.264127 CEST] [3378] [info] forwarding_mapper() Forward to 4
[2020-04-22 20:24:01.269309 CEST] [3376] [info] Forwarding map loaded for 'gros-109' as '4'
[2020-04-22 20:24:01.269471 CEST] [3376] [info] forwarding_mapper() Forward to 4
[2020-04-22 20:24:01.270599 CEST] [3370] [info] Forwarding map loaded for 'gros-109' as '4'
[2020-04-22 20:24:01.270755 CEST] [3370] [info] forwarding_mapper() Forward to 4
[2020-04-22 20:24:01.271837 CEST] [3373] [info] Forwarding map loaded for 'gros-109' as '4'
[2020-04-22 20:24:01.271997 CEST] [3373] [info] forwarding_mapper() Forward to 4
[2020-04-22 20:24:01.282256 CEST] [3372] [info] Forwarding map loaded for 'gros-109' as '4'
[2020-04-22 20:24:01.282428 CEST] [3372] [info] forwarding_mapper() Forward to 4
[2020-04-22 20:24:01.289937 CEST] [3377] [info] Forwarding map loaded for 'gros-109' as '4'
[2020-04-22 20:24:01.290100 CEST] [3377] [info] forwarding_mapper() Forward to 4
[2020-04-22 20:24:02.254453 CEST] [3391] [info] Forwarding map loaded for 'gros-109' as '4'
[2020-04-22 20:24:02.254619 CEST] [3391] [info] forwarding_mapper() Forward to 4
[2020-04-22 20:24:11.261911 CEST] [3371] [info] Forwarding map loaded for 'gros-109' as '4'
[2020-04-22 20:24:11.262079 CEST] [3371] [info] forwarding_mapper() Forward to 4
[2020-04-22 20:24:11.269830 CEST] [3378] [info] Forwarding map loaded for 'gros-109' as '4'
[2020-04-22 20:24:11.269989 CEST] [3378] [info] forwarding_mapper() Forward to 4
[2020-04-22 20:24:11.275008 CEST] [3376] [info] Forwarding map loaded for 'gros-109' as '4'
[2020-04-22 20:24:11.275169 CEST] [3376] [info] forwarding_mapper() Forward to 4
[2020-04-22 20:24:11.279825 CEST] [3373] [info] Forwarding map loaded for 'gros-109' as '4'
[2020-04-22 20:24:11.279979 CEST] [3373] [info] forwarding_mapper() Forward to 4
[2020-04-22 20:24:11.284017 CEST] [3370] [info] Forwarding map loaded for 'gros-109' as '4'
[2020-04-22 20:24:11.284177 CEST] [3370] [info] forwarding_mapper() Forward to 4
[2020-04-22 20:24:11.296212 CEST] [3372] [info] Forwarding map loaded for 'gros-109' as '4'
[2020-04-22 20:24:11.296381 CEST] [3372] [info] forwarding_mapper() Forward to 4
[2020-04-22 20:24:11.304188 CEST] [3377] [info] Forwarding map loaded for 'gros-109' as '4'
[2020-04-22 20:24:11.304357 CEST] [3377] [info] forwarding_mapper() Forward to 4
[2020-04-22 20:24:12.261217 CEST] [3391] [info] Forwarding map loaded for 'gros-109' as '4'
[2020-04-22 20:24:12.261393 CEST] [3391] [info] forwarding_mapper() Forward to 4
[2020-04-22 20:24:21.268061 CEST] [3371] [info] Forwarding map loaded for 'gros-109' as '4'
[2020-04-22 20:24:21.268229 CEST] [3371] [info] forwarding_mapper() Forward to 4
[2020-04-22 20:24:21.275594 CEST] [3378] [info] Forwarding map loaded for 'gros-109' as '4'
[2020-04-22 20:24:21.275754 CEST] [3378] [info] forwarding_mapper() Forward to 4
[2020-04-22 20:24:21.280755 CEST] [3376] [info] Forwarding map loaded for 'gros-109' as '4'
[2020-04-22 20:24:21.280916 CEST] [3376] [info] forwarding_mapper() Forward to 4
[2020-04-22 20:24:21.287417 CEST] [3373] [info] Forwarding map loaded for 'gros-109' as '4'
[2020-04-22 20:24:21.287576 CEST] [3373] [info] forwarding_mapper() Forward to 4
[2020-04-22 20:24:21.293332 CEST] [3370] [info] Forwarding map loaded for 'gros-109' as '4'
[2020-04-22 20:24:21.293492 CEST] [3370] [info] forwarding_mapper() Forward to 4
[2020-04-22 20:24:21.305292 CEST] [3372] [info] Forwarding map loaded for 'gros-109' as '4'
[2020-04-22 20:24:21.305462 CEST] [3372] [info] forwarding_mapper() Forward to 4
[2020-04-22 20:24:21.312551 CEST] [3377] [info] Forwarding map loaded for 'gros-109' as '4'
[2020-04-22 20:24:21.312713 CEST] [3377] [info] forwarding_mapper() Forward to 4
[2020-04-22 20:24:22.268470 CEST] [3391] [info] Forwarding map loaded for 'gros-109' as '4'
[2020-04-22 20:24:22.268630 CEST] [3391] [info] forwarding_mapper() Forward to 4
[2020-04-22 20:24:31.275158 CEST] [3371] [info] Forwarding map loaded for 'gros-109' as '4'
[2020-04-22 20:24:31.275318 CEST] [3371] [info] forwarding_mapper() Forward to 4
[2020-04-22 20:24:31.281200 CEST] [3378] [info] Forwarding map loaded for 'gros-109' as '4'
[2020-04-22 20:24:31.281360 CEST] [3378] [info] forwarding_mapper() Forward to 4
[2020-04-22 20:24:31.286469 CEST] [3376] [info] Forwarding map loaded for 'gros-109' as '4'
[2020-04-22 20:24:31.286623 CEST] [3376] [info] forwarding_mapper() Forward to 4
[2020-04-22 20:24:31.301485 CEST] [3373] [info] Forwarding map loaded for 'gros-109' as '4'
[2020-04-22 20:24:31.301637 CEST] [3373] [info] forwarding_mapper() Forward to 4
[2020-04-22 20:24:31.307229 CEST] [3370] [info] Forwarding map loaded for 'gros-109' as '4'
[2020-04-22 20:24:31.307392 CEST] [3370] [info] forwarding_mapper() Forward to 4
[2020-04-22 20:24:31.319204 CEST] [3372] [info] Forwarding map loaded for 'gros-109' as '4'
[2020-04-22 20:24:31.319366 CEST] [3372] [info] forwarding_mapper() Forward to 4
[2020-04-22 20:24:31.326716 CEST] [3377] [info] Forwarding map loaded for 'gros-109' as '4'
[2020-04-22 20:24:31.326868 CEST] [3377] [info] forwarding_mapper() Forward to 4
[2020-04-22 20:24:32.275411 CEST] [3391] [info] Forwarding map loaded for 'gros-109' as '4'
[2020-04-22 20:24:32.275565 CEST] [3391] [info] forwarding_mapper() Forward to 4
[2020-04-22 20:24:41.281797 CEST] [3371] [info] Forwarding map loaded for 'gros-109' as '4'
[2020-04-22 20:24:41.281962 CEST] [3371] [info] forwarding_mapper() Forward to 4
[2020-04-22 20:24:41.286934 CEST] [3378] [info] Forwarding map loaded for 'gros-109' as '4'
[2020-04-22 20:24:41.287092 CEST] [3378] [info] forwarding_mapper() Forward to 4
[2020-04-22 20:24:41.292144 CEST] [3376] [info] Forwarding map loaded for 'gros-109' as '4'
[2020-04-22 20:24:41.292305 CEST] [3376] [info] forwarding_mapper() Forward to 4
[2020-04-22 20:24:41.310800 CEST] [3373] [info] Forwarding map loaded for 'gros-109' as '4'
[2020-04-22 20:24:41.310958 CEST] [3373] [info] forwarding_mapper() Forward to 4
[2020-04-22 20:24:41.316460 CEST] [3370] [info] Forwarding map loaded for 'gros-109' as '4'
[2020-04-22 20:24:41.316620 CEST] [3370] [info] forwarding_mapper() Forward to 4
[2020-04-22 20:24:41.328431 CEST] [3372] [info] Forwarding map loaded for 'gros-109' as '4'
[2020-04-22 20:24:41.328586 CEST] [3372] [info] forwarding_mapper() Forward to 4
[2020-04-22 20:24:41.336137 CEST] [3377] [info] Forwarding map loaded for 'gros-109' as '4'
[2020-04-22 20:24:41.336298 CEST] [3377] [info] forwarding_mapper() Forward to 4
[2020-04-22 20:24:42.283101 CEST] [3391] [info] Forwarding map loaded for 'gros-109' as '4'
[2020-04-22 20:24:42.283267 CEST] [3391] [info] forwarding_mapper() Forward to 4
[2020-04-22 20:24:51.287727 CEST] [3371] [info] Forwarding map loaded for 'gros-109' as '4'
[2020-04-22 20:24:51.287893 CEST] [3371] [info] forwarding_mapper() Forward to 4
[2020-04-22 20:24:51.297678 CEST] [3376] [info] Forwarding map loaded for 'gros-109' as '4'
[2020-04-22 20:24:51.297847 CEST] [3376] [info] forwarding_mapper() Forward to 4
[2020-04-22 20:24:51.300399 CEST] [3378] [info] Forwarding map loaded for 'gros-109' as '4'
[2020-04-22 20:24:51.300555 CEST] [3378] [info] forwarding_mapper() Forward to 4
[2020-04-22 20:24:51.325079 CEST] [3373] [info] Forwarding map loaded for 'gros-109' as '4'
[2020-04-22 20:24:51.325235 CEST] [3373] [info] forwarding_mapper() Forward to 4
[2020-04-22 20:24:51.330372 CEST] [3370] [info] Forwarding map loaded for 'gros-109' as '4'
[2020-04-22 20:24:51.330532 CEST] [3370] [info] forwarding_mapper() Forward to 4
[2020-04-22 20:24:51.342353 CEST] [3372] [info] Forwarding map loaded for 'gros-109' as '4'
[2020-04-22 20:24:51.342508 CEST] [3372] [info] forwarding_mapper() Forward to 4
[2020-04-22 20:24:51.350280 CEST] [3377] [info] Forwarding map loaded for 'gros-109' as '4'
[2020-04-22 20:24:51.350451 CEST] [3377] [info] forwarding_mapper() Forward to 4
[2020-04-22 20:24:52.289263 CEST] [3391] [info] Forwarding map loaded for 'gros-109' as '4'
[2020-04-22 20:24:52.289425 CEST] [3391] [info] forwarding_mapper() Forward to 4
[2020-04-22 20:25:01.293612 CEST] [3371] [info] Forwarding map loaded for 'gros-109' as '4'
[2020-04-22 20:25:01.293783 CEST] [3371] [info] forwarding_mapper() Forward to 4
[2020-04-22 20:25:01.303869 CEST] [3376] [info] Forwarding map loaded for 'gros-109' as '4'
[2020-04-22 20:25:01.304031 CEST] [3376] [info] forwarding_mapper() Forward to 4
[2020-04-22 20:25:01.309566 CEST] [3378] [info] Forwarding map loaded for 'gros-109' as '4'
[2020-04-22 20:25:01.309738 CEST] [3378] [info] forwarding_mapper() Forward to 4
[2020-04-22 20:25:01.334547 CEST] [3373] [info] Forwarding map loaded for 'gros-109' as '4'
[2020-04-22 20:25:01.334707 CEST] [3373] [info] forwarding_mapper() Forward to 4
[2020-04-22 20:25:01.339653 CEST] [3370] [info] Forwarding map loaded for 'gros-109' as '4'
[2020-04-22 20:25:01.339814 CEST] [3370] [info] forwarding_mapper() Forward to 4
[2020-04-22 20:25:01.351647 CEST] [3372] [info] Forwarding map loaded for 'gros-109' as '4'
[2020-04-22 20:25:01.351804 CEST] [3372] [info] forwarding_mapper() Forward to 4
[2020-04-22 20:25:01.359910 CEST] [3377] [info] Forwarding map loaded for 'gros-109' as '4'
[2020-04-22 20:25:01.360073 CEST] [3377] [info] forwarding_mapper() Forward to 4
[2020-04-22 20:25:02.295445 CEST] [3391] [info] Forwarding map loaded for 'gros-109' as '4'
[2020-04-22 20:25:02.295608 CEST] [3391] [info] forwarding_mapper() Forward to 4
[2020-04-22 20:25:11.299612 CEST] [3371] [info] Forwarding map loaded for 'gros-109' as '4'
[2020-04-22 20:25:11.299778 CEST] [3371] [info] forwarding_mapper() Forward to 4
[2020-04-22 20:25:11.309797 CEST] [3376] [info] Forwarding map loaded for 'gros-109' as '4'
[2020-04-22 20:25:11.309956 CEST] [3376] [info] forwarding_mapper() Forward to 4
[2020-04-22 20:25:11.323608 CEST] [3378] [info] Forwarding map loaded for 'gros-109' as '4'
[2020-04-22 20:25:11.323767 CEST] [3378] [info] forwarding_mapper() Forward to 4
[2020-04-22 20:25:11.344578 CEST] [3373] [info] Forwarding map loaded for 'gros-109' as '4'
[2020-04-22 20:25:11.344736 CEST] [3373] [info] forwarding_mapper() Forward to 4
[2020-04-22 20:25:11.353554 CEST] [3370] [info] Forwarding map loaded for 'gros-109' as '4'
[2020-04-22 20:25:11.353713 CEST] [3370] [info] forwarding_mapper() Forward to 4
[2020-04-22 20:25:11.365345 CEST] [3372] [info] Forwarding map loaded for 'gros-109' as '4'
[2020-04-22 20:25:11.365498 CEST] [3372] [info] forwarding_mapper() Forward to 4
[2020-04-22 20:25:11.367334 CEST] [3377] [info] Forwarding map loaded for 'gros-109' as '4'
[2020-04-22 20:25:11.367494 CEST] [3377] [info] forwarding_mapper() Forward to 4
[2020-04-22 20:25:12.301655 CEST] [3391] [info] Forwarding map loaded for 'gros-109' as '4'
[2020-04-22 20:25:12.301814 CEST] [3391] [info] forwarding_mapper() Forward to 4
[2020-04-22 20:25:21.303192 CEST] [3371] [info] Forwarding map loaded for 'gros-109' as '4'
[2020-04-22 20:25:21.303271 CEST] [3371] [info] forwarding_mapper() Forward to 4
[2020-04-22 20:25:21.315492 CEST] [3376] [info] Forwarding map loaded for 'gros-109' as '4'
[2020-04-22 20:25:21.315657 CEST] [3376] [info] forwarding_mapper() Forward to 4
[2020-04-22 20:25:21.329277 CEST] [3378] [info] Forwarding map loaded for 'gros-109' as '4'
[2020-04-22 20:25:21.329443 CEST] [3378] [info] forwarding_mapper() Forward to 4
[2020-04-22 20:25:21.353741 CEST] [3373] [info] Forwarding map loaded for 'gros-109' as '4'
[2020-04-22 20:25:21.353888 CEST] [3373] [info] forwarding_mapper() Forward to 4
[2020-04-22 20:25:21.361233 CEST] [3370] [info] Forwarding map loaded for 'gros-109' as '4'
[2020-04-22 20:25:21.361312 CEST] [3370] [info] forwarding_mapper() Forward to 4
[2020-04-22 20:25:21.373746 CEST] [3377] [info] Forwarding map loaded for 'gros-109' as '4'
[2020-04-22 20:25:21.373820 CEST] [3377] [info] forwarding_mapper() Forward to 4
[2020-04-22 20:25:21.374269 CEST] [3372] [info] Forwarding map loaded for 'gros-109' as '4'
[2020-04-22 20:25:21.374442 CEST] [3372] [info] forwarding_mapper() Forward to 4
[2020-04-22 20:25:22.305549 CEST] [3391] [info] Forwarding map loaded for 'gros-109' as '4'
[2020-04-22 20:25:22.305623 CEST] [3391] [info] forwarding_mapper() Forward to 4
[2020-04-22 20:25:31.306358 CEST] [3336] [info] All subsystems shut down. Client shutdown complete.
[2020-04-22 20:25:31.349092 CEST] [3337] [info] All subsystems shut down. Client shutdown complete.
[2020-04-22 20:25:31.357097 CEST] [3330] [info] All subsystems shut down. Client shutdown complete.
[2020-04-22 20:25:31.384374 CEST] [3332] [info] All subsystems shut down. Client shutdown complete.
[2020-04-22 20:25:31.384792 CEST] [3331] [info] All subsystems shut down. Client shutdown complete.
[2020-04-22 20:25:31.447971 CEST] [3334] [info] All subsystems shut down. Client shutdown complete.
[2020-04-22 20:25:31.450936 CEST] [3333] [info] All subsystems shut down. Client shutdown complete.
[2020-04-22 20:25:32.352247 CEST] [3335] [info] All subsystems shut down. Client shutdown complete.
