[2020-04-22 20:19:27.100316 CEST] [3330] [info] Process cmdline: '/root/benchmarks/ior-3.2.1/src/ior -a MPIIO -b 128m -t 2m -B -w -r -o /mnt/gkfs/output-D-2'
[2020-04-22 20:19:27.100600 CEST] [3330] [info] Initializing RPC subsystem...
[2020-04-22 20:19:27.100510 CEST] [3331] [info] Process cmdline: '/root/benchmarks/ior-3.2.1/src/ior -a MPIIO -b 128m -t 2m -B -w -r -o /mnt/gkfs/output-D-2'
[2020-04-22 20:19:27.100553 CEST] [3335] [info] Process cmdline: '/root/benchmarks/ior-3.2.1/src/ior -a MPIIO -b 128m -t 2m -B -w -r -o /mnt/gkfs/output-D-2'
[2020-04-22 20:19:27.100556 CEST] [3334] [info] Process cmdline: '/root/benchmarks/ior-3.2.1/src/ior -a MPIIO -b 128m -t 2m -B -w -r -o /mnt/gkfs/output-D-2'
[2020-04-22 20:19:27.100559 CEST] [3329] [info] Process cmdline: '/root/benchmarks/ior-3.2.1/src/ior -a MPIIO -b 128m -t 2m -B -w -r -o /mnt/gkfs/output-D-2'
[2020-04-22 20:19:27.100759 CEST] [3331] [info] Initializing RPC subsystem...
[2020-04-22 20:19:27.100785 CEST] [3335] [info] Initializing RPC subsystem...
[2020-04-22 20:19:27.100604 CEST] [3328] [info] Process cmdline: '/root/benchmarks/ior-3.2.1/src/ior -a MPIIO -b 128m -t 2m -B -w -r -o /mnt/gkfs/output-D-2'
[2020-04-22 20:19:27.100789 CEST] [3334] [info] Initializing RPC subsystem...
[2020-04-22 20:19:27.100794 CEST] [3329] [info] Initializing RPC subsystem...
[2020-04-22 20:19:27.100629 CEST] [3332] [info] Process cmdline: '/root/benchmarks/ior-3.2.1/src/ior -a MPIIO -b 128m -t 2m -B -w -r -o /mnt/gkfs/output-D-2'
[2020-04-22 20:19:27.100648 CEST] [3333] [info] Process cmdline: '/root/benchmarks/ior-3.2.1/src/ior -a MPIIO -b 128m -t 2m -B -w -r -o /mnt/gkfs/output-D-2'
[2020-04-22 20:19:27.100831 CEST] [3328] [info] Initializing RPC subsystem...
[2020-04-22 20:19:27.100863 CEST] [3332] [info] Initializing RPC subsystem...
[2020-04-22 20:19:27.100876 CEST] [3333] [info] Initializing RPC subsystem...
[2020-04-22 20:19:27.152048 CEST] [3332] [info] Loading peer addresses...
[2020-04-22 20:19:27.153410 CEST] [3328] [info] Loading peer addresses...
[2020-04-22 20:19:27.154601 CEST] [3333] [info] Loading peer addresses...
[2020-04-22 20:19:27.154602 CEST] [3331] [info] Loading peer addresses...
[2020-04-22 20:19:27.155336 CEST] [3330] [info] Loading peer addresses...
[2020-04-22 20:19:27.155344 CEST] [3328] [info] Hosts pool size: 12
[2020-04-22 20:19:27.155347 CEST] [3334] [info] Loading peer addresses...
[2020-04-22 20:19:27.155353 CEST] [3335] [info] Loading peer addresses...
[2020-04-22 20:19:27.155575 CEST] [3329] [info] Loading peer addresses...
[2020-04-22 20:19:27.155864 CEST] [3332] [info] Hosts pool size: 12
[2020-04-22 20:19:27.156184 CEST] [3333] [info] Hosts pool size: 12
[2020-04-22 20:19:27.156217 CEST] [3331] [info] Hosts pool size: 12
[2020-04-22 20:19:27.156925 CEST] [3330] [info] Hosts pool size: 12
[2020-04-22 20:19:27.156975 CEST] [3335] [info] Hosts pool size: 12
[2020-04-22 20:19:27.156993 CEST] [3334] [info] Hosts pool size: 12
[2020-04-22 20:19:27.162953 CEST] [3329] [info] Hosts pool size: 12
[2020-04-22 20:19:27.169150 CEST] [3334] [info] Forwarding map loaded for 'gros-61' as '7'
[2020-04-22 20:19:27.169230 CEST] [3334] [info] init_ld_environment_() Forward to 7
[2020-04-22 20:19:27.169225 CEST] [3328] [info] Forwarding map loaded for 'gros-61' as '7'
[2020-04-22 20:19:27.169296 CEST] [3334] [info] Retrieving file system configuration...
[2020-04-22 20:19:27.169311 CEST] [3328] [info] init_ld_environment_() Forward to 7
[2020-04-22 20:19:27.169309 CEST] [3331] [info] Forwarding map loaded for 'gros-61' as '7'
[2020-04-22 20:19:27.169316 CEST] [3329] [info] Forwarding map loaded for 'gros-61' as '7'
[2020-04-22 20:19:27.169377 CEST] [3328] [info] Retrieving file system configuration...
[2020-04-22 20:19:27.169357 CEST] [3333] [info] Forwarding map loaded for 'gros-61' as '7'
[2020-04-22 20:19:27.169393 CEST] [3331] [info] init_ld_environment_() Forward to 7
[2020-04-22 20:19:27.169399 CEST] [3329] [info] init_ld_environment_() Forward to 7
[2020-04-22 20:19:27.169441 CEST] [3333] [info] init_ld_environment_() Forward to 7
[2020-04-22 20:19:27.169455 CEST] [3331] [info] Retrieving file system configuration...
[2020-04-22 20:19:27.169461 CEST] [3329] [info] Retrieving file system configuration...
[2020-04-22 20:19:27.169503 CEST] [3333] [info] Retrieving file system configuration...
[2020-04-22 20:19:27.169540 CEST] [3335] [info] Forwarding map loaded for 'gros-61' as '7'
[2020-04-22 20:19:27.169616 CEST] [3335] [info] init_ld_environment_() Forward to 7
[2020-04-22 20:19:27.169685 CEST] [3335] [info] Retrieving file system configuration...
[2020-04-22 20:19:27.170704 CEST] [3332] [info] Forwarding map loaded for 'gros-61' as '7'
[2020-04-22 20:19:27.170871 CEST] [3332] [info] init_ld_environment_() Forward to 7
[2020-04-22 20:19:27.170993 CEST] [3332] [info] Retrieving file system configuration...
[2020-04-22 20:19:27.171032 CEST] [3330] [info] Forwarding map loaded for 'gros-61' as '7'
[2020-04-22 20:19:27.171196 CEST] [3330] [info] init_ld_environment_() Forward to 7
[2020-04-22 20:19:27.171319 CEST] [3330] [info] Retrieving file system configuration...
[2020-04-22 20:19:28.171960 CEST] [3334] [info] Mountdir: '/mnt/gkfs'
[2020-04-22 20:19:28.171992 CEST] [3333] [info] Mountdir: '/mnt/gkfs'
[2020-04-22 20:19:28.172036 CEST] [3331] [info] Mountdir: '/mnt/gkfs'
[2020-04-22 20:19:28.172095 CEST] [3334] [info] Environment initialization successful.
[2020-04-22 20:19:28.172121 CEST] [3333] [info] Environment initialization successful.
[2020-04-22 20:19:28.172166 CEST] [3331] [info] Environment initialization successful.
[2020-04-22 20:19:28.172560 CEST] [3329] [info] Mountdir: '/mnt/gkfs'
[2020-04-22 20:19:28.172598 CEST] [3328] [info] Mountdir: '/mnt/gkfs'
[2020-04-22 20:19:28.172694 CEST] [3329] [info] Environment initialization successful.
[2020-04-22 20:19:28.172731 CEST] [3328] [info] Environment initialization successful.
[2020-04-22 20:19:28.172748 CEST] [3335] [info] Mountdir: '/mnt/gkfs'
[2020-04-22 20:19:28.172877 CEST] [3335] [info] Environment initialization successful.
[2020-04-22 20:19:28.175847 CEST] [3332] [info] Mountdir: '/mnt/gkfs'
[2020-04-22 20:19:28.175991 CEST] [3332] [info] Environment initialization successful.
[2020-04-22 20:19:28.175945 CEST] [3330] [info] Mountdir: '/mnt/gkfs'
[2020-04-22 20:19:28.176101 CEST] [3330] [info] Environment initialization successful.
[2020-04-22 20:19:28.203329 CEST] [3370] [info] Forwarding map loaded for 'gros-61' as '7'
[2020-04-22 20:19:28.203499 CEST] [3370] [info] forwarding_mapper() Forward to 7
[2020-04-22 20:19:28.203362 CEST] [3369] [info] Forwarding map loaded for 'gros-61' as '7'
[2020-04-22 20:19:28.203991 CEST] [3369] [info] forwarding_mapper() Forward to 7
[2020-04-22 20:19:28.204954 CEST] [3372] [info] Forwarding map loaded for 'gros-61' as '7'
[2020-04-22 20:19:28.205089 CEST] [3372] [info] forwarding_mapper() Forward to 7
[2020-04-22 20:19:28.206297 CEST] [3376] [info] Forwarding map loaded for 'gros-61' as '7'
[2020-04-22 20:19:28.206384 CEST] [3376] [info] forwarding_mapper() Forward to 7
[2020-04-22 20:19:28.206596 CEST] [3373] [info] Forwarding map loaded for 'gros-61' as '7'
[2020-04-22 20:19:28.206681 CEST] [3368] [info] Forwarding map loaded for 'gros-61' as '7'
[2020-04-22 20:19:28.206765 CEST] [3373] [info] forwarding_mapper() Forward to 7
[2020-04-22 20:19:28.206897 CEST] [3368] [info] forwarding_mapper() Forward to 7
[2020-04-22 20:19:28.207299 CEST] [3375] [info] Forwarding map loaded for 'gros-61' as '7'
[2020-04-22 20:19:28.207460 CEST] [3375] [info] forwarding_mapper() Forward to 7
[2020-04-22 20:19:28.207979 CEST] [3374] [info] Forwarding map loaded for 'gros-61' as '7'
[2020-04-22 20:19:28.208145 CEST] [3374] [info] forwarding_mapper() Forward to 7
[2020-04-22 20:19:38.209092 CEST] [3370] [info] Forwarding map loaded for 'gros-61' as '7'
[2020-04-22 20:19:38.209269 CEST] [3370] [info] forwarding_mapper() Forward to 7
[2020-04-22 20:19:38.209346 CEST] [3369] [info] Forwarding map loaded for 'gros-61' as '7'
[2020-04-22 20:19:38.209511 CEST] [3369] [info] forwarding_mapper() Forward to 7
[2020-04-22 20:19:38.210934 CEST] [3376] [info] Forwarding map loaded for 'gros-61' as '7'
[2020-04-22 20:19:38.211101 CEST] [3376] [info] forwarding_mapper() Forward to 7
[2020-04-22 20:19:38.211417 CEST] [3373] [info] Forwarding map loaded for 'gros-61' as '7'
[2020-04-22 20:19:38.211569 CEST] [3373] [info] forwarding_mapper() Forward to 7
[2020-04-22 20:19:38.212101 CEST] [3368] [info] Forwarding map loaded for 'gros-61' as '7'
[2020-04-22 20:19:38.212107 CEST] [3375] [info] Forwarding map loaded for 'gros-61' as '7'
[2020-04-22 20:19:38.212253 CEST] [3368] [info] forwarding_mapper() Forward to 7
[2020-04-22 20:19:38.212266 CEST] [3375] [info] forwarding_mapper() Forward to 7
[2020-04-22 20:19:38.212706 CEST] [3374] [info] Forwarding map loaded for 'gros-61' as '7'
[2020-04-22 20:19:38.212861 CEST] [3374] [info] forwarding_mapper() Forward to 7
[2020-04-22 20:19:38.215432 CEST] [3372] [info] Forwarding map loaded for 'gros-61' as '7'
[2020-04-22 20:19:38.215588 CEST] [3372] [info] forwarding_mapper() Forward to 7
[2020-04-22 20:19:48.214670 CEST] [3369] [info] Forwarding map loaded for 'gros-61' as '7'
[2020-04-22 20:19:48.214834 CEST] [3369] [info] forwarding_mapper() Forward to 7
[2020-04-22 20:19:48.215156 CEST] [3370] [info] Forwarding map loaded for 'gros-61' as '7'
[2020-04-22 20:19:48.215312 CEST] [3370] [info] forwarding_mapper() Forward to 7
[2020-04-22 20:19:48.215895 CEST] [3376] [info] Forwarding map loaded for 'gros-61' as '7'
[2020-04-22 20:19:48.216043 CEST] [3376] [info] forwarding_mapper() Forward to 7
[2020-04-22 20:19:48.216120 CEST] [3373] [info] Forwarding map loaded for 'gros-61' as '7'
[2020-04-22 20:19:48.216270 CEST] [3373] [info] forwarding_mapper() Forward to 7
[2020-04-22 20:19:48.216753 CEST] [3375] [info] Forwarding map loaded for 'gros-61' as '7'
[2020-04-22 20:19:48.216902 CEST] [3375] [info] forwarding_mapper() Forward to 7
[2020-04-22 20:19:48.217429 CEST] [3368] [info] Forwarding map loaded for 'gros-61' as '7'
[2020-04-22 20:19:48.217578 CEST] [3368] [info] forwarding_mapper() Forward to 7
[2020-04-22 20:19:48.218164 CEST] [3374] [info] Forwarding map loaded for 'gros-61' as '7'
[2020-04-22 20:19:48.218318 CEST] [3374] [info] forwarding_mapper() Forward to 7
[2020-04-22 20:19:48.220676 CEST] [3372] [info] Forwarding map loaded for 'gros-61' as '7'
[2020-04-22 20:19:48.220835 CEST] [3372] [info] forwarding_mapper() Forward to 7
[2020-04-22 20:19:58.219931 CEST] [3369] [info] Forwarding map loaded for 'gros-61' as '7'
[2020-04-22 20:19:58.220086 CEST] [3369] [info] forwarding_mapper() Forward to 7
[2020-04-22 20:19:58.221467 CEST] [3375] [info] Forwarding map loaded for 'gros-61' as '7'
[2020-04-22 20:19:58.221620 CEST] [3375] [info] forwarding_mapper() Forward to 7
[2020-04-22 20:19:58.222286 CEST] [3373] [info] Forwarding map loaded for 'gros-61' as '7'
[2020-04-22 20:19:58.222439 CEST] [3373] [info] forwarding_mapper() Forward to 7
[2020-04-22 20:19:58.222936 CEST] [3374] [info] Forwarding map loaded for 'gros-61' as '7'
[2020-04-22 20:19:58.223091 CEST] [3374] [info] forwarding_mapper() Forward to 7
[2020-04-22 20:19:58.225285 CEST] [3370] [info] Forwarding map loaded for 'gros-61' as '7'
[2020-04-22 20:19:58.225434 CEST] [3370] [info] forwarding_mapper() Forward to 7
[2020-04-22 20:19:58.226186 CEST] [3376] [info] Forwarding map loaded for 'gros-61' as '7'
[2020-04-22 20:19:58.226335 CEST] [3376] [info] forwarding_mapper() Forward to 7
[2020-04-22 20:19:58.227554 CEST] [3368] [info] Forwarding map loaded for 'gros-61' as '7'
[2020-04-22 20:19:58.227714 CEST] [3368] [info] forwarding_mapper() Forward to 7
[2020-04-22 20:19:58.231305 CEST] [3372] [info] Forwarding map loaded for 'gros-61' as '7'
[2020-04-22 20:19:58.231463 CEST] [3372] [info] forwarding_mapper() Forward to 7
[2020-04-22 20:20:08.225355 CEST] [3369] [info] Forwarding map loaded for 'gros-61' as '7'
[2020-04-22 20:20:08.225512 CEST] [3369] [info] forwarding_mapper() Forward to 7
[2020-04-22 20:20:08.226202 CEST] [3375] [info] Forwarding map loaded for 'gros-61' as '7'
[2020-04-22 20:20:08.226352 CEST] [3375] [info] forwarding_mapper() Forward to 7
[2020-04-22 20:20:08.227910 CEST] [3373] [info] Forwarding map loaded for 'gros-61' as '7'
[2020-04-22 20:20:08.228073 CEST] [3373] [info] forwarding_mapper() Forward to 7
[2020-04-22 20:20:08.228566 CEST] [3374] [info] Forwarding map loaded for 'gros-61' as '7'
[2020-04-22 20:20:08.228723 CEST] [3374] [info] forwarding_mapper() Forward to 7
[2020-04-22 20:20:08.230760 CEST] [3370] [info] Forwarding map loaded for 'gros-61' as '7'
[2020-04-22 20:20:08.230905 CEST] [3370] [info] forwarding_mapper() Forward to 7
[2020-04-22 20:20:08.231697 CEST] [3376] [info] Forwarding map loaded for 'gros-61' as '7'
[2020-04-22 20:20:08.231845 CEST] [3376] [info] forwarding_mapper() Forward to 7
[2020-04-22 20:20:08.232941 CEST] [3368] [info] Forwarding map loaded for 'gros-61' as '7'
[2020-04-22 20:20:08.233092 CEST] [3368] [info] forwarding_mapper() Forward to 7
[2020-04-22 20:20:08.236598 CEST] [3372] [info] Forwarding map loaded for 'gros-61' as '7'
[2020-04-22 20:20:08.236765 CEST] [3372] [info] forwarding_mapper() Forward to 7
[2020-04-22 20:20:18.230694 CEST] [3369] [info] Forwarding map loaded for 'gros-61' as '7'
[2020-04-22 20:20:18.230856 CEST] [3369] [info] forwarding_mapper() Forward to 7
[2020-04-22 20:20:18.232852 CEST] [3373] [info] Forwarding map loaded for 'gros-61' as '7'
[2020-04-22 20:20:18.233004 CEST] [3373] [info] forwarding_mapper() Forward to 7
[2020-04-22 20:20:18.236196 CEST] [3370] [info] Forwarding map loaded for 'gros-61' as '7'
[2020-04-22 20:20:18.236346 CEST] [3370] [info] forwarding_mapper() Forward to 7
[2020-04-22 20:20:18.236412 CEST] [3375] [info] Forwarding map loaded for 'gros-61' as '7'
[2020-04-22 20:20:18.236566 CEST] [3375] [info] forwarding_mapper() Forward to 7
[2020-04-22 20:20:18.237572 CEST] [3376] [info] Forwarding map loaded for 'gros-61' as '7'
[2020-04-22 20:20:18.237731 CEST] [3376] [info] forwarding_mapper() Forward to 7
[2020-04-22 20:20:18.238903 CEST] [3374] [info] Forwarding map loaded for 'gros-61' as '7'
[2020-04-22 20:20:18.239056 CEST] [3374] [info] forwarding_mapper() Forward to 7
[2020-04-22 20:20:18.243127 CEST] [3368] [info] Forwarding map loaded for 'gros-61' as '7'
[2020-04-22 20:20:18.243277 CEST] [3368] [info] forwarding_mapper() Forward to 7
[2020-04-22 20:20:18.247319 CEST] [3372] [info] Forwarding map loaded for 'gros-61' as '7'
[2020-04-22 20:20:18.247475 CEST] [3372] [info] forwarding_mapper() Forward to 7
[2020-04-22 20:20:28.236012 CEST] [3369] [info] Forwarding map loaded for 'gros-61' as '7'
[2020-04-22 20:20:28.236170 CEST] [3369] [info] forwarding_mapper() Forward to 7
[2020-04-22 20:20:28.237769 CEST] [3373] [info] Forwarding map loaded for 'gros-61' as '7'
[2020-04-22 20:20:28.237919 CEST] [3373] [info] forwarding_mapper() Forward to 7
[2020-04-22 20:20:28.241212 CEST] [3375] [info] Forwarding map loaded for 'gros-61' as '7'
[2020-04-22 20:20:28.241364 CEST] [3375] [info] forwarding_mapper() Forward to 7
[2020-04-22 20:20:28.241660 CEST] [3370] [info] Forwarding map loaded for 'gros-61' as '7'
[2020-04-22 20:20:28.241816 CEST] [3370] [info] forwarding_mapper() Forward to 7
[2020-04-22 20:20:28.242256 CEST] [3376] [info] Forwarding map loaded for 'gros-61' as '7'
[2020-04-22 20:20:28.242404 CEST] [3376] [info] forwarding_mapper() Forward to 7
[2020-04-22 20:20:28.243940 CEST] [3374] [info] Forwarding map loaded for 'gros-61' as '7'
[2020-04-22 20:20:28.244103 CEST] [3374] [info] forwarding_mapper() Forward to 7
[2020-04-22 20:20:28.248839 CEST] [3368] [info] Forwarding map loaded for 'gros-61' as '7'
[2020-04-22 20:20:28.248990 CEST] [3368] [info] forwarding_mapper() Forward to 7
[2020-04-22 20:20:28.253181 CEST] [3372] [info] Forwarding map loaded for 'gros-61' as '7'
[2020-04-22 20:20:28.253338 CEST] [3372] [info] forwarding_mapper() Forward to 7
[2020-04-22 20:20:38.241510 CEST] [3369] [info] Forwarding map loaded for 'gros-61' as '7'
[2020-04-22 20:20:38.241681 CEST] [3369] [info] forwarding_mapper() Forward to 7
[2020-04-22 20:20:38.242642 CEST] [3373] [info] Forwarding map loaded for 'gros-61' as '7'
[2020-04-22 20:20:38.242801 CEST] [3373] [info] forwarding_mapper() Forward to 7
[2020-04-22 20:20:38.246071 CEST] [3375] [info] Forwarding map loaded for 'gros-61' as '7'
[2020-04-22 20:20:38.246237 CEST] [3375] [info] forwarding_mapper() Forward to 7
[2020-04-22 20:20:38.247747 CEST] [3376] [info] Forwarding map loaded for 'gros-61' as '7'
[2020-04-22 20:20:38.247893 CEST] [3376] [info] forwarding_mapper() Forward to 7
[2020-04-22 20:20:38.248729 CEST] [3370] [info] Forwarding map loaded for 'gros-61' as '7'
[2020-04-22 20:20:38.248886 CEST] [3370] [info] forwarding_mapper() Forward to 7
[2020-04-22 20:20:38.254673 CEST] [3374] [info] Forwarding map loaded for 'gros-61' as '7'
[2020-04-22 20:20:38.254827 CEST] [3374] [info] forwarding_mapper() Forward to 7
[2020-04-22 20:20:38.255355 CEST] [3368] [info] Forwarding map loaded for 'gros-61' as '7'
[2020-04-22 20:20:38.255512 CEST] [3368] [info] forwarding_mapper() Forward to 7
[2020-04-22 20:20:38.264440 CEST] [3372] [info] Forwarding map loaded for 'gros-61' as '7'
[2020-04-22 20:20:38.264594 CEST] [3372] [info] forwarding_mapper() Forward to 7
[2020-04-22 20:20:48.246875 CEST] [3369] [info] Forwarding map loaded for 'gros-61' as '7'
[2020-04-22 20:20:48.247031 CEST] [3369] [info] forwarding_mapper() Forward to 7
[2020-04-22 20:20:48.247541 CEST] [3373] [info] Forwarding map loaded for 'gros-61' as '7'
[2020-04-22 20:20:48.247700 CEST] [3373] [info] forwarding_mapper() Forward to 7
[2020-04-22 20:20:48.250869 CEST] [3375] [info] Forwarding map loaded for 'gros-61' as '7'
[2020-04-22 20:20:48.251018 CEST] [3375] [info] forwarding_mapper() Forward to 7
[2020-04-22 20:20:48.253324 CEST] [3376] [info] Forwarding map loaded for 'gros-61' as '7'
[2020-04-22 20:20:48.253472 CEST] [3376] [info] forwarding_mapper() Forward to 7
[2020-04-22 20:20:48.254603 CEST] [3370] [info] Forwarding map loaded for 'gros-61' as '7'
[2020-04-22 20:20:48.254765 CEST] [3370] [info] forwarding_mapper() Forward to 7
[2020-04-22 20:20:48.260764 CEST] [3374] [info] Forwarding map loaded for 'gros-61' as '7'
[2020-04-22 20:20:48.260920 CEST] [3374] [info] forwarding_mapper() Forward to 7
[2020-04-22 20:20:48.261160 CEST] [3368] [info] Forwarding map loaded for 'gros-61' as '7'
[2020-04-22 20:20:48.261317 CEST] [3368] [info] forwarding_mapper() Forward to 7
[2020-04-22 20:20:48.270274 CEST] [3372] [info] Forwarding map loaded for 'gros-61' as '7'
[2020-04-22 20:20:48.270428 CEST] [3372] [info] forwarding_mapper() Forward to 7
[2020-04-22 20:20:58.252518 CEST] [3369] [info] Forwarding map loaded for 'gros-61' as '7'
[2020-04-22 20:20:58.252687 CEST] [3369] [info] forwarding_mapper() Forward to 7
[2020-04-22 20:20:58.253007 CEST] [3373] [info] Forwarding map loaded for 'gros-61' as '7'
[2020-04-22 20:20:58.253163 CEST] [3373] [info] forwarding_mapper() Forward to 7
[2020-04-22 20:20:58.255506 CEST] [3375] [info] Forwarding map loaded for 'gros-61' as '7'
[2020-04-22 20:20:58.255663 CEST] [3375] [info] forwarding_mapper() Forward to 7
[2020-04-22 20:20:58.258009 CEST] [3376] [info] Forwarding map loaded for 'gros-61' as '7'
[2020-04-22 20:20:58.258158 CEST] [3376] [info] forwarding_mapper() Forward to 7
[2020-04-22 20:20:58.260484 CEST] [3370] [info] Forwarding map loaded for 'gros-61' as '7'
[2020-04-22 20:20:58.260651 CEST] [3370] [info] forwarding_mapper() Forward to 7
[2020-04-22 20:20:58.271665 CEST] [3374] [info] Forwarding map loaded for 'gros-61' as '7'
[2020-04-22 20:20:58.271819 CEST] [3374] [info] forwarding_mapper() Forward to 7
[2020-04-22 20:20:58.272019 CEST] [3368] [info] Forwarding map loaded for 'gros-61' as '7'
[2020-04-22 20:20:58.272171 CEST] [3368] [info] forwarding_mapper() Forward to 7
[2020-04-22 20:20:58.275616 CEST] [3372] [info] Forwarding map loaded for 'gros-61' as '7'
[2020-04-22 20:20:58.275779 CEST] [3372] [info] forwarding_mapper() Forward to 7
[2020-04-22 20:21:08.257975 CEST] [3369] [info] Forwarding map loaded for 'gros-61' as '7'
[2020-04-22 20:21:08.258136 CEST] [3369] [info] forwarding_mapper() Forward to 7
[2020-04-22 20:21:08.258390 CEST] [3373] [info] Forwarding map loaded for 'gros-61' as '7'
[2020-04-22 20:21:08.258547 CEST] [3373] [info] forwarding_mapper() Forward to 7
[2020-04-22 20:21:08.260284 CEST] [3375] [info] Forwarding map loaded for 'gros-61' as '7'
[2020-04-22 20:21:08.260436 CEST] [3375] [info] forwarding_mapper() Forward to 7
[2020-04-22 20:21:08.262698 CEST] [3376] [info] Forwarding map loaded for 'gros-61' as '7'
[2020-04-22 20:21:08.262847 CEST] [3376] [info] forwarding_mapper() Forward to 7
[2020-04-22 20:21:08.266333 CEST] [3370] [info] Forwarding map loaded for 'gros-61' as '7'
[2020-04-22 20:21:08.266487 CEST] [3370] [info] forwarding_mapper() Forward to 7
[2020-04-22 20:21:08.278119 CEST] [3374] [info] Forwarding map loaded for 'gros-61' as '7'
[2020-04-22 20:21:08.278268 CEST] [3374] [info] forwarding_mapper() Forward to 7
[2020-04-22 20:21:08.278365 CEST] [3368] [info] Forwarding map loaded for 'gros-61' as '7'
[2020-04-22 20:21:08.278517 CEST] [3368] [info] forwarding_mapper() Forward to 7
[2020-04-22 20:21:08.281415 CEST] [3372] [info] Forwarding map loaded for 'gros-61' as '7'
[2020-04-22 20:21:08.281569 CEST] [3372] [info] forwarding_mapper() Forward to 7
[2020-04-22 20:21:18.263409 CEST] [3369] [info] Forwarding map loaded for 'gros-61' as '7'
[2020-04-22 20:21:18.263568 CEST] [3369] [info] forwarding_mapper() Forward to 7
[2020-04-22 20:21:18.263993 CEST] [3373] [info] Forwarding map loaded for 'gros-61' as '7'
[2020-04-22 20:21:18.264150 CEST] [3373] [info] forwarding_mapper() Forward to 7
[2020-04-22 20:21:18.265007 CEST] [3375] [info] Forwarding map loaded for 'gros-61' as '7'
[2020-04-22 20:21:18.265158 CEST] [3375] [info] forwarding_mapper() Forward to 7
[2020-04-22 20:21:18.266825 CEST] [3376] [info] Forwarding map loaded for 'gros-61' as '7'
[2020-04-22 20:21:18.266951 CEST] [3376] [info] forwarding_mapper() Forward to 7
[2020-04-22 20:21:18.277603 CEST] [3370] [info] Forwarding map loaded for 'gros-61' as '7'
[2020-04-22 20:21:18.277786 CEST] [3370] [info] forwarding_mapper() Forward to 7
[2020-04-22 20:21:18.287150 CEST] [3372] [info] Forwarding map loaded for 'gros-61' as '7'
[2020-04-22 20:21:18.287300 CEST] [3372] [info] forwarding_mapper() Forward to 7
[2020-04-22 20:21:18.288565 CEST] [3374] [info] Forwarding map loaded for 'gros-61' as '7'
[2020-04-22 20:21:18.288722 CEST] [3374] [info] forwarding_mapper() Forward to 7
[2020-04-22 20:21:18.288906 CEST] [3368] [info] Forwarding map loaded for 'gros-61' as '7'
[2020-04-22 20:21:18.289065 CEST] [3368] [info] forwarding_mapper() Forward to 7
[2020-04-22 20:21:28.268906 CEST] [3369] [info] Forwarding map loaded for 'gros-61' as '7'
[2020-04-22 20:21:28.269065 CEST] [3369] [info] forwarding_mapper() Forward to 7
[2020-04-22 20:21:28.269701 CEST] [3373] [info] Forwarding map loaded for 'gros-61' as '7'
[2020-04-22 20:21:28.269769 CEST] [3375] [info] Forwarding map loaded for 'gros-61' as '7'
[2020-04-22 20:21:28.269856 CEST] [3373] [info] forwarding_mapper() Forward to 7
[2020-04-22 20:21:28.269913 CEST] [3375] [info] forwarding_mapper() Forward to 7
[2020-04-22 20:21:28.272928 CEST] [3376] [info] Forwarding map loaded for 'gros-61' as '7'
[2020-04-22 20:21:28.273082 CEST] [3376] [info] forwarding_mapper() Forward to 7
[2020-04-22 20:21:28.283677 CEST] [3370] [info] Forwarding map loaded for 'gros-61' as '7'
[2020-04-22 20:21:28.283832 CEST] [3370] [info] forwarding_mapper() Forward to 7
[2020-04-22 20:21:28.292510 CEST] [3372] [info] Forwarding map loaded for 'gros-61' as '7'
[2020-04-22 20:21:28.292668 CEST] [3372] [info] forwarding_mapper() Forward to 7
[2020-04-22 20:21:28.293303 CEST] [3374] [info] Forwarding map loaded for 'gros-61' as '7'
[2020-04-22 20:21:28.293454 CEST] [3374] [info] forwarding_mapper() Forward to 7
[2020-04-22 20:21:28.294764 CEST] [3368] [info] Forwarding map loaded for 'gros-61' as '7'
[2020-04-22 20:21:28.294925 CEST] [3368] [info] forwarding_mapper() Forward to 7
[2020-04-22 20:21:38.274417 CEST] [3369] [info] Forwarding map loaded for 'gros-61' as '7'
[2020-04-22 20:21:38.274574 CEST] [3369] [info] forwarding_mapper() Forward to 7
[2020-04-22 20:21:38.276283 CEST] [3375] [info] Forwarding map loaded for 'gros-61' as '7'
[2020-04-22 20:21:38.276433 CEST] [3375] [info] forwarding_mapper() Forward to 7
[2020-04-22 20:21:38.277748 CEST] [3376] [info] Forwarding map loaded for 'gros-61' as '7'
[2020-04-22 20:21:38.277890 CEST] [3376] [info] forwarding_mapper() Forward to 7
[2020-04-22 20:21:38.280369 CEST] [3373] [info] Forwarding map loaded for 'gros-61' as '7'
[2020-04-22 20:21:38.280529 CEST] [3373] [info] forwarding_mapper() Forward to 7
[2020-04-22 20:21:38.291098 CEST] [3370] [info] Forwarding map loaded for 'gros-61' as '7'
[2020-04-22 20:21:38.291254 CEST] [3370] [info] forwarding_mapper() Forward to 7
[2020-04-22 20:21:38.300942 CEST] [3368] [info] Forwarding map loaded for 'gros-61' as '7'
[2020-04-22 20:21:38.301094 CEST] [3368] [info] forwarding_mapper() Forward to 7
[2020-04-22 20:21:38.303033 CEST] [3372] [info] Forwarding map loaded for 'gros-61' as '7'
[2020-04-22 20:21:38.303180 CEST] [3372] [info] forwarding_mapper() Forward to 7
[2020-04-22 20:21:38.304177 CEST] [3374] [info] Forwarding map loaded for 'gros-61' as '7'
[2020-04-22 20:21:38.304333 CEST] [3374] [info] forwarding_mapper() Forward to 7
[2020-04-22 20:21:48.279886 CEST] [3369] [info] Forwarding map loaded for 'gros-61' as '7'
[2020-04-22 20:21:48.280041 CEST] [3369] [info] forwarding_mapper() Forward to 7
[2020-04-22 20:21:48.280978 CEST] [3375] [info] Forwarding map loaded for 'gros-61' as '7'
[2020-04-22 20:21:48.281130 CEST] [3375] [info] forwarding_mapper() Forward to 7
[2020-04-22 20:21:48.283348 CEST] [3376] [info] Forwarding map loaded for 'gros-61' as '7'
[2020-04-22 20:21:48.283496 CEST] [3376] [info] forwarding_mapper() Forward to 7
[2020-04-22 20:21:48.286618 CEST] [3373] [info] Forwarding map loaded for 'gros-61' as '7'
[2020-04-22 20:21:48.286784 CEST] [3373] [info] forwarding_mapper() Forward to 7
[2020-04-22 20:21:48.297441 CEST] [3370] [info] Forwarding map loaded for 'gros-61' as '7'
[2020-04-22 20:21:48.297592 CEST] [3370] [info] forwarding_mapper() Forward to 7
[2020-04-22 20:21:48.306999 CEST] [3368] [info] Forwarding map loaded for 'gros-61' as '7'
[2020-04-22 20:21:48.307148 CEST] [3368] [info] forwarding_mapper() Forward to 7
[2020-04-22 20:21:48.308725 CEST] [3372] [info] Forwarding map loaded for 'gros-61' as '7'
[2020-04-22 20:21:48.308873 CEST] [3372] [info] forwarding_mapper() Forward to 7
[2020-04-22 20:21:48.310257 CEST] [3374] [info] Forwarding map loaded for 'gros-61' as '7'
[2020-04-22 20:21:48.310411 CEST] [3374] [info] forwarding_mapper() Forward to 7
[2020-04-22 20:21:58.285564 CEST] [3369] [info] Forwarding map loaded for 'gros-61' as '7'
[2020-04-22 20:21:58.285737 CEST] [3369] [info] forwarding_mapper() Forward to 7
[2020-04-22 20:21:58.291343 CEST] [3373] [info] Forwarding map loaded for 'gros-61' as '7'
[2020-04-22 20:21:58.291371 CEST] [3375] [info] Forwarding map loaded for 'gros-61' as '7'
[2020-04-22 20:21:58.291491 CEST] [3373] [info] forwarding_mapper() Forward to 7
[2020-04-22 20:21:58.291523 CEST] [3375] [info] forwarding_mapper() Forward to 7
[2020-04-22 20:21:58.294147 CEST] [3376] [info] Forwarding map loaded for 'gros-61' as '7'
[2020-04-22 20:21:58.294299 CEST] [3376] [info] forwarding_mapper() Forward to 7
[2020-04-22 20:21:58.303137 CEST] [3370] [info] Forwarding map loaded for 'gros-61' as '7'
[2020-04-22 20:21:58.303293 CEST] [3370] [info] forwarding_mapper() Forward to 7
[2020-04-22 20:21:58.314098 CEST] [3372] [info] Forwarding map loaded for 'gros-61' as '7'
[2020-04-22 20:21:58.314250 CEST] [3372] [info] forwarding_mapper() Forward to 7
[2020-04-22 20:21:58.317378 CEST] [3368] [info] Forwarding map loaded for 'gros-61' as '7'
[2020-04-22 20:21:58.317531 CEST] [3368] [info] forwarding_mapper() Forward to 7
[2020-04-22 20:21:58.318879 CEST] [3374] [info] Forwarding map loaded for 'gros-61' as '7'
[2020-04-22 20:21:58.319035 CEST] [3374] [info] forwarding_mapper() Forward to 7
[2020-04-22 20:22:08.291619 CEST] [3369] [info] Forwarding map loaded for 'gros-61' as '7'
[2020-04-22 20:22:08.291791 CEST] [3369] [info] forwarding_mapper() Forward to 7
[2020-04-22 20:22:08.297664 CEST] [3375] [info] Forwarding map loaded for 'gros-61' as '7'
[2020-04-22 20:22:08.297811 CEST] [3375] [info] forwarding_mapper() Forward to 7
[2020-04-22 20:22:08.297864 CEST] [3373] [info] Forwarding map loaded for 'gros-61' as '7'
[2020-04-22 20:22:08.298017 CEST] [3373] [info] forwarding_mapper() Forward to 7
[2020-04-22 20:22:08.299262 CEST] [3376] [info] Forwarding map loaded for 'gros-61' as '7'
[2020-04-22 20:22:08.299415 CEST] [3376] [info] forwarding_mapper() Forward to 7
[2020-04-22 20:22:08.308952 CEST] [3370] [info] Forwarding map loaded for 'gros-61' as '7'
[2020-04-22 20:22:08.309106 CEST] [3370] [info] forwarding_mapper() Forward to 7
[2020-04-22 20:22:08.320387 CEST] [3372] [info] Forwarding map loaded for 'gros-61' as '7'
[2020-04-22 20:22:08.320540 CEST] [3372] [info] forwarding_mapper() Forward to 7
[2020-04-22 20:22:08.322888 CEST] [3368] [info] Forwarding map loaded for 'gros-61' as '7'
[2020-04-22 20:22:08.323038 CEST] [3368] [info] forwarding_mapper() Forward to 7
[2020-04-22 20:22:08.325000 CEST] [3374] [info] Forwarding map loaded for 'gros-61' as '7'
[2020-04-22 20:22:08.325160 CEST] [3374] [info] forwarding_mapper() Forward to 7
[2020-04-22 20:22:18.295590 CEST] [3369] [info] Forwarding map loaded for 'gros-61' as '7'
[2020-04-22 20:22:18.295691 CEST] [3369] [info] forwarding_mapper() Forward to 7
[2020-04-22 20:22:18.301988 CEST] [3373] [info] Forwarding map loaded for 'gros-61' as '7'
[2020-04-22 20:22:18.302060 CEST] [3373] [info] forwarding_mapper() Forward to 7
[2020-04-22 20:22:18.302950 CEST] [3375] [info] Forwarding map loaded for 'gros-61' as '7'
[2020-04-22 20:22:18.303100 CEST] [3375] [info] forwarding_mapper() Forward to 7
[2020-04-22 20:22:18.304205 CEST] [3376] [info] Forwarding map loaded for 'gros-61' as '7'
[2020-04-22 20:22:18.304355 CEST] [3376] [info] forwarding_mapper() Forward to 7
[2020-04-22 20:22:18.314478 CEST] [3370] [info] Forwarding map loaded for 'gros-61' as '7'
[2020-04-22 20:22:18.314639 CEST] [3370] [info] forwarding_mapper() Forward to 7
[2020-04-22 20:22:18.326111 CEST] [3372] [info] Forwarding map loaded for 'gros-61' as '7'
[2020-04-22 20:22:18.326266 CEST] [3372] [info] forwarding_mapper() Forward to 7
[2020-04-22 20:22:18.331004 CEST] [3374] [info] Forwarding map loaded for 'gros-61' as '7'
[2020-04-22 20:22:18.331156 CEST] [3374] [info] forwarding_mapper() Forward to 7
[2020-04-22 20:22:18.331483 CEST] [3368] [info] Forwarding map loaded for 'gros-61' as '7'
[2020-04-22 20:22:18.331645 CEST] [3368] [info] forwarding_mapper() Forward to 7
[2020-04-22 20:22:28.301204 CEST] [3369] [info] Forwarding map loaded for 'gros-61' as '7'
[2020-04-22 20:22:28.301362 CEST] [3369] [info] forwarding_mapper() Forward to 7
[2020-04-22 20:22:28.306785 CEST] [3375] [info] Forwarding map loaded for 'gros-61' as '7'
[2020-04-22 20:22:28.306888 CEST] [3375] [info] forwarding_mapper() Forward to 7
[2020-04-22 20:22:28.307255 CEST] [3373] [info] Forwarding map loaded for 'gros-61' as '7'
[2020-04-22 20:22:28.307396 CEST] [3373] [info] forwarding_mapper() Forward to 7
[2020-04-22 20:22:28.308998 CEST] [3376] [info] Forwarding map loaded for 'gros-61' as '7'
[2020-04-22 20:22:28.309147 CEST] [3376] [info] forwarding_mapper() Forward to 7
[2020-04-22 20:22:28.319749 CEST] [3370] [info] Forwarding map loaded for 'gros-61' as '7'
[2020-04-22 20:22:28.319896 CEST] [3370] [info] forwarding_mapper() Forward to 7
[2020-04-22 20:22:28.331401 CEST] [3372] [info] Forwarding map loaded for 'gros-61' as '7'
[2020-04-22 20:22:28.331549 CEST] [3372] [info] forwarding_mapper() Forward to 7
[2020-04-22 20:22:28.335013 CEST] [3374] [info] Forwarding map loaded for 'gros-61' as '7'
[2020-04-22 20:22:28.335086 CEST] [3374] [info] forwarding_mapper() Forward to 7
[2020-04-22 20:22:28.335329 CEST] [3368] [info] Forwarding map loaded for 'gros-61' as '7'
[2020-04-22 20:22:28.335402 CEST] [3368] [info] forwarding_mapper() Forward to 7
[2020-04-22 20:22:38.306792 CEST] [3369] [info] Forwarding map loaded for 'gros-61' as '7'
[2020-04-22 20:22:38.306937 CEST] [3369] [info] forwarding_mapper() Forward to 7
[2020-04-22 20:22:38.312345 CEST] [3373] [info] Forwarding map loaded for 'gros-61' as '7'
[2020-04-22 20:22:38.312497 CEST] [3373] [info] forwarding_mapper() Forward to 7
[2020-04-22 20:22:38.313609 CEST] [3376] [info] Forwarding map loaded for 'gros-61' as '7'
[2020-04-22 20:22:38.313752 CEST] [3376] [info] forwarding_mapper() Forward to 7
[2020-04-22 20:22:38.315551 CEST] [3375] [info] Forwarding map loaded for 'gros-61' as '7'
[2020-04-22 20:22:38.315619 CEST] [3375] [info] forwarding_mapper() Forward to 7
[2020-04-22 20:22:38.330878 CEST] [3370] [info] Forwarding map loaded for 'gros-61' as '7'
[2020-04-22 20:22:38.331018 CEST] [3370] [info] forwarding_mapper() Forward to 7
[2020-04-22 20:22:38.336639 CEST] [3372] [info] Forwarding map loaded for 'gros-61' as '7'
[2020-04-22 20:22:38.336782 CEST] [3372] [info] forwarding_mapper() Forward to 7
[2020-04-22 20:22:38.339441 CEST] [3368] [info] Forwarding map loaded for 'gros-61' as '7'
[2020-04-22 20:22:38.339507 CEST] [3368] [info] forwarding_mapper() Forward to 7
[2020-04-22 20:22:38.343808 CEST] [3374] [info] Forwarding map loaded for 'gros-61' as '7'
[2020-04-22 20:22:38.343873 CEST] [3374] [info] forwarding_mapper() Forward to 7
[2020-04-22 20:22:48.312367 CEST] [3369] [info] Forwarding map loaded for 'gros-61' as '7'
[2020-04-22 20:22:48.312509 CEST] [3369] [info] forwarding_mapper() Forward to 7
[2020-04-22 20:22:48.317348 CEST] [3373] [info] Forwarding map loaded for 'gros-61' as '7'
[2020-04-22 20:22:48.317487 CEST] [3373] [info] forwarding_mapper() Forward to 7
[2020-04-22 20:22:48.318215 CEST] [3376] [info] Forwarding map loaded for 'gros-61' as '7'
[2020-04-22 20:22:48.318353 CEST] [3376] [info] forwarding_mapper() Forward to 7
[2020-04-22 20:22:48.319615 CEST] [3375] [info] Forwarding map loaded for 'gros-61' as '7'
[2020-04-22 20:22:48.319680 CEST] [3375] [info] forwarding_mapper() Forward to 7
[2020-04-22 20:22:48.337306 CEST] [3370] [info] Forwarding map loaded for 'gros-61' as '7'
[2020-04-22 20:22:48.337445 CEST] [3370] [info] forwarding_mapper() Forward to 7
[2020-04-22 20:22:48.341771 CEST] [3372] [info] Forwarding map loaded for 'gros-61' as '7'
[2020-04-22 20:22:48.341909 CEST] [3372] [info] forwarding_mapper() Forward to 7
[2020-04-22 20:22:48.343113 CEST] [3368] [info] Forwarding map loaded for 'gros-61' as '7'
[2020-04-22 20:22:48.343177 CEST] [3368] [info] forwarding_mapper() Forward to 7
[2020-04-22 20:22:48.347832 CEST] [3374] [info] Forwarding map loaded for 'gros-61' as '7'
[2020-04-22 20:22:48.347896 CEST] [3374] [info] forwarding_mapper() Forward to 7
[2020-04-22 20:22:58.317932 CEST] [3369] [info] Forwarding map loaded for 'gros-61' as '7'
[2020-04-22 20:22:58.318077 CEST] [3369] [info] forwarding_mapper() Forward to 7
[2020-04-22 20:22:58.322508 CEST] [3373] [info] Forwarding map loaded for 'gros-61' as '7'
[2020-04-22 20:22:58.322654 CEST] [3373] [info] forwarding_mapper() Forward to 7
[2020-04-22 20:22:58.323007 CEST] [3376] [info] Forwarding map loaded for 'gros-61' as '7'
[2020-04-22 20:22:58.323146 CEST] [3376] [info] forwarding_mapper() Forward to 7
[2020-04-22 20:22:58.328669 CEST] [3375] [info] Forwarding map loaded for 'gros-61' as '7'
[2020-04-22 20:22:58.328738 CEST] [3375] [info] forwarding_mapper() Forward to 7
[2020-04-22 20:22:58.346836 CEST] [3372] [info] Forwarding map loaded for 'gros-61' as '7'
[2020-04-22 20:22:58.346975 CEST] [3372] [info] forwarding_mapper() Forward to 7
[2020-04-22 20:22:58.348110 CEST] [3370] [info] Forwarding map loaded for 'gros-61' as '7'
[2020-04-22 20:22:58.348253 CEST] [3370] [info] forwarding_mapper() Forward to 7
[2020-04-22 20:22:58.351824 CEST] [3368] [info] Forwarding map loaded for 'gros-61' as '7'
[2020-04-22 20:22:58.351889 CEST] [3368] [info] forwarding_mapper() Forward to 7
[2020-04-22 20:22:58.356604 CEST] [3374] [info] Forwarding map loaded for 'gros-61' as '7'
[2020-04-22 20:22:58.356672 CEST] [3374] [info] forwarding_mapper() Forward to 7
[2020-04-22 20:23:08.355753 CEST] [3330] [info] All subsystems shut down. Client shutdown complete.
[2020-04-22 20:23:08.356630 CEST] [3331] [info] All subsystems shut down. Client shutdown complete.
[2020-04-22 20:23:08.370303 CEST] [3328] [info] All subsystems shut down. Client shutdown complete.
[2020-04-22 20:23:08.376111 CEST] [3333] [info] All subsystems shut down. Client shutdown complete.
[2020-04-22 20:23:08.384557 CEST] [3329] [info] All subsystems shut down. Client shutdown complete.
[2020-04-22 20:23:08.387723 CEST] [3335] [info] All subsystems shut down. Client shutdown complete.
[2020-04-22 20:23:08.393652 CEST] [3332] [info] All subsystems shut down. Client shutdown complete.
[2020-04-22 20:23:08.393683 CEST] [3334] [info] All subsystems shut down. Client shutdown complete.
