[2020-04-22 20:27:36.671029 CEST] [3505] [info] Process cmdline: '/root/benchmarks/S3D-IO/s3d_io.x 384 384 384 8 8 8 1 F /mnt/gkfs'
[2020-04-22 20:27:36.671318 CEST] [3505] [info] Initializing RPC subsystem...
[2020-04-22 20:27:36.671174 CEST] [3506] [info] Process cmdline: '/root/benchmarks/S3D-IO/s3d_io.x 384 384 384 8 8 8 1 F /mnt/gkfs'
[2020-04-22 20:27:36.671427 CEST] [3506] [info] Initializing RPC subsystem...
[2020-04-22 20:27:36.671962 CEST] [3507] [info] Process cmdline: '/root/benchmarks/S3D-IO/s3d_io.x 384 384 384 8 8 8 1 F /mnt/gkfs'
[2020-04-22 20:27:36.672191 CEST] [3507] [info] Initializing RPC subsystem...
[2020-04-22 20:27:36.674723 CEST] [3508] [info] Process cmdline: '/root/benchmarks/S3D-IO/s3d_io.x 384 384 384 8 8 8 1 F /mnt/gkfs'
[2020-04-22 20:27:36.674950 CEST] [3508] [info] Initializing RPC subsystem...
[2020-04-22 20:27:36.679890 CEST] [3509] [info] Process cmdline: '/root/benchmarks/S3D-IO/s3d_io.x 384 384 384 8 8 8 1 F /mnt/gkfs'
[2020-04-22 20:27:36.680116 CEST] [3509] [info] Initializing RPC subsystem...
[2020-04-22 20:27:36.681426 CEST] [3511] [info] Process cmdline: '/root/benchmarks/S3D-IO/s3d_io.x 384 384 384 8 8 8 1 F /mnt/gkfs'
[2020-04-22 20:27:36.681651 CEST] [3511] [info] Initializing RPC subsystem...
[2020-04-22 20:27:36.684120 CEST] [3510] [info] Process cmdline: '/root/benchmarks/S3D-IO/s3d_io.x 384 384 384 8 8 8 1 F /mnt/gkfs'
[2020-04-22 20:27:36.684341 CEST] [3510] [info] Initializing RPC subsystem...
[2020-04-22 20:27:36.685136 CEST] [3512] [info] Process cmdline: '/root/benchmarks/S3D-IO/s3d_io.x 384 384 384 8 8 8 1 F /mnt/gkfs'
[2020-04-22 20:27:36.685356 CEST] [3512] [info] Initializing RPC subsystem...
[2020-04-22 20:27:36.690862 CEST] [3505] [info] Loading peer addresses...
[2020-04-22 20:27:36.693171 CEST] [3505] [info] Hosts pool size: 12
[2020-04-22 20:27:36.695668 CEST] [3506] [info] Loading peer addresses...
[2020-04-22 20:27:36.698132 CEST] [3506] [info] Hosts pool size: 12
[2020-04-22 20:27:36.699675 CEST] [3507] [info] Loading peer addresses...
[2020-04-22 20:27:36.702043 CEST] [3507] [info] Hosts pool size: 12
[2020-04-22 20:27:36.706573 CEST] [3509] [info] Loading peer addresses...
[2020-04-22 20:27:36.708558 CEST] [3509] [info] Hosts pool size: 12
[2020-04-22 20:27:36.711131 CEST] [3511] [info] Loading peer addresses...
[2020-04-22 20:27:36.711378 CEST] [3510] [info] Loading peer addresses...
[2020-04-22 20:27:36.712524 CEST] [3508] [info] Loading peer addresses...
[2020-04-22 20:27:36.712864 CEST] [3511] [info] Hosts pool size: 12
[2020-04-22 20:27:36.712936 CEST] [3510] [info] Hosts pool size: 12
[2020-04-22 20:27:36.713013 CEST] [3512] [info] Loading peer addresses...
[2020-04-22 20:27:36.715061 CEST] [3508] [info] Hosts pool size: 12
[2020-04-22 20:27:36.715303 CEST] [3512] [info] Hosts pool size: 12
[2020-04-22 20:27:37.409012 CEST] [3505] [info] Forwarding map loaded for 'gros-35' as '9'
[2020-04-22 20:27:37.409191 CEST] [3505] [info] init_ld_environment_() Forward to 9
[2020-04-22 20:27:37.409324 CEST] [3505] [info] Retrieving file system configuration...
[2020-04-22 20:27:37.409480 CEST] [3509] [info] Forwarding map loaded for 'gros-35' as '9'
[2020-04-22 20:27:37.409659 CEST] [3509] [info] init_ld_environment_() Forward to 9
[2020-04-22 20:27:37.409814 CEST] [3509] [info] Retrieving file system configuration...
[2020-04-22 20:27:37.411482 CEST] [3506] [info] Forwarding map loaded for 'gros-35' as '9'
[2020-04-22 20:27:37.411658 CEST] [3506] [info] init_ld_environment_() Forward to 9
[2020-04-22 20:27:37.411804 CEST] [3506] [info] Retrieving file system configuration...
[2020-04-22 20:27:37.413127 CEST] [3511] [info] Forwarding map loaded for 'gros-35' as '9'
[2020-04-22 20:27:37.413306 CEST] [3511] [info] init_ld_environment_() Forward to 9
[2020-04-22 20:27:37.413434 CEST] [3511] [info] Retrieving file system configuration...
[2020-04-22 20:27:37.413721 CEST] [3512] [info] Forwarding map loaded for 'gros-35' as '9'
[2020-04-22 20:27:37.413923 CEST] [3512] [info] init_ld_environment_() Forward to 9
[2020-04-22 20:27:37.414051 CEST] [3512] [info] Retrieving file system configuration...
[2020-04-22 20:27:37.414123 CEST] [3510] [info] Forwarding map loaded for 'gros-35' as '9'
[2020-04-22 20:27:37.414344 CEST] [3510] [info] init_ld_environment_() Forward to 9
[2020-04-22 20:27:37.414510 CEST] [3510] [info] Retrieving file system configuration...
[2020-04-22 20:27:37.414677 CEST] [3505] [info] Mountdir: '/mnt/gkfs'
[2020-04-22 20:27:37.414867 CEST] [3505] [info] Environment initialization successful.
[2020-04-22 20:27:37.414881 CEST] [3508] [info] Forwarding map loaded for 'gros-35' as '9'
[2020-04-22 20:27:37.415062 CEST] [3508] [info] init_ld_environment_() Forward to 9
[2020-04-22 20:27:37.415193 CEST] [3508] [info] Retrieving file system configuration...
[2020-04-22 20:27:37.415222 CEST] [3509] [info] Mountdir: '/mnt/gkfs'
[2020-04-22 20:27:37.415353 CEST] [3509] [info] Environment initialization successful.
[2020-04-22 20:27:37.415553 CEST] [3507] [info] Forwarding map loaded for 'gros-35' as '9'
[2020-04-22 20:27:37.415755 CEST] [3507] [info] init_ld_environment_() Forward to 9
[2020-04-22 20:27:37.415889 CEST] [3507] [info] Retrieving file system configuration...
[2020-04-22 20:27:37.416661 CEST] [3506] [info] Mountdir: '/mnt/gkfs'
[2020-04-22 20:27:37.416818 CEST] [3506] [info] Environment initialization successful.
[2020-04-22 20:27:37.421329 CEST] [3511] [info] Mountdir: '/mnt/gkfs'
[2020-04-22 20:27:37.421489 CEST] [3511] [info] Environment initialization successful.
[2020-04-22 20:27:37.421608 CEST] [3512] [info] Mountdir: '/mnt/gkfs'
[2020-04-22 20:27:37.421764 CEST] [3512] [info] Environment initialization successful.
[2020-04-22 20:27:37.421779 CEST] [3510] [info] Mountdir: '/mnt/gkfs'
[2020-04-22 20:27:37.421905 CEST] [3510] [info] Environment initialization successful.
[2020-04-22 20:27:37.422024 CEST] [3507] [info] Mountdir: '/mnt/gkfs'
[2020-04-22 20:27:37.422153 CEST] [3507] [info] Environment initialization successful.
[2020-04-22 20:27:37.465291 CEST] [3546] [info] Forwarding map loaded for 'gros-35' as '9'
[2020-04-22 20:27:37.465458 CEST] [3546] [info] forwarding_mapper() Forward to 9
[2020-04-22 20:27:37.465413 CEST] [3545] [info] Forwarding map loaded for 'gros-35' as '9'
[2020-04-22 20:27:37.465581 CEST] [3545] [info] forwarding_mapper() Forward to 9
[2020-04-22 20:27:37.466909 CEST] [3547] [info] Forwarding map loaded for 'gros-35' as '9'
[2020-04-22 20:27:37.466962 CEST] [3548] [info] Forwarding map loaded for 'gros-35' as '9'
[2020-04-22 20:27:37.467082 CEST] [3547] [info] forwarding_mapper() Forward to 9
[2020-04-22 20:27:37.467133 CEST] [3548] [info] forwarding_mapper() Forward to 9
[2020-04-22 20:27:37.468777 CEST] [3551] [info] Forwarding map loaded for 'gros-35' as '9'
[2020-04-22 20:27:37.468805 CEST] [3553] [info] Forwarding map loaded for 'gros-35' as '9'
[2020-04-22 20:27:37.468941 CEST] [3551] [info] forwarding_mapper() Forward to 9
[2020-04-22 20:27:37.468984 CEST] [3553] [info] forwarding_mapper() Forward to 9
[2020-04-22 20:27:37.469145 CEST] [3554] [info] Forwarding map loaded for 'gros-35' as '9'
[2020-04-22 20:27:37.469311 CEST] [3554] [info] forwarding_mapper() Forward to 9
[2020-04-22 20:27:38.419884 CEST] [3508] [info] Mountdir: '/mnt/gkfs'
[2020-04-22 20:27:38.420042 CEST] [3508] [info] Environment initialization successful.
[2020-04-22 20:27:38.449803 CEST] [3566] [info] Forwarding map loaded for 'gros-35' as '9'
[2020-04-22 20:27:38.449977 CEST] [3566] [info] forwarding_mapper() Forward to 9
[2020-04-22 20:27:47.469410 CEST] [3546] [info] Forwarding map loaded for 'gros-35' as '9'
[2020-04-22 20:27:47.469526 CEST] [3546] [info] forwarding_mapper() Forward to 9
[2020-04-22 20:27:47.469748 CEST] [3545] [info] Forwarding map loaded for 'gros-35' as '9'
[2020-04-22 20:27:47.469849 CEST] [3545] [info] forwarding_mapper() Forward to 9
[2020-04-22 20:27:47.471771 CEST] [3551] [info] Forwarding map loaded for 'gros-35' as '9'
[2020-04-22 20:27:47.471866 CEST] [3551] [info] forwarding_mapper() Forward to 9
[2020-04-22 20:27:47.471924 CEST] [3548] [info] Forwarding map loaded for 'gros-35' as '9'
[2020-04-22 20:27:47.472081 CEST] [3548] [info] forwarding_mapper() Forward to 9
[2020-04-22 20:27:47.473110 CEST] [3547] [info] Forwarding map loaded for 'gros-35' as '9'
[2020-04-22 20:27:47.473268 CEST] [3547] [info] forwarding_mapper() Forward to 9
[2020-04-22 20:27:47.473840 CEST] [3553] [info] Forwarding map loaded for 'gros-35' as '9'
[2020-04-22 20:27:47.473993 CEST] [3553] [info] forwarding_mapper() Forward to 9
[2020-04-22 20:27:47.475732 CEST] [3554] [info] Forwarding map loaded for 'gros-35' as '9'
[2020-04-22 20:27:47.475894 CEST] [3554] [info] forwarding_mapper() Forward to 9
[2020-04-22 20:27:48.457930 CEST] [3566] [info] Forwarding map loaded for 'gros-35' as '9'
[2020-04-22 20:27:48.458106 CEST] [3566] [info] forwarding_mapper() Forward to 9
[2020-04-22 20:27:57.472947 CEST] [3546] [info] Forwarding map loaded for 'gros-35' as '9'
[2020-04-22 20:27:57.473047 CEST] [3546] [info] forwarding_mapper() Forward to 9
[2020-04-22 20:27:57.478321 CEST] [3551] [info] Forwarding map loaded for 'gros-35' as '9'
[2020-04-22 20:27:57.478405 CEST] [3551] [info] forwarding_mapper() Forward to 9
[2020-04-22 20:27:57.478394 CEST] [3545] [info] Forwarding map loaded for 'gros-35' as '9'
[2020-04-22 20:27:57.478476 CEST] [3545] [info] forwarding_mapper() Forward to 9
[2020-04-22 20:27:57.479047 CEST] [3553] [info] Forwarding map loaded for 'gros-35' as '9'
[2020-04-22 20:27:57.479199 CEST] [3553] [info] forwarding_mapper() Forward to 9
[2020-04-22 20:27:57.483041 CEST] [3548] [info] Forwarding map loaded for 'gros-35' as '9'
[2020-04-22 20:27:57.483190 CEST] [3548] [info] forwarding_mapper() Forward to 9
[2020-04-22 20:27:57.484155 CEST] [3547] [info] Forwarding map loaded for 'gros-35' as '9'
[2020-04-22 20:27:57.484304 CEST] [3547] [info] forwarding_mapper() Forward to 9
[2020-04-22 20:27:57.487002 CEST] [3554] [info] Forwarding map loaded for 'gros-35' as '9'
[2020-04-22 20:27:57.487160 CEST] [3554] [info] forwarding_mapper() Forward to 9
[2020-04-22 20:27:58.465868 CEST] [3566] [info] Forwarding map loaded for 'gros-35' as '9'
[2020-04-22 20:27:58.466036 CEST] [3566] [info] forwarding_mapper() Forward to 9
[2020-04-22 20:28:07.476551 CEST] [3546] [info] Forwarding map loaded for 'gros-35' as '9'
[2020-04-22 20:28:07.476648 CEST] [3546] [info] forwarding_mapper() Forward to 9
[2020-04-22 20:28:07.482396 CEST] [3551] [info] Forwarding map loaded for 'gros-35' as '9'
[2020-04-22 20:28:07.482479 CEST] [3551] [info] forwarding_mapper() Forward to 9
[2020-04-22 20:28:07.482544 CEST] [3545] [info] Forwarding map loaded for 'gros-35' as '9'
[2020-04-22 20:28:07.482617 CEST] [3545] [info] forwarding_mapper() Forward to 9
[2020-04-22 20:28:07.484195 CEST] [3553] [info] Forwarding map loaded for 'gros-35' as '9'
[2020-04-22 20:28:07.484349 CEST] [3553] [info] forwarding_mapper() Forward to 9
[2020-04-22 20:28:07.488268 CEST] [3548] [info] Forwarding map loaded for 'gros-35' as '9'
[2020-04-22 20:28:07.488417 CEST] [3548] [info] forwarding_mapper() Forward to 9
[2020-04-22 20:28:07.490431 CEST] [3547] [info] Forwarding map loaded for 'gros-35' as '9'
[2020-04-22 20:28:07.490583 CEST] [3547] [info] forwarding_mapper() Forward to 9
[2020-04-22 20:28:07.493532 CEST] [3554] [info] Forwarding map loaded for 'gros-35' as '9'
[2020-04-22 20:28:07.493690 CEST] [3554] [info] forwarding_mapper() Forward to 9
[2020-04-22 20:28:08.473679 CEST] [3566] [info] Forwarding map loaded for 'gros-35' as '9'
[2020-04-22 20:28:08.473843 CEST] [3566] [info] forwarding_mapper() Forward to 9
[2020-04-22 20:28:17.480221 CEST] [3546] [info] Forwarding map loaded for 'gros-35' as '9'
[2020-04-22 20:28:17.480310 CEST] [3546] [info] forwarding_mapper() Forward to 9
[2020-04-22 20:28:17.487972 CEST] [3551] [info] Forwarding map loaded for 'gros-35' as '9'
[2020-04-22 20:28:17.488052 CEST] [3551] [info] forwarding_mapper() Forward to 9
[2020-04-22 20:28:17.489583 CEST] [3553] [info] Forwarding map loaded for 'gros-35' as '9'
[2020-04-22 20:28:17.489742 CEST] [3553] [info] forwarding_mapper() Forward to 9
[2020-04-22 20:28:17.491462 CEST] [3545] [info] Forwarding map loaded for 'gros-35' as '9'
[2020-04-22 20:28:17.491536 CEST] [3545] [info] forwarding_mapper() Forward to 9
[2020-04-22 20:28:17.495513 CEST] [3547] [info] Forwarding map loaded for 'gros-35' as '9'
[2020-04-22 20:28:17.495667 CEST] [3547] [info] forwarding_mapper() Forward to 9
[2020-04-22 20:28:17.498790 CEST] [3554] [info] Forwarding map loaded for 'gros-35' as '9'
[2020-04-22 20:28:17.498940 CEST] [3554] [info] forwarding_mapper() Forward to 9
[2020-04-22 20:28:17.499641 CEST] [3548] [info] Forwarding map loaded for 'gros-35' as '9'
[2020-04-22 20:28:17.499805 CEST] [3548] [info] forwarding_mapper() Forward to 9
[2020-04-22 20:28:18.479634 CEST] [3566] [info] Forwarding map loaded for 'gros-35' as '9'
[2020-04-22 20:28:18.479801 CEST] [3566] [info] forwarding_mapper() Forward to 9
[2020-04-22 20:28:27.487932 CEST] [3546] [info] Forwarding map loaded for 'gros-35' as '5'
[2020-04-22 20:28:27.488117 CEST] [3546] [info] forwarding_mapper() Forward to 5
[2020-04-22 20:28:27.500224 CEST] [3551] [info] Forwarding map loaded for 'gros-35' as '5'
[2020-04-22 20:28:27.500386 CEST] [3551] [info] forwarding_mapper() Forward to 5
[2020-04-22 20:28:27.502001 CEST] [3553] [info] Forwarding map loaded for 'gros-35' as '5'
[2020-04-22 20:28:27.502166 CEST] [3553] [info] forwarding_mapper() Forward to 5
[2020-04-22 20:28:27.502531 CEST] [3545] [info] Forwarding map loaded for 'gros-35' as '5'
[2020-04-22 20:28:27.502609 CEST] [3545] [info] forwarding_mapper() Forward to 5
[2020-04-22 20:28:27.505912 CEST] [3547] [info] Forwarding map loaded for 'gros-35' as '5'
[2020-04-22 20:28:27.506067 CEST] [3547] [info] forwarding_mapper() Forward to 5
[2020-04-22 20:28:27.508073 CEST] [3554] [info] Forwarding map loaded for 'gros-35' as '5'
[2020-04-22 20:28:27.508229 CEST] [3554] [info] forwarding_mapper() Forward to 5
[2020-04-22 20:28:27.508797 CEST] [3548] [info] Forwarding map loaded for 'gros-35' as '5'
[2020-04-22 20:28:27.508951 CEST] [3548] [info] forwarding_mapper() Forward to 5
[2020-04-22 20:28:28.487100 CEST] [3566] [info] Forwarding map loaded for 'gros-35' as '5'
[2020-04-22 20:28:28.487256 CEST] [3566] [info] forwarding_mapper() Forward to 5
[2020-04-22 20:28:37.493966 CEST] [3546] [info] Forwarding map loaded for 'gros-35' as '5'
[2020-04-22 20:28:37.494132 CEST] [3546] [info] forwarding_mapper() Forward to 5
[2020-04-22 20:28:37.505038 CEST] [3551] [info] Forwarding map loaded for 'gros-35' as '5'
[2020-04-22 20:28:37.505185 CEST] [3551] [info] forwarding_mapper() Forward to 5
[2020-04-22 20:28:37.506783 CEST] [3553] [info] Forwarding map loaded for 'gros-35' as '5'
[2020-04-22 20:28:37.506951 CEST] [3553] [info] forwarding_mapper() Forward to 5
[2020-04-22 20:28:37.511536 CEST] [3545] [info] Forwarding map loaded for 'gros-35' as '5'
[2020-04-22 20:28:37.511609 CEST] [3545] [info] forwarding_mapper() Forward to 5
[2020-04-22 20:28:37.513313 CEST] [3548] [info] Forwarding map loaded for 'gros-35' as '5'
[2020-04-22 20:28:37.513459 CEST] [3548] [info] forwarding_mapper() Forward to 5
[2020-04-22 20:28:37.516676 CEST] [3547] [info] Forwarding map loaded for 'gros-35' as '5'
[2020-04-22 20:28:37.516835 CEST] [3547] [info] forwarding_mapper() Forward to 5
[2020-04-22 20:28:37.519146 CEST] [3554] [info] Forwarding map loaded for 'gros-35' as '5'
[2020-04-22 20:28:37.519297 CEST] [3554] [info] forwarding_mapper() Forward to 5
[2020-04-22 20:28:38.492899 CEST] [3566] [info] Forwarding map loaded for 'gros-35' as '5'
[2020-04-22 20:28:38.493047 CEST] [3566] [info] forwarding_mapper() Forward to 5
[2020-04-22 20:28:47.499433 CEST] [3546] [info] Forwarding map loaded for 'gros-35' as '5'
[2020-04-22 20:28:47.499611 CEST] [3546] [info] forwarding_mapper() Forward to 5
[2020-04-22 20:28:47.509858 CEST] [3551] [info] Forwarding map loaded for 'gros-35' as '5'
[2020-04-22 20:28:47.510017 CEST] [3551] [info] forwarding_mapper() Forward to 5
[2020-04-22 20:28:47.511797 CEST] [3553] [info] Forwarding map loaded for 'gros-35' as '5'
[2020-04-22 20:28:47.511973 CEST] [3553] [info] forwarding_mapper() Forward to 5
[2020-04-22 20:28:47.517817 CEST] [3548] [info] Forwarding map loaded for 'gros-35' as '5'
[2020-04-22 20:28:47.517994 CEST] [3548] [info] forwarding_mapper() Forward to 5
[2020-04-22 20:28:47.518159 CEST] [3545] [info] Forwarding map loaded for 'gros-35' as '5'
[2020-04-22 20:28:47.518327 CEST] [3545] [info] forwarding_mapper() Forward to 5
[2020-04-22 20:28:47.523040 CEST] [3547] [info] Forwarding map loaded for 'gros-35' as '5'
[2020-04-22 20:28:47.523204 CEST] [3547] [info] forwarding_mapper() Forward to 5
[2020-04-22 20:28:47.525462 CEST] [3554] [info] Forwarding map loaded for 'gros-35' as '5'
[2020-04-22 20:28:47.525627 CEST] [3554] [info] forwarding_mapper() Forward to 5
[2020-04-22 20:28:48.500832 CEST] [3566] [info] Forwarding map loaded for 'gros-35' as '5'
[2020-04-22 20:28:48.501008 CEST] [3566] [info] forwarding_mapper() Forward to 5
[2020-04-22 20:28:57.504800 CEST] [3546] [info] Forwarding map loaded for 'gros-35' as '5'
[2020-04-22 20:28:57.504969 CEST] [3546] [info] forwarding_mapper() Forward to 5
[2020-04-22 20:28:57.514779 CEST] [3551] [info] Forwarding map loaded for 'gros-35' as '5'
[2020-04-22 20:28:57.514929 CEST] [3551] [info] forwarding_mapper() Forward to 5
[2020-04-22 20:28:57.516612 CEST] [3553] [info] Forwarding map loaded for 'gros-35' as '5'
[2020-04-22 20:28:57.516784 CEST] [3553] [info] forwarding_mapper() Forward to 5
[2020-04-22 20:28:57.522834 CEST] [3548] [info] Forwarding map loaded for 'gros-35' as '5'
[2020-04-22 20:28:57.522987 CEST] [3548] [info] forwarding_mapper() Forward to 5
[2020-04-22 20:28:57.529608 CEST] [3545] [info] Forwarding map loaded for 'gros-35' as '5'
[2020-04-22 20:28:57.529775 CEST] [3545] [info] forwarding_mapper() Forward to 5
[2020-04-22 20:28:57.534178 CEST] [3547] [info] Forwarding map loaded for 'gros-35' as '5'
[2020-04-22 20:28:57.534327 CEST] [3547] [info] forwarding_mapper() Forward to 5
[2020-04-22 20:28:57.536452 CEST] [3554] [info] Forwarding map loaded for 'gros-35' as '5'
[2020-04-22 20:28:57.536604 CEST] [3554] [info] forwarding_mapper() Forward to 5
[2020-04-22 20:28:58.508498 CEST] [3566] [info] Forwarding map loaded for 'gros-35' as '5'
[2020-04-22 20:28:58.508651 CEST] [3566] [info] forwarding_mapper() Forward to 5
[2020-04-22 20:29:07.511334 CEST] [3546] [info] Forwarding map loaded for 'gros-35' as '5'
[2020-04-22 20:29:07.511501 CEST] [3546] [info] forwarding_mapper() Forward to 5
[2020-04-22 20:29:07.519533 CEST] [3551] [info] Forwarding map loaded for 'gros-35' as '5'
[2020-04-22 20:29:07.519680 CEST] [3551] [info] forwarding_mapper() Forward to 5
[2020-04-22 20:29:07.521645 CEST] [3553] [info] Forwarding map loaded for 'gros-35' as '5'
[2020-04-22 20:29:07.521818 CEST] [3553] [info] forwarding_mapper() Forward to 5
[2020-04-22 20:29:07.527750 CEST] [3548] [info] Forwarding map loaded for 'gros-35' as '5'
[2020-04-22 20:29:07.527901 CEST] [3548] [info] forwarding_mapper() Forward to 5
[2020-04-22 20:29:07.534637 CEST] [3545] [info] Forwarding map loaded for 'gros-35' as '5'
[2020-04-22 20:29:07.534795 CEST] [3545] [info] forwarding_mapper() Forward to 5
[2020-04-22 20:29:07.538870 CEST] [3547] [info] Forwarding map loaded for 'gros-35' as '5'
[2020-04-22 20:29:07.539020 CEST] [3547] [info] forwarding_mapper() Forward to 5
[2020-04-22 20:29:07.542752 CEST] [3554] [info] Forwarding map loaded for 'gros-35' as '5'
[2020-04-22 20:29:07.542906 CEST] [3554] [info] forwarding_mapper() Forward to 5
[2020-04-22 20:29:08.516175 CEST] [3566] [info] Forwarding map loaded for 'gros-35' as '5'
[2020-04-22 20:29:08.516326 CEST] [3566] [info] forwarding_mapper() Forward to 5
[2020-04-22 20:29:17.516826 CEST] [3546] [info] Forwarding map loaded for 'gros-35' as '5'
[2020-04-22 20:29:17.516993 CEST] [3546] [info] forwarding_mapper() Forward to 5
[2020-04-22 20:29:17.524289 CEST] [3551] [info] Forwarding map loaded for 'gros-35' as '5'
[2020-04-22 20:29:17.524439 CEST] [3551] [info] forwarding_mapper() Forward to 5
[2020-04-22 20:29:17.526579 CEST] [3553] [info] Forwarding map loaded for 'gros-35' as '5'
[2020-04-22 20:29:17.526749 CEST] [3553] [info] forwarding_mapper() Forward to 5
[2020-04-22 20:29:17.532723 CEST] [3548] [info] Forwarding map loaded for 'gros-35' as '5'
[2020-04-22 20:29:17.532902 CEST] [3548] [info] forwarding_mapper() Forward to 5
[2020-04-22 20:29:17.539826 CEST] [3545] [info] Forwarding map loaded for 'gros-35' as '5'
[2020-04-22 20:29:17.539979 CEST] [3545] [info] forwarding_mapper() Forward to 5
[2020-04-22 20:29:17.549964 CEST] [3547] [info] Forwarding map loaded for 'gros-35' as '5'
[2020-04-22 20:29:17.550112 CEST] [3547] [info] forwarding_mapper() Forward to 5
[2020-04-22 20:29:17.553814 CEST] [3554] [info] Forwarding map loaded for 'gros-35' as '5'
[2020-04-22 20:29:17.553966 CEST] [3554] [info] forwarding_mapper() Forward to 5
[2020-04-22 20:29:18.523701 CEST] [3566] [info] Forwarding map loaded for 'gros-35' as '5'
[2020-04-22 20:29:18.523862 CEST] [3566] [info] forwarding_mapper() Forward to 5
[2020-04-22 20:29:27.522488 CEST] [3546] [info] Forwarding map loaded for 'gros-35' as '5'
[2020-04-22 20:29:27.522657 CEST] [3546] [info] forwarding_mapper() Forward to 5
[2020-04-22 20:29:27.529064 CEST] [3551] [info] Forwarding map loaded for 'gros-35' as '5'
[2020-04-22 20:29:27.529212 CEST] [3551] [info] forwarding_mapper() Forward to 5
[2020-04-22 20:29:27.531482 CEST] [3553] [info] Forwarding map loaded for 'gros-35' as '5'
[2020-04-22 20:29:27.531646 CEST] [3553] [info] forwarding_mapper() Forward to 5
[2020-04-22 20:29:27.537767 CEST] [3548] [info] Forwarding map loaded for 'gros-35' as '5'
[2020-04-22 20:29:27.537921 CEST] [3548] [info] forwarding_mapper() Forward to 5
[2020-04-22 20:29:27.546441 CEST] [3545] [info] Forwarding map loaded for 'gros-35' as '5'
[2020-04-22 20:29:27.546595 CEST] [3545] [info] forwarding_mapper() Forward to 5
[2020-04-22 20:29:27.556436 CEST] [3547] [info] Forwarding map loaded for 'gros-35' as '5'
[2020-04-22 20:29:27.556591 CEST] [3547] [info] forwarding_mapper() Forward to 5
[2020-04-22 20:29:27.560206 CEST] [3554] [info] Forwarding map loaded for 'gros-35' as '5'
[2020-04-22 20:29:27.560359 CEST] [3554] [info] forwarding_mapper() Forward to 5
[2020-04-22 20:29:28.531247 CEST] [3566] [info] Forwarding map loaded for 'gros-35' as '5'
[2020-04-22 20:29:28.531409 CEST] [3566] [info] forwarding_mapper() Forward to 5
[2020-04-22 20:29:37.528140 CEST] [3546] [info] Forwarding map loaded for 'gros-35' as '5'
[2020-04-22 20:29:37.528308 CEST] [3546] [info] forwarding_mapper() Forward to 5
[2020-04-22 20:29:37.533811 CEST] [3551] [info] Forwarding map loaded for 'gros-35' as '5'
[2020-04-22 20:29:37.533935 CEST] [3551] [info] forwarding_mapper() Forward to 5
[2020-04-22 20:29:37.536513 CEST] [3553] [info] Forwarding map loaded for 'gros-35' as '5'
[2020-04-22 20:29:37.536675 CEST] [3553] [info] forwarding_mapper() Forward to 5
[2020-04-22 20:29:37.541987 CEST] [3548] [info] Forwarding map loaded for 'gros-35' as '5'
[2020-04-22 20:29:37.542117 CEST] [3548] [info] forwarding_mapper() Forward to 5
[2020-04-22 20:29:37.551607 CEST] [3545] [info] Forwarding map loaded for 'gros-35' as '5'
[2020-04-22 20:29:37.551769 CEST] [3545] [info] forwarding_mapper() Forward to 5
[2020-04-22 20:29:37.561652 CEST] [3547] [info] Forwarding map loaded for 'gros-35' as '5'
[2020-04-22 20:29:37.561815 CEST] [3547] [info] forwarding_mapper() Forward to 5
[2020-04-22 20:29:37.571589 CEST] [3554] [info] Forwarding map loaded for 'gros-35' as '5'
[2020-04-22 20:29:37.571748 CEST] [3554] [info] forwarding_mapper() Forward to 5
[2020-04-22 20:29:38.537433 CEST] [3566] [info] Forwarding map loaded for 'gros-35' as '5'
[2020-04-22 20:29:38.537592 CEST] [3566] [info] forwarding_mapper() Forward to 5
[2020-04-22 20:29:47.534147 CEST] [3546] [info] Forwarding map loaded for 'gros-35' as '5'
[2020-04-22 20:29:47.534361 CEST] [3546] [info] forwarding_mapper() Forward to 5
[2020-04-22 20:29:47.538616 CEST] [3551] [info] Forwarding map loaded for 'gros-35' as '5'
[2020-04-22 20:29:47.538793 CEST] [3551] [info] forwarding_mapper() Forward to 5
[2020-04-22 20:29:47.541319 CEST] [3553] [info] Forwarding map loaded for 'gros-35' as '5'
[2020-04-22 20:29:47.541477 CEST] [3553] [info] forwarding_mapper() Forward to 5
[2020-04-22 20:29:47.547035 CEST] [3548] [info] Forwarding map loaded for 'gros-35' as '5'
[2020-04-22 20:29:47.547195 CEST] [3548] [info] forwarding_mapper() Forward to 5
[2020-04-22 20:29:47.556642 CEST] [3545] [info] Forwarding map loaded for 'gros-35' as '5'
[2020-04-22 20:29:47.556756 CEST] [3545] [info] forwarding_mapper() Forward to 5
[2020-04-22 20:29:47.567056 CEST] [3547] [info] Forwarding map loaded for 'gros-35' as '5'
[2020-04-22 20:29:47.567226 CEST] [3547] [info] forwarding_mapper() Forward to 5
[2020-04-22 20:29:47.577263 CEST] [3554] [info] Forwarding map loaded for 'gros-35' as '5'
[2020-04-22 20:29:47.577433 CEST] [3554] [info] forwarding_mapper() Forward to 5
[2020-04-22 20:29:48.545320 CEST] [3566] [info] Forwarding map loaded for 'gros-35' as '5'
[2020-04-22 20:29:48.545495 CEST] [3566] [info] forwarding_mapper() Forward to 5
[2020-04-22 20:29:57.539978 CEST] [3546] [info] Forwarding map loaded for 'gros-35' as '5'
[2020-04-22 20:29:57.540153 CEST] [3546] [info] forwarding_mapper() Forward to 5
[2020-04-22 20:29:57.546312 CEST] [3553] [info] Forwarding map loaded for 'gros-35' as '5'
[2020-04-22 20:29:57.546473 CEST] [3553] [info] forwarding_mapper() Forward to 5
[2020-04-22 20:29:57.546757 CEST] [3551] [info] Forwarding map loaded for 'gros-35' as '5'
[2020-04-22 20:29:57.546906 CEST] [3551] [info] forwarding_mapper() Forward to 5
[2020-04-22 20:29:57.552011 CEST] [3548] [info] Forwarding map loaded for 'gros-35' as '5'
[2020-04-22 20:29:57.552164 CEST] [3548] [info] forwarding_mapper() Forward to 5
[2020-04-22 20:29:57.566178 CEST] [3545] [info] Forwarding map loaded for 'gros-35' as '5'
[2020-04-22 20:29:57.566255 CEST] [3545] [info] forwarding_mapper() Forward to 5
[2020-04-22 20:29:57.578584 CEST] [3547] [info] Forwarding map loaded for 'gros-35' as '5'
[2020-04-22 20:29:57.578746 CEST] [3547] [info] forwarding_mapper() Forward to 5
[2020-04-22 20:29:57.588828 CEST] [3554] [info] Forwarding map loaded for 'gros-35' as '5'
[2020-04-22 20:29:57.588983 CEST] [3554] [info] forwarding_mapper() Forward to 5
[2020-04-22 20:29:58.552834 CEST] [3566] [info] Forwarding map loaded for 'gros-35' as '5'
[2020-04-22 20:29:58.552999 CEST] [3566] [info] forwarding_mapper() Forward to 5
[2020-04-22 20:30:07.545327 CEST] [3546] [info] Forwarding map loaded for 'gros-35' as '5'
[2020-04-22 20:30:07.545500 CEST] [3546] [info] forwarding_mapper() Forward to 5
[2020-04-22 20:30:07.551338 CEST] [3553] [info] Forwarding map loaded for 'gros-35' as '5'
[2020-04-22 20:30:07.551501 CEST] [3553] [info] forwarding_mapper() Forward to 5
[2020-04-22 20:30:07.553064 CEST] [3551] [info] Forwarding map loaded for 'gros-35' as '5'
[2020-04-22 20:30:07.553212 CEST] [3551] [info] forwarding_mapper() Forward to 5
[2020-04-22 20:30:07.556686 CEST] [3548] [info] Forwarding map loaded for 'gros-35' as '5'
[2020-04-22 20:30:07.556848 CEST] [3548] [info] forwarding_mapper() Forward to 5
[2020-04-22 20:30:07.571006 CEST] [3545] [info] Forwarding map loaded for 'gros-35' as '5'
[2020-04-22 20:30:07.571085 CEST] [3545] [info] forwarding_mapper() Forward to 5
[2020-04-22 20:30:07.583915 CEST] [3547] [info] Forwarding map loaded for 'gros-35' as '5'
[2020-04-22 20:30:07.584072 CEST] [3547] [info] forwarding_mapper() Forward to 5
[2020-04-22 20:30:07.595707 CEST] [3554] [info] Forwarding map loaded for 'gros-35' as '5'
[2020-04-22 20:30:07.595876 CEST] [3554] [info] forwarding_mapper() Forward to 5
[2020-04-22 20:30:08.560485 CEST] [3566] [info] Forwarding map loaded for 'gros-35' as '5'
[2020-04-22 20:30:08.560635 CEST] [3566] [info] forwarding_mapper() Forward to 5
[2020-04-22 20:30:17.550770 CEST] [3546] [info] Forwarding map loaded for 'gros-35' as '5'
[2020-04-22 20:30:17.550942 CEST] [3546] [info] forwarding_mapper() Forward to 5
[2020-04-22 20:30:17.556380 CEST] [3553] [info] Forwarding map loaded for 'gros-35' as '5'
[2020-04-22 20:30:17.556542 CEST] [3553] [info] forwarding_mapper() Forward to 5
[2020-04-22 20:30:17.558060 CEST] [3551] [info] Forwarding map loaded for 'gros-35' as '5'
[2020-04-22 20:30:17.558208 CEST] [3551] [info] forwarding_mapper() Forward to 5
[2020-04-22 20:30:17.561495 CEST] [3548] [info] Forwarding map loaded for 'gros-35' as '5'
[2020-04-22 20:30:17.561647 CEST] [3548] [info] forwarding_mapper() Forward to 5
[2020-04-22 20:30:17.580508 CEST] [3545] [info] Forwarding map loaded for 'gros-35' as '5'
[2020-04-22 20:30:17.580583 CEST] [3545] [info] forwarding_mapper() Forward to 5
[2020-04-22 20:30:17.589197 CEST] [3547] [info] Forwarding map loaded for 'gros-35' as '5'
[2020-04-22 20:30:17.589354 CEST] [3547] [info] forwarding_mapper() Forward to 5
[2020-04-22 20:30:17.607197 CEST] [3554] [info] Forwarding map loaded for 'gros-35' as '5'
[2020-04-22 20:30:17.607351 CEST] [3554] [info] forwarding_mapper() Forward to 5
[2020-04-22 20:30:18.568236 CEST] [3566] [info] Forwarding map loaded for 'gros-35' as '5'
[2020-04-22 20:30:18.568399 CEST] [3566] [info] forwarding_mapper() Forward to 5
[2020-04-22 20:30:27.556548 CEST] [3546] [info] Forwarding map loaded for 'gros-35' as '5'
[2020-04-22 20:30:27.556733 CEST] [3546] [info] forwarding_mapper() Forward to 5
[2020-04-22 20:30:27.561475 CEST] [3553] [info] Forwarding map loaded for 'gros-35' as '5'
[2020-04-22 20:30:27.561638 CEST] [3553] [info] forwarding_mapper() Forward to 5
[2020-04-22 20:30:27.564418 CEST] [3551] [info] Forwarding map loaded for 'gros-35' as '5'
[2020-04-22 20:30:27.564573 CEST] [3551] [info] forwarding_mapper() Forward to 5
[2020-04-22 20:30:27.566276 CEST] [3548] [info] Forwarding map loaded for 'gros-35' as '5'
[2020-04-22 20:30:27.566434 CEST] [3548] [info] forwarding_mapper() Forward to 5
[2020-04-22 20:30:27.585614 CEST] [3545] [info] Forwarding map loaded for 'gros-35' as '5'
[2020-04-22 20:30:27.585721 CEST] [3545] [info] forwarding_mapper() Forward to 5
[2020-04-22 20:30:27.596277 CEST] [3547] [info] Forwarding map loaded for 'gros-35' as '5'
[2020-04-22 20:30:27.596442 CEST] [3547] [info] forwarding_mapper() Forward to 5
[2020-04-22 20:30:27.614329 CEST] [3554] [info] Forwarding map loaded for 'gros-35' as '5'
[2020-04-22 20:30:27.614494 CEST] [3554] [info] forwarding_mapper() Forward to 5
[2020-04-22 20:30:28.576278 CEST] [3566] [info] Forwarding map loaded for 'gros-35' as '5'
[2020-04-22 20:30:28.576454 CEST] [3566] [info] forwarding_mapper() Forward to 5
[2020-04-22 20:30:37.562416 CEST] [3546] [info] Forwarding map loaded for 'gros-35' as '5'
[2020-04-22 20:30:37.562614 CEST] [3546] [info] forwarding_mapper() Forward to 5
[2020-04-22 20:30:37.566736 CEST] [3553] [info] Forwarding map loaded for 'gros-35' as '5'
[2020-04-22 20:30:37.566898 CEST] [3553] [info] forwarding_mapper() Forward to 5
[2020-04-22 20:30:37.568998 CEST] [3551] [info] Forwarding map loaded for 'gros-35' as '5'
[2020-04-22 20:30:37.569149 CEST] [3551] [info] forwarding_mapper() Forward to 5
[2020-04-22 20:30:37.571223 CEST] [3548] [info] Forwarding map loaded for 'gros-35' as '5'
[2020-04-22 20:30:37.571382 CEST] [3548] [info] forwarding_mapper() Forward to 5
[2020-04-22 20:30:37.595884 CEST] [3545] [info] Forwarding map loaded for 'gros-35' as '5'
[2020-04-22 20:30:37.596005 CEST] [3545] [info] forwarding_mapper() Forward to 5
[2020-04-22 20:30:37.601816 CEST] [3547] [info] Forwarding map loaded for 'gros-35' as '5'
[2020-04-22 20:30:37.601986 CEST] [3547] [info] forwarding_mapper() Forward to 5
[2020-04-22 20:30:37.626441 CEST] [3554] [info] Forwarding map loaded for 'gros-35' as '5'
[2020-04-22 20:30:37.626619 CEST] [3554] [info] forwarding_mapper() Forward to 5
[2020-04-22 20:30:38.584271 CEST] [3566] [info] Forwarding map loaded for 'gros-35' as '5'
[2020-04-22 20:30:38.584445 CEST] [3566] [info] forwarding_mapper() Forward to 5
[2020-04-22 20:30:47.567686 CEST] [3546] [info] Forwarding map loaded for 'gros-35' as '5'
[2020-04-22 20:30:47.567863 CEST] [3546] [info] forwarding_mapper() Forward to 5
[2020-04-22 20:30:47.571469 CEST] [3553] [info] Forwarding map loaded for 'gros-35' as '5'
[2020-04-22 20:30:47.571630 CEST] [3553] [info] forwarding_mapper() Forward to 5
[2020-04-22 20:30:47.573738 CEST] [3551] [info] Forwarding map loaded for 'gros-35' as '5'
[2020-04-22 20:30:47.573889 CEST] [3551] [info] forwarding_mapper() Forward to 5
[2020-04-22 20:30:47.576057 CEST] [3548] [info] Forwarding map loaded for 'gros-35' as '5'
[2020-04-22 20:30:47.576212 CEST] [3548] [info] forwarding_mapper() Forward to 5
[2020-04-22 20:30:47.600808 CEST] [3545] [info] Forwarding map loaded for 'gros-35' as '5'
[2020-04-22 20:30:47.600883 CEST] [3545] [info] forwarding_mapper() Forward to 5
[2020-04-22 20:30:47.608941 CEST] [3547] [info] Forwarding map loaded for 'gros-35' as '5'
[2020-04-22 20:30:47.609097 CEST] [3547] [info] forwarding_mapper() Forward to 5
[2020-04-22 20:30:47.633615 CEST] [3554] [info] Forwarding map loaded for 'gros-35' as '5'
[2020-04-22 20:30:47.633774 CEST] [3554] [info] forwarding_mapper() Forward to 5
[2020-04-22 20:30:48.592060 CEST] [3566] [info] Forwarding map loaded for 'gros-35' as '5'
[2020-04-22 20:30:48.592218 CEST] [3566] [info] forwarding_mapper() Forward to 5
[2020-04-22 20:30:57.572889 CEST] [3546] [info] Forwarding map loaded for 'gros-35' as '5'
[2020-04-22 20:30:57.573053 CEST] [3546] [info] forwarding_mapper() Forward to 5
[2020-04-22 20:30:57.576118 CEST] [3553] [info] Forwarding map loaded for 'gros-35' as '5'
[2020-04-22 20:30:57.576280 CEST] [3553] [info] forwarding_mapper() Forward to 5
[2020-04-22 20:30:57.578311 CEST] [3551] [info] Forwarding map loaded for 'gros-35' as '5'
[2020-04-22 20:30:57.578460 CEST] [3551] [info] forwarding_mapper() Forward to 5
[2020-04-22 20:30:57.580884 CEST] [3548] [info] Forwarding map loaded for 'gros-35' as '5'
[2020-04-22 20:30:57.581039 CEST] [3548] [info] forwarding_mapper() Forward to 5
[2020-04-22 20:30:57.610671 CEST] [3545] [info] Forwarding map loaded for 'gros-35' as '5'
[2020-04-22 20:30:57.610750 CEST] [3545] [info] forwarding_mapper() Forward to 5
[2020-04-22 20:30:57.620808 CEST] [3547] [info] Forwarding map loaded for 'gros-35' as '5'
[2020-04-22 20:30:57.620962 CEST] [3547] [info] forwarding_mapper() Forward to 5
[2020-04-22 20:30:57.645609 CEST] [3554] [info] Forwarding map loaded for 'gros-35' as '5'
[2020-04-22 20:30:57.645769 CEST] [3554] [info] forwarding_mapper() Forward to 5
[2020-04-22 20:30:58.599888 CEST] [3566] [info] Forwarding map loaded for 'gros-35' as '5'
[2020-04-22 20:30:58.600048 CEST] [3566] [info] forwarding_mapper() Forward to 5
[2020-04-22 20:31:07.578274 CEST] [3546] [info] Forwarding map loaded for 'gros-35' as '5'
[2020-04-22 20:31:07.578438 CEST] [3546] [info] forwarding_mapper() Forward to 5
[2020-04-22 20:31:07.580930 CEST] [3553] [info] Forwarding map loaded for 'gros-35' as '5'
[2020-04-22 20:31:07.581092 CEST] [3553] [info] forwarding_mapper() Forward to 5
[2020-04-22 20:31:07.582847 CEST] [3551] [info] Forwarding map loaded for 'gros-35' as '5'
[2020-04-22 20:31:07.582995 CEST] [3551] [info] forwarding_mapper() Forward to 5
[2020-04-22 20:31:07.585678 CEST] [3548] [info] Forwarding map loaded for 'gros-35' as '5'
[2020-04-22 20:31:07.585844 CEST] [3548] [info] forwarding_mapper() Forward to 5
[2020-04-22 20:31:07.615506 CEST] [3545] [info] Forwarding map loaded for 'gros-35' as '5'
[2020-04-22 20:31:07.615583 CEST] [3545] [info] forwarding_mapper() Forward to 5
[2020-04-22 20:31:07.626345 CEST] [3547] [info] Forwarding map loaded for 'gros-35' as '5'
[2020-04-22 20:31:07.626500 CEST] [3547] [info] forwarding_mapper() Forward to 5
[2020-04-22 20:31:07.652931 CEST] [3554] [info] Forwarding map loaded for 'gros-35' as '5'
[2020-04-22 20:31:07.653085 CEST] [3554] [info] forwarding_mapper() Forward to 5
[2020-04-22 20:31:08.607702 CEST] [3566] [info] Forwarding map loaded for 'gros-35' as '5'
[2020-04-22 20:31:08.607863 CEST] [3566] [info] forwarding_mapper() Forward to 5
[2020-04-22 20:31:17.583698 CEST] [3546] [info] Forwarding map loaded for 'gros-35' as '5'
[2020-04-22 20:31:17.583906 CEST] [3546] [info] forwarding_mapper() Forward to 5
[2020-04-22 20:31:17.587947 CEST] [3551] [info] Forwarding map loaded for 'gros-35' as '5'
[2020-04-22 20:31:17.588111 CEST] [3551] [info] forwarding_mapper() Forward to 5
[2020-04-22 20:31:17.590188 CEST] [3548] [info] Forwarding map loaded for 'gros-35' as '5'
[2020-04-22 20:31:17.590350 CEST] [3548] [info] forwarding_mapper() Forward to 5
[2020-04-22 20:31:17.592226 CEST] [3553] [info] Forwarding map loaded for 'gros-35' as '5'
[2020-04-22 20:31:17.592386 CEST] [3553] [info] forwarding_mapper() Forward to 5
[2020-04-22 20:31:17.625245 CEST] [3545] [info] Forwarding map loaded for 'gros-35' as '5'
[2020-04-22 20:31:17.625344 CEST] [3545] [info] forwarding_mapper() Forward to 5
[2020-04-22 20:31:17.638266 CEST] [3547] [info] Forwarding map loaded for 'gros-35' as '5'
[2020-04-22 20:31:17.638433 CEST] [3547] [info] forwarding_mapper() Forward to 5
[2020-04-22 20:31:17.658764 CEST] [3554] [info] Forwarding map loaded for 'gros-35' as '5'
[2020-04-22 20:31:17.658933 CEST] [3554] [info] forwarding_mapper() Forward to 5
[2020-04-22 20:31:18.613630 CEST] [3566] [info] Forwarding map loaded for 'gros-35' as '5'
[2020-04-22 20:31:18.613813 CEST] [3566] [info] forwarding_mapper() Forward to 5
[2020-04-22 20:31:27.588984 CEST] [3546] [info] Forwarding map loaded for 'gros-35' as '5'
[2020-04-22 20:31:27.589148 CEST] [3546] [info] forwarding_mapper() Forward to 5
[2020-04-22 20:31:27.592992 CEST] [3551] [info] Forwarding map loaded for 'gros-35' as '5'
[2020-04-22 20:31:27.593147 CEST] [3551] [info] forwarding_mapper() Forward to 5
[2020-04-22 20:31:27.594715 CEST] [3548] [info] Forwarding map loaded for 'gros-35' as '5'
[2020-04-22 20:31:27.594867 CEST] [3548] [info] forwarding_mapper() Forward to 5
[2020-04-22 20:31:27.597225 CEST] [3553] [info] Forwarding map loaded for 'gros-35' as '5'
[2020-04-22 20:31:27.597375 CEST] [3553] [info] forwarding_mapper() Forward to 5
[2020-04-22 20:31:27.629876 CEST] [3545] [info] Forwarding map loaded for 'gros-35' as '5'
[2020-04-22 20:31:27.629953 CEST] [3545] [info] forwarding_mapper() Forward to 5
[2020-04-22 20:31:27.645524 CEST] [3547] [info] Forwarding map loaded for 'gros-35' as '5'
[2020-04-22 20:31:27.645680 CEST] [3547] [info] forwarding_mapper() Forward to 5
[2020-04-22 20:31:27.664399 CEST] [3554] [info] Forwarding map loaded for 'gros-35' as '5'
[2020-04-22 20:31:27.664554 CEST] [3554] [info] forwarding_mapper() Forward to 5
[2020-04-22 20:31:28.619117 CEST] [3566] [info] Forwarding map loaded for 'gros-35' as '5'
[2020-04-22 20:31:28.619279 CEST] [3566] [info] forwarding_mapper() Forward to 5
[2020-04-22 20:31:37.594178 CEST] [3546] [info] Forwarding map loaded for 'gros-35' as '5'
[2020-04-22 20:31:37.594342 CEST] [3546] [info] forwarding_mapper() Forward to 5
[2020-04-22 20:31:37.597867 CEST] [3551] [info] Forwarding map loaded for 'gros-35' as '5'
[2020-04-22 20:31:37.598020 CEST] [3551] [info] forwarding_mapper() Forward to 5
[2020-04-22 20:31:37.599146 CEST] [3548] [info] Forwarding map loaded for 'gros-35' as '5'
[2020-04-22 20:31:37.599280 CEST] [3548] [info] forwarding_mapper() Forward to 5
[2020-04-22 20:31:37.601990 CEST] [3553] [info] Forwarding map loaded for 'gros-35' as '5'
[2020-04-22 20:31:37.602139 CEST] [3553] [info] forwarding_mapper() Forward to 5
[2020-04-22 20:31:37.639574 CEST] [3545] [info] Forwarding map loaded for 'gros-35' as '5'
[2020-04-22 20:31:37.639649 CEST] [3545] [info] forwarding_mapper() Forward to 5
[2020-04-22 20:31:37.651089 CEST] [3547] [info] Forwarding map loaded for 'gros-35' as '5'
[2020-04-22 20:31:37.651242 CEST] [3547] [info] forwarding_mapper() Forward to 5
[2020-04-22 20:31:37.669802 CEST] [3554] [info] Forwarding map loaded for 'gros-35' as '5'
[2020-04-22 20:31:37.669957 CEST] [3554] [info] forwarding_mapper() Forward to 5
[2020-04-22 20:31:38.624977 CEST] [3566] [info] Forwarding map loaded for 'gros-35' as '5'
[2020-04-22 20:31:38.625141 CEST] [3566] [info] forwarding_mapper() Forward to 5
[2020-04-22 20:31:47.599411 CEST] [3546] [info] Forwarding map loaded for 'gros-35' as '5'
[2020-04-22 20:31:47.599578 CEST] [3546] [info] forwarding_mapper() Forward to 5
[2020-04-22 20:31:47.602555 CEST] [3551] [info] Forwarding map loaded for 'gros-35' as '5'
[2020-04-22 20:31:47.602718 CEST] [3551] [info] forwarding_mapper() Forward to 5
[2020-04-22 20:31:47.603731 CEST] [3548] [info] Forwarding map loaded for 'gros-35' as '5'
[2020-04-22 20:31:47.603895 CEST] [3548] [info] forwarding_mapper() Forward to 5
[2020-04-22 20:31:47.606819 CEST] [3553] [info] Forwarding map loaded for 'gros-35' as '5'
[2020-04-22 20:31:47.606970 CEST] [3553] [info] forwarding_mapper() Forward to 5
[2020-04-22 20:31:47.644547 CEST] [3545] [info] Forwarding map loaded for 'gros-35' as '5'
[2020-04-22 20:31:47.644621 CEST] [3545] [info] forwarding_mapper() Forward to 5
[2020-04-22 20:31:47.658136 CEST] [3547] [info] Forwarding map loaded for 'gros-35' as '5'
[2020-04-22 20:31:47.658291 CEST] [3547] [info] forwarding_mapper() Forward to 5
[2020-04-22 20:31:47.677073 CEST] [3554] [info] Forwarding map loaded for 'gros-35' as '5'
[2020-04-22 20:31:47.677225 CEST] [3554] [info] forwarding_mapper() Forward to 5
[2020-04-22 20:31:48.632627 CEST] [3566] [info] Forwarding map loaded for 'gros-35' as '5'
[2020-04-22 20:31:48.632784 CEST] [3566] [info] forwarding_mapper() Forward to 5
[2020-04-22 20:31:57.604932 CEST] [3546] [info] Forwarding map loaded for 'gros-35' as '5'
[2020-04-22 20:31:57.605094 CEST] [3546] [info] forwarding_mapper() Forward to 5
[2020-04-22 20:31:57.607441 CEST] [3551] [info] Forwarding map loaded for 'gros-35' as '5'
[2020-04-22 20:31:57.607600 CEST] [3551] [info] forwarding_mapper() Forward to 5
[2020-04-22 20:31:57.608332 CEST] [3548] [info] Forwarding map loaded for 'gros-35' as '5'
[2020-04-22 20:31:57.608476 CEST] [3548] [info] forwarding_mapper() Forward to 5
[2020-04-22 20:31:57.611878 CEST] [3553] [info] Forwarding map loaded for 'gros-35' as '5'
[2020-04-22 20:31:57.612027 CEST] [3553] [info] forwarding_mapper() Forward to 5
[2020-04-22 20:31:57.654168 CEST] [3545] [info] Forwarding map loaded for 'gros-35' as '5'
[2020-04-22 20:31:57.654242 CEST] [3545] [info] forwarding_mapper() Forward to 5
[2020-04-22 20:31:57.668868 CEST] [3547] [info] Forwarding map loaded for 'gros-35' as '5'
[2020-04-22 20:31:57.669021 CEST] [3547] [info] forwarding_mapper() Forward to 5
[2020-04-22 20:31:57.689073 CEST] [3554] [info] Forwarding map loaded for 'gros-35' as '5'
[2020-04-22 20:31:57.689225 CEST] [3554] [info] forwarding_mapper() Forward to 5
[2020-04-22 20:31:58.638383 CEST] [3566] [info] Forwarding map loaded for 'gros-35' as '5'
[2020-04-22 20:31:58.638534 CEST] [3566] [info] forwarding_mapper() Forward to 5
[2020-04-22 20:32:07.620612 CEST] [3511] [info] All subsystems shut down. Client shutdown complete.
[2020-04-22 20:32:07.666215 CEST] [3510] [info] All subsystems shut down. Client shutdown complete.
[2020-04-22 20:32:07.668857 CEST] [3505] [info] All subsystems shut down. Client shutdown complete.
[2020-04-22 20:32:07.670116 CEST] [3512] [info] All subsystems shut down. Client shutdown complete.
[2020-04-22 20:32:07.670500 CEST] [3509] [info] All subsystems shut down. Client shutdown complete.
[2020-04-22 20:32:07.737006 CEST] [3507] [info] All subsystems shut down. Client shutdown complete.
[2020-04-22 20:32:07.760349 CEST] [3506] [info] All subsystems shut down. Client shutdown complete.
[2020-04-22 20:32:08.654933 CEST] [3508] [info] All subsystems shut down. Client shutdown complete.
