[2020-04-22 21:14:44.351434 CEST] [3878] [info] Process cmdline: '/root/benchmarks/ior-3.2.1/src/ior -a MPIIO -b 128m -t 2m -B -w -r -o /mnt/gkfs/output-D-3'
[2020-04-22 21:14:44.351684 CEST] [3878] [info] Initializing RPC subsystem...
[2020-04-22 21:14:44.352022 CEST] [3877] [info] Loading peer addresses...
[2020-04-22 21:14:44.354533 CEST] [3879] [info] Process cmdline: '/root/benchmarks/ior-3.2.1/src/ior -a MPIIO -b 128m -t 2m -B -w -r -o /mnt/gkfs/output-D-3'
[2020-04-22 21:14:44.354793 CEST] [3879] [info] Initializing RPC subsystem...
[2020-04-22 21:14:44.354712 CEST] [3880] [info] Process cmdline: '/root/benchmarks/ior-3.2.1/src/ior -a MPIIO -b 128m -t 2m -B -w -r -o /mnt/gkfs/output-D-3'
[2020-04-22 21:14:44.354974 CEST] [3880] [info] Initializing RPC subsystem...
[2020-04-22 21:14:44.354963 CEST] [3877] [info] Hosts pool size: 12
[2020-04-22 21:14:44.355912 CEST] [3881] [info] Process cmdline: '/root/benchmarks/ior-3.2.1/src/ior -a MPIIO -b 128m -t 2m -B -w -r -o /mnt/gkfs/output-D-3'
[2020-04-22 21:14:44.356158 CEST] [3881] [info] Initializing RPC subsystem...
[2020-04-22 21:14:44.358945 CEST] [3877] [info] Forwarding map loaded for 'gros-74' as '10'
[2020-04-22 21:14:44.359008 CEST] [3877] [info] init_ld_environment_() Forward to 10
[2020-04-22 21:14:44.359060 CEST] [3877] [info] Retrieving file system configuration...
[2020-04-22 21:14:44.362536 CEST] [3878] [info] Loading peer addresses...
[2020-04-22 21:14:44.363321 CEST] [3882] [info] Process cmdline: '/root/benchmarks/ior-3.2.1/src/ior -a MPIIO -b 128m -t 2m -B -w -r -o /mnt/gkfs/output-D-3'
[2020-04-22 21:14:44.363563 CEST] [3882] [info] Initializing RPC subsystem...
[2020-04-22 21:14:44.363504 CEST] [3883] [info] Process cmdline: '/root/benchmarks/ior-3.2.1/src/ior -a MPIIO -b 128m -t 2m -B -w -r -o /mnt/gkfs/output-D-3'
[2020-04-22 21:14:44.363747 CEST] [3883] [info] Initializing RPC subsystem...
[2020-04-22 21:14:44.364913 CEST] [3878] [info] Hosts pool size: 12
[2020-04-22 21:14:44.365562 CEST] [3884] [info] Process cmdline: '/root/benchmarks/ior-3.2.1/src/ior -a MPIIO -b 128m -t 2m -B -w -r -o /mnt/gkfs/output-D-3'
[2020-04-22 21:14:44.365802 CEST] [3884] [info] Initializing RPC subsystem...
[2020-04-22 21:14:44.368186 CEST] [3878] [info] Forwarding map loaded for 'gros-74' as '10'
[2020-04-22 21:14:44.368247 CEST] [3878] [info] init_ld_environment_() Forward to 10
[2020-04-22 21:14:44.368299 CEST] [3878] [info] Retrieving file system configuration...
[2020-04-22 21:14:44.377003 CEST] [3880] [info] Loading peer addresses...
[2020-04-22 21:14:44.377583 CEST] [3881] [info] Loading peer addresses...
[2020-04-22 21:14:44.378667 CEST] [3879] [info] Loading peer addresses...
[2020-04-22 21:14:44.378790 CEST] [3880] [info] Hosts pool size: 12
[2020-04-22 21:14:44.379136 CEST] [3881] [info] Hosts pool size: 12
[2020-04-22 21:14:44.380430 CEST] [3879] [info] Hosts pool size: 12
[2020-04-22 21:14:44.382020 CEST] [3880] [info] Forwarding map loaded for 'gros-74' as '10'
[2020-04-22 21:14:44.382081 CEST] [3880] [info] init_ld_environment_() Forward to 10
[2020-04-22 21:14:44.382128 CEST] [3880] [info] Retrieving file system configuration...
[2020-04-22 21:14:44.382155 CEST] [3877] [info] Mountdir: '/mnt/gkfs'
[2020-04-22 21:14:44.382228 CEST] [3877] [info] Environment initialization successful.
[2020-04-22 21:14:44.382312 CEST] [3881] [info] Forwarding map loaded for 'gros-74' as '10'
[2020-04-22 21:14:44.382373 CEST] [3881] [info] init_ld_environment_() Forward to 10
[2020-04-22 21:14:44.382420 CEST] [3881] [info] Retrieving file system configuration...
[2020-04-22 21:14:44.383469 CEST] [3878] [info] Mountdir: '/mnt/gkfs'
[2020-04-22 21:14:44.383594 CEST] [3878] [info] Environment initialization successful.
[2020-04-22 21:14:44.385300 CEST] [3884] [info] Loading peer addresses...
[2020-04-22 21:14:44.385653 CEST] [3883] [info] Loading peer addresses...
[2020-04-22 21:14:44.387265 CEST] [3879] [info] Forwarding map loaded for 'gros-74' as '10'
[2020-04-22 21:14:44.387350 CEST] [3879] [info] init_ld_environment_() Forward to 10
[2020-04-22 21:14:44.387413 CEST] [3879] [info] Retrieving file system configuration...
[2020-04-22 21:14:44.387926 CEST] [3880] [info] Mountdir: '/mnt/gkfs'
[2020-04-22 21:14:44.388027 CEST] [3880] [info] Environment initialization successful.
[2020-04-22 21:14:44.388593 CEST] [3881] [info] Mountdir: '/mnt/gkfs'
[2020-04-22 21:14:44.388633 CEST] [3882] [info] Loading peer addresses...
[2020-04-22 21:14:44.388713 CEST] [3881] [info] Environment initialization successful.
[2020-04-22 21:14:44.388759 CEST] [3884] [info] Hosts pool size: 12
[2020-04-22 21:14:44.390063 CEST] [3883] [info] Hosts pool size: 12
[2020-04-22 21:14:44.391106 CEST] [3882] [info] Hosts pool size: 12
[2020-04-22 21:14:44.392577 CEST] [3884] [info] Forwarding map loaded for 'gros-74' as '10'
[2020-04-22 21:14:44.392638 CEST] [3884] [info] init_ld_environment_() Forward to 10
[2020-04-22 21:14:44.392691 CEST] [3884] [info] Retrieving file system configuration...
[2020-04-22 21:14:44.393941 CEST] [3883] [info] Forwarding map loaded for 'gros-74' as '10'
[2020-04-22 21:14:44.394001 CEST] [3883] [info] init_ld_environment_() Forward to 10
[2020-04-22 21:14:44.394049 CEST] [3883] [info] Retrieving file system configuration...
[2020-04-22 21:14:44.394646 CEST] [3882] [info] Forwarding map loaded for 'gros-74' as '10'
[2020-04-22 21:14:44.394717 CEST] [3882] [info] init_ld_environment_() Forward to 10
[2020-04-22 21:14:44.394772 CEST] [3882] [info] Retrieving file system configuration...
[2020-04-22 21:14:44.397970 CEST] [3879] [info] Mountdir: '/mnt/gkfs'
[2020-04-22 21:14:44.398033 CEST] [3879] [info] Environment initialization successful.
[2020-04-22 21:14:44.398274 CEST] [3884] [info] Mountdir: '/mnt/gkfs'
[2020-04-22 21:14:44.398366 CEST] [3884] [info] Environment initialization successful.
[2020-04-22 21:14:44.399107 CEST] [3883] [info] Mountdir: '/mnt/gkfs'
[2020-04-22 21:14:44.399168 CEST] [3883] [info] Environment initialization successful.
[2020-04-22 21:14:44.400109 CEST] [3882] [info] Mountdir: '/mnt/gkfs'
[2020-04-22 21:14:44.400226 CEST] [3882] [info] Environment initialization successful.
[2020-04-22 21:14:44.413386 CEST] [3917] [info] Forwarding map loaded for 'gros-74' as '10'
[2020-04-22 21:14:44.413680 CEST] [3917] [info] forwarding_mapper() Forward to 10
[2020-04-22 21:14:44.415185 CEST] [3918] [info] Forwarding map loaded for 'gros-74' as '10'
[2020-04-22 21:14:44.415266 CEST] [3918] [info] forwarding_mapper() Forward to 10
[2020-04-22 21:14:44.416641 CEST] [3919] [info] Forwarding map loaded for 'gros-74' as '10'
[2020-04-22 21:14:44.416799 CEST] [3919] [info] forwarding_mapper() Forward to 10
[2020-04-22 21:14:44.417041 CEST] [3920] [info] Forwarding map loaded for 'gros-74' as '10'
[2020-04-22 21:14:44.417151 CEST] [3920] [info] forwarding_mapper() Forward to 10
[2020-04-22 21:14:44.417592 CEST] [3921] [info] Forwarding map loaded for 'gros-74' as '10'
[2020-04-22 21:14:44.417698 CEST] [3921] [info] forwarding_mapper() Forward to 10
[2020-04-22 21:14:44.421643 CEST] [3925] [info] Forwarding map loaded for 'gros-74' as '10'
[2020-04-22 21:14:44.421874 CEST] [3925] [info] forwarding_mapper() Forward to 10
[2020-04-22 21:14:44.425363 CEST] [3931] [info] Forwarding map loaded for 'gros-74' as '10'
[2020-04-22 21:14:44.425565 CEST] [3931] [info] forwarding_mapper() Forward to 10
[2020-04-22 21:14:44.427863 CEST] [3935] [info] Forwarding map loaded for 'gros-74' as '10'
[2020-04-22 21:14:44.428030 CEST] [3935] [info] forwarding_mapper() Forward to 10
[2020-04-22 21:14:54.419907 CEST] [3918] [info] Forwarding map loaded for 'gros-74' as '10'
[2020-04-22 21:14:54.419911 CEST] [3917] [info] Forwarding map loaded for 'gros-74' as '10'
[2020-04-22 21:14:54.420112 CEST] [3917] [info] forwarding_mapper() Forward to 10
[2020-04-22 21:14:54.420124 CEST] [3918] [info] forwarding_mapper() Forward to 10
[2020-04-22 21:14:54.422745 CEST] [3921] [info] Forwarding map loaded for 'gros-74' as '10'
[2020-04-22 21:14:54.422901 CEST] [3921] [info] forwarding_mapper() Forward to 10
[2020-04-22 21:14:54.428614 CEST] [3920] [info] Forwarding map loaded for 'gros-74' as '10'
[2020-04-22 21:14:54.428768 CEST] [3920] [info] forwarding_mapper() Forward to 10
[2020-04-22 21:14:54.429770 CEST] [3919] [info] Forwarding map loaded for 'gros-74' as '10'
[2020-04-22 21:14:54.429926 CEST] [3919] [info] forwarding_mapper() Forward to 10
[2020-04-22 21:14:54.430597 CEST] [3931] [info] Forwarding map loaded for 'gros-74' as '10'
[2020-04-22 21:14:54.430757 CEST] [3931] [info] forwarding_mapper() Forward to 10
[2020-04-22 21:14:54.435423 CEST] [3925] [info] Forwarding map loaded for 'gros-74' as '10'
[2020-04-22 21:14:54.435585 CEST] [3925] [info] forwarding_mapper() Forward to 10
[2020-04-22 21:14:54.442033 CEST] [3935] [info] Forwarding map loaded for 'gros-74' as '10'
[2020-04-22 21:14:54.442192 CEST] [3935] [info] forwarding_mapper() Forward to 10
[2020-04-22 21:15:04.425339 CEST] [3917] [info] Forwarding map loaded for 'gros-74' as '10'
[2020-04-22 21:15:04.425494 CEST] [3917] [info] forwarding_mapper() Forward to 10
[2020-04-22 21:15:04.425590 CEST] [3918] [info] Forwarding map loaded for 'gros-74' as '10'
[2020-04-22 21:15:04.425742 CEST] [3918] [info] forwarding_mapper() Forward to 10
[2020-04-22 21:15:04.427848 CEST] [3921] [info] Forwarding map loaded for 'gros-74' as '10'
[2020-04-22 21:15:04.428003 CEST] [3921] [info] forwarding_mapper() Forward to 10
[2020-04-22 21:15:04.435553 CEST] [3920] [info] Forwarding map loaded for 'gros-74' as '10'
[2020-04-22 21:15:04.435703 CEST] [3920] [info] forwarding_mapper() Forward to 10
[2020-04-22 21:15:04.435955 CEST] [3931] [info] Forwarding map loaded for 'gros-74' as '10'
[2020-04-22 21:15:04.436104 CEST] [3931] [info] forwarding_mapper() Forward to 10
[2020-04-22 21:15:04.438392 CEST] [3919] [info] Forwarding map loaded for 'gros-74' as '10'
[2020-04-22 21:15:04.438547 CEST] [3919] [info] forwarding_mapper() Forward to 10
[2020-04-22 21:15:04.444480 CEST] [3925] [info] Forwarding map loaded for 'gros-74' as '10'
[2020-04-22 21:15:04.444639 CEST] [3925] [info] forwarding_mapper() Forward to 10
[2020-04-22 21:15:04.451310 CEST] [3935] [info] Forwarding map loaded for 'gros-74' as '10'
[2020-04-22 21:15:04.451465 CEST] [3935] [info] forwarding_mapper() Forward to 10
[2020-04-22 21:15:14.431029 CEST] [3918] [info] Forwarding map loaded for 'gros-74' as '10'
[2020-04-22 21:15:14.431186 CEST] [3918] [info] forwarding_mapper() Forward to 10
[2020-04-22 21:15:14.432850 CEST] [3921] [info] Forwarding map loaded for 'gros-74' as '10'
[2020-04-22 21:15:14.432998 CEST] [3921] [info] forwarding_mapper() Forward to 10
[2020-04-22 21:15:14.434716 CEST] [3917] [info] Forwarding map loaded for 'gros-74' as '10'
[2020-04-22 21:15:14.434870 CEST] [3917] [info] forwarding_mapper() Forward to 10
[2020-04-22 21:15:14.441034 CEST] [3931] [info] Forwarding map loaded for 'gros-74' as '10'
[2020-04-22 21:15:14.441183 CEST] [3931] [info] forwarding_mapper() Forward to 10
[2020-04-22 21:15:14.443228 CEST] [3919] [info] Forwarding map loaded for 'gros-74' as '10'
[2020-04-22 21:15:14.443385 CEST] [3919] [info] forwarding_mapper() Forward to 10
[2020-04-22 21:15:14.444455 CEST] [3920] [info] Forwarding map loaded for 'gros-74' as '10'
[2020-04-22 21:15:14.444610 CEST] [3920] [info] forwarding_mapper() Forward to 10
[2020-04-22 21:15:14.458125 CEST] [3925] [info] Forwarding map loaded for 'gros-74' as '10'
[2020-04-22 21:15:14.458279 CEST] [3925] [info] forwarding_mapper() Forward to 10
[2020-04-22 21:15:14.464094 CEST] [3935] [info] Forwarding map loaded for 'gros-74' as '10'
[2020-04-22 21:15:14.464250 CEST] [3935] [info] forwarding_mapper() Forward to 10
[2020-04-22 21:15:24.436375 CEST] [3918] [info] Forwarding map loaded for 'gros-74' as '10'
[2020-04-22 21:15:24.436528 CEST] [3918] [info] forwarding_mapper() Forward to 10
[2020-04-22 21:15:24.439508 CEST] [3921] [info] Forwarding map loaded for 'gros-74' as '10'
[2020-04-22 21:15:24.439656 CEST] [3921] [info] forwarding_mapper() Forward to 10
[2020-04-22 21:15:24.443043 CEST] [3917] [info] Forwarding map loaded for 'gros-74' as '10'
[2020-04-22 21:15:24.443196 CEST] [3917] [info] forwarding_mapper() Forward to 10
[2020-04-22 21:15:24.447433 CEST] [3931] [info] Forwarding map loaded for 'gros-74' as '10'
[2020-04-22 21:15:24.447650 CEST] [3931] [info] forwarding_mapper() Forward to 10
[2020-04-22 21:15:24.449997 CEST] [3919] [info] Forwarding map loaded for 'gros-74' as '10'
[2020-04-22 21:15:24.450142 CEST] [3919] [info] forwarding_mapper() Forward to 10
[2020-04-22 21:15:24.453242 CEST] [3920] [info] Forwarding map loaded for 'gros-74' as '10'
[2020-04-22 21:15:24.453406 CEST] [3920] [info] forwarding_mapper() Forward to 10
[2020-04-22 21:15:24.467303 CEST] [3925] [info] Forwarding map loaded for 'gros-74' as '10'
[2020-04-22 21:15:24.467460 CEST] [3925] [info] forwarding_mapper() Forward to 10
[2020-04-22 21:15:24.473348 CEST] [3935] [info] Forwarding map loaded for 'gros-74' as '10'
[2020-04-22 21:15:24.473504 CEST] [3935] [info] forwarding_mapper() Forward to 10
[2020-04-22 21:15:34.441653 CEST] [3918] [info] Forwarding map loaded for 'gros-74' as '10'
[2020-04-22 21:15:34.441808 CEST] [3918] [info] forwarding_mapper() Forward to 10
[2020-04-22 21:15:34.444653 CEST] [3921] [info] Forwarding map loaded for 'gros-74' as '10'
[2020-04-22 21:15:34.444807 CEST] [3921] [info] forwarding_mapper() Forward to 10
[2020-04-22 21:15:34.452751 CEST] [3917] [info] Forwarding map loaded for 'gros-74' as '10'
[2020-04-22 21:15:34.452905 CEST] [3917] [info] forwarding_mapper() Forward to 10
[2020-04-22 21:15:34.455275 CEST] [3919] [info] Forwarding map loaded for 'gros-74' as '10'
[2020-04-22 21:15:34.455441 CEST] [3919] [info] forwarding_mapper() Forward to 10
[2020-04-22 21:15:34.460963 CEST] [3931] [info] Forwarding map loaded for 'gros-74' as '10'
[2020-04-22 21:15:34.461122 CEST] [3931] [info] forwarding_mapper() Forward to 10
[2020-04-22 21:15:34.467343 CEST] [3920] [info] Forwarding map loaded for 'gros-74' as '10'
[2020-04-22 21:15:34.467501 CEST] [3920] [info] forwarding_mapper() Forward to 10
[2020-04-22 21:15:34.480883 CEST] [3925] [info] Forwarding map loaded for 'gros-74' as '10'
[2020-04-22 21:15:34.481035 CEST] [3925] [info] forwarding_mapper() Forward to 10
[2020-04-22 21:15:34.485593 CEST] [3935] [info] Forwarding map loaded for 'gros-74' as '10'
[2020-04-22 21:15:34.485748 CEST] [3935] [info] forwarding_mapper() Forward to 10
[2020-04-22 21:15:44.447052 CEST] [3918] [info] Forwarding map loaded for 'gros-74' as '10'
[2020-04-22 21:15:44.447212 CEST] [3918] [info] forwarding_mapper() Forward to 10
[2020-04-22 21:15:44.449974 CEST] [3921] [info] Forwarding map loaded for 'gros-74' as '10'
[2020-04-22 21:15:44.450129 CEST] [3921] [info] forwarding_mapper() Forward to 10
[2020-04-22 21:15:44.460735 CEST] [3919] [info] Forwarding map loaded for 'gros-74' as '10'
[2020-04-22 21:15:44.460889 CEST] [3919] [info] forwarding_mapper() Forward to 10
[2020-04-22 21:15:44.461398 CEST] [3917] [info] Forwarding map loaded for 'gros-74' as '10'
[2020-04-22 21:15:44.461563 CEST] [3917] [info] forwarding_mapper() Forward to 10
[2020-04-22 21:15:44.466313 CEST] [3931] [info] Forwarding map loaded for 'gros-74' as '10'
[2020-04-22 21:15:44.466474 CEST] [3931] [info] forwarding_mapper() Forward to 10
[2020-04-22 21:15:44.475156 CEST] [3920] [info] Forwarding map loaded for 'gros-74' as '10'
[2020-04-22 21:15:44.475323 CEST] [3920] [info] forwarding_mapper() Forward to 10
[2020-04-22 21:15:44.486455 CEST] [3925] [info] Forwarding map loaded for 'gros-74' as '10'
[2020-04-22 21:15:44.486612 CEST] [3925] [info] forwarding_mapper() Forward to 10
[2020-04-22 21:15:44.494846 CEST] [3935] [info] Forwarding map loaded for 'gros-74' as '10'
[2020-04-22 21:15:44.495004 CEST] [3935] [info] forwarding_mapper() Forward to 10
[2020-04-22 21:15:54.452404 CEST] [3918] [info] Forwarding map loaded for 'gros-74' as '10'
[2020-04-22 21:15:54.452562 CEST] [3918] [info] forwarding_mapper() Forward to 10
[2020-04-22 21:15:54.455589 CEST] [3921] [info] Forwarding map loaded for 'gros-74' as '10'
[2020-04-22 21:15:54.455742 CEST] [3921] [info] forwarding_mapper() Forward to 10
[2020-04-22 21:15:54.471116 CEST] [3917] [info] Forwarding map loaded for 'gros-74' as '10'
[2020-04-22 21:15:54.471269 CEST] [3917] [info] forwarding_mapper() Forward to 10
[2020-04-22 21:15:54.476204 CEST] [3919] [info] Forwarding map loaded for 'gros-74' as '10'
[2020-04-22 21:15:54.476416 CEST] [3919] [info] forwarding_mapper() Forward to 10
[2020-04-22 21:15:54.478326 CEST] [3931] [info] Forwarding map loaded for 'gros-74' as '10'
[2020-04-22 21:15:54.478480 CEST] [3931] [info] forwarding_mapper() Forward to 10
[2020-04-22 21:15:54.483448 CEST] [3920] [info] Forwarding map loaded for 'gros-74' as '10'
[2020-04-22 21:15:54.483604 CEST] [3920] [info] forwarding_mapper() Forward to 10
[2020-04-22 21:15:54.492181 CEST] [3925] [info] Forwarding map loaded for 'gros-74' as '10'
[2020-04-22 21:15:54.492347 CEST] [3925] [info] forwarding_mapper() Forward to 10
[2020-04-22 21:15:54.508977 CEST] [3935] [info] Forwarding map loaded for 'gros-74' as '10'
[2020-04-22 21:15:54.509132 CEST] [3935] [info] forwarding_mapper() Forward to 10
[2020-04-22 21:16:04.457878 CEST] [3918] [info] Forwarding map loaded for 'gros-74' as '10'
[2020-04-22 21:16:04.458035 CEST] [3918] [info] forwarding_mapper() Forward to 10
[2020-04-22 21:16:04.460688 CEST] [3921] [info] Forwarding map loaded for 'gros-74' as '10'
[2020-04-22 21:16:04.460843 CEST] [3921] [info] forwarding_mapper() Forward to 10
[2020-04-22 21:16:04.480071 CEST] [3917] [info] Forwarding map loaded for 'gros-74' as '10'
[2020-04-22 21:16:04.480225 CEST] [3917] [info] forwarding_mapper() Forward to 10
[2020-04-22 21:16:04.482884 CEST] [3919] [info] Forwarding map loaded for 'gros-74' as '10'
[2020-04-22 21:16:04.483085 CEST] [3919] [info] forwarding_mapper() Forward to 10
[2020-04-22 21:16:04.485649 CEST] [3931] [info] Forwarding map loaded for 'gros-74' as '10'
[2020-04-22 21:16:04.485826 CEST] [3931] [info] forwarding_mapper() Forward to 10
[2020-04-22 21:16:04.490341 CEST] [3920] [info] Forwarding map loaded for 'gros-74' as '10'
[2020-04-22 21:16:04.490496 CEST] [3920] [info] forwarding_mapper() Forward to 10
[2020-04-22 21:16:04.498360 CEST] [3925] [info] Forwarding map loaded for 'gros-74' as '10'
[2020-04-22 21:16:04.498515 CEST] [3925] [info] forwarding_mapper() Forward to 10
[2020-04-22 21:16:04.518411 CEST] [3935] [info] Forwarding map loaded for 'gros-74' as '10'
[2020-04-22 21:16:04.518568 CEST] [3935] [info] forwarding_mapper() Forward to 10
[2020-04-22 21:16:14.463371 CEST] [3918] [info] Forwarding map loaded for 'gros-74' as '10'
[2020-04-22 21:16:14.463532 CEST] [3918] [info] forwarding_mapper() Forward to 10
[2020-04-22 21:16:14.466713 CEST] [3921] [info] Forwarding map loaded for 'gros-74' as '10'
[2020-04-22 21:16:14.466870 CEST] [3921] [info] forwarding_mapper() Forward to 10
[2020-04-22 21:16:14.487368 CEST] [3917] [info] Forwarding map loaded for 'gros-74' as '10'
[2020-04-22 21:16:14.487519 CEST] [3917] [info] forwarding_mapper() Forward to 10
[2020-04-22 21:16:14.489095 CEST] [3919] [info] Forwarding map loaded for 'gros-74' as '10'
[2020-04-22 21:16:14.489292 CEST] [3919] [info] forwarding_mapper() Forward to 10
[2020-04-22 21:16:14.492414 CEST] [3931] [info] Forwarding map loaded for 'gros-74' as '10'
[2020-04-22 21:16:14.492571 CEST] [3931] [info] forwarding_mapper() Forward to 10
[2020-04-22 21:16:14.499142 CEST] [3920] [info] Forwarding map loaded for 'gros-74' as '10'
[2020-04-22 21:16:14.499308 CEST] [3920] [info] forwarding_mapper() Forward to 10
[2020-04-22 21:16:14.512465 CEST] [3925] [info] Forwarding map loaded for 'gros-74' as '10'
[2020-04-22 21:16:14.512624 CEST] [3925] [info] forwarding_mapper() Forward to 10
[2020-04-22 21:16:14.527665 CEST] [3935] [info] Forwarding map loaded for 'gros-74' as '10'
[2020-04-22 21:16:14.527823 CEST] [3935] [info] forwarding_mapper() Forward to 10
[2020-04-22 21:16:24.468637 CEST] [3918] [info] Forwarding map loaded for 'gros-74' as '10'
[2020-04-22 21:16:24.468797 CEST] [3918] [info] forwarding_mapper() Forward to 10
[2020-04-22 21:16:24.472832 CEST] [3921] [info] Forwarding map loaded for 'gros-74' as '10'
[2020-04-22 21:16:24.472986 CEST] [3921] [info] forwarding_mapper() Forward to 10
[2020-04-22 21:16:24.494798 CEST] [3917] [info] Forwarding map loaded for 'gros-74' as '10'
[2020-04-22 21:16:24.494968 CEST] [3917] [info] forwarding_mapper() Forward to 10
[2020-04-22 21:16:24.495733 CEST] [3919] [info] Forwarding map loaded for 'gros-74' as '10'
[2020-04-22 21:16:24.495939 CEST] [3919] [info] forwarding_mapper() Forward to 10
[2020-04-22 21:16:24.499103 CEST] [3931] [info] Forwarding map loaded for 'gros-74' as '10'
[2020-04-22 21:16:24.499258 CEST] [3931] [info] forwarding_mapper() Forward to 10
[2020-04-22 21:16:24.508486 CEST] [3920] [info] Forwarding map loaded for 'gros-74' as '10'
[2020-04-22 21:16:24.508641 CEST] [3920] [info] forwarding_mapper() Forward to 10
[2020-04-22 21:16:24.518191 CEST] [3925] [info] Forwarding map loaded for 'gros-74' as '10'
[2020-04-22 21:16:24.518354 CEST] [3925] [info] forwarding_mapper() Forward to 10
[2020-04-22 21:16:24.536052 CEST] [3935] [info] Forwarding map loaded for 'gros-74' as '10'
[2020-04-22 21:16:24.536208 CEST] [3935] [info] forwarding_mapper() Forward to 10
[2020-04-22 21:16:34.473961 CEST] [3918] [info] Forwarding map loaded for 'gros-74' as '10'
[2020-04-22 21:16:34.474120 CEST] [3918] [info] forwarding_mapper() Forward to 10
[2020-04-22 21:16:34.478012 CEST] [3921] [info] Forwarding map loaded for 'gros-74' as '10'
[2020-04-22 21:16:34.478166 CEST] [3921] [info] forwarding_mapper() Forward to 10
[2020-04-22 21:16:34.502190 CEST] [3917] [info] Forwarding map loaded for 'gros-74' as '10'
[2020-04-22 21:16:34.502351 CEST] [3917] [info] forwarding_mapper() Forward to 10
[2020-04-22 21:16:34.504399 CEST] [3931] [info] Forwarding map loaded for 'gros-74' as '10'
[2020-04-22 21:16:34.504587 CEST] [3931] [info] forwarding_mapper() Forward to 10
[2020-04-22 21:16:34.510141 CEST] [3919] [info] Forwarding map loaded for 'gros-74' as '10'
[2020-04-22 21:16:34.510305 CEST] [3919] [info] forwarding_mapper() Forward to 10
[2020-04-22 21:16:34.517969 CEST] [3920] [info] Forwarding map loaded for 'gros-74' as '10'
[2020-04-22 21:16:34.518127 CEST] [3920] [info] forwarding_mapper() Forward to 10
[2020-04-22 21:16:34.524874 CEST] [3925] [info] Forwarding map loaded for 'gros-74' as '10'
[2020-04-22 21:16:34.525031 CEST] [3925] [info] forwarding_mapper() Forward to 10
[2020-04-22 21:16:34.550366 CEST] [3935] [info] Forwarding map loaded for 'gros-74' as '10'
[2020-04-22 21:16:34.550522 CEST] [3935] [info] forwarding_mapper() Forward to 10
[2020-04-22 21:16:44.479859 CEST] [3918] [info] Forwarding map loaded for 'gros-74' as '10'
[2020-04-22 21:16:44.480022 CEST] [3918] [info] forwarding_mapper() Forward to 10
[2020-04-22 21:16:44.484966 CEST] [3921] [info] Forwarding map loaded for 'gros-74' as '10'
[2020-04-22 21:16:44.485122 CEST] [3921] [info] forwarding_mapper() Forward to 10
[2020-04-22 21:16:44.509737 CEST] [3917] [info] Forwarding map loaded for 'gros-74' as '10'
[2020-04-22 21:16:44.509890 CEST] [3917] [info] forwarding_mapper() Forward to 10
[2020-04-22 21:16:44.510379 CEST] [3931] [info] Forwarding map loaded for 'gros-74' as '10'
[2020-04-22 21:16:44.510582 CEST] [3931] [info] forwarding_mapper() Forward to 10
[2020-04-22 21:16:44.516136 CEST] [3919] [info] Forwarding map loaded for 'gros-74' as '10'
[2020-04-22 21:16:44.516290 CEST] [3919] [info] forwarding_mapper() Forward to 10
[2020-04-22 21:16:44.527060 CEST] [3920] [info] Forwarding map loaded for 'gros-74' as '10'
[2020-04-22 21:16:44.527210 CEST] [3920] [info] forwarding_mapper() Forward to 10
[2020-04-22 21:16:44.530116 CEST] [3925] [info] Forwarding map loaded for 'gros-74' as '10'
[2020-04-22 21:16:44.530271 CEST] [3925] [info] forwarding_mapper() Forward to 10
[2020-04-22 21:16:44.559961 CEST] [3935] [info] Forwarding map loaded for 'gros-74' as '10'
[2020-04-22 21:16:44.560120 CEST] [3935] [info] forwarding_mapper() Forward to 10
[2020-04-22 21:16:54.485538 CEST] [3918] [info] Forwarding map loaded for 'gros-74' as '10'
[2020-04-22 21:16:54.485700 CEST] [3918] [info] forwarding_mapper() Forward to 10
[2020-04-22 21:16:54.492152 CEST] [3921] [info] Forwarding map loaded for 'gros-74' as '10'
[2020-04-22 21:16:54.492320 CEST] [3921] [info] forwarding_mapper() Forward to 10
[2020-04-22 21:16:54.515728 CEST] [3931] [info] Forwarding map loaded for 'gros-74' as '10'
[2020-04-22 21:16:54.515879 CEST] [3931] [info] forwarding_mapper() Forward to 10
[2020-04-22 21:16:54.516674 CEST] [3917] [info] Forwarding map loaded for 'gros-74' as '10'
[2020-04-22 21:16:54.516828 CEST] [3917] [info] forwarding_mapper() Forward to 10
[2020-04-22 21:16:54.521252 CEST] [3919] [info] Forwarding map loaded for 'gros-74' as '10'
[2020-04-22 21:16:54.521420 CEST] [3919] [info] forwarding_mapper() Forward to 10
[2020-04-22 21:16:54.533945 CEST] [3920] [info] Forwarding map loaded for 'gros-74' as '10'
[2020-04-22 21:16:54.534097 CEST] [3920] [info] forwarding_mapper() Forward to 10
[2020-04-22 21:16:54.536148 CEST] [3925] [info] Forwarding map loaded for 'gros-74' as '10'
[2020-04-22 21:16:54.536325 CEST] [3925] [info] forwarding_mapper() Forward to 10
[2020-04-22 21:16:54.572371 CEST] [3935] [info] Forwarding map loaded for 'gros-74' as '10'
[2020-04-22 21:16:54.572527 CEST] [3935] [info] forwarding_mapper() Forward to 10
[2020-04-22 21:17:04.491322 CEST] [3918] [info] Forwarding map loaded for 'gros-74' as '10'
[2020-04-22 21:17:04.491483 CEST] [3918] [info] forwarding_mapper() Forward to 10
[2020-04-22 21:17:04.501495 CEST] [3921] [info] Forwarding map loaded for 'gros-74' as '10'
[2020-04-22 21:17:04.501655 CEST] [3921] [info] forwarding_mapper() Forward to 10
[2020-04-22 21:17:04.521093 CEST] [3931] [info] Forwarding map loaded for 'gros-74' as '10'
[2020-04-22 21:17:04.521245 CEST] [3931] [info] forwarding_mapper() Forward to 10
[2020-04-22 21:17:04.523625 CEST] [3917] [info] Forwarding map loaded for 'gros-74' as '10'
[2020-04-22 21:17:04.523777 CEST] [3917] [info] forwarding_mapper() Forward to 10
[2020-04-22 21:17:04.526449 CEST] [3919] [info] Forwarding map loaded for 'gros-74' as '10'
[2020-04-22 21:17:04.526605 CEST] [3919] [info] forwarding_mapper() Forward to 10
[2020-04-22 21:17:04.543161 CEST] [3920] [info] Forwarding map loaded for 'gros-74' as '10'
[2020-04-22 21:17:04.543320 CEST] [3920] [info] forwarding_mapper() Forward to 10
[2020-04-22 21:17:04.544898 CEST] [3925] [info] Forwarding map loaded for 'gros-74' as '10'
[2020-04-22 21:17:04.545056 CEST] [3925] [info] forwarding_mapper() Forward to 10
[2020-04-22 21:17:04.581853 CEST] [3935] [info] Forwarding map loaded for 'gros-74' as '10'
[2020-04-22 21:17:04.582012 CEST] [3935] [info] forwarding_mapper() Forward to 10
[2020-04-22 21:17:14.497381 CEST] [3918] [info] Forwarding map loaded for 'gros-74' as '10'
[2020-04-22 21:17:14.497543 CEST] [3918] [info] forwarding_mapper() Forward to 10
[2020-04-22 21:17:14.507331 CEST] [3921] [info] Forwarding map loaded for 'gros-74' as '10'
[2020-04-22 21:17:14.507486 CEST] [3921] [info] forwarding_mapper() Forward to 10
[2020-04-22 21:17:14.535003 CEST] [3931] [info] Forwarding map loaded for 'gros-74' as '10'
[2020-04-22 21:17:14.535156 CEST] [3931] [info] forwarding_mapper() Forward to 10
[2020-04-22 21:17:14.535550 CEST] [3917] [info] Forwarding map loaded for 'gros-74' as '10'
[2020-04-22 21:17:14.535704 CEST] [3917] [info] forwarding_mapper() Forward to 10
[2020-04-22 21:17:14.540048 CEST] [3919] [info] Forwarding map loaded for 'gros-74' as '10'
[2020-04-22 21:17:14.540203 CEST] [3919] [info] forwarding_mapper() Forward to 10
[2020-04-22 21:17:14.550308 CEST] [3925] [info] Forwarding map loaded for 'gros-74' as '10'
[2020-04-22 21:17:14.550460 CEST] [3925] [info] forwarding_mapper() Forward to 10
[2020-04-22 21:17:14.552216 CEST] [3920] [info] Forwarding map loaded for 'gros-74' as '10'
[2020-04-22 21:17:14.552380 CEST] [3920] [info] forwarding_mapper() Forward to 10
[2020-04-22 21:17:14.596148 CEST] [3935] [info] Forwarding map loaded for 'gros-74' as '10'
[2020-04-22 21:17:14.596315 CEST] [3935] [info] forwarding_mapper() Forward to 10
[2020-04-22 21:17:24.503275 CEST] [3918] [info] Forwarding map loaded for 'gros-74' as '10'
[2020-04-22 21:17:24.503445 CEST] [3918] [info] forwarding_mapper() Forward to 10
[2020-04-22 21:17:24.516508 CEST] [3921] [info] Forwarding map loaded for 'gros-74' as '10'
[2020-04-22 21:17:24.516676 CEST] [3921] [info] forwarding_mapper() Forward to 10
[2020-04-22 21:17:24.540553 CEST] [3931] [info] Forwarding map loaded for 'gros-74' as '10'
[2020-04-22 21:17:24.540757 CEST] [3931] [info] forwarding_mapper() Forward to 10
[2020-04-22 21:17:24.543989 CEST] [3917] [info] Forwarding map loaded for 'gros-74' as '10'
[2020-04-22 21:17:24.544143 CEST] [3917] [info] forwarding_mapper() Forward to 10
[2020-04-22 21:17:24.545394 CEST] [3919] [info] Forwarding map loaded for 'gros-74' as '10'
[2020-04-22 21:17:24.545546 CEST] [3919] [info] forwarding_mapper() Forward to 10
[2020-04-22 21:17:24.555835 CEST] [3925] [info] Forwarding map loaded for 'gros-74' as '10'
[2020-04-22 21:17:24.555986 CEST] [3925] [info] forwarding_mapper() Forward to 10
[2020-04-22 21:17:24.560150 CEST] [3920] [info] Forwarding map loaded for 'gros-74' as '10'
[2020-04-22 21:17:24.560315 CEST] [3920] [info] forwarding_mapper() Forward to 10
[2020-04-22 21:17:24.605938 CEST] [3935] [info] Forwarding map loaded for 'gros-74' as '10'
[2020-04-22 21:17:24.606092 CEST] [3935] [info] forwarding_mapper() Forward to 10
[2020-04-22 21:17:34.509081 CEST] [3918] [info] Forwarding map loaded for 'gros-74' as '10'
[2020-04-22 21:17:34.509244 CEST] [3918] [info] forwarding_mapper() Forward to 10
[2020-04-22 21:17:34.523350 CEST] [3921] [info] Forwarding map loaded for 'gros-74' as '10'
[2020-04-22 21:17:34.523505 CEST] [3921] [info] forwarding_mapper() Forward to 10
[2020-04-22 21:17:34.546335 CEST] [3931] [info] Forwarding map loaded for 'gros-74' as '10'
[2020-04-22 21:17:34.546539 CEST] [3931] [info] forwarding_mapper() Forward to 10
[2020-04-22 21:17:34.550945 CEST] [3919] [info] Forwarding map loaded for 'gros-74' as '10'
[2020-04-22 21:17:34.551099 CEST] [3919] [info] forwarding_mapper() Forward to 10
[2020-04-22 21:17:34.556136 CEST] [3917] [info] Forwarding map loaded for 'gros-74' as '10'
[2020-04-22 21:17:34.556303 CEST] [3917] [info] forwarding_mapper() Forward to 10
[2020-04-22 21:17:34.569557 CEST] [3925] [info] Forwarding map loaded for 'gros-74' as '10'
[2020-04-22 21:17:34.569708 CEST] [3925] [info] forwarding_mapper() Forward to 10
[2020-04-22 21:17:34.571082 CEST] [3920] [info] Forwarding map loaded for 'gros-74' as '10'
[2020-04-22 21:17:34.571237 CEST] [3920] [info] forwarding_mapper() Forward to 10
[2020-04-22 21:17:34.620452 CEST] [3935] [info] Forwarding map loaded for 'gros-74' as '10'
[2020-04-22 21:17:34.620610 CEST] [3935] [info] forwarding_mapper() Forward to 10
[2020-04-22 21:17:44.515046 CEST] [3918] [info] Forwarding map loaded for 'gros-74' as '10'
[2020-04-22 21:17:44.515211 CEST] [3918] [info] forwarding_mapper() Forward to 10
[2020-04-22 21:17:44.529350 CEST] [3921] [info] Forwarding map loaded for 'gros-74' as '10'
[2020-04-22 21:17:44.529508 CEST] [3921] [info] forwarding_mapper() Forward to 10
[2020-04-22 21:17:44.556055 CEST] [3931] [info] Forwarding map loaded for 'gros-74' as '10'
[2020-04-22 21:17:44.556257 CEST] [3931] [info] forwarding_mapper() Forward to 10
[2020-04-22 21:17:44.560517 CEST] [3919] [info] Forwarding map loaded for 'gros-74' as '10'
[2020-04-22 21:17:44.560670 CEST] [3919] [info] forwarding_mapper() Forward to 10
[2020-04-22 21:17:44.565592 CEST] [3917] [info] Forwarding map loaded for 'gros-74' as '10'
[2020-04-22 21:17:44.565750 CEST] [3917] [info] forwarding_mapper() Forward to 10
[2020-04-22 21:17:44.575008 CEST] [3925] [info] Forwarding map loaded for 'gros-74' as '10'
[2020-04-22 21:17:44.575161 CEST] [3925] [info] forwarding_mapper() Forward to 10
[2020-04-22 21:17:44.576800 CEST] [3920] [info] Forwarding map loaded for 'gros-74' as '10'
[2020-04-22 21:17:44.576957 CEST] [3920] [info] forwarding_mapper() Forward to 10
[2020-04-22 21:17:44.630322 CEST] [3935] [info] Forwarding map loaded for 'gros-74' as '10'
[2020-04-22 21:17:44.630486 CEST] [3935] [info] forwarding_mapper() Forward to 10
[2020-04-22 21:17:54.520982 CEST] [3918] [info] Forwarding map loaded for 'gros-74' as '10'
[2020-04-22 21:17:54.521144 CEST] [3918] [info] forwarding_mapper() Forward to 10
[2020-04-22 21:17:54.539533 CEST] [3921] [info] Forwarding map loaded for 'gros-74' as '10'
[2020-04-22 21:17:54.539688 CEST] [3921] [info] forwarding_mapper() Forward to 10
[2020-04-22 21:17:54.562076 CEST] [3931] [info] Forwarding map loaded for 'gros-74' as '10'
[2020-04-22 21:17:54.562278 CEST] [3931] [info] forwarding_mapper() Forward to 10
[2020-04-22 21:17:54.566345 CEST] [3919] [info] Forwarding map loaded for 'gros-74' as '10'
[2020-04-22 21:17:54.566496 CEST] [3919] [info] forwarding_mapper() Forward to 10
[2020-04-22 21:17:54.576955 CEST] [3917] [info] Forwarding map loaded for 'gros-74' as '10'
[2020-04-22 21:17:54.577112 CEST] [3917] [info] forwarding_mapper() Forward to 10
[2020-04-22 21:17:54.582393 CEST] [3925] [info] Forwarding map loaded for 'gros-74' as '10'
[2020-04-22 21:17:54.582548 CEST] [3925] [info] forwarding_mapper() Forward to 10
[2020-04-22 21:17:54.585898 CEST] [3920] [info] Forwarding map loaded for 'gros-74' as '10'
[2020-04-22 21:17:54.586056 CEST] [3920] [info] forwarding_mapper() Forward to 10
[2020-04-22 21:17:54.645050 CEST] [3935] [info] Forwarding map loaded for 'gros-74' as '10'
[2020-04-22 21:17:54.645204 CEST] [3935] [info] forwarding_mapper() Forward to 10
[2020-04-22 21:18:04.527094 CEST] [3918] [info] Forwarding map loaded for 'gros-74' as '10'
[2020-04-22 21:18:04.527257 CEST] [3918] [info] forwarding_mapper() Forward to 10
[2020-04-22 21:18:04.547114 CEST] [3921] [info] Forwarding map loaded for 'gros-74' as '10'
[2020-04-22 21:18:04.547271 CEST] [3921] [info] forwarding_mapper() Forward to 10
[2020-04-22 21:18:04.572156 CEST] [3931] [info] Forwarding map loaded for 'gros-74' as '10'
[2020-04-22 21:18:04.572370 CEST] [3931] [info] forwarding_mapper() Forward to 10
[2020-04-22 21:18:04.576249 CEST] [3919] [info] Forwarding map loaded for 'gros-74' as '10'
[2020-04-22 21:18:04.576416 CEST] [3919] [info] forwarding_mapper() Forward to 10
[2020-04-22 21:18:04.586483 CEST] [3917] [info] Forwarding map loaded for 'gros-74' as '10'
[2020-04-22 21:18:04.586642 CEST] [3917] [info] forwarding_mapper() Forward to 10
[2020-04-22 21:18:04.591531 CEST] [3925] [info] Forwarding map loaded for 'gros-74' as '10'
[2020-04-22 21:18:04.591683 CEST] [3925] [info] forwarding_mapper() Forward to 10
[2020-04-22 21:18:04.591929 CEST] [3920] [info] Forwarding map loaded for 'gros-74' as '10'
[2020-04-22 21:18:04.592089 CEST] [3920] [info] forwarding_mapper() Forward to 10
[2020-04-22 21:18:04.654826 CEST] [3935] [info] Forwarding map loaded for 'gros-74' as '10'
[2020-04-22 21:18:04.654985 CEST] [3935] [info] forwarding_mapper() Forward to 10
[2020-04-22 21:18:14.532875 CEST] [3918] [info] Forwarding map loaded for 'gros-74' as '10'
[2020-04-22 21:18:14.533037 CEST] [3918] [info] forwarding_mapper() Forward to 10
[2020-04-22 21:18:14.556838 CEST] [3921] [info] Forwarding map loaded for 'gros-74' as '10'
[2020-04-22 21:18:14.556995 CEST] [3921] [info] forwarding_mapper() Forward to 10
[2020-04-22 21:18:14.578172 CEST] [3931] [info] Forwarding map loaded for 'gros-74' as '10'
[2020-04-22 21:18:14.578381 CEST] [3931] [info] forwarding_mapper() Forward to 10
[2020-04-22 21:18:14.582371 CEST] [3919] [info] Forwarding map loaded for 'gros-74' as '10'
[2020-04-22 21:18:14.582524 CEST] [3919] [info] forwarding_mapper() Forward to 10
[2020-04-22 21:18:14.596606 CEST] [3917] [info] Forwarding map loaded for 'gros-74' as '10'
[2020-04-22 21:18:14.596760 CEST] [3917] [info] forwarding_mapper() Forward to 10
[2020-04-22 21:18:14.599808 CEST] [3920] [info] Forwarding map loaded for 'gros-74' as '10'
[2020-04-22 21:18:14.599965 CEST] [3920] [info] forwarding_mapper() Forward to 10
[2020-04-22 21:18:14.605855 CEST] [3925] [info] Forwarding map loaded for 'gros-74' as '10'
[2020-04-22 21:18:14.606018 CEST] [3925] [info] forwarding_mapper() Forward to 10
[2020-04-22 21:18:14.669267 CEST] [3935] [info] Forwarding map loaded for 'gros-74' as '10'
[2020-04-22 21:18:14.669436 CEST] [3935] [info] forwarding_mapper() Forward to 10
[2020-04-22 21:18:24.538528 CEST] [3918] [info] Forwarding map loaded for 'gros-74' as '10'
[2020-04-22 21:18:24.538705 CEST] [3918] [info] forwarding_mapper() Forward to 10
[2020-04-22 21:18:24.566278 CEST] [3921] [info] Forwarding map loaded for 'gros-74' as '10'
[2020-04-22 21:18:24.566447 CEST] [3921] [info] forwarding_mapper() Forward to 10
[2020-04-22 21:18:24.588062 CEST] [3931] [info] Forwarding map loaded for 'gros-74' as '10'
[2020-04-22 21:18:24.588261 CEST] [3931] [info] forwarding_mapper() Forward to 10
[2020-04-22 21:18:24.592128 CEST] [3919] [info] Forwarding map loaded for 'gros-74' as '10'
[2020-04-22 21:18:24.592281 CEST] [3919] [info] forwarding_mapper() Forward to 10
[2020-04-22 21:18:24.605727 CEST] [3917] [info] Forwarding map loaded for 'gros-74' as '10'
[2020-04-22 21:18:24.605880 CEST] [3917] [info] forwarding_mapper() Forward to 10
[2020-04-22 21:18:24.608577 CEST] [3920] [info] Forwarding map loaded for 'gros-74' as '10'
[2020-04-22 21:18:24.608728 CEST] [3920] [info] forwarding_mapper() Forward to 10
[2020-04-22 21:18:24.611142 CEST] [3925] [info] Forwarding map loaded for 'gros-74' as '10'
[2020-04-22 21:18:24.611306 CEST] [3925] [info] forwarding_mapper() Forward to 10
[2020-04-22 21:18:24.678942 CEST] [3935] [info] Forwarding map loaded for 'gros-74' as '10'
[2020-04-22 21:18:24.679098 CEST] [3935] [info] forwarding_mapper() Forward to 10
[2020-04-22 21:18:34.546533 CEST] [3918] [info] Forwarding map loaded for 'gros-74' as '10'
[2020-04-22 21:18:34.546612 CEST] [3918] [info] forwarding_mapper() Forward to 10
[2020-04-22 21:18:34.571708 CEST] [3921] [info] Forwarding map loaded for 'gros-74' as '10'
[2020-04-22 21:18:34.571867 CEST] [3921] [info] forwarding_mapper() Forward to 10
[2020-04-22 21:18:34.593922 CEST] [3931] [info] Forwarding map loaded for 'gros-74' as '10'
[2020-04-22 21:18:34.594114 CEST] [3931] [info] forwarding_mapper() Forward to 10
[2020-04-22 21:18:34.597866 CEST] [3919] [info] Forwarding map loaded for 'gros-74' as '10'
[2020-04-22 21:18:34.598015 CEST] [3919] [info] forwarding_mapper() Forward to 10
[2020-04-22 21:18:34.613760 CEST] [3920] [info] Forwarding map loaded for 'gros-74' as '10'
[2020-04-22 21:18:34.613908 CEST] [3920] [info] forwarding_mapper() Forward to 10
[2020-04-22 21:18:34.614573 CEST] [3917] [info] Forwarding map loaded for 'gros-74' as '10'
[2020-04-22 21:18:34.614728 CEST] [3917] [info] forwarding_mapper() Forward to 10
[2020-04-22 21:18:34.616309 CEST] [3925] [info] Forwarding map loaded for 'gros-74' as '10'
[2020-04-22 21:18:34.616460 CEST] [3925] [info] forwarding_mapper() Forward to 10
[2020-04-22 21:18:34.684568 CEST] [3935] [info] Forwarding map loaded for 'gros-74' as '10'
[2020-04-22 21:18:34.684722 CEST] [3935] [info] forwarding_mapper() Forward to 10
[2020-04-22 21:18:44.551909 CEST] [3918] [info] Forwarding map loaded for 'gros-74' as '10'
[2020-04-22 21:18:44.552067 CEST] [3918] [info] forwarding_mapper() Forward to 10
[2020-04-22 21:18:44.577235 CEST] [3921] [info] Forwarding map loaded for 'gros-74' as '10'
[2020-04-22 21:18:44.577391 CEST] [3921] [info] forwarding_mapper() Forward to 10
[2020-04-22 21:18:44.599081 CEST] [3931] [info] Forwarding map loaded for 'gros-74' as '10'
[2020-04-22 21:18:44.599223 CEST] [3931] [info] forwarding_mapper() Forward to 10
[2020-04-22 21:18:44.600957 CEST] [3919] [info] Forwarding map loaded for 'gros-74' as '10'
[2020-04-22 21:18:44.601048 CEST] [3919] [info] forwarding_mapper() Forward to 10
[2020-04-22 21:18:44.619442 CEST] [3925] [info] Forwarding map loaded for 'gros-74' as '10'
[2020-04-22 21:18:44.619512 CEST] [3925] [info] forwarding_mapper() Forward to 10
[2020-04-22 21:18:44.620619 CEST] [3920] [info] Forwarding map loaded for 'gros-74' as '10'
[2020-04-22 21:18:44.620690 CEST] [3920] [info] forwarding_mapper() Forward to 10
[2020-04-22 21:18:44.621348 CEST] [3917] [info] Forwarding map loaded for 'gros-74' as '10'
[2020-04-22 21:18:44.621422 CEST] [3917] [info] forwarding_mapper() Forward to 10
[2020-04-22 21:18:44.690176 CEST] [3935] [info] Forwarding map loaded for 'gros-74' as '10'
[2020-04-22 21:18:44.690331 CEST] [3935] [info] forwarding_mapper() Forward to 10
[2020-04-22 21:18:54.557523 CEST] [3918] [info] Forwarding map loaded for 'gros-74' as '10'
[2020-04-22 21:18:54.557669 CEST] [3918] [info] forwarding_mapper() Forward to 10
[2020-04-22 21:18:54.582895 CEST] [3921] [info] Forwarding map loaded for 'gros-74' as '10'
[2020-04-22 21:18:54.583040 CEST] [3921] [info] forwarding_mapper() Forward to 10
[2020-04-22 21:18:54.603739 CEST] [3919] [info] Forwarding map loaded for 'gros-74' as '10'
[2020-04-22 21:18:54.603802 CEST] [3919] [info] forwarding_mapper() Forward to 10
[2020-04-22 21:18:54.604548 CEST] [3931] [info] Forwarding map loaded for 'gros-74' as '10'
[2020-04-22 21:18:54.604693 CEST] [3931] [info] forwarding_mapper() Forward to 10
[2020-04-22 21:18:54.622779 CEST] [3925] [info] Forwarding map loaded for 'gros-74' as '10'
[2020-04-22 21:18:54.622846 CEST] [3925] [info] forwarding_mapper() Forward to 10
[2020-04-22 21:18:54.628199 CEST] [3917] [info] Forwarding map loaded for 'gros-74' as '10'
[2020-04-22 21:18:54.628265 CEST] [3917] [info] forwarding_mapper() Forward to 10
[2020-04-22 21:18:54.632936 CEST] [3920] [info] Forwarding map loaded for 'gros-74' as '10'
[2020-04-22 21:18:54.633009 CEST] [3920] [info] forwarding_mapper() Forward to 10
[2020-04-22 21:18:54.695641 CEST] [3935] [info] Forwarding map loaded for 'gros-74' as '10'
[2020-04-22 21:18:54.695784 CEST] [3935] [info] forwarding_mapper() Forward to 10
[2020-04-22 21:19:04.563408 CEST] [3918] [info] Forwarding map loaded for 'gros-74' as '10'
[2020-04-22 21:19:04.563553 CEST] [3918] [info] forwarding_mapper() Forward to 10
[2020-04-22 21:19:04.588484 CEST] [3921] [info] Forwarding map loaded for 'gros-74' as '10'
[2020-04-22 21:19:04.588627 CEST] [3921] [info] forwarding_mapper() Forward to 10
[2020-04-22 21:19:04.606901 CEST] [3919] [info] Forwarding map loaded for 'gros-74' as '10'
[2020-04-22 21:19:04.606963 CEST] [3919] [info] forwarding_mapper() Forward to 10
[2020-04-22 21:19:04.609491 CEST] [3931] [info] Forwarding map loaded for 'gros-74' as '10'
[2020-04-22 21:19:04.609633 CEST] [3931] [info] forwarding_mapper() Forward to 10
[2020-04-22 21:19:04.626248 CEST] [3925] [info] Forwarding map loaded for 'gros-74' as '10'
[2020-04-22 21:19:04.626314 CEST] [3925] [info] forwarding_mapper() Forward to 10
[2020-04-22 21:19:04.634774 CEST] [3917] [info] Forwarding map loaded for 'gros-74' as '10'
[2020-04-22 21:19:04.634839 CEST] [3917] [info] forwarding_mapper() Forward to 10
[2020-04-22 21:19:04.640315 CEST] [3920] [info] Forwarding map loaded for 'gros-74' as '10'
[2020-04-22 21:19:04.640379 CEST] [3920] [info] forwarding_mapper() Forward to 10
[2020-04-22 21:19:04.701446 CEST] [3935] [info] Forwarding map loaded for 'gros-74' as '10'
[2020-04-22 21:19:04.701591 CEST] [3935] [info] forwarding_mapper() Forward to 10
[2020-04-22 21:19:14.569370 CEST] [3918] [info] Forwarding map loaded for 'gros-74' as '10'
[2020-04-22 21:19:14.569514 CEST] [3918] [info] forwarding_mapper() Forward to 10
[2020-04-22 21:19:14.594159 CEST] [3921] [info] Forwarding map loaded for 'gros-74' as '10'
[2020-04-22 21:19:14.594313 CEST] [3921] [info] forwarding_mapper() Forward to 10
[2020-04-22 21:19:14.610211 CEST] [3919] [info] Forwarding map loaded for 'gros-74' as '10'
[2020-04-22 21:19:14.610273 CEST] [3919] [info] forwarding_mapper() Forward to 10
[2020-04-22 21:19:14.614436 CEST] [3931] [info] Forwarding map loaded for 'gros-74' as '10'
[2020-04-22 21:19:14.614580 CEST] [3931] [info] forwarding_mapper() Forward to 10
[2020-04-22 21:19:14.629754 CEST] [3925] [info] Forwarding map loaded for 'gros-74' as '10'
[2020-04-22 21:19:14.629817 CEST] [3925] [info] forwarding_mapper() Forward to 10
[2020-04-22 21:19:14.640825 CEST] [3917] [info] Forwarding map loaded for 'gros-74' as '10'
[2020-04-22 21:19:14.640890 CEST] [3917] [info] forwarding_mapper() Forward to 10
[2020-04-22 21:19:14.652638 CEST] [3920] [info] Forwarding map loaded for 'gros-74' as '10'
[2020-04-22 21:19:14.652702 CEST] [3920] [info] forwarding_mapper() Forward to 10
[2020-04-22 21:19:14.715900 CEST] [3935] [info] Forwarding map loaded for 'gros-74' as '10'
[2020-04-22 21:19:14.716055 CEST] [3935] [info] forwarding_mapper() Forward to 10
[2020-04-22 21:19:24.575122 CEST] [3918] [info] Forwarding map loaded for 'gros-74' as '10'
[2020-04-22 21:19:24.575265 CEST] [3918] [info] forwarding_mapper() Forward to 10
[2020-04-22 21:19:24.599857 CEST] [3921] [info] Forwarding map loaded for 'gros-74' as '10'
[2020-04-22 21:19:24.599999 CEST] [3921] [info] forwarding_mapper() Forward to 10
[2020-04-22 21:19:24.613882 CEST] [3919] [info] Forwarding map loaded for 'gros-74' as '10'
[2020-04-22 21:19:24.613946 CEST] [3919] [info] forwarding_mapper() Forward to 10
[2020-04-22 21:19:24.619853 CEST] [3931] [info] Forwarding map loaded for 'gros-74' as '10'
[2020-04-22 21:19:24.619995 CEST] [3931] [info] forwarding_mapper() Forward to 10
[2020-04-22 21:19:24.633368 CEST] [3925] [info] Forwarding map loaded for 'gros-74' as '10'
[2020-04-22 21:19:24.633436 CEST] [3925] [info] forwarding_mapper() Forward to 10
[2020-04-22 21:19:24.646454 CEST] [3917] [info] Forwarding map loaded for 'gros-74' as '10'
[2020-04-22 21:19:24.646517 CEST] [3917] [info] forwarding_mapper() Forward to 10
[2020-04-22 21:19:24.656195 CEST] [3920] [info] Forwarding map loaded for 'gros-74' as '10'
[2020-04-22 21:19:24.656259 CEST] [3920] [info] forwarding_mapper() Forward to 10
[2020-04-22 21:19:24.721798 CEST] [3935] [info] Forwarding map loaded for 'gros-74' as '10'
[2020-04-22 21:19:24.721939 CEST] [3935] [info] forwarding_mapper() Forward to 10
[2020-04-22 21:19:34.583782 CEST] [3918] [info] Forwarding map loaded for 'gros-74' as '8'
[2020-04-22 21:19:34.583934 CEST] [3918] [info] forwarding_mapper() Forward to 8
[2020-04-22 21:19:34.607620 CEST] [3921] [info] Forwarding map loaded for 'gros-74' as '8'
[2020-04-22 21:19:34.607768 CEST] [3921] [info] forwarding_mapper() Forward to 8
[2020-04-22 21:19:34.620766 CEST] [3919] [info] Forwarding map loaded for 'gros-74' as '8'
[2020-04-22 21:19:34.620917 CEST] [3919] [info] forwarding_mapper() Forward to 8
[2020-04-22 21:19:34.626226 CEST] [3931] [info] Forwarding map loaded for 'gros-74' as '8'
[2020-04-22 21:19:34.626420 CEST] [3931] [info] forwarding_mapper() Forward to 8
[2020-04-22 21:19:34.637960 CEST] [3925] [info] Forwarding map loaded for 'gros-74' as '8'
[2020-04-22 21:19:34.638031 CEST] [3925] [info] forwarding_mapper() Forward to 8
[2020-04-22 21:19:34.651479 CEST] [3917] [info] Forwarding map loaded for 'gros-74' as '8'
[2020-04-22 21:19:34.651551 CEST] [3917] [info] forwarding_mapper() Forward to 8
[2020-04-22 21:19:34.662669 CEST] [3920] [info] Forwarding map loaded for 'gros-74' as '8'
[2020-04-22 21:19:34.662817 CEST] [3920] [info] forwarding_mapper() Forward to 8
[2020-04-22 21:19:34.729028 CEST] [3935] [info] Forwarding map loaded for 'gros-74' as '8'
[2020-04-22 21:19:34.729173 CEST] [3935] [info] forwarding_mapper() Forward to 8
[2020-04-22 21:19:44.652611 CEST] [3878] [info] All subsystems shut down. Client shutdown complete.
[2020-04-22 21:19:44.663204 CEST] [3884] [info] All subsystems shut down. Client shutdown complete.
[2020-04-22 21:19:44.671153 CEST] [3881] [info] All subsystems shut down. Client shutdown complete.
[2020-04-22 21:19:44.672384 CEST] [3883] [info] All subsystems shut down. Client shutdown complete.
[2020-04-22 21:19:44.672731 CEST] [3879] [info] All subsystems shut down. Client shutdown complete.
[2020-04-22 21:19:44.681829 CEST] [3880] [info] All subsystems shut down. Client shutdown complete.
[2020-04-22 21:19:44.703479 CEST] [3877] [info] All subsystems shut down. Client shutdown complete.
[2020-04-22 21:19:44.811125 CEST] [3882] [info] All subsystems shut down. Client shutdown complete.
