[2020-04-22 20:25:48.429530 CEST] [3508] [info] Process cmdline: '/root/benchmarks/MADbench2/MADbench2.x 4096 64 1 8 8 4 4 /mnt/gkfs/output-G-2'
[2020-04-22 20:25:48.429805 CEST] [3508] [info] Initializing RPC subsystem...
[2020-04-22 20:25:48.429681 CEST] [3507] [info] Process cmdline: '/root/benchmarks/MADbench2/MADbench2.x 4096 64 1 8 8 4 4 /mnt/gkfs/output-G-2'
[2020-04-22 20:25:48.429919 CEST] [3507] [info] Initializing RPC subsystem...
[2020-04-22 20:25:48.451711 CEST] [3507] [info] Loading peer addresses...
[2020-04-22 20:25:48.451713 CEST] [3508] [info] Loading peer addresses...
[2020-04-22 20:25:48.454765 CEST] [3507] [info] Hosts pool size: 12
[2020-04-22 20:25:48.455274 CEST] [3508] [info] Hosts pool size: 12
[2020-04-22 20:25:48.480385 CEST] [3508] [info] Forwarding map loaded for 'gros-86' as '8'
[2020-04-22 20:25:48.480566 CEST] [3508] [info] init_ld_environment_() Forward to 8
[2020-04-22 20:25:48.480706 CEST] [3508] [info] Retrieving file system configuration...
[2020-04-22 20:25:48.480869 CEST] [3507] [info] Forwarding map loaded for 'gros-86' as '8'
[2020-04-22 20:25:48.481037 CEST] [3507] [info] init_ld_environment_() Forward to 8
[2020-04-22 20:25:48.481164 CEST] [3507] [info] Retrieving file system configuration...
[2020-04-22 20:25:48.483528 CEST] [3508] [info] Mountdir: '/mnt/gkfs'
[2020-04-22 20:25:48.483693 CEST] [3508] [info] Environment initialization successful.
[2020-04-22 20:25:48.484629 CEST] [3507] [info] Mountdir: '/mnt/gkfs'
[2020-04-22 20:25:48.484766 CEST] [3507] [info] Environment initialization successful.
[2020-04-22 20:25:48.514247 CEST] [3518] [info] Forwarding map loaded for 'gros-86' as '8'
[2020-04-22 20:25:48.514437 CEST] [3518] [info] forwarding_mapper() Forward to 8
[2020-04-22 20:25:48.514805 CEST] [3517] [info] Forwarding map loaded for 'gros-86' as '8'
[2020-04-22 20:25:48.514983 CEST] [3517] [info] forwarding_mapper() Forward to 8
[2020-04-22 20:25:58.521088 CEST] [3517] [info] Forwarding map loaded for 'gros-86' as '8'
[2020-04-22 20:25:58.521296 CEST] [3517] [info] forwarding_mapper() Forward to 8
[2020-04-22 20:25:58.526036 CEST] [3518] [info] Forwarding map loaded for 'gros-86' as '8'
[2020-04-22 20:25:58.526182 CEST] [3518] [info] forwarding_mapper() Forward to 8
[2020-04-22 20:26:08.527063 CEST] [3517] [info] Forwarding map loaded for 'gros-86' as '8'
[2020-04-22 20:26:08.527212 CEST] [3517] [info] forwarding_mapper() Forward to 8
[2020-04-22 20:26:08.533077 CEST] [3518] [info] Forwarding map loaded for 'gros-86' as '8'
[2020-04-22 20:26:08.533220 CEST] [3518] [info] forwarding_mapper() Forward to 8
[2020-04-22 20:26:18.532997 CEST] [3517] [info] Forwarding map loaded for 'gros-86' as '8'
[2020-04-22 20:26:18.533155 CEST] [3517] [info] forwarding_mapper() Forward to 8
[2020-04-22 20:26:18.545077 CEST] [3518] [info] Forwarding map loaded for 'gros-86' as '8'
[2020-04-22 20:26:18.545223 CEST] [3518] [info] forwarding_mapper() Forward to 8
[2020-04-22 20:26:28.538903 CEST] [3517] [info] Forwarding map loaded for 'gros-86' as '8'
[2020-04-22 20:26:28.539061 CEST] [3517] [info] forwarding_mapper() Forward to 8
[2020-04-22 20:26:28.552251 CEST] [3518] [info] Forwarding map loaded for 'gros-86' as '8'
[2020-04-22 20:26:28.552398 CEST] [3518] [info] forwarding_mapper() Forward to 8
[2020-04-22 20:26:38.544752 CEST] [3517] [info] Forwarding map loaded for 'gros-86' as '8'
[2020-04-22 20:26:38.544910 CEST] [3517] [info] forwarding_mapper() Forward to 8
[2020-04-22 20:26:38.564496 CEST] [3518] [info] Forwarding map loaded for 'gros-86' as '8'
[2020-04-22 20:26:38.564643 CEST] [3518] [info] forwarding_mapper() Forward to 8
[2020-04-22 20:26:48.550684 CEST] [3517] [info] Forwarding map loaded for 'gros-86' as '8'
[2020-04-22 20:26:48.550843 CEST] [3517] [info] forwarding_mapper() Forward to 8
[2020-04-22 20:26:48.571980 CEST] [3518] [info] Forwarding map loaded for 'gros-86' as '8'
[2020-04-22 20:26:48.572129 CEST] [3518] [info] forwarding_mapper() Forward to 8
[2020-04-22 20:26:58.556518 CEST] [3517] [info] Forwarding map loaded for 'gros-86' as '8'
[2020-04-22 20:26:58.556684 CEST] [3517] [info] forwarding_mapper() Forward to 8
[2020-04-22 20:26:58.584208 CEST] [3518] [info] Forwarding map loaded for 'gros-86' as '8'
[2020-04-22 20:26:58.584355 CEST] [3518] [info] forwarding_mapper() Forward to 8
[2020-04-22 20:27:08.562536 CEST] [3517] [info] Forwarding map loaded for 'gros-86' as '8'
[2020-04-22 20:27:08.562703 CEST] [3517] [info] forwarding_mapper() Forward to 8
[2020-04-22 20:27:08.591647 CEST] [3518] [info] Forwarding map loaded for 'gros-86' as '8'
[2020-04-22 20:27:08.591804 CEST] [3518] [info] forwarding_mapper() Forward to 8
[2020-04-22 20:27:18.568746 CEST] [3517] [info] Forwarding map loaded for 'gros-86' as '8'
[2020-04-22 20:27:18.568904 CEST] [3517] [info] forwarding_mapper() Forward to 8
[2020-04-22 20:27:18.604093 CEST] [3518] [info] Forwarding map loaded for 'gros-86' as '8'
[2020-04-22 20:27:18.604241 CEST] [3518] [info] forwarding_mapper() Forward to 8
[2020-04-22 20:27:28.574534 CEST] [3517] [info] Forwarding map loaded for 'gros-86' as '8'
[2020-04-22 20:27:28.574700 CEST] [3517] [info] forwarding_mapper() Forward to 8
[2020-04-22 20:27:28.611406 CEST] [3518] [info] Forwarding map loaded for 'gros-86' as '8'
[2020-04-22 20:27:28.611554 CEST] [3518] [info] forwarding_mapper() Forward to 8
[2020-04-22 20:27:38.584913 CEST] [3517] [info] Forwarding map loaded for 'gros-86' as '0'
[2020-04-22 20:27:38.585081 CEST] [3517] [info] forwarding_mapper() Forward to 0
[2020-04-22 20:27:38.619095 CEST] [3518] [info] Forwarding map loaded for 'gros-86' as '0'
[2020-04-22 20:27:38.619246 CEST] [3518] [info] forwarding_mapper() Forward to 0
[2020-04-22 20:27:48.593186 CEST] [3517] [info] Forwarding map loaded for 'gros-86' as '0'
[2020-04-22 20:27:48.593346 CEST] [3517] [info] forwarding_mapper() Forward to 0
[2020-04-22 20:27:48.626765 CEST] [3518] [info] Forwarding map loaded for 'gros-86' as '0'
[2020-04-22 20:27:48.626911 CEST] [3518] [info] forwarding_mapper() Forward to 0
[2020-04-22 20:27:58.605734 CEST] [3517] [info] Forwarding map loaded for 'gros-86' as '0'
[2020-04-22 20:27:58.605892 CEST] [3517] [info] forwarding_mapper() Forward to 0
[2020-04-22 20:27:58.633092 CEST] [3518] [info] Forwarding map loaded for 'gros-86' as '0'
[2020-04-22 20:27:58.633240 CEST] [3518] [info] forwarding_mapper() Forward to 0
[2020-04-22 20:28:08.614827 CEST] [3507] [info] All subsystems shut down. Client shutdown complete.
[2020-04-22 20:28:08.719458 CEST] [3508] [info] All subsystems shut down. Client shutdown complete.
