[2020-04-22 21:22:27.134852 CEST] [3948] [info] Process cmdline: '/root/benchmarks/MADbench2/MADbench2.x 4096 64 1 8 8 4 4 /mnt/gkfs/output-G-2'
[2020-04-22 21:22:27.135110 CEST] [3948] [info] Initializing RPC subsystem...
[2020-04-22 21:22:27.136490 CEST] [3949] [info] Process cmdline: '/root/benchmarks/MADbench2/MADbench2.x 4096 64 1 8 8 4 4 /mnt/gkfs/output-G-2'
[2020-04-22 21:22:27.136717 CEST] [3949] [info] Initializing RPC subsystem...
[2020-04-22 21:22:27.155143 CEST] [3948] [info] Loading peer addresses...
[2020-04-22 21:22:27.155449 CEST] [3949] [info] Loading peer addresses...
[2020-04-22 21:22:27.158417 CEST] [3948] [info] Hosts pool size: 12
[2020-04-22 21:22:27.159030 CEST] [3949] [info] Hosts pool size: 12
[2020-04-22 21:22:27.190071 CEST] [3948] [info] Forwarding map loaded for 'gros-14' as '5'
[2020-04-22 21:22:27.190253 CEST] [3948] [info] init_ld_environment_() Forward to 5
[2020-04-22 21:22:27.190387 CEST] [3948] [info] Retrieving file system configuration...
[2020-04-22 21:22:27.190576 CEST] [3949] [info] Forwarding map loaded for 'gros-14' as '5'
[2020-04-22 21:22:27.190734 CEST] [3949] [info] init_ld_environment_() Forward to 5
[2020-04-22 21:22:27.190861 CEST] [3949] [info] Retrieving file system configuration...
[2020-04-22 21:22:27.194447 CEST] [3948] [info] Mountdir: '/mnt/gkfs'
[2020-04-22 21:22:27.194569 CEST] [3948] [info] Environment initialization successful.
[2020-04-22 21:22:27.194656 CEST] [3949] [info] Mountdir: '/mnt/gkfs'
[2020-04-22 21:22:27.194765 CEST] [3949] [info] Environment initialization successful.
[2020-04-22 21:22:27.223140 CEST] [3958] [info] Forwarding map loaded for 'gros-14' as '5'
[2020-04-22 21:22:27.223293 CEST] [3958] [info] forwarding_mapper() Forward to 5
[2020-04-22 21:22:27.223510 CEST] [3959] [info] Forwarding map loaded for 'gros-14' as '5'
[2020-04-22 21:22:27.223654 CEST] [3959] [info] forwarding_mapper() Forward to 5
[2020-04-22 21:22:37.228695 CEST] [3959] [info] Forwarding map loaded for 'gros-14' as '5'
[2020-04-22 21:22:37.228849 CEST] [3959] [info] forwarding_mapper() Forward to 5
[2020-04-22 21:22:37.230824 CEST] [3958] [info] Forwarding map loaded for 'gros-14' as '5'
[2020-04-22 21:22:37.230972 CEST] [3958] [info] forwarding_mapper() Forward to 5
[2020-04-22 21:22:47.233848 CEST] [3959] [info] Forwarding map loaded for 'gros-14' as '5'
[2020-04-22 21:22:47.234003 CEST] [3959] [info] forwarding_mapper() Forward to 5
[2020-04-22 21:22:47.243767 CEST] [3958] [info] Forwarding map loaded for 'gros-14' as '5'
[2020-04-22 21:22:47.243910 CEST] [3958] [info] forwarding_mapper() Forward to 5
[2020-04-22 21:22:57.239006 CEST] [3959] [info] Forwarding map loaded for 'gros-14' as '5'
[2020-04-22 21:22:57.239160 CEST] [3959] [info] forwarding_mapper() Forward to 5
[2020-04-22 21:22:57.251976 CEST] [3958] [info] Forwarding map loaded for 'gros-14' as '5'
[2020-04-22 21:22:57.252114 CEST] [3958] [info] forwarding_mapper() Forward to 5
[2020-04-22 21:23:07.243948 CEST] [3959] [info] Forwarding map loaded for 'gros-14' as '5'
[2020-04-22 21:23:07.244100 CEST] [3959] [info] forwarding_mapper() Forward to 5
[2020-04-22 21:23:07.264860 CEST] [3958] [info] Forwarding map loaded for 'gros-14' as '5'
[2020-04-22 21:23:07.264998 CEST] [3958] [info] forwarding_mapper() Forward to 5
[2020-04-22 21:23:17.248935 CEST] [3959] [info] Forwarding map loaded for 'gros-14' as '5'
[2020-04-22 21:23:17.249087 CEST] [3959] [info] forwarding_mapper() Forward to 5
[2020-04-22 21:23:17.273178 CEST] [3958] [info] Forwarding map loaded for 'gros-14' as '5'
[2020-04-22 21:23:17.273316 CEST] [3958] [info] forwarding_mapper() Forward to 5
[2020-04-22 21:23:27.253989 CEST] [3959] [info] Forwarding map loaded for 'gros-14' as '5'
[2020-04-22 21:23:27.254141 CEST] [3959] [info] forwarding_mapper() Forward to 5
[2020-04-22 21:23:27.282328 CEST] [3958] [info] Forwarding map loaded for 'gros-14' as '5'
[2020-04-22 21:23:27.282465 CEST] [3958] [info] forwarding_mapper() Forward to 5
[2020-04-22 21:23:37.259423 CEST] [3959] [info] Forwarding map loaded for 'gros-14' as '5'
[2020-04-22 21:23:37.259573 CEST] [3959] [info] forwarding_mapper() Forward to 5
[2020-04-22 21:23:37.290560 CEST] [3958] [info] Forwarding map loaded for 'gros-14' as '5'
[2020-04-22 21:23:37.290698 CEST] [3958] [info] forwarding_mapper() Forward to 5
[2020-04-22 21:23:47.264376 CEST] [3959] [info] Forwarding map loaded for 'gros-14' as '5'
[2020-04-22 21:23:47.264528 CEST] [3959] [info] forwarding_mapper() Forward to 5
[2020-04-22 21:23:47.303608 CEST] [3958] [info] Forwarding map loaded for 'gros-14' as '5'
[2020-04-22 21:23:47.303746 CEST] [3958] [info] forwarding_mapper() Forward to 5
[2020-04-22 21:23:57.269534 CEST] [3959] [info] Forwarding map loaded for 'gros-14' as '5'
[2020-04-22 21:23:57.269687 CEST] [3959] [info] forwarding_mapper() Forward to 5
[2020-04-22 21:23:57.311747 CEST] [3958] [info] Forwarding map loaded for 'gros-14' as '5'
[2020-04-22 21:23:57.311885 CEST] [3958] [info] forwarding_mapper() Forward to 5
[2020-04-22 21:24:07.335275 CEST] [3959] [info] Forwarding map loaded for 'gros-14' as '5'
[2020-04-22 21:24:07.335420 CEST] [3959] [info] forwarding_mapper() Forward to 5
[2020-04-22 21:24:07.337031 CEST] [3958] [info] Forwarding map loaded for 'gros-14' as '5'
[2020-04-22 21:24:07.337185 CEST] [3958] [info] forwarding_mapper() Forward to 5
[2020-04-22 21:24:17.412141 CEST] [3948] [info] All subsystems shut down. Client shutdown complete.
[2020-04-22 21:24:17.416315 CEST] [3949] [info] All subsystems shut down. Client shutdown complete.
