[2020-04-22 21:22:27.142016 CEST] [3777] [info] Process cmdline: '/root/benchmarks/MADbench2/MADbench2.x 4096 64 1 8 8 4 4 /mnt/gkfs/output-G-2'
[2020-04-22 21:22:27.142282 CEST] [3777] [info] Initializing RPC subsystem...
[2020-04-22 21:22:27.143103 CEST] [3778] [info] Process cmdline: '/root/benchmarks/MADbench2/MADbench2.x 4096 64 1 8 8 4 4 /mnt/gkfs/output-G-2'
[2020-04-22 21:22:27.143343 CEST] [3778] [info] Initializing RPC subsystem...
[2020-04-22 21:22:27.163926 CEST] [3777] [info] Loading peer addresses...
[2020-04-22 21:22:27.164192 CEST] [3778] [info] Loading peer addresses...
[2020-04-22 21:22:27.167182 CEST] [3777] [info] Hosts pool size: 12
[2020-04-22 21:22:27.167623 CEST] [3778] [info] Hosts pool size: 12
[2020-04-22 21:22:27.192532 CEST] [3778] [info] Forwarding map loaded for 'gros-103' as '4'
[2020-04-22 21:22:27.192706 CEST] [3778] [info] init_ld_environment_() Forward to 4
[2020-04-22 21:22:27.192842 CEST] [3778] [info] Retrieving file system configuration...
[2020-04-22 21:22:27.193014 CEST] [3777] [info] Forwarding map loaded for 'gros-103' as '4'
[2020-04-22 21:22:27.193173 CEST] [3777] [info] init_ld_environment_() Forward to 4
[2020-04-22 21:22:27.193298 CEST] [3777] [info] Retrieving file system configuration...
[2020-04-22 21:22:27.195582 CEST] [3778] [info] Mountdir: '/mnt/gkfs'
[2020-04-22 21:22:27.195722 CEST] [3778] [info] Environment initialization successful.
[2020-04-22 21:22:27.195829 CEST] [3777] [info] Mountdir: '/mnt/gkfs'
[2020-04-22 21:22:27.195937 CEST] [3777] [info] Environment initialization successful.
[2020-04-22 21:22:27.224211 CEST] [3788] [info] Forwarding map loaded for 'gros-103' as '4'
[2020-04-22 21:22:27.224355 CEST] [3788] [info] forwarding_mapper() Forward to 4
[2020-04-22 21:22:27.225067 CEST] [3787] [info] Forwarding map loaded for 'gros-103' as '4'
[2020-04-22 21:22:27.225224 CEST] [3787] [info] forwarding_mapper() Forward to 4
[2020-04-22 21:22:37.230243 CEST] [3788] [info] Forwarding map loaded for 'gros-103' as '4'
[2020-04-22 21:22:37.230314 CEST] [3788] [info] forwarding_mapper() Forward to 4
[2020-04-22 21:22:37.232091 CEST] [3787] [info] Forwarding map loaded for 'gros-103' as '4'
[2020-04-22 21:22:37.232237 CEST] [3787] [info] forwarding_mapper() Forward to 4
[2020-04-22 21:22:47.238499 CEST] [3787] [info] Forwarding map loaded for 'gros-103' as '4'
[2020-04-22 21:22:47.238646 CEST] [3787] [info] forwarding_mapper() Forward to 4
[2020-04-22 21:22:47.240463 CEST] [3788] [info] Forwarding map loaded for 'gros-103' as '4'
[2020-04-22 21:22:47.240533 CEST] [3788] [info] forwarding_mapper() Forward to 4
[2020-04-22 21:22:57.245063 CEST] [3787] [info] Forwarding map loaded for 'gros-103' as '4'
[2020-04-22 21:22:57.245209 CEST] [3787] [info] forwarding_mapper() Forward to 4
[2020-04-22 21:22:57.245860 CEST] [3788] [info] Forwarding map loaded for 'gros-103' as '4'
[2020-04-22 21:22:57.245921 CEST] [3788] [info] forwarding_mapper() Forward to 4
[2020-04-22 21:23:07.250730 CEST] [3788] [info] Forwarding map loaded for 'gros-103' as '4'
[2020-04-22 21:23:07.250792 CEST] [3788] [info] forwarding_mapper() Forward to 4
[2020-04-22 21:23:07.252124 CEST] [3787] [info] Forwarding map loaded for 'gros-103' as '4'
[2020-04-22 21:23:07.252265 CEST] [3787] [info] forwarding_mapper() Forward to 4
[2020-04-22 21:23:17.256546 CEST] [3788] [info] Forwarding map loaded for 'gros-103' as '4'
[2020-04-22 21:23:17.256607 CEST] [3788] [info] forwarding_mapper() Forward to 4
[2020-04-22 21:23:17.259005 CEST] [3787] [info] Forwarding map loaded for 'gros-103' as '4'
[2020-04-22 21:23:17.259145 CEST] [3787] [info] forwarding_mapper() Forward to 4
[2020-04-22 21:23:27.264158 CEST] [3787] [info] Forwarding map loaded for 'gros-103' as '4'
[2020-04-22 21:23:27.264306 CEST] [3787] [info] forwarding_mapper() Forward to 4
[2020-04-22 21:23:27.267305 CEST] [3788] [info] Forwarding map loaded for 'gros-103' as '4'
[2020-04-22 21:23:27.267372 CEST] [3788] [info] forwarding_mapper() Forward to 4
[2020-04-22 21:23:37.269707 CEST] [3787] [info] Forwarding map loaded for 'gros-103' as '4'
[2020-04-22 21:23:37.269856 CEST] [3787] [info] forwarding_mapper() Forward to 4
[2020-04-22 21:23:37.273684 CEST] [3788] [info] Forwarding map loaded for 'gros-103' as '4'
[2020-04-22 21:23:37.273751 CEST] [3788] [info] forwarding_mapper() Forward to 4
[2020-04-22 21:23:47.275316 CEST] [3787] [info] Forwarding map loaded for 'gros-103' as '4'
[2020-04-22 21:23:47.275464 CEST] [3787] [info] forwarding_mapper() Forward to 4
[2020-04-22 21:23:47.284693 CEST] [3788] [info] Forwarding map loaded for 'gros-103' as '4'
[2020-04-22 21:23:47.284764 CEST] [3788] [info] forwarding_mapper() Forward to 4
[2020-04-22 21:23:57.281211 CEST] [3787] [info] Forwarding map loaded for 'gros-103' as '4'
[2020-04-22 21:23:57.281361 CEST] [3787] [info] forwarding_mapper() Forward to 4
[2020-04-22 21:23:57.291080 CEST] [3788] [info] Forwarding map loaded for 'gros-103' as '4'
[2020-04-22 21:23:57.291140 CEST] [3788] [info] forwarding_mapper() Forward to 4
[2020-04-22 21:24:07.338426 CEST] [3788] [info] Forwarding map loaded for 'gros-103' as '4'
[2020-04-22 21:24:07.338488 CEST] [3788] [info] forwarding_mapper() Forward to 4
[2020-04-22 21:24:07.339277 CEST] [3787] [info] Forwarding map loaded for 'gros-103' as '4'
[2020-04-22 21:24:07.339420 CEST] [3787] [info] forwarding_mapper() Forward to 4
[2020-04-22 21:24:17.415999 CEST] [3777] [info] All subsystems shut down. Client shutdown complete.
[2020-04-22 21:24:17.420032 CEST] [3778] [info] All subsystems shut down. Client shutdown complete.
