[2020-04-22 21:24:13.572708 CEST] [4031] [info] Process cmdline: '/root/benchmarks/S3D-IO/s3d_io.x 384 384 384 8 8 8 1 F /mnt/gkfs'
[2020-04-22 21:24:13.572941 CEST] [4031] [info] Initializing RPC subsystem...
[2020-04-22 21:24:13.577715 CEST] [4033] [info] Process cmdline: '/root/benchmarks/S3D-IO/s3d_io.x 384 384 384 8 8 8 1 F /mnt/gkfs'
[2020-04-22 21:24:13.577945 CEST] [4033] [info] Initializing RPC subsystem...
[2020-04-22 21:24:13.578056 CEST] [4032] [info] Process cmdline: '/root/benchmarks/S3D-IO/s3d_io.x 384 384 384 8 8 8 1 F /mnt/gkfs'
[2020-04-22 21:24:13.578287 CEST] [4032] [info] Initializing RPC subsystem...
[2020-04-22 21:24:13.578414 CEST] [4030] [info] Process cmdline: '/root/benchmarks/S3D-IO/s3d_io.x 384 384 384 8 8 8 1 F /mnt/gkfs'
[2020-04-22 21:24:13.578642 CEST] [4030] [info] Initializing RPC subsystem...
[2020-04-22 21:24:13.583414 CEST] [4034] [info] Process cmdline: '/root/benchmarks/S3D-IO/s3d_io.x 384 384 384 8 8 8 1 F /mnt/gkfs'
[2020-04-22 21:24:13.583640 CEST] [4034] [info] Initializing RPC subsystem...
[2020-04-22 21:24:13.584437 CEST] [4029] [info] Loading peer addresses...
[2020-04-22 21:24:13.586815 CEST] [4029] [info] Hosts pool size: 12
[2020-04-22 21:24:13.588255 CEST] [4028] [info] Loading peer addresses...
[2020-04-22 21:24:13.589797 CEST] [4035] [info] Process cmdline: '/root/benchmarks/S3D-IO/s3d_io.x 384 384 384 8 8 8 1 F /mnt/gkfs'
[2020-04-22 21:24:13.590057 CEST] [4035] [info] Initializing RPC subsystem...
[2020-04-22 21:24:13.591409 CEST] [4028] [info] Hosts pool size: 12
[2020-04-22 21:24:13.592597 CEST] [4031] [info] Loading peer addresses...
[2020-04-22 21:24:13.594577 CEST] [4031] [info] Hosts pool size: 12
[2020-04-22 21:24:13.600912 CEST] [4033] [info] Loading peer addresses...
[2020-04-22 21:24:13.601558 CEST] [4030] [info] Loading peer addresses...
[2020-04-22 21:24:13.602728 CEST] [4033] [info] Hosts pool size: 12
[2020-04-22 21:24:13.603318 CEST] [4030] [info] Hosts pool size: 12
[2020-04-22 21:24:13.604144 CEST] [4034] [info] Loading peer addresses...
[2020-04-22 21:24:13.604391 CEST] [4032] [info] Loading peer addresses...
[2020-04-22 21:24:13.605135 CEST] [4035] [info] Loading peer addresses...
[2020-04-22 21:24:13.606238 CEST] [4034] [info] Hosts pool size: 12
[2020-04-22 21:24:13.606640 CEST] [4035] [info] Hosts pool size: 12
[2020-04-22 21:24:13.608514 CEST] [4032] [info] Hosts pool size: 12
[2020-04-22 21:24:14.079643 CEST] [4028] [info] Forwarding map loaded for 'gros-89' as '6'
[2020-04-22 21:24:14.079821 CEST] [4028] [info] init_ld_environment_() Forward to 6
[2020-04-22 21:24:14.079790 CEST] [4030] [info] Forwarding map loaded for 'gros-89' as '6'
[2020-04-22 21:24:14.079974 CEST] [4028] [info] Retrieving file system configuration...
[2020-04-22 21:24:14.079988 CEST] [4030] [info] init_ld_environment_() Forward to 6
[2020-04-22 21:24:14.080126 CEST] [4030] [info] Retrieving file system configuration...
[2020-04-22 21:24:14.081393 CEST] [4032] [info] Forwarding map loaded for 'gros-89' as '6'
[2020-04-22 21:24:14.081573 CEST] [4032] [info] init_ld_environment_() Forward to 6
[2020-04-22 21:24:14.081700 CEST] [4032] [info] Retrieving file system configuration...
[2020-04-22 21:24:14.083431 CEST] [4029] [info] Forwarding map loaded for 'gros-89' as '6'
[2020-04-22 21:24:14.083611 CEST] [4029] [info] init_ld_environment_() Forward to 6
[2020-04-22 21:24:14.083737 CEST] [4029] [info] Retrieving file system configuration...
[2020-04-22 21:24:14.084234 CEST] [4034] [info] Forwarding map loaded for 'gros-89' as '6'
[2020-04-22 21:24:14.084417 CEST] [4034] [info] init_ld_environment_() Forward to 6
[2020-04-22 21:24:14.084542 CEST] [4034] [info] Retrieving file system configuration...
[2020-04-22 21:24:14.084576 CEST] [4035] [info] Forwarding map loaded for 'gros-89' as '6'
[2020-04-22 21:24:14.084754 CEST] [4035] [info] init_ld_environment_() Forward to 6
[2020-04-22 21:24:14.084882 CEST] [4035] [info] Retrieving file system configuration...
[2020-04-22 21:24:14.084932 CEST] [4033] [info] Forwarding map loaded for 'gros-89' as '6'
[2020-04-22 21:24:14.085111 CEST] [4033] [info] init_ld_environment_() Forward to 6
[2020-04-22 21:24:14.085251 CEST] [4033] [info] Retrieving file system configuration...
[2020-04-22 21:24:14.085951 CEST] [4031] [info] Forwarding map loaded for 'gros-89' as '6'
[2020-04-22 21:24:14.086135 CEST] [4031] [info] init_ld_environment_() Forward to 6
[2020-04-22 21:24:14.086264 CEST] [4031] [info] Retrieving file system configuration...
[2020-04-22 21:24:14.092121 CEST] [4030] [info] Mountdir: '/mnt/gkfs'
[2020-04-22 21:24:14.092121 CEST] [4028] [info] Mountdir: '/mnt/gkfs'
[2020-04-22 21:24:14.092288 CEST] [4028] [info] Environment initialization successful.
[2020-04-22 21:24:14.092286 CEST] [4030] [info] Environment initialization successful.
[2020-04-22 21:24:14.092597 CEST] [4032] [info] Mountdir: '/mnt/gkfs'
[2020-04-22 21:24:14.092714 CEST] [4032] [info] Environment initialization successful.
[2020-04-22 21:24:14.093321 CEST] [4029] [info] Mountdir: '/mnt/gkfs'
[2020-04-22 21:24:14.093453 CEST] [4029] [info] Environment initialization successful.
[2020-04-22 21:24:14.093604 CEST] [4034] [info] Mountdir: '/mnt/gkfs'
[2020-04-22 21:24:14.093648 CEST] [4035] [info] Mountdir: '/mnt/gkfs'
[2020-04-22 21:24:14.093767 CEST] [4034] [info] Environment initialization successful.
[2020-04-22 21:24:14.093781 CEST] [4035] [info] Environment initialization successful.
[2020-04-22 21:24:14.093947 CEST] [4031] [info] Mountdir: '/mnt/gkfs'
[2020-04-22 21:24:14.094078 CEST] [4031] [info] Environment initialization successful.
[2020-04-22 21:24:14.125380 CEST] [4068] [info] Forwarding map loaded for 'gros-89' as '6'
[2020-04-22 21:24:14.125555 CEST] [4068] [info] forwarding_mapper() Forward to 6
[2020-04-22 21:24:14.137834 CEST] [4069] [info] Forwarding map loaded for 'gros-89' as '6'
[2020-04-22 21:24:14.138027 CEST] [4069] [info] forwarding_mapper() Forward to 6
[2020-04-22 21:24:14.139646 CEST] [4071] [info] Forwarding map loaded for 'gros-89' as '6'
[2020-04-22 21:24:14.139795 CEST] [4071] [info] forwarding_mapper() Forward to 6
[2020-04-22 21:24:14.140950 CEST] [4073] [info] Forwarding map loaded for 'gros-89' as '6'
[2020-04-22 21:24:14.140995 CEST] [4074] [info] Forwarding map loaded for 'gros-89' as '6'
[2020-04-22 21:24:14.141123 CEST] [4073] [info] forwarding_mapper() Forward to 6
[2020-04-22 21:24:14.141145 CEST] [4074] [info] forwarding_mapper() Forward to 6
[2020-04-22 21:24:14.141823 CEST] [4075] [info] Forwarding map loaded for 'gros-89' as '6'
[2020-04-22 21:24:14.141993 CEST] [4075] [info] forwarding_mapper() Forward to 6
[2020-04-22 21:24:14.142383 CEST] [4076] [info] Forwarding map loaded for 'gros-89' as '6'
[2020-04-22 21:24:14.142528 CEST] [4076] [info] forwarding_mapper() Forward to 6
[2020-04-22 21:24:15.092517 CEST] [4033] [info] Mountdir: '/mnt/gkfs'
[2020-04-22 21:24:15.092668 CEST] [4033] [info] Environment initialization successful.
[2020-04-22 21:24:15.120980 CEST] [4089] [info] Forwarding map loaded for 'gros-89' as '6'
[2020-04-22 21:24:15.121153 CEST] [4089] [info] forwarding_mapper() Forward to 6
[2020-04-22 21:24:24.134722 CEST] [4068] [info] Forwarding map loaded for 'gros-89' as '1'
[2020-04-22 21:24:24.134919 CEST] [4068] [info] forwarding_mapper() Forward to 1
[2020-04-22 21:24:24.161808 CEST] [4069] [info] Forwarding map loaded for 'gros-89' as '1'
[2020-04-22 21:24:24.162011 CEST] [4069] [info] forwarding_mapper() Forward to 1
[2020-04-22 21:24:24.162768 CEST] [4071] [info] Forwarding map loaded for 'gros-89' as '1'
[2020-04-22 21:24:24.162935 CEST] [4071] [info] forwarding_mapper() Forward to 1
[2020-04-22 21:24:24.163776 CEST] [4074] [info] Forwarding map loaded for 'gros-89' as '1'
[2020-04-22 21:24:24.163896 CEST] [4074] [info] forwarding_mapper() Forward to 1
[2020-04-22 21:24:24.164111 CEST] [4075] [info] Forwarding map loaded for 'gros-89' as '1'
[2020-04-22 21:24:24.164130 CEST] [4073] [info] Forwarding map loaded for 'gros-89' as '1'
[2020-04-22 21:24:24.164276 CEST] [4075] [info] forwarding_mapper() Forward to 1
[2020-04-22 21:24:24.164313 CEST] [4073] [info] forwarding_mapper() Forward to 1
[2020-04-22 21:24:24.164454 CEST] [4076] [info] Forwarding map loaded for 'gros-89' as '1'
[2020-04-22 21:24:24.164627 CEST] [4076] [info] forwarding_mapper() Forward to 1
[2020-04-22 21:24:25.130652 CEST] [4089] [info] Forwarding map loaded for 'gros-89' as '1'
[2020-04-22 21:24:25.130829 CEST] [4089] [info] forwarding_mapper() Forward to 1
[2020-04-22 21:24:34.140926 CEST] [4068] [info] Forwarding map loaded for 'gros-89' as '1'
[2020-04-22 21:24:34.141098 CEST] [4068] [info] forwarding_mapper() Forward to 1
[2020-04-22 21:24:34.168334 CEST] [4074] [info] Forwarding map loaded for 'gros-89' as '1'
[2020-04-22 21:24:34.168405 CEST] [4074] [info] forwarding_mapper() Forward to 1
[2020-04-22 21:24:34.168999 CEST] [4073] [info] Forwarding map loaded for 'gros-89' as '1'
[2020-04-22 21:24:34.169152 CEST] [4073] [info] forwarding_mapper() Forward to 1
[2020-04-22 21:24:34.169134 CEST] [4069] [info] Forwarding map loaded for 'gros-89' as '1'
[2020-04-22 21:24:34.169330 CEST] [4069] [info] forwarding_mapper() Forward to 1
[2020-04-22 21:24:34.169661 CEST] [4075] [info] Forwarding map loaded for 'gros-89' as '1'
[2020-04-22 21:24:34.169806 CEST] [4075] [info] forwarding_mapper() Forward to 1
[2020-04-22 21:24:34.173124 CEST] [4071] [info] Forwarding map loaded for 'gros-89' as '1'
[2020-04-22 21:24:34.173271 CEST] [4071] [info] forwarding_mapper() Forward to 1
[2020-04-22 21:24:34.174639 CEST] [4076] [info] Forwarding map loaded for 'gros-89' as '1'
[2020-04-22 21:24:34.174790 CEST] [4076] [info] forwarding_mapper() Forward to 1
[2020-04-22 21:24:35.138782 CEST] [4089] [info] Forwarding map loaded for 'gros-89' as '1'
[2020-04-22 21:24:35.138960 CEST] [4089] [info] forwarding_mapper() Forward to 1
[2020-04-22 21:24:44.146682 CEST] [4068] [info] Forwarding map loaded for 'gros-89' as '1'
[2020-04-22 21:24:44.146850 CEST] [4068] [info] forwarding_mapper() Forward to 1
[2020-04-22 21:24:44.171472 CEST] [4074] [info] Forwarding map loaded for 'gros-89' as '1'
[2020-04-22 21:24:44.171541 CEST] [4074] [info] forwarding_mapper() Forward to 1
[2020-04-22 21:24:44.173574 CEST] [4073] [info] Forwarding map loaded for 'gros-89' as '1'
[2020-04-22 21:24:44.173728 CEST] [4073] [info] forwarding_mapper() Forward to 1
[2020-04-22 21:24:44.174432 CEST] [4075] [info] Forwarding map loaded for 'gros-89' as '1'
[2020-04-22 21:24:44.174576 CEST] [4075] [info] forwarding_mapper() Forward to 1
[2020-04-22 21:24:44.174955 CEST] [4069] [info] Forwarding map loaded for 'gros-89' as '1'
[2020-04-22 21:24:44.175156 CEST] [4069] [info] forwarding_mapper() Forward to 1
[2020-04-22 21:24:44.178820 CEST] [4071] [info] Forwarding map loaded for 'gros-89' as '1'
[2020-04-22 21:24:44.178975 CEST] [4071] [info] forwarding_mapper() Forward to 1
[2020-04-22 21:24:44.179615 CEST] [4076] [info] Forwarding map loaded for 'gros-89' as '1'
[2020-04-22 21:24:44.179764 CEST] [4076] [info] forwarding_mapper() Forward to 1
[2020-04-22 21:24:45.147139 CEST] [4089] [info] Forwarding map loaded for 'gros-89' as '1'
[2020-04-22 21:24:45.147291 CEST] [4089] [info] forwarding_mapper() Forward to 1
[2020-04-22 21:24:54.152453 CEST] [4068] [info] Forwarding map loaded for 'gros-89' as '1'
[2020-04-22 21:24:54.152622 CEST] [4068] [info] forwarding_mapper() Forward to 1
[2020-04-22 21:24:54.174580 CEST] [4074] [info] Forwarding map loaded for 'gros-89' as '1'
[2020-04-22 21:24:54.174648 CEST] [4074] [info] forwarding_mapper() Forward to 1
[2020-04-22 21:24:54.178209 CEST] [4073] [info] Forwarding map loaded for 'gros-89' as '1'
[2020-04-22 21:24:54.178359 CEST] [4073] [info] forwarding_mapper() Forward to 1
[2020-04-22 21:24:54.179453 CEST] [4075] [info] Forwarding map loaded for 'gros-89' as '1'
[2020-04-22 21:24:54.179603 CEST] [4075] [info] forwarding_mapper() Forward to 1
[2020-04-22 21:24:54.184258 CEST] [4069] [info] Forwarding map loaded for 'gros-89' as '1'
[2020-04-22 21:24:54.184423 CEST] [4069] [info] forwarding_mapper() Forward to 1
[2020-04-22 21:24:54.189116 CEST] [4071] [info] Forwarding map loaded for 'gros-89' as '1'
[2020-04-22 21:24:54.189263 CEST] [4071] [info] forwarding_mapper() Forward to 1
[2020-04-22 21:24:54.189862 CEST] [4076] [info] Forwarding map loaded for 'gros-89' as '1'
[2020-04-22 21:24:54.190025 CEST] [4076] [info] forwarding_mapper() Forward to 1
[2020-04-22 21:24:55.160415 CEST] [4089] [info] Forwarding map loaded for 'gros-89' as '1'
[2020-04-22 21:24:55.160566 CEST] [4089] [info] forwarding_mapper() Forward to 1
[2020-04-22 21:25:04.158015 CEST] [4068] [info] Forwarding map loaded for 'gros-89' as '1'
[2020-04-22 21:25:04.158161 CEST] [4068] [info] forwarding_mapper() Forward to 1
[2020-04-22 21:25:04.178588 CEST] [4074] [info] Forwarding map loaded for 'gros-89' as '1'
[2020-04-22 21:25:04.178652 CEST] [4074] [info] forwarding_mapper() Forward to 1
[2020-04-22 21:25:04.183092 CEST] [4073] [info] Forwarding map loaded for 'gros-89' as '1'
[2020-04-22 21:25:04.183232 CEST] [4073] [info] forwarding_mapper() Forward to 1
[2020-04-22 21:25:04.184313 CEST] [4075] [info] Forwarding map loaded for 'gros-89' as '1'
[2020-04-22 21:25:04.184453 CEST] [4075] [info] forwarding_mapper() Forward to 1
[2020-04-22 21:25:04.189471 CEST] [4069] [info] Forwarding map loaded for 'gros-89' as '1'
[2020-04-22 21:25:04.189620 CEST] [4069] [info] forwarding_mapper() Forward to 1
[2020-04-22 21:25:04.194565 CEST] [4071] [info] Forwarding map loaded for 'gros-89' as '1'
[2020-04-22 21:25:04.194702 CEST] [4071] [info] forwarding_mapper() Forward to 1
[2020-04-22 21:25:04.195318 CEST] [4076] [info] Forwarding map loaded for 'gros-89' as '1'
[2020-04-22 21:25:04.195459 CEST] [4076] [info] forwarding_mapper() Forward to 1
[2020-04-22 21:25:05.168956 CEST] [4089] [info] Forwarding map loaded for 'gros-89' as '1'
[2020-04-22 21:25:05.169099 CEST] [4089] [info] forwarding_mapper() Forward to 1
[2020-04-22 21:25:14.162441 CEST] [4068] [info] Forwarding map loaded for 'gros-89' as '1'
[2020-04-22 21:25:14.162547 CEST] [4068] [info] forwarding_mapper() Forward to 1
[2020-04-22 21:25:14.185718 CEST] [4073] [info] Forwarding map loaded for 'gros-89' as '1'
[2020-04-22 21:25:14.185789 CEST] [4073] [info] forwarding_mapper() Forward to 1
[2020-04-22 21:25:14.186671 CEST] [4075] [info] Forwarding map loaded for 'gros-89' as '1'
[2020-04-22 21:25:14.186749 CEST] [4075] [info] forwarding_mapper() Forward to 1
[2020-04-22 21:25:14.187011 CEST] [4074] [info] Forwarding map loaded for 'gros-89' as '1'
[2020-04-22 21:25:14.187084 CEST] [4074] [info] forwarding_mapper() Forward to 1
[2020-04-22 21:25:14.194786 CEST] [4069] [info] Forwarding map loaded for 'gros-89' as '1'
[2020-04-22 21:25:14.194940 CEST] [4069] [info] forwarding_mapper() Forward to 1
[2020-04-22 21:25:14.198893 CEST] [4076] [info] Forwarding map loaded for 'gros-89' as '1'
[2020-04-22 21:25:14.198996 CEST] [4076] [info] forwarding_mapper() Forward to 1
[2020-04-22 21:25:14.200306 CEST] [4071] [info] Forwarding map loaded for 'gros-89' as '1'
[2020-04-22 21:25:14.200449 CEST] [4071] [info] forwarding_mapper() Forward to 1
[2020-04-22 21:25:15.177057 CEST] [4089] [info] Forwarding map loaded for 'gros-89' as '1'
[2020-04-22 21:25:15.177231 CEST] [4089] [info] forwarding_mapper() Forward to 1
[2020-04-22 21:25:24.168775 CEST] [4068] [info] Forwarding map loaded for 'gros-89' as '1'
[2020-04-22 21:25:24.168959 CEST] [4068] [info] forwarding_mapper() Forward to 1
[2020-04-22 21:25:24.190925 CEST] [4073] [info] Forwarding map loaded for 'gros-89' as '1'
[2020-04-22 21:25:24.191093 CEST] [4073] [info] forwarding_mapper() Forward to 1
[2020-04-22 21:25:24.191732 CEST] [4075] [info] Forwarding map loaded for 'gros-89' as '1'
[2020-04-22 21:25:24.191896 CEST] [4075] [info] forwarding_mapper() Forward to 1
[2020-04-22 21:25:24.192521 CEST] [4074] [info] Forwarding map loaded for 'gros-89' as '1'
[2020-04-22 21:25:24.192678 CEST] [4074] [info] forwarding_mapper() Forward to 1
[2020-04-22 21:25:24.200012 CEST] [4069] [info] Forwarding map loaded for 'gros-89' as '1'
[2020-04-22 21:25:24.200182 CEST] [4069] [info] forwarding_mapper() Forward to 1
[2020-04-22 21:25:24.203796 CEST] [4071] [info] Forwarding map loaded for 'gros-89' as '1'
[2020-04-22 21:25:24.203889 CEST] [4071] [info] forwarding_mapper() Forward to 1
[2020-04-22 21:25:24.204841 CEST] [4076] [info] Forwarding map loaded for 'gros-89' as '1'
[2020-04-22 21:25:24.205014 CEST] [4076] [info] forwarding_mapper() Forward to 1
[2020-04-22 21:25:25.183190 CEST] [4089] [info] Forwarding map loaded for 'gros-89' as '1'
[2020-04-22 21:25:25.183361 CEST] [4089] [info] forwarding_mapper() Forward to 1
[2020-04-22 21:25:34.175945 CEST] [4068] [info] Forwarding map loaded for 'gros-89' as '1'
[2020-04-22 21:25:34.176112 CEST] [4068] [info] forwarding_mapper() Forward to 1
[2020-04-22 21:25:34.196482 CEST] [4073] [info] Forwarding map loaded for 'gros-89' as '1'
[2020-04-22 21:25:34.196635 CEST] [4073] [info] forwarding_mapper() Forward to 1
[2020-04-22 21:25:34.202268 CEST] [4075] [info] Forwarding map loaded for 'gros-89' as '1'
[2020-04-22 21:25:34.202425 CEST] [4075] [info] forwarding_mapper() Forward to 1
[2020-04-22 21:25:34.202489 CEST] [4074] [info] Forwarding map loaded for 'gros-89' as '1'
[2020-04-22 21:25:34.202635 CEST] [4074] [info] forwarding_mapper() Forward to 1
[2020-04-22 21:25:34.204886 CEST] [4069] [info] Forwarding map loaded for 'gros-89' as '1'
[2020-04-22 21:25:34.205051 CEST] [4069] [info] forwarding_mapper() Forward to 1
[2020-04-22 21:25:34.209747 CEST] [4076] [info] Forwarding map loaded for 'gros-89' as '1'
[2020-04-22 21:25:34.209896 CEST] [4076] [info] forwarding_mapper() Forward to 1
[2020-04-22 21:25:34.212364 CEST] [4071] [info] Forwarding map loaded for 'gros-89' as '1'
[2020-04-22 21:25:34.212444 CEST] [4071] [info] forwarding_mapper() Forward to 1
[2020-04-22 21:25:35.191085 CEST] [4089] [info] Forwarding map loaded for 'gros-89' as '1'
[2020-04-22 21:25:35.191236 CEST] [4089] [info] forwarding_mapper() Forward to 1
[2020-04-22 21:25:44.182245 CEST] [4068] [info] Forwarding map loaded for 'gros-89' as '1'
[2020-04-22 21:25:44.182417 CEST] [4068] [info] forwarding_mapper() Forward to 1
[2020-04-22 21:25:44.201953 CEST] [4073] [info] Forwarding map loaded for 'gros-89' as '1'
[2020-04-22 21:25:44.202114 CEST] [4073] [info] forwarding_mapper() Forward to 1
[2020-04-22 21:25:44.207265 CEST] [4075] [info] Forwarding map loaded for 'gros-89' as '1'
[2020-04-22 21:25:44.207417 CEST] [4075] [info] forwarding_mapper() Forward to 1
[2020-04-22 21:25:44.207741 CEST] [4074] [info] Forwarding map loaded for 'gros-89' as '1'
[2020-04-22 21:25:44.207887 CEST] [4074] [info] forwarding_mapper() Forward to 1
[2020-04-22 21:25:44.209838 CEST] [4069] [info] Forwarding map loaded for 'gros-89' as '1'
[2020-04-22 21:25:44.210001 CEST] [4069] [info] forwarding_mapper() Forward to 1
[2020-04-22 21:25:44.215362 CEST] [4076] [info] Forwarding map loaded for 'gros-89' as '1'
[2020-04-22 21:25:44.215508 CEST] [4076] [info] forwarding_mapper() Forward to 1
[2020-04-22 21:25:44.216153 CEST] [4071] [info] Forwarding map loaded for 'gros-89' as '1'
[2020-04-22 21:25:44.216236 CEST] [4071] [info] forwarding_mapper() Forward to 1
[2020-04-22 21:25:45.199179 CEST] [4089] [info] Forwarding map loaded for 'gros-89' as '1'
[2020-04-22 21:25:45.199330 CEST] [4089] [info] forwarding_mapper() Forward to 1
[2020-04-22 21:25:54.193354 CEST] [4068] [info] Forwarding map loaded for 'gros-89' as '1'
[2020-04-22 21:25:54.193524 CEST] [4068] [info] forwarding_mapper() Forward to 1
[2020-04-22 21:25:54.207262 CEST] [4073] [info] Forwarding map loaded for 'gros-89' as '1'
[2020-04-22 21:25:54.207428 CEST] [4073] [info] forwarding_mapper() Forward to 1
[2020-04-22 21:25:54.212219 CEST] [4075] [info] Forwarding map loaded for 'gros-89' as '1'
[2020-04-22 21:25:54.212365 CEST] [4075] [info] forwarding_mapper() Forward to 1
[2020-04-22 21:25:54.214574 CEST] [4069] [info] Forwarding map loaded for 'gros-89' as '1'
[2020-04-22 21:25:54.214725 CEST] [4069] [info] forwarding_mapper() Forward to 1
[2020-04-22 21:25:54.217044 CEST] [4074] [info] Forwarding map loaded for 'gros-89' as '1'
[2020-04-22 21:25:54.217198 CEST] [4074] [info] forwarding_mapper() Forward to 1
[2020-04-22 21:25:54.224466 CEST] [4071] [info] Forwarding map loaded for 'gros-89' as '1'
[2020-04-22 21:25:54.224543 CEST] [4071] [info] forwarding_mapper() Forward to 1
[2020-04-22 21:25:54.225983 CEST] [4076] [info] Forwarding map loaded for 'gros-89' as '1'
[2020-04-22 21:25:54.226134 CEST] [4076] [info] forwarding_mapper() Forward to 1
[2020-04-22 21:25:55.207545 CEST] [4089] [info] Forwarding map loaded for 'gros-89' as '1'
[2020-04-22 21:25:55.207707 CEST] [4089] [info] forwarding_mapper() Forward to 1
[2020-04-22 21:26:04.199654 CEST] [4068] [info] Forwarding map loaded for 'gros-89' as '1'
[2020-04-22 21:26:04.199837 CEST] [4068] [info] forwarding_mapper() Forward to 1
[2020-04-22 21:26:04.212953 CEST] [4073] [info] Forwarding map loaded for 'gros-89' as '1'
[2020-04-22 21:26:04.213115 CEST] [4073] [info] forwarding_mapper() Forward to 1
[2020-04-22 21:26:04.218033 CEST] [4075] [info] Forwarding map loaded for 'gros-89' as '1'
[2020-04-22 21:26:04.218197 CEST] [4075] [info] forwarding_mapper() Forward to 1
[2020-04-22 21:26:04.219897 CEST] [4069] [info] Forwarding map loaded for 'gros-89' as '1'
[2020-04-22 21:26:04.220057 CEST] [4069] [info] forwarding_mapper() Forward to 1
[2020-04-22 21:26:04.222641 CEST] [4074] [info] Forwarding map loaded for 'gros-89' as '1'
[2020-04-22 21:26:04.222794 CEST] [4074] [info] forwarding_mapper() Forward to 1
[2020-04-22 21:26:04.228151 CEST] [4071] [info] Forwarding map loaded for 'gros-89' as '1'
[2020-04-22 21:26:04.228239 CEST] [4071] [info] forwarding_mapper() Forward to 1
[2020-04-22 21:26:04.230844 CEST] [4076] [info] Forwarding map loaded for 'gros-89' as '1'
[2020-04-22 21:26:04.231009 CEST] [4076] [info] forwarding_mapper() Forward to 1
[2020-04-22 21:26:05.216464 CEST] [4089] [info] Forwarding map loaded for 'gros-89' as '1'
[2020-04-22 21:26:05.216640 CEST] [4089] [info] forwarding_mapper() Forward to 1
[2020-04-22 21:26:14.210832 CEST] [4068] [info] Forwarding map loaded for 'gros-89' as '1'
[2020-04-22 21:26:14.211009 CEST] [4068] [info] forwarding_mapper() Forward to 1
[2020-04-22 21:26:14.218496 CEST] [4073] [info] Forwarding map loaded for 'gros-89' as '1'
[2020-04-22 21:26:14.218662 CEST] [4073] [info] forwarding_mapper() Forward to 1
[2020-04-22 21:26:14.226500 CEST] [4069] [info] Forwarding map loaded for 'gros-89' as '1'
[2020-04-22 21:26:14.226651 CEST] [4069] [info] forwarding_mapper() Forward to 1
[2020-04-22 21:26:14.228572 CEST] [4075] [info] Forwarding map loaded for 'gros-89' as '1'
[2020-04-22 21:26:14.228723 CEST] [4075] [info] forwarding_mapper() Forward to 1
[2020-04-22 21:26:14.233437 CEST] [4074] [info] Forwarding map loaded for 'gros-89' as '1'
[2020-04-22 21:26:14.233593 CEST] [4074] [info] forwarding_mapper() Forward to 1
[2020-04-22 21:26:14.236791 CEST] [4071] [info] Forwarding map loaded for 'gros-89' as '1'
[2020-04-22 21:26:14.236868 CEST] [4071] [info] forwarding_mapper() Forward to 1
[2020-04-22 21:26:14.241270 CEST] [4076] [info] Forwarding map loaded for 'gros-89' as '1'
[2020-04-22 21:26:14.241423 CEST] [4076] [info] forwarding_mapper() Forward to 1
[2020-04-22 21:26:15.222734 CEST] [4089] [info] Forwarding map loaded for 'gros-89' as '1'
[2020-04-22 21:26:15.222900 CEST] [4089] [info] forwarding_mapper() Forward to 1
[2020-04-22 21:26:24.216433 CEST] [4068] [info] Forwarding map loaded for 'gros-89' as '1'
[2020-04-22 21:26:24.216603 CEST] [4068] [info] forwarding_mapper() Forward to 1
[2020-04-22 21:26:24.223853 CEST] [4073] [info] Forwarding map loaded for 'gros-89' as '1'
[2020-04-22 21:26:24.224028 CEST] [4073] [info] forwarding_mapper() Forward to 1
[2020-04-22 21:26:24.232295 CEST] [4069] [info] Forwarding map loaded for 'gros-89' as '1'
[2020-04-22 21:26:24.232446 CEST] [4069] [info] forwarding_mapper() Forward to 1
[2020-04-22 21:26:24.233439 CEST] [4075] [info] Forwarding map loaded for 'gros-89' as '1'
[2020-04-22 21:26:24.233592 CEST] [4075] [info] forwarding_mapper() Forward to 1
[2020-04-22 21:26:24.239120 CEST] [4074] [info] Forwarding map loaded for 'gros-89' as '1'
[2020-04-22 21:26:24.239269 CEST] [4074] [info] forwarding_mapper() Forward to 1
[2020-04-22 21:26:24.240547 CEST] [4071] [info] Forwarding map loaded for 'gros-89' as '1'
[2020-04-22 21:26:24.240638 CEST] [4071] [info] forwarding_mapper() Forward to 1
[2020-04-22 21:26:24.247471 CEST] [4076] [info] Forwarding map loaded for 'gros-89' as '1'
[2020-04-22 21:26:24.247625 CEST] [4076] [info] forwarding_mapper() Forward to 1
[2020-04-22 21:26:25.230954 CEST] [4089] [info] Forwarding map loaded for 'gros-89' as '1'
[2020-04-22 21:26:25.231115 CEST] [4089] [info] forwarding_mapper() Forward to 1
[2020-04-22 21:26:34.227199 CEST] [4068] [info] Forwarding map loaded for 'gros-89' as '1'
[2020-04-22 21:26:34.227363 CEST] [4068] [info] forwarding_mapper() Forward to 1
[2020-04-22 21:26:34.228825 CEST] [4073] [info] Forwarding map loaded for 'gros-89' as '1'
[2020-04-22 21:26:34.228998 CEST] [4073] [info] forwarding_mapper() Forward to 1
[2020-04-22 21:26:34.237477 CEST] [4069] [info] Forwarding map loaded for 'gros-89' as '1'
[2020-04-22 21:26:34.237628 CEST] [4069] [info] forwarding_mapper() Forward to 1
[2020-04-22 21:26:34.238448 CEST] [4075] [info] Forwarding map loaded for 'gros-89' as '1'
[2020-04-22 21:26:34.238598 CEST] [4075] [info] forwarding_mapper() Forward to 1
[2020-04-22 21:26:34.248752 CEST] [4071] [info] Forwarding map loaded for 'gros-89' as '1'
[2020-04-22 21:26:34.248823 CEST] [4071] [info] forwarding_mapper() Forward to 1
[2020-04-22 21:26:34.249697 CEST] [4074] [info] Forwarding map loaded for 'gros-89' as '1'
[2020-04-22 21:26:34.249843 CEST] [4074] [info] forwarding_mapper() Forward to 1
[2020-04-22 21:26:34.252455 CEST] [4076] [info] Forwarding map loaded for 'gros-89' as '1'
[2020-04-22 21:26:34.252607 CEST] [4076] [info] forwarding_mapper() Forward to 1
[2020-04-22 21:26:35.244255 CEST] [4089] [info] Forwarding map loaded for 'gros-89' as '1'
[2020-04-22 21:26:35.244405 CEST] [4089] [info] forwarding_mapper() Forward to 1
[2020-04-22 21:26:44.233158 CEST] [4068] [info] Forwarding map loaded for 'gros-89' as '1'
[2020-04-22 21:26:44.233322 CEST] [4068] [info] forwarding_mapper() Forward to 1
[2020-04-22 21:26:44.233767 CEST] [4073] [info] Forwarding map loaded for 'gros-89' as '1'
[2020-04-22 21:26:44.233940 CEST] [4073] [info] forwarding_mapper() Forward to 1
[2020-04-22 21:26:44.242534 CEST] [4069] [info] Forwarding map loaded for 'gros-89' as '1'
[2020-04-22 21:26:44.242683 CEST] [4069] [info] forwarding_mapper() Forward to 1
[2020-04-22 21:26:44.243353 CEST] [4075] [info] Forwarding map loaded for 'gros-89' as '1'
[2020-04-22 21:26:44.243502 CEST] [4075] [info] forwarding_mapper() Forward to 1
[2020-04-22 21:26:44.252621 CEST] [4071] [info] Forwarding map loaded for 'gros-89' as '1'
[2020-04-22 21:26:44.252699 CEST] [4071] [info] forwarding_mapper() Forward to 1
[2020-04-22 21:26:44.255099 CEST] [4074] [info] Forwarding map loaded for 'gros-89' as '1'
[2020-04-22 21:26:44.255245 CEST] [4074] [info] forwarding_mapper() Forward to 1
[2020-04-22 21:26:44.258274 CEST] [4076] [info] Forwarding map loaded for 'gros-89' as '1'
[2020-04-22 21:26:44.258424 CEST] [4076] [info] forwarding_mapper() Forward to 1
[2020-04-22 21:26:45.250227 CEST] [4089] [info] Forwarding map loaded for 'gros-89' as '1'
[2020-04-22 21:26:45.250390 CEST] [4089] [info] forwarding_mapper() Forward to 1
[2020-04-22 21:26:54.238842 CEST] [4068] [info] Forwarding map loaded for 'gros-89' as '1'
[2020-04-22 21:26:54.239033 CEST] [4068] [info] forwarding_mapper() Forward to 1
[2020-04-22 21:26:54.244603 CEST] [4073] [info] Forwarding map loaded for 'gros-89' as '1'
[2020-04-22 21:26:54.244768 CEST] [4073] [info] forwarding_mapper() Forward to 1
[2020-04-22 21:26:54.247207 CEST] [4069] [info] Forwarding map loaded for 'gros-89' as '1'
[2020-04-22 21:26:54.247363 CEST] [4069] [info] forwarding_mapper() Forward to 1
[2020-04-22 21:26:54.248344 CEST] [4075] [info] Forwarding map loaded for 'gros-89' as '1'
[2020-04-22 21:26:54.248502 CEST] [4075] [info] forwarding_mapper() Forward to 1
[2020-04-22 21:26:54.263292 CEST] [4071] [info] Forwarding map loaded for 'gros-89' as '1'
[2020-04-22 21:26:54.263453 CEST] [4071] [info] forwarding_mapper() Forward to 1
[2020-04-22 21:26:54.265430 CEST] [4074] [info] Forwarding map loaded for 'gros-89' as '1'
[2020-04-22 21:26:54.265603 CEST] [4074] [info] forwarding_mapper() Forward to 1
[2020-04-22 21:26:54.268918 CEST] [4076] [info] Forwarding map loaded for 'gros-89' as '1'
[2020-04-22 21:26:54.269078 CEST] [4076] [info] forwarding_mapper() Forward to 1
[2020-04-22 21:26:55.258726 CEST] [4089] [info] Forwarding map loaded for 'gros-89' as '1'
[2020-04-22 21:26:55.258902 CEST] [4089] [info] forwarding_mapper() Forward to 1
[2020-04-22 21:27:04.244604 CEST] [4068] [info] Forwarding map loaded for 'gros-89' as '1'
[2020-04-22 21:27:04.244776 CEST] [4068] [info] forwarding_mapper() Forward to 1
[2020-04-22 21:27:04.250581 CEST] [4073] [info] Forwarding map loaded for 'gros-89' as '1'
[2020-04-22 21:27:04.250742 CEST] [4073] [info] forwarding_mapper() Forward to 1
[2020-04-22 21:27:04.251812 CEST] [4069] [info] Forwarding map loaded for 'gros-89' as '1'
[2020-04-22 21:27:04.251969 CEST] [4069] [info] forwarding_mapper() Forward to 1
[2020-04-22 21:27:04.254044 CEST] [4075] [info] Forwarding map loaded for 'gros-89' as '1'
[2020-04-22 21:27:04.254194 CEST] [4075] [info] forwarding_mapper() Forward to 1
[2020-04-22 21:27:04.269027 CEST] [4071] [info] Forwarding map loaded for 'gros-89' as '1'
[2020-04-22 21:27:04.269177 CEST] [4071] [info] forwarding_mapper() Forward to 1
[2020-04-22 21:27:04.270899 CEST] [4074] [info] Forwarding map loaded for 'gros-89' as '1'
[2020-04-22 21:27:04.271050 CEST] [4074] [info] forwarding_mapper() Forward to 1
[2020-04-22 21:27:04.273919 CEST] [4076] [info] Forwarding map loaded for 'gros-89' as '1'
[2020-04-22 21:27:04.274072 CEST] [4076] [info] forwarding_mapper() Forward to 1
[2020-04-22 21:27:05.264628 CEST] [4089] [info] Forwarding map loaded for 'gros-89' as '1'
[2020-04-22 21:27:05.264781 CEST] [4089] [info] forwarding_mapper() Forward to 1
[2020-04-22 21:27:14.250368 CEST] [4068] [info] Forwarding map loaded for 'gros-89' as '1'
[2020-04-22 21:27:14.250537 CEST] [4068] [info] forwarding_mapper() Forward to 1
[2020-04-22 21:27:14.256578 CEST] [4073] [info] Forwarding map loaded for 'gros-89' as '1'
[2020-04-22 21:27:14.256740 CEST] [4073] [info] forwarding_mapper() Forward to 1
[2020-04-22 21:27:14.256692 CEST] [4069] [info] Forwarding map loaded for 'gros-89' as '1'
[2020-04-22 21:27:14.256839 CEST] [4069] [info] forwarding_mapper() Forward to 1
[2020-04-22 21:27:14.260369 CEST] [4075] [info] Forwarding map loaded for 'gros-89' as '1'
[2020-04-22 21:27:14.260522 CEST] [4075] [info] forwarding_mapper() Forward to 1
[2020-04-22 21:27:14.276934 CEST] [4074] [info] Forwarding map loaded for 'gros-89' as '1'
[2020-04-22 21:27:14.277083 CEST] [4074] [info] forwarding_mapper() Forward to 1
[2020-04-22 21:27:14.278504 CEST] [4076] [info] Forwarding map loaded for 'gros-89' as '1'
[2020-04-22 21:27:14.278653 CEST] [4076] [info] forwarding_mapper() Forward to 1
[2020-04-22 21:27:14.279653 CEST] [4071] [info] Forwarding map loaded for 'gros-89' as '1'
[2020-04-22 21:27:14.279806 CEST] [4071] [info] forwarding_mapper() Forward to 1
[2020-04-22 21:27:15.278359 CEST] [4089] [info] Forwarding map loaded for 'gros-89' as '1'
[2020-04-22 21:27:15.278517 CEST] [4089] [info] forwarding_mapper() Forward to 1
[2020-04-22 21:27:24.256100 CEST] [4068] [info] Forwarding map loaded for 'gros-89' as '1'
[2020-04-22 21:27:24.256269 CEST] [4068] [info] forwarding_mapper() Forward to 1
[2020-04-22 21:27:24.262562 CEST] [4073] [info] Forwarding map loaded for 'gros-89' as '1'
[2020-04-22 21:27:24.262722 CEST] [4073] [info] forwarding_mapper() Forward to 1
[2020-04-22 21:27:24.262811 CEST] [4069] [info] Forwarding map loaded for 'gros-89' as '1'
[2020-04-22 21:27:24.262967 CEST] [4069] [info] forwarding_mapper() Forward to 1
[2020-04-22 21:27:24.265227 CEST] [4075] [info] Forwarding map loaded for 'gros-89' as '1'
[2020-04-22 21:27:24.265377 CEST] [4075] [info] forwarding_mapper() Forward to 1
[2020-04-22 21:27:24.282763 CEST] [4074] [info] Forwarding map loaded for 'gros-89' as '1'
[2020-04-22 21:27:24.282914 CEST] [4074] [info] forwarding_mapper() Forward to 1
[2020-04-22 21:27:24.283897 CEST] [4076] [info] Forwarding map loaded for 'gros-89' as '1'
[2020-04-22 21:27:24.284063 CEST] [4076] [info] forwarding_mapper() Forward to 1
[2020-04-22 21:27:24.285540 CEST] [4071] [info] Forwarding map loaded for 'gros-89' as '1'
[2020-04-22 21:27:24.285691 CEST] [4071] [info] forwarding_mapper() Forward to 1
[2020-04-22 21:27:25.286546 CEST] [4089] [info] Forwarding map loaded for 'gros-89' as '1'
[2020-04-22 21:27:25.286707 CEST] [4089] [info] forwarding_mapper() Forward to 1
[2020-04-22 21:27:34.261862 CEST] [4068] [info] Forwarding map loaded for 'gros-89' as '1'
[2020-04-22 21:27:34.262066 CEST] [4068] [info] forwarding_mapper() Forward to 1
[2020-04-22 21:27:34.268033 CEST] [4069] [info] Forwarding map loaded for 'gros-89' as '1'
[2020-04-22 21:27:34.268211 CEST] [4069] [info] forwarding_mapper() Forward to 1
[2020-04-22 21:27:34.268769 CEST] [4073] [info] Forwarding map loaded for 'gros-89' as '1'
[2020-04-22 21:27:34.268981 CEST] [4073] [info] forwarding_mapper() Forward to 1
[2020-04-22 21:27:34.270562 CEST] [4075] [info] Forwarding map loaded for 'gros-89' as '1'
[2020-04-22 21:27:34.270774 CEST] [4075] [info] forwarding_mapper() Forward to 1
[2020-04-22 21:27:34.288486 CEST] [4074] [info] Forwarding map loaded for 'gros-89' as '1'
[2020-04-22 21:27:34.288675 CEST] [4074] [info] forwarding_mapper() Forward to 1
[2020-04-22 21:27:34.289010 CEST] [4076] [info] Forwarding map loaded for 'gros-89' as '1'
[2020-04-22 21:27:34.289192 CEST] [4076] [info] forwarding_mapper() Forward to 1
[2020-04-22 21:27:34.290669 CEST] [4071] [info] Forwarding map loaded for 'gros-89' as '1'
[2020-04-22 21:27:34.290844 CEST] [4071] [info] forwarding_mapper() Forward to 1
[2020-04-22 21:27:35.294954 CEST] [4089] [info] Forwarding map loaded for 'gros-89' as '1'
[2020-04-22 21:27:35.295125 CEST] [4089] [info] forwarding_mapper() Forward to 1
[2020-04-22 21:27:44.267882 CEST] [4068] [info] Forwarding map loaded for 'gros-89' as '1'
[2020-04-22 21:27:44.268072 CEST] [4068] [info] forwarding_mapper() Forward to 1
[2020-04-22 21:27:44.273365 CEST] [4069] [info] Forwarding map loaded for 'gros-89' as '1'
[2020-04-22 21:27:44.273531 CEST] [4069] [info] forwarding_mapper() Forward to 1
[2020-04-22 21:27:44.273632 CEST] [4073] [info] Forwarding map loaded for 'gros-89' as '1'
[2020-04-22 21:27:44.273781 CEST] [4073] [info] forwarding_mapper() Forward to 1
[2020-04-22 21:27:44.275739 CEST] [4075] [info] Forwarding map loaded for 'gros-89' as '1'
[2020-04-22 21:27:44.275893 CEST] [4075] [info] forwarding_mapper() Forward to 1
[2020-04-22 21:27:44.294649 CEST] [4074] [info] Forwarding map loaded for 'gros-89' as '1'
[2020-04-22 21:27:44.294812 CEST] [4074] [info] forwarding_mapper() Forward to 1
[2020-04-22 21:27:44.295166 CEST] [4076] [info] Forwarding map loaded for 'gros-89' as '1'
[2020-04-22 21:27:44.295328 CEST] [4076] [info] forwarding_mapper() Forward to 1
[2020-04-22 21:27:44.296575 CEST] [4071] [info] Forwarding map loaded for 'gros-89' as '1'
[2020-04-22 21:27:44.296732 CEST] [4071] [info] forwarding_mapper() Forward to 1
[2020-04-22 21:27:45.303522 CEST] [4089] [info] Forwarding map loaded for 'gros-89' as '1'
[2020-04-22 21:27:45.303694 CEST] [4089] [info] forwarding_mapper() Forward to 1
[2020-04-22 21:27:54.273659 CEST] [4068] [info] Forwarding map loaded for 'gros-89' as '1'
[2020-04-22 21:27:54.273831 CEST] [4068] [info] forwarding_mapper() Forward to 1
[2020-04-22 21:27:54.278538 CEST] [4069] [info] Forwarding map loaded for 'gros-89' as '1'
[2020-04-22 21:27:54.278702 CEST] [4069] [info] forwarding_mapper() Forward to 1
[2020-04-22 21:27:54.278686 CEST] [4073] [info] Forwarding map loaded for 'gros-89' as '1'
[2020-04-22 21:27:54.278833 CEST] [4073] [info] forwarding_mapper() Forward to 1
[2020-04-22 21:27:54.280506 CEST] [4075] [info] Forwarding map loaded for 'gros-89' as '1'
[2020-04-22 21:27:54.280659 CEST] [4075] [info] forwarding_mapper() Forward to 1
[2020-04-22 21:27:54.300287 CEST] [4076] [info] Forwarding map loaded for 'gros-89' as '1'
[2020-04-22 21:27:54.300437 CEST] [4076] [info] forwarding_mapper() Forward to 1
[2020-04-22 21:27:54.303581 CEST] [4074] [info] Forwarding map loaded for 'gros-89' as '1'
[2020-04-22 21:27:54.303729 CEST] [4074] [info] forwarding_mapper() Forward to 1
[2020-04-22 21:27:54.307256 CEST] [4071] [info] Forwarding map loaded for 'gros-89' as '1'
[2020-04-22 21:27:54.307408 CEST] [4071] [info] forwarding_mapper() Forward to 1
[2020-04-22 21:27:55.317208 CEST] [4089] [info] Forwarding map loaded for 'gros-89' as '1'
[2020-04-22 21:27:55.317357 CEST] [4089] [info] forwarding_mapper() Forward to 1
[2020-04-22 21:28:04.279381 CEST] [4068] [info] Forwarding map loaded for 'gros-89' as '1'
[2020-04-22 21:28:04.279552 CEST] [4068] [info] forwarding_mapper() Forward to 1
[2020-04-22 21:28:04.283968 CEST] [4069] [info] Forwarding map loaded for 'gros-89' as '1'
[2020-04-22 21:28:04.284129 CEST] [4069] [info] forwarding_mapper() Forward to 1
[2020-04-22 21:28:04.284152 CEST] [4073] [info] Forwarding map loaded for 'gros-89' as '1'
[2020-04-22 21:28:04.284301 CEST] [4073] [info] forwarding_mapper() Forward to 1
[2020-04-22 21:28:04.285272 CEST] [4075] [info] Forwarding map loaded for 'gros-89' as '1'
[2020-04-22 21:28:04.285422 CEST] [4075] [info] forwarding_mapper() Forward to 1
[2020-04-22 21:28:04.306160 CEST] [4076] [info] Forwarding map loaded for 'gros-89' as '1'
[2020-04-22 21:28:04.306306 CEST] [4076] [info] forwarding_mapper() Forward to 1
[2020-04-22 21:28:04.309130 CEST] [4074] [info] Forwarding map loaded for 'gros-89' as '1'
[2020-04-22 21:28:04.309275 CEST] [4074] [info] forwarding_mapper() Forward to 1
[2020-04-22 21:28:04.313156 CEST] [4071] [info] Forwarding map loaded for 'gros-89' as '1'
[2020-04-22 21:28:04.313304 CEST] [4071] [info] forwarding_mapper() Forward to 1
[2020-04-22 21:28:05.325559 CEST] [4089] [info] Forwarding map loaded for 'gros-89' as '1'
[2020-04-22 21:28:05.325721 CEST] [4089] [info] forwarding_mapper() Forward to 1
[2020-04-22 21:28:14.284845 CEST] [4068] [info] Forwarding map loaded for 'gros-89' as '1'
[2020-04-22 21:28:14.285023 CEST] [4068] [info] forwarding_mapper() Forward to 1
[2020-04-22 21:28:14.289172 CEST] [4069] [info] Forwarding map loaded for 'gros-89' as '1'
[2020-04-22 21:28:14.289333 CEST] [4069] [info] forwarding_mapper() Forward to 1
[2020-04-22 21:28:14.290579 CEST] [4073] [info] Forwarding map loaded for 'gros-89' as '1'
[2020-04-22 21:28:14.290734 CEST] [4073] [info] forwarding_mapper() Forward to 1
[2020-04-22 21:28:14.296276 CEST] [4075] [info] Forwarding map loaded for 'gros-89' as '1'
[2020-04-22 21:28:14.296430 CEST] [4075] [info] forwarding_mapper() Forward to 1
[2020-04-22 21:28:14.316034 CEST] [4074] [info] Forwarding map loaded for 'gros-89' as '1'
[2020-04-22 21:28:14.316182 CEST] [4074] [info] forwarding_mapper() Forward to 1
[2020-04-22 21:28:14.316700 CEST] [4076] [info] Forwarding map loaded for 'gros-89' as '1'
[2020-04-22 21:28:14.316849 CEST] [4076] [info] forwarding_mapper() Forward to 1
[2020-04-22 21:28:14.324420 CEST] [4071] [info] Forwarding map loaded for 'gros-89' as '1'
[2020-04-22 21:28:14.324573 CEST] [4071] [info] forwarding_mapper() Forward to 1
[2020-04-22 21:28:15.339355 CEST] [4089] [info] Forwarding map loaded for 'gros-89' as '1'
[2020-04-22 21:28:15.339508 CEST] [4089] [info] forwarding_mapper() Forward to 1
[2020-04-22 21:28:24.354749 CEST] [4031] [info] All subsystems shut down. Client shutdown complete.
[2020-04-22 21:28:24.356033 CEST] [4029] [info] All subsystems shut down. Client shutdown complete.
[2020-04-22 21:28:24.365429 CEST] [4032] [info] All subsystems shut down. Client shutdown complete.
[2020-04-22 21:28:24.366823 CEST] [4030] [info] All subsystems shut down. Client shutdown complete.
[2020-04-22 21:28:24.369233 CEST] [4028] [info] All subsystems shut down. Client shutdown complete.
[2020-04-22 21:28:24.395595 CEST] [4034] [info] All subsystems shut down. Client shutdown complete.
[2020-04-22 21:28:24.404853 CEST] [4035] [info] All subsystems shut down. Client shutdown complete.
[2020-04-22 21:28:25.443664 CEST] [4033] [info] All subsystems shut down. Client shutdown complete.
