[2020-04-22 20:25:33.368190 CEST] [3419] [info] Process cmdline: '/root/benchmarks/NPB3.4/NPB3.4-MPI/bin/bt.C.x.mpi_io_full'
[2020-04-22 20:25:33.368194 CEST] [3421] [info] Process cmdline: '/root/benchmarks/NPB3.4/NPB3.4-MPI/bin/bt.C.x.mpi_io_full'
[2020-04-22 20:25:33.368170 CEST] [3420] [info] Process cmdline: '/root/benchmarks/NPB3.4/NPB3.4-MPI/bin/bt.C.x.mpi_io_full'
[2020-04-22 20:25:33.368196 CEST] [3418] [info] Process cmdline: '/root/benchmarks/NPB3.4/NPB3.4-MPI/bin/bt.C.x.mpi_io_full'
[2020-04-22 20:25:33.368433 CEST] [3419] [info] Initializing RPC subsystem...
[2020-04-22 20:25:33.368437 CEST] [3421] [info] Initializing RPC subsystem...
[2020-04-22 20:25:33.368439 CEST] [3420] [info] Initializing RPC subsystem...
[2020-04-22 20:25:33.368444 CEST] [3418] [info] Initializing RPC subsystem...
[2020-04-22 20:25:33.401826 CEST] [3418] [info] Loading peer addresses...
[2020-04-22 20:25:33.401831 CEST] [3420] [info] Loading peer addresses...
[2020-04-22 20:25:33.401837 CEST] [3419] [info] Loading peer addresses...
[2020-04-22 20:25:33.401841 CEST] [3421] [info] Loading peer addresses...
[2020-04-22 20:25:33.404118 CEST] [3418] [info] Hosts pool size: 12
[2020-04-22 20:25:33.404485 CEST] [3419] [info] Hosts pool size: 12
[2020-04-22 20:25:33.404673 CEST] [3421] [info] Hosts pool size: 12
[2020-04-22 20:25:33.404932 CEST] [3420] [info] Hosts pool size: 12
[2020-04-22 20:25:33.408936 CEST] [3418] [info] Forwarding map loaded for 'gros-105' as '4'
[2020-04-22 20:25:33.408979 CEST] [3420] [info] Forwarding map loaded for 'gros-105' as '4'
[2020-04-22 20:25:33.409002 CEST] [3418] [info] init_ld_environment_() Forward to 4
[2020-04-22 20:25:33.409047 CEST] [3420] [info] init_ld_environment_() Forward to 4
[2020-04-22 20:25:33.409059 CEST] [3418] [info] Retrieving file system configuration...
[2020-04-22 20:25:33.409100 CEST] [3420] [info] Retrieving file system configuration...
[2020-04-22 20:25:33.409118 CEST] [3419] [info] Forwarding map loaded for 'gros-105' as '4'
[2020-04-22 20:25:33.409186 CEST] [3419] [info] init_ld_environment_() Forward to 4
[2020-04-22 20:25:33.409245 CEST] [3419] [info] Retrieving file system configuration...
[2020-04-22 20:25:33.409556 CEST] [3421] [info] Forwarding map loaded for 'gros-105' as '4'
[2020-04-22 20:25:33.409625 CEST] [3421] [info] init_ld_environment_() Forward to 4
[2020-04-22 20:25:33.409678 CEST] [3421] [info] Retrieving file system configuration...
[2020-04-22 20:25:33.410578 CEST] [3418] [info] Mountdir: '/mnt/gkfs'
[2020-04-22 20:25:33.410701 CEST] [3418] [info] Environment initialization successful.
[2020-04-22 20:25:33.410688 CEST] [3420] [info] Mountdir: '/mnt/gkfs'
[2020-04-22 20:25:33.410808 CEST] [3420] [info] Environment initialization successful.
[2020-04-22 20:25:33.410797 CEST] [3419] [info] Mountdir: '/mnt/gkfs'
[2020-04-22 20:25:33.410937 CEST] [3419] [info] Environment initialization successful.
[2020-04-22 20:25:33.411296 CEST] [3421] [info] Mountdir: '/mnt/gkfs'
[2020-04-22 20:25:33.411435 CEST] [3421] [info] Environment initialization successful.
[2020-04-22 20:25:33.436583 CEST] [3438] [info] Forwarding map loaded for 'gros-105' as '4'
[2020-04-22 20:25:33.436682 CEST] [3438] [info] forwarding_mapper() Forward to 4
[2020-04-22 20:25:33.438355 CEST] [3439] [info] Forwarding map loaded for 'gros-105' as '4'
[2020-04-22 20:25:33.438505 CEST] [3439] [info] forwarding_mapper() Forward to 4
[2020-04-22 20:25:33.441526 CEST] [3441] [info] Forwarding map loaded for 'gros-105' as '4'
[2020-04-22 20:25:33.441657 CEST] [3441] [info] forwarding_mapper() Forward to 4
[2020-04-22 20:25:33.443067 CEST] [3440] [info] Forwarding map loaded for 'gros-105' as '4'
[2020-04-22 20:25:33.443222 CEST] [3440] [info] forwarding_mapper() Forward to 4
[2020-04-22 20:25:43.442921 CEST] [3438] [info] Forwarding map loaded for 'gros-105' as '4'
[2020-04-22 20:25:43.443154 CEST] [3438] [info] forwarding_mapper() Forward to 4
[2020-04-22 20:25:43.446677 CEST] [3441] [info] Forwarding map loaded for 'gros-105' as '4'
[2020-04-22 20:25:43.446829 CEST] [3441] [info] forwarding_mapper() Forward to 4
[2020-04-22 20:25:43.447827 CEST] [3440] [info] Forwarding map loaded for 'gros-105' as '4'
[2020-04-22 20:25:43.447993 CEST] [3440] [info] forwarding_mapper() Forward to 4
[2020-04-22 20:25:43.451762 CEST] [3439] [info] Forwarding map loaded for 'gros-105' as '4'
[2020-04-22 20:25:43.451917 CEST] [3439] [info] forwarding_mapper() Forward to 4
[2020-04-22 20:25:53.452367 CEST] [3438] [info] Forwarding map loaded for 'gros-105' as '2'
[2020-04-22 20:25:53.452599 CEST] [3438] [info] forwarding_mapper() Forward to 2
[2020-04-22 20:25:53.454578 CEST] [3441] [info] Forwarding map loaded for 'gros-105' as '2'
[2020-04-22 20:25:53.454730 CEST] [3441] [info] forwarding_mapper() Forward to 2
[2020-04-22 20:25:53.455573 CEST] [3440] [info] Forwarding map loaded for 'gros-105' as '2'
[2020-04-22 20:25:53.455745 CEST] [3440] [info] forwarding_mapper() Forward to 2
[2020-04-22 20:25:53.460311 CEST] [3439] [info] Forwarding map loaded for 'gros-105' as '2'
[2020-04-22 20:25:53.460473 CEST] [3439] [info] forwarding_mapper() Forward to 2
[2020-04-22 20:26:03.461180 CEST] [3438] [info] Forwarding map loaded for 'gros-105' as '2'
[2020-04-22 20:26:03.461407 CEST] [3438] [info] forwarding_mapper() Forward to 2
[2020-04-22 20:26:03.461963 CEST] [3440] [info] Forwarding map loaded for 'gros-105' as '2'
[2020-04-22 20:26:03.462139 CEST] [3440] [info] forwarding_mapper() Forward to 2
[2020-04-22 20:26:03.462685 CEST] [3441] [info] Forwarding map loaded for 'gros-105' as '2'
[2020-04-22 20:26:03.462837 CEST] [3441] [info] forwarding_mapper() Forward to 2
[2020-04-22 20:26:03.472755 CEST] [3439] [info] Forwarding map loaded for 'gros-105' as '2'
[2020-04-22 20:26:03.472916 CEST] [3439] [info] forwarding_mapper() Forward to 2
[2020-04-22 20:26:13.467204 CEST] [3438] [info] Forwarding map loaded for 'gros-105' as '2'
[2020-04-22 20:26:13.467431 CEST] [3438] [info] forwarding_mapper() Forward to 2
[2020-04-22 20:26:13.468357 CEST] [3440] [info] Forwarding map loaded for 'gros-105' as '2'
[2020-04-22 20:26:13.468525 CEST] [3440] [info] forwarding_mapper() Forward to 2
[2020-04-22 20:26:13.472060 CEST] [3441] [info] Forwarding map loaded for 'gros-105' as '2'
[2020-04-22 20:26:13.472219 CEST] [3441] [info] forwarding_mapper() Forward to 2
[2020-04-22 20:26:13.482178 CEST] [3439] [info] Forwarding map loaded for 'gros-105' as '2'
[2020-04-22 20:26:13.482336 CEST] [3439] [info] forwarding_mapper() Forward to 2
[2020-04-22 20:26:23.473130 CEST] [3438] [info] Forwarding map loaded for 'gros-105' as '2'
[2020-04-22 20:26:23.473358 CEST] [3438] [info] forwarding_mapper() Forward to 2
[2020-04-22 20:26:23.473452 CEST] [3440] [info] Forwarding map loaded for 'gros-105' as '2'
[2020-04-22 20:26:23.473619 CEST] [3440] [info] forwarding_mapper() Forward to 2
[2020-04-22 20:26:23.477981 CEST] [3441] [info] Forwarding map loaded for 'gros-105' as '2'
[2020-04-22 20:26:23.478164 CEST] [3441] [info] forwarding_mapper() Forward to 2
[2020-04-22 20:26:23.496633 CEST] [3439] [info] Forwarding map loaded for 'gros-105' as '2'
[2020-04-22 20:26:23.496799 CEST] [3439] [info] forwarding_mapper() Forward to 2
[2020-04-22 20:26:33.479406 CEST] [3440] [info] Forwarding map loaded for 'gros-105' as '2'
[2020-04-22 20:26:33.479583 CEST] [3440] [info] forwarding_mapper() Forward to 2
[2020-04-22 20:26:33.479604 CEST] [3438] [info] Forwarding map loaded for 'gros-105' as '2'
[2020-04-22 20:26:33.479817 CEST] [3438] [info] forwarding_mapper() Forward to 2
[2020-04-22 20:26:33.483898 CEST] [3441] [info] Forwarding map loaded for 'gros-105' as '2'
[2020-04-22 20:26:33.484070 CEST] [3441] [info] forwarding_mapper() Forward to 2
[2020-04-22 20:26:33.506258 CEST] [3439] [info] Forwarding map loaded for 'gros-105' as '2'
[2020-04-22 20:26:33.506417 CEST] [3439] [info] forwarding_mapper() Forward to 2
[2020-04-22 20:26:43.485435 CEST] [3438] [info] Forwarding map loaded for 'gros-105' as '2'
[2020-04-22 20:26:43.485606 CEST] [3438] [info] forwarding_mapper() Forward to 2
[2020-04-22 20:26:43.487663 CEST] [3440] [info] Forwarding map loaded for 'gros-105' as '2'
[2020-04-22 20:26:43.487826 CEST] [3440] [info] forwarding_mapper() Forward to 2
[2020-04-22 20:26:43.492548 CEST] [3441] [info] Forwarding map loaded for 'gros-105' as '2'
[2020-04-22 20:26:43.492708 CEST] [3441] [info] forwarding_mapper() Forward to 2
[2020-04-22 20:26:43.520682 CEST] [3439] [info] Forwarding map loaded for 'gros-105' as '2'
[2020-04-22 20:26:43.520843 CEST] [3439] [info] forwarding_mapper() Forward to 2
[2020-04-22 20:26:53.491607 CEST] [3438] [info] Forwarding map loaded for 'gros-105' as '2'
[2020-04-22 20:26:53.491786 CEST] [3438] [info] forwarding_mapper() Forward to 2
[2020-04-22 20:26:53.496844 CEST] [3440] [info] Forwarding map loaded for 'gros-105' as '2'
[2020-04-22 20:26:53.497000 CEST] [3440] [info] forwarding_mapper() Forward to 2
[2020-04-22 20:26:53.497824 CEST] [3441] [info] Forwarding map loaded for 'gros-105' as '2'
[2020-04-22 20:26:53.497979 CEST] [3441] [info] forwarding_mapper() Forward to 2
[2020-04-22 20:26:53.526689 CEST] [3439] [info] Forwarding map loaded for 'gros-105' as '2'
[2020-04-22 20:26:53.526850 CEST] [3439] [info] forwarding_mapper() Forward to 2
[2020-04-22 20:27:03.497736 CEST] [3438] [info] Forwarding map loaded for 'gros-105' as '2'
[2020-04-22 20:27:03.497913 CEST] [3438] [info] forwarding_mapper() Forward to 2
[2020-04-22 20:27:03.503577 CEST] [3441] [info] Forwarding map loaded for 'gros-105' as '2'
[2020-04-22 20:27:03.503737 CEST] [3441] [info] forwarding_mapper() Forward to 2
[2020-04-22 20:27:03.509836 CEST] [3440] [info] Forwarding map loaded for 'gros-105' as '2'
[2020-04-22 20:27:03.510008 CEST] [3440] [info] forwarding_mapper() Forward to 2
[2020-04-22 20:27:03.539941 CEST] [3439] [info] Forwarding map loaded for 'gros-105' as '2'
[2020-04-22 20:27:03.540112 CEST] [3439] [info] forwarding_mapper() Forward to 2
[2020-04-22 20:27:13.503683 CEST] [3438] [info] Forwarding map loaded for 'gros-105' as '2'
[2020-04-22 20:27:13.503860 CEST] [3438] [info] forwarding_mapper() Forward to 2
[2020-04-22 20:27:13.511063 CEST] [3441] [info] Forwarding map loaded for 'gros-105' as '2'
[2020-04-22 20:27:13.511222 CEST] [3441] [info] forwarding_mapper() Forward to 2
[2020-04-22 20:27:13.519753 CEST] [3440] [info] Forwarding map loaded for 'gros-105' as '2'
[2020-04-22 20:27:13.519924 CEST] [3440] [info] forwarding_mapper() Forward to 2
[2020-04-22 20:27:13.549868 CEST] [3439] [info] Forwarding map loaded for 'gros-105' as '2'
[2020-04-22 20:27:13.550039 CEST] [3439] [info] forwarding_mapper() Forward to 2
[2020-04-22 20:27:23.509905 CEST] [3438] [info] Forwarding map loaded for 'gros-105' as '2'
[2020-04-22 20:27:23.510091 CEST] [3438] [info] forwarding_mapper() Forward to 2
[2020-04-22 20:27:23.517535 CEST] [3441] [info] Forwarding map loaded for 'gros-105' as '2'
[2020-04-22 20:27:23.517697 CEST] [3441] [info] forwarding_mapper() Forward to 2
[2020-04-22 20:27:23.530742 CEST] [3440] [info] Forwarding map loaded for 'gros-105' as '2'
[2020-04-22 20:27:23.530911 CEST] [3440] [info] forwarding_mapper() Forward to 2
[2020-04-22 20:27:23.558751 CEST] [3439] [info] Forwarding map loaded for 'gros-105' as '2'
[2020-04-22 20:27:23.558913 CEST] [3439] [info] forwarding_mapper() Forward to 2
[2020-04-22 20:27:33.571366 CEST] [3419] [info] All subsystems shut down. Client shutdown complete.
[2020-04-22 20:27:33.573058 CEST] [3421] [info] All subsystems shut down. Client shutdown complete.
[2020-04-22 20:27:33.575067 CEST] [3420] [info] All subsystems shut down. Client shutdown complete.
[2020-04-22 20:27:33.578278 CEST] [3418] [info] All subsystems shut down. Client shutdown complete.
