[2020-04-22 21:19:45.552469 CEST] [3957] [info] Process cmdline: '/root/benchmarks/NPB3.4/NPB3.4-MPI/bin/bt.C.x.mpi_io_full'
[2020-04-22 21:19:45.552736 CEST] [3957] [info] Initializing RPC subsystem...
[2020-04-22 21:19:45.557226 CEST] [3958] [info] Process cmdline: '/root/benchmarks/NPB3.4/NPB3.4-MPI/bin/bt.C.x.mpi_io_full'
[2020-04-22 21:19:45.557448 CEST] [3958] [info] Initializing RPC subsystem...
[2020-04-22 21:19:45.560322 CEST] [3960] [info] Process cmdline: '/root/benchmarks/NPB3.4/NPB3.4-MPI/bin/bt.C.x.mpi_io_full'
[2020-04-22 21:19:45.560528 CEST] [3960] [info] Initializing RPC subsystem...
[2020-04-22 21:19:45.560689 CEST] [3959] [info] Process cmdline: '/root/benchmarks/NPB3.4/NPB3.4-MPI/bin/bt.C.x.mpi_io_full'
[2020-04-22 21:19:45.560901 CEST] [3959] [info] Initializing RPC subsystem...
[2020-04-22 21:19:45.581413 CEST] [3957] [info] Loading peer addresses...
[2020-04-22 21:19:45.585359 CEST] [3957] [info] Hosts pool size: 12
[2020-04-22 21:19:45.586244 CEST] [3958] [info] Loading peer addresses...
[2020-04-22 21:19:45.587336 CEST] [3959] [info] Loading peer addresses...
[2020-04-22 21:19:45.588254 CEST] [3958] [info] Hosts pool size: 12
[2020-04-22 21:19:45.588724 CEST] [3960] [info] Loading peer addresses...
[2020-04-22 21:19:45.588872 CEST] [3959] [info] Hosts pool size: 12
[2020-04-22 21:19:45.591329 CEST] [3960] [info] Hosts pool size: 12
[2020-04-22 21:19:46.202654 CEST] [3957] [info] Forwarding map loaded for 'gros-76' as '10'
[2020-04-22 21:19:46.202835 CEST] [3957] [info] init_ld_environment_() Forward to 10
[2020-04-22 21:19:46.202971 CEST] [3957] [info] Retrieving file system configuration...
[2020-04-22 21:19:46.203740 CEST] [3958] [info] Forwarding map loaded for 'gros-76' as '10'
[2020-04-22 21:19:46.203921 CEST] [3958] [info] init_ld_environment_() Forward to 10
[2020-04-22 21:19:46.204054 CEST] [3958] [info] Retrieving file system configuration...
[2020-04-22 21:19:46.205733 CEST] [3959] [info] Forwarding map loaded for 'gros-76' as '10'
[2020-04-22 21:19:46.205804 CEST] [3957] [info] Mountdir: '/mnt/gkfs'
[2020-04-22 21:19:46.205917 CEST] [3957] [info] Environment initialization successful.
[2020-04-22 21:19:46.205913 CEST] [3959] [info] init_ld_environment_() Forward to 10
[2020-04-22 21:19:46.206043 CEST] [3959] [info] Retrieving file system configuration...
[2020-04-22 21:19:46.206771 CEST] [3958] [info] Mountdir: '/mnt/gkfs'
[2020-04-22 21:19:46.206895 CEST] [3958] [info] Environment initialization successful.
[2020-04-22 21:19:46.208169 CEST] [3960] [info] Forwarding map loaded for 'gros-76' as '10'
[2020-04-22 21:19:46.208354 CEST] [3960] [info] init_ld_environment_() Forward to 10
[2020-04-22 21:19:46.208481 CEST] [3960] [info] Retrieving file system configuration...
[2020-04-22 21:19:46.208700 CEST] [3959] [info] Mountdir: '/mnt/gkfs'
[2020-04-22 21:19:46.208824 CEST] [3959] [info] Environment initialization successful.
[2020-04-22 21:19:46.211126 CEST] [3960] [info] Mountdir: '/mnt/gkfs'
[2020-04-22 21:19:46.211248 CEST] [3960] [info] Environment initialization successful.
[2020-04-22 21:19:46.236486 CEST] [3977] [info] Forwarding map loaded for 'gros-76' as '10'
[2020-04-22 21:19:46.236662 CEST] [3978] [info] Forwarding map loaded for 'gros-76' as '10'
[2020-04-22 21:19:46.236737 CEST] [3977] [info] forwarding_mapper() Forward to 10
[2020-04-22 21:19:46.236823 CEST] [3978] [info] forwarding_mapper() Forward to 10
[2020-04-22 21:19:46.238566 CEST] [3979] [info] Forwarding map loaded for 'gros-76' as '10'
[2020-04-22 21:19:46.238736 CEST] [3979] [info] forwarding_mapper() Forward to 10
[2020-04-22 21:19:46.240397 CEST] [3980] [info] Forwarding map loaded for 'gros-76' as '10'
[2020-04-22 21:19:46.240621 CEST] [3980] [info] forwarding_mapper() Forward to 10
[2020-04-22 21:19:56.242759 CEST] [3978] [info] Forwarding map loaded for 'gros-76' as '10'
[2020-04-22 21:19:56.242939 CEST] [3978] [info] forwarding_mapper() Forward to 10
[2020-04-22 21:19:56.243115 CEST] [3977] [info] Forwarding map loaded for 'gros-76' as '10'
[2020-04-22 21:19:56.243291 CEST] [3977] [info] forwarding_mapper() Forward to 10
[2020-04-22 21:19:56.243837 CEST] [3979] [info] Forwarding map loaded for 'gros-76' as '10'
[2020-04-22 21:19:56.243991 CEST] [3979] [info] forwarding_mapper() Forward to 10
[2020-04-22 21:19:56.245902 CEST] [3980] [info] Forwarding map loaded for 'gros-76' as '10'
[2020-04-22 21:19:56.246063 CEST] [3980] [info] forwarding_mapper() Forward to 10
[2020-04-22 21:20:06.248741 CEST] [3977] [info] Forwarding map loaded for 'gros-76' as '10'
[2020-04-22 21:20:06.248916 CEST] [3977] [info] forwarding_mapper() Forward to 10
[2020-04-22 21:20:06.248966 CEST] [3978] [info] Forwarding map loaded for 'gros-76' as '10'
[2020-04-22 21:20:06.249006 CEST] [3979] [info] Forwarding map loaded for 'gros-76' as '10'
[2020-04-22 21:20:06.249131 CEST] [3978] [info] forwarding_mapper() Forward to 10
[2020-04-22 21:20:06.249166 CEST] [3979] [info] forwarding_mapper() Forward to 10
[2020-04-22 21:20:06.252693 CEST] [3980] [info] Forwarding map loaded for 'gros-76' as '10'
[2020-04-22 21:20:06.252852 CEST] [3980] [info] forwarding_mapper() Forward to 10
[2020-04-22 21:20:16.254331 CEST] [3977] [info] Forwarding map loaded for 'gros-76' as '10'
[2020-04-22 21:20:16.254504 CEST] [3977] [info] forwarding_mapper() Forward to 10
[2020-04-22 21:20:16.254500 CEST] [3979] [info] Forwarding map loaded for 'gros-76' as '10'
[2020-04-22 21:20:16.254547 CEST] [3978] [info] Forwarding map loaded for 'gros-76' as '10'
[2020-04-22 21:20:16.254667 CEST] [3979] [info] forwarding_mapper() Forward to 10
[2020-04-22 21:20:16.254704 CEST] [3978] [info] forwarding_mapper() Forward to 10
[2020-04-22 21:20:16.258761 CEST] [3980] [info] Forwarding map loaded for 'gros-76' as '10'
[2020-04-22 21:20:16.258918 CEST] [3980] [info] forwarding_mapper() Forward to 10
[2020-04-22 21:20:26.260335 CEST] [3979] [info] Forwarding map loaded for 'gros-76' as '10'
[2020-04-22 21:20:26.260502 CEST] [3979] [info] forwarding_mapper() Forward to 10
[2020-04-22 21:20:26.260936 CEST] [3978] [info] Forwarding map loaded for 'gros-76' as '10'
[2020-04-22 21:20:26.261100 CEST] [3978] [info] forwarding_mapper() Forward to 10
[2020-04-22 21:20:26.264610 CEST] [3977] [info] Forwarding map loaded for 'gros-76' as '10'
[2020-04-22 21:20:26.264761 CEST] [3977] [info] forwarding_mapper() Forward to 10
[2020-04-22 21:20:26.267763 CEST] [3980] [info] Forwarding map loaded for 'gros-76' as '10'
[2020-04-22 21:20:26.267917 CEST] [3980] [info] forwarding_mapper() Forward to 10
[2020-04-22 21:20:36.266401 CEST] [3979] [info] Forwarding map loaded for 'gros-76' as '10'
[2020-04-22 21:20:36.266576 CEST] [3979] [info] forwarding_mapper() Forward to 10
[2020-04-22 21:20:36.266561 CEST] [3978] [info] Forwarding map loaded for 'gros-76' as '10'
[2020-04-22 21:20:36.266728 CEST] [3978] [info] forwarding_mapper() Forward to 10
[2020-04-22 21:20:36.270339 CEST] [3977] [info] Forwarding map loaded for 'gros-76' as '10'
[2020-04-22 21:20:36.270490 CEST] [3977] [info] forwarding_mapper() Forward to 10
[2020-04-22 21:20:36.274051 CEST] [3980] [info] Forwarding map loaded for 'gros-76' as '10'
[2020-04-22 21:20:36.274215 CEST] [3980] [info] forwarding_mapper() Forward to 10
[2020-04-22 21:20:46.272227 CEST] [3979] [info] Forwarding map loaded for 'gros-76' as '10'
[2020-04-22 21:20:46.272400 CEST] [3979] [info] forwarding_mapper() Forward to 10
[2020-04-22 21:20:46.272931 CEST] [3978] [info] Forwarding map loaded for 'gros-76' as '10'
[2020-04-22 21:20:46.273096 CEST] [3978] [info] forwarding_mapper() Forward to 10
[2020-04-22 21:20:46.275276 CEST] [3977] [info] Forwarding map loaded for 'gros-76' as '10'
[2020-04-22 21:20:46.275430 CEST] [3977] [info] forwarding_mapper() Forward to 10
[2020-04-22 21:20:46.279361 CEST] [3980] [info] Forwarding map loaded for 'gros-76' as '10'
[2020-04-22 21:20:46.279519 CEST] [3980] [info] forwarding_mapper() Forward to 10
[2020-04-22 21:20:56.278315 CEST] [3979] [info] Forwarding map loaded for 'gros-76' as '10'
[2020-04-22 21:20:56.278487 CEST] [3979] [info] forwarding_mapper() Forward to 10
[2020-04-22 21:20:56.278569 CEST] [3978] [info] Forwarding map loaded for 'gros-76' as '10'
[2020-04-22 21:20:56.278748 CEST] [3978] [info] forwarding_mapper() Forward to 10
[2020-04-22 21:20:56.281036 CEST] [3977] [info] Forwarding map loaded for 'gros-76' as '10'
[2020-04-22 21:20:56.281193 CEST] [3977] [info] forwarding_mapper() Forward to 10
[2020-04-22 21:20:56.285758 CEST] [3980] [info] Forwarding map loaded for 'gros-76' as '10'
[2020-04-22 21:20:56.285915 CEST] [3980] [info] forwarding_mapper() Forward to 10
[2020-04-22 21:21:06.284323 CEST] [3979] [info] Forwarding map loaded for 'gros-76' as '10'
[2020-04-22 21:21:06.284495 CEST] [3979] [info] forwarding_mapper() Forward to 10
[2020-04-22 21:21:06.285196 CEST] [3978] [info] Forwarding map loaded for 'gros-76' as '10'
[2020-04-22 21:21:06.285368 CEST] [3978] [info] forwarding_mapper() Forward to 10
[2020-04-22 21:21:06.292122 CEST] [3977] [info] Forwarding map loaded for 'gros-76' as '10'
[2020-04-22 21:21:06.292281 CEST] [3977] [info] forwarding_mapper() Forward to 10
[2020-04-22 21:21:06.292701 CEST] [3980] [info] Forwarding map loaded for 'gros-76' as '10'
[2020-04-22 21:21:06.292855 CEST] [3980] [info] forwarding_mapper() Forward to 10
[2020-04-22 21:21:16.290512 CEST] [3979] [info] Forwarding map loaded for 'gros-76' as '10'
[2020-04-22 21:21:16.290691 CEST] [3979] [info] forwarding_mapper() Forward to 10
[2020-04-22 21:21:16.291008 CEST] [3978] [info] Forwarding map loaded for 'gros-76' as '10'
[2020-04-22 21:21:16.291186 CEST] [3978] [info] forwarding_mapper() Forward to 10
[2020-04-22 21:21:16.298417 CEST] [3977] [info] Forwarding map loaded for 'gros-76' as '10'
[2020-04-22 21:21:16.298571 CEST] [3977] [info] forwarding_mapper() Forward to 10
[2020-04-22 21:21:16.299264 CEST] [3980] [info] Forwarding map loaded for 'gros-76' as '10'
[2020-04-22 21:21:16.299425 CEST] [3980] [info] forwarding_mapper() Forward to 10
[2020-04-22 21:21:26.296591 CEST] [3979] [info] Forwarding map loaded for 'gros-76' as '10'
[2020-04-22 21:21:26.296764 CEST] [3979] [info] forwarding_mapper() Forward to 10
[2020-04-22 21:21:26.297361 CEST] [3978] [info] Forwarding map loaded for 'gros-76' as '10'
[2020-04-22 21:21:26.297532 CEST] [3978] [info] forwarding_mapper() Forward to 10
[2020-04-22 21:21:26.305697 CEST] [3980] [info] Forwarding map loaded for 'gros-76' as '10'
[2020-04-22 21:21:26.305850 CEST] [3980] [info] forwarding_mapper() Forward to 10
[2020-04-22 21:21:26.308030 CEST] [3977] [info] Forwarding map loaded for 'gros-76' as '10'
[2020-04-22 21:21:26.308195 CEST] [3977] [info] forwarding_mapper() Forward to 10
[2020-04-22 21:21:36.338333 CEST] [3958] [info] All subsystems shut down. Client shutdown complete.
[2020-04-22 21:21:36.359699 CEST] [3959] [info] All subsystems shut down. Client shutdown complete.
[2020-04-22 21:21:36.366185 CEST] [3957] [info] All subsystems shut down. Client shutdown complete.
[2020-04-22 21:21:36.401450 CEST] [3960] [info] All subsystems shut down. Client shutdown complete.
