timestamp;node;app;forward_to
1587579566.289355;gros-13;C-1;0
1587579566.289355;gros-14;C-1;1
1587579566.289355;gros-15;C-1;2
1587579566.289355;gros-16;C-1;3
1587579566.289355;gros-17;C-1;4
1587579566.289355;gros-18;C-1;5
1587579566.289355;gros-19;C-1;6
1587579566.289355;gros-20;C-1;7
1587579566.320169;gros-13;C-1;0
1587579566.320169;gros-14;C-1;0
1587579566.320169;gros-15;C-1;1
1587579566.320169;gros-16;C-1;1
1587579566.320169;gros-17;C-1;2
1587579566.320169;gros-18;C-1;2
1587579566.320169;gros-19;C-1;3
1587579566.320169;gros-20;C-1;3
1587579566.320169;gros-21;D-1;4
1587579566.320169;gros-22;D-1;4
1587579566.320169;gros-23;D-1;5
1587579566.320169;gros-24;D-1;5
1587579566.320169;gros-25;D-1;6
1587579566.320169;gros-26;D-1;6
1587579566.320169;gros-27;D-1;7
1587579566.320169;gros-28;D-1;7
1587579566.320169;gros-29;D-1;8
1587579566.320169;gros-30;D-1;8
1587579566.320169;gros-31;D-1;9
1587579566.320169;gros-32;D-1;9
1587579566.320169;gros-33;D-1;10
1587579566.320169;gros-34;D-1;10
1587579566.320169;gros-35;D-1;11
1587579566.320169;gros-36;D-1;11
1587579566.357744;gros-13;C-1;0
1587579566.357744;gros-14;C-1;0
1587579566.357744;gros-15;C-1;0
1587579566.357744;gros-16;C-1;0
1587579566.357744;gros-17;C-1;1
1587579566.357744;gros-18;C-1;1
1587579566.357744;gros-19;C-1;1
1587579566.357744;gros-20;C-1;1
1587579566.357744;gros-21;D-1;2
1587579566.357744;gros-22;D-1;2
1587579566.357744;gros-23;D-1;2
1587579566.357744;gros-24;D-1;2
1587579566.357744;gros-25;D-1;3
1587579566.357744;gros-26;D-1;3
1587579566.357744;gros-27;D-1;3
1587579566.357744;gros-28;D-1;3
1587579566.357744;gros-29;D-1;4
1587579566.357744;gros-30;D-1;4
1587579566.357744;gros-31;D-1;4
1587579566.357744;gros-32;D-1;4
1587579566.357744;gros-33;D-1;5
1587579566.357744;gros-34;D-1;5
1587579566.357744;gros-35;D-1;5
1587579566.357744;gros-36;D-1;5
1587579566.357744;gros-37;H-1;6
1587579566.357744;gros-38;H-1;6
1587579566.357744;gros-39;H-1;6
1587579566.357744;gros-40;H-1;6
1587579566.357744;gros-41;H-1;7
1587579566.357744;gros-42;H-1;7
1587579566.357744;gros-43;H-1;7
1587579566.357744;gros-44;H-1;7
1587579566.357744;gros-45;H-1;8
1587579566.357744;gros-46;H-1;8
1587579566.357744;gros-47;H-1;8
1587579566.357744;gros-48;H-1;8
1587579566.357744;gros-49;H-1;9
1587579566.357744;gros-50;H-1;9
1587579566.357744;gros-51;H-1;9
1587579566.357744;gros-52;H-1;9
1587579566.371427;gros-13;C-1;0
1587579566.371427;gros-14;C-1;0
1587579566.371427;gros-15;C-1;0
1587579566.371427;gros-16;C-1;0
1587579566.371427;gros-17;C-1;1
1587579566.371427;gros-18;C-1;1
1587579566.371427;gros-19;C-1;1
1587579566.371427;gros-20;C-1;1
1587579566.371427;gros-21;D-1;2
1587579566.371427;gros-22;D-1;2
1587579566.371427;gros-23;D-1;2
1587579566.371427;gros-24;D-1;2
1587579566.371427;gros-25;D-1;2
1587579566.371427;gros-26;D-1;2
1587579566.371427;gros-27;D-1;2
1587579566.371427;gros-28;D-1;2
1587579566.371427;gros-29;D-1;3
1587579566.371427;gros-30;D-1;3
1587579566.371427;gros-31;D-1;3
1587579566.371427;gros-32;D-1;3
1587579566.371427;gros-33;D-1;3
1587579566.371427;gros-34;D-1;3
1587579566.371427;gros-35;D-1;3
1587579566.371427;gros-36;D-1;3
1587579566.371427;gros-37;H-1;4
1587579566.371427;gros-38;H-1;4
1587579566.371427;gros-39;H-1;4
1587579566.371427;gros-40;H-1;4
1587579566.371427;gros-41;H-1;5
1587579566.371427;gros-42;H-1;5
1587579566.371427;gros-43;H-1;5
1587579566.371427;gros-44;H-1;5
1587579566.371427;gros-45;H-1;6
1587579566.371427;gros-46;H-1;6
1587579566.371427;gros-47;H-1;6
1587579566.371427;gros-48;H-1;6
1587579566.371427;gros-49;H-1;7
1587579566.371427;gros-50;H-1;7
1587579566.371427;gros-51;H-1;7
1587579566.371427;gros-52;H-1;7
1587579566.371427;gros-53;D-2;8
1587579566.371427;gros-54;D-2;8
1587579566.371427;gros-55;D-2;8
1587579566.371427;gros-56;D-2;8
1587579566.371427;gros-57;D-2;9
1587579566.371427;gros-58;D-2;9
1587579566.371427;gros-59;D-2;9
1587579566.371427;gros-60;D-2;9
1587579566.371427;gros-61;D-2;10
1587579566.371427;gros-62;D-2;10
1587579566.371427;gros-64;D-2;10
1587579566.371427;gros-65;D-2;10
1587579566.371427;gros-66;D-2;11
1587579566.371427;gros-67;D-2;11
1587579566.371427;gros-68;D-2;11
1587579566.371427;gros-69;D-2;11
1587579566.384192;gros-13;C-1;0
1587579566.384192;gros-14;C-1;0
1587579566.384192;gros-15;C-1;0
1587579566.384192;gros-16;C-1;0
1587579566.384192;gros-17;C-1;1
1587579566.384192;gros-18;C-1;1
1587579566.384192;gros-19;C-1;1
1587579566.384192;gros-20;C-1;1
1587579566.384192;gros-21;D-1;2
1587579566.384192;gros-22;D-1;2
1587579566.384192;gros-23;D-1;2
1587579566.384192;gros-24;D-1;2
1587579566.384192;gros-25;D-1;2
1587579566.384192;gros-26;D-1;2
1587579566.384192;gros-27;D-1;2
1587579566.384192;gros-28;D-1;2
1587579566.384192;gros-29;D-1;3
1587579566.384192;gros-30;D-1;3
1587579566.384192;gros-31;D-1;3
1587579566.384192;gros-32;D-1;3
1587579566.384192;gros-33;D-1;3
1587579566.384192;gros-34;D-1;3
1587579566.384192;gros-35;D-1;3
1587579566.384192;gros-36;D-1;3
1587579566.384192;gros-37;H-1;4
1587579566.384192;gros-38;H-1;4
1587579566.384192;gros-39;H-1;4
1587579566.384192;gros-40;H-1;4
1587579566.384192;gros-41;H-1;4
1587579566.384192;gros-42;H-1;4
1587579566.384192;gros-43;H-1;4
1587579566.384192;gros-44;H-1;4
1587579566.384192;gros-45;H-1;5
1587579566.384192;gros-46;H-1;5
1587579566.384192;gros-47;H-1;5
1587579566.384192;gros-48;H-1;5
1587579566.384192;gros-49;H-1;5
1587579566.384192;gros-50;H-1;5
1587579566.384192;gros-51;H-1;5
1587579566.384192;gros-52;H-1;5
1587579566.384192;gros-53;D-2;6
1587579566.384192;gros-54;D-2;6
1587579566.384192;gros-55;D-2;6
1587579566.384192;gros-56;D-2;6
1587579566.384192;gros-57;D-2;6
1587579566.384192;gros-58;D-2;6
1587579566.384192;gros-59;D-2;6
1587579566.384192;gros-60;D-2;6
1587579566.384192;gros-61;D-2;7
1587579566.384192;gros-62;D-2;7
1587579566.384192;gros-64;D-2;7
1587579566.384192;gros-65;D-2;7
1587579566.384192;gros-66;D-2;7
1587579566.384192;gros-67;D-2;7
1587579566.384192;gros-68;D-2;7
1587579566.384192;gros-69;D-2;7
1587579566.384192;gros-70;D-3;8
1587579566.384192;gros-71;D-3;8
1587579566.384192;gros-72;D-3;8
1587579566.384192;gros-73;D-3;8
1587579566.384192;gros-74;D-3;9
1587579566.384192;gros-75;D-3;9
1587579566.384192;gros-76;D-3;9
1587579566.384192;gros-77;D-3;9
1587579566.384192;gros-78;D-3;10
1587579566.384192;gros-79;D-3;10
1587579566.384192;gros-80;D-3;10
1587579566.384192;gros-81;D-3;10
1587579566.384192;gros-82;D-3;11
1587579566.384192;gros-83;D-3;11
1587579566.384192;gros-84;D-3;11
1587579566.384192;gros-85;D-3;11
1587579566.395283;gros-13;C-1;0
1587579566.395283;gros-14;C-1;0
1587579566.395283;gros-15;C-1;0
1587579566.395283;gros-16;C-1;0
1587579566.395283;gros-17;C-1;1
1587579566.395283;gros-18;C-1;1
1587579566.395283;gros-19;C-1;1
1587579566.395283;gros-20;C-1;1
1587579566.395283;gros-21;D-1;2
1587579566.395283;gros-22;D-1;2
1587579566.395283;gros-23;D-1;2
1587579566.395283;gros-24;D-1;2
1587579566.395283;gros-25;D-1;2
1587579566.395283;gros-26;D-1;2
1587579566.395283;gros-27;D-1;2
1587579566.395283;gros-28;D-1;2
1587579566.395283;gros-29;D-1;3
1587579566.395283;gros-30;D-1;3
1587579566.395283;gros-31;D-1;3
1587579566.395283;gros-32;D-1;3
1587579566.395283;gros-33;D-1;3
1587579566.395283;gros-34;D-1;3
1587579566.395283;gros-35;D-1;3
1587579566.395283;gros-36;D-1;3
1587579566.395283;gros-37;H-1;4
1587579566.395283;gros-38;H-1;4
1587579566.395283;gros-39;H-1;4
1587579566.395283;gros-40;H-1;4
1587579566.395283;gros-41;H-1;4
1587579566.395283;gros-42;H-1;4
1587579566.395283;gros-43;H-1;4
1587579566.395283;gros-44;H-1;4
1587579566.395283;gros-45;H-1;5
1587579566.395283;gros-46;H-1;5
1587579566.395283;gros-47;H-1;5
1587579566.395283;gros-48;H-1;5
1587579566.395283;gros-49;H-1;5
1587579566.395283;gros-50;H-1;5
1587579566.395283;gros-51;H-1;5
1587579566.395283;gros-52;H-1;5
1587579566.395283;gros-53;D-2;6
1587579566.395283;gros-54;D-2;6
1587579566.395283;gros-55;D-2;6
1587579566.395283;gros-56;D-2;6
1587579566.395283;gros-57;D-2;6
1587579566.395283;gros-58;D-2;6
1587579566.395283;gros-59;D-2;6
1587579566.395283;gros-60;D-2;6
1587579566.395283;gros-61;D-2;7
1587579566.395283;gros-62;D-2;7
1587579566.395283;gros-64;D-2;7
1587579566.395283;gros-65;D-2;7
1587579566.395283;gros-66;D-2;7
1587579566.395283;gros-67;D-2;7
1587579566.395283;gros-68;D-2;7
1587579566.395283;gros-69;D-2;7
1587579566.395283;gros-70;D-3;8
1587579566.395283;gros-71;D-3;8
1587579566.395283;gros-72;D-3;8
1587579566.395283;gros-73;D-3;8
1587579566.395283;gros-74;D-3;8
1587579566.395283;gros-75;D-3;8
1587579566.395283;gros-76;D-3;8
1587579566.395283;gros-77;D-3;8
1587579566.395283;gros-78;D-3;9
1587579566.395283;gros-79;D-3;9
1587579566.395283;gros-80;D-3;9
1587579566.395283;gros-81;D-3;9
1587579566.395283;gros-82;D-3;9
1587579566.395283;gros-83;D-3;9
1587579566.395283;gros-84;D-3;9
1587579566.395283;gros-85;D-3;9
1587579566.395283;gros-86;E-1;10
1587579566.395283;gros-87;E-1;10
1587579566.395283;gros-88;E-1;10
1587579566.395283;gros-89;E-1;10
1587579566.395283;gros-90;E-1;10
1587579566.395283;gros-91;E-1;10
1587579566.395283;gros-92;E-1;10
1587579566.395283;gros-93;E-1;10
1587579566.395283;gros-94;E-1;11
1587579566.395283;gros-95;E-1;11
1587579566.395283;gros-96;E-1;11
1587579566.395283;gros-97;E-1;11
1587579566.395283;gros-98;E-1;11
1587579566.395283;gros-99;E-1;11
1587579566.395283;gros-100;E-1;11
1587579566.395283;gros-101;E-1;11
1587579788.535544;gros-21;D-1;0
1587579788.535544;gros-22;D-1;0
1587579788.535544;gros-23;D-1;0
1587579788.535544;gros-24;D-1;0
1587579788.535544;gros-25;D-1;0
1587579788.535544;gros-26;D-1;0
1587579788.535544;gros-27;D-1;0
1587579788.535544;gros-28;D-1;0
1587579788.535544;gros-29;D-1;1
1587579788.535544;gros-30;D-1;1
1587579788.535544;gros-31;D-1;1
1587579788.535544;gros-32;D-1;1
1587579788.535544;gros-33;D-1;1
1587579788.535544;gros-34;D-1;1
1587579788.535544;gros-35;D-1;1
1587579788.535544;gros-36;D-1;1
1587579788.535544;gros-37;H-1;2
1587579788.535544;gros-38;H-1;2
1587579788.535544;gros-39;H-1;2
1587579788.535544;gros-40;H-1;2
1587579788.535544;gros-41;H-1;2
1587579788.535544;gros-42;H-1;2
1587579788.535544;gros-43;H-1;2
1587579788.535544;gros-44;H-1;2
1587579788.535544;gros-45;H-1;3
1587579788.535544;gros-46;H-1;3
1587579788.535544;gros-47;H-1;3
1587579788.535544;gros-48;H-1;3
1587579788.535544;gros-49;H-1;3
1587579788.535544;gros-50;H-1;3
1587579788.535544;gros-51;H-1;3
1587579788.535544;gros-52;H-1;3
1587579788.535544;gros-102;F-1;4
1587579788.535544;gros-103;F-1;4
1587579788.535544;gros-104;F-1;4
1587579788.535544;gros-105;F-1;4
1587579788.535544;gros-106;F-1;4
1587579788.535544;gros-107;F-1;4
1587579788.535544;gros-108;F-1;4
1587579788.535544;gros-109;F-1;4
1587579788.535544;gros-13;F-1;5
1587579788.535544;gros-14;F-1;5
1587579788.535544;gros-15;F-1;5
1587579788.535544;gros-16;F-1;5
1587579788.535544;gros-17;F-1;5
1587579788.535544;gros-18;F-1;5
1587579788.535544;gros-19;F-1;5
1587579788.535544;gros-20;F-1;5
1587579788.535544;gros-70;F-1;6
1587579788.535544;gros-71;F-1;6
1587579788.535544;gros-72;F-1;6
1587579788.535544;gros-73;F-1;6
1587579788.535544;gros-74;F-1;6
1587579788.535544;gros-75;F-1;6
1587579788.535544;gros-76;F-1;6
1587579788.535544;gros-77;F-1;6
1587579788.535544;gros-78;F-1;7
1587579788.535544;gros-79;F-1;7
1587579788.535544;gros-80;F-1;7
1587579788.535544;gros-81;F-1;7
1587579788.535544;gros-82;F-1;7
1587579788.535544;gros-83;F-1;7
1587579788.535544;gros-84;F-1;7
1587579788.535544;gros-85;F-1;7
1587579788.535544;gros-53;F-1;8
1587579788.535544;gros-54;F-1;8
1587579788.535544;gros-55;F-1;8
1587579788.535544;gros-56;F-1;8
1587579788.535544;gros-57;F-1;8
1587579788.535544;gros-58;F-1;8
1587579788.535544;gros-59;F-1;8
1587579788.535544;gros-60;F-1;8
1587579788.535544;gros-61;F-1;9
1587579788.535544;gros-62;F-1;9
1587579788.535544;gros-64;F-1;9
1587579788.535544;gros-65;F-1;9
1587579788.535544;gros-66;F-1;9
1587579788.535544;gros-67;F-1;9
1587579788.535544;gros-68;F-1;9
1587579788.535544;gros-69;F-1;9
1587579788.535544;gros-86;F-1;10
1587579788.535544;gros-87;F-1;10
1587579788.535544;gros-88;F-1;10
1587579788.535544;gros-89;F-1;10
1587579788.535544;gros-90;F-1;10
1587579788.535544;gros-91;F-1;10
1587579788.535544;gros-92;F-1;10
1587579788.535544;gros-93;F-1;10
1587579788.535544;gros-94;F-1;11
1587579788.535544;gros-95;F-1;11
1587579788.535544;gros-96;F-1;11
1587579788.535544;gros-97;F-1;11
1587579788.535544;gros-98;F-1;11
1587579788.535544;gros-99;F-1;11
1587579788.535544;gros-100;F-1;11
1587579788.535544;gros-101;F-1;11
1587579932.469169;gros-37;H-1;0
1587579932.469169;gros-38;H-1;0
1587579932.469169;gros-39;H-1;0
1587579932.469169;gros-40;H-1;0
1587579932.469169;gros-41;H-1;1
1587579932.469169;gros-42;H-1;1
1587579932.469169;gros-43;H-1;1
1587579932.469169;gros-44;H-1;1
1587579932.469169;gros-45;H-1;2
1587579932.469169;gros-46;H-1;2
1587579932.469169;gros-47;H-1;2
1587579932.469169;gros-48;H-1;2
1587579932.469169;gros-49;H-1;3
1587579932.469169;gros-50;H-1;3
1587579932.469169;gros-51;H-1;3
1587579932.469169;gros-52;H-1;3
1587579932.469169;gros-21;A-1;4
1587579932.469169;gros-22;A-1;4
1587579932.469169;gros-23;A-1;4
1587579932.469169;gros-24;A-1;4
1587579932.469169;gros-25;A-1;5
1587579932.469169;gros-26;A-1;5
1587579932.469169;gros-27;A-1;5
1587579932.469169;gros-28;A-1;5
1587579932.469169;gros-29;A-1;6
1587579932.469169;gros-30;A-1;6
1587579932.469169;gros-31;A-1;6
1587579932.469169;gros-32;A-1;6
1587579932.469169;gros-33;A-1;7
1587579932.469169;gros-34;A-1;7
1587579932.469169;gros-35;A-1;7
1587579932.469169;gros-36;A-1;7
1587579932.469169;gros-102;A-1;8
1587579932.469169;gros-103;A-1;8
1587579932.469169;gros-104;A-1;8
1587579932.469169;gros-105;A-1;8
1587579932.469169;gros-106;A-1;9
1587579932.469169;gros-107;A-1;9
1587579932.469169;gros-108;A-1;9
1587579932.469169;gros-109;A-1;9
1587579932.469169;gros-13;A-1;10
1587579932.469169;gros-14;A-1;10
1587579932.469169;gros-15;A-1;10
1587579932.469169;gros-16;A-1;10
1587579932.469169;gros-17;A-1;11
1587579932.469169;gros-18;A-1;11
1587579932.469169;gros-19;A-1;11
1587579932.469169;gros-20;A-1;11
1587579932.716819;gros-37;H-1;0
1587579932.716819;gros-38;H-1;0
1587579932.716819;gros-39;H-1;0
1587579932.716819;gros-40;H-1;0
1587579932.716819;gros-41;H-1;0
1587579932.716819;gros-42;H-1;0
1587579932.716819;gros-43;H-1;0
1587579932.716819;gros-44;H-1;0
1587579932.716819;gros-45;H-1;1
1587579932.716819;gros-46;H-1;1
1587579932.716819;gros-47;H-1;1
1587579932.716819;gros-48;H-1;1
1587579932.716819;gros-49;H-1;1
1587579932.716819;gros-50;H-1;1
1587579932.716819;gros-51;H-1;1
1587579932.716819;gros-52;H-1;1
1587579932.716819;gros-21;A-1;2
1587579932.716819;gros-22;A-1;2
1587579932.716819;gros-23;A-1;2
1587579932.716819;gros-24;A-1;2
1587579932.716819;gros-25;A-1;2
1587579932.716819;gros-26;A-1;2
1587579932.716819;gros-27;A-1;2
1587579932.716819;gros-28;A-1;2
1587579932.716819;gros-29;A-1;3
1587579932.716819;gros-30;A-1;3
1587579932.716819;gros-31;A-1;3
1587579932.716819;gros-32;A-1;3
1587579932.716819;gros-33;A-1;3
1587579932.716819;gros-34;A-1;3
1587579932.716819;gros-35;A-1;3
1587579932.716819;gros-36;A-1;3
1587579932.716819;gros-102;A-1;4
1587579932.716819;gros-103;A-1;4
1587579932.716819;gros-104;A-1;4
1587579932.716819;gros-105;A-1;4
1587579932.716819;gros-106;A-1;4
1587579932.716819;gros-107;A-1;4
1587579932.716819;gros-108;A-1;4
1587579932.716819;gros-109;A-1;4
1587579932.716819;gros-13;A-1;5
1587579932.716819;gros-14;A-1;5
1587579932.716819;gros-15;A-1;5
1587579932.716819;gros-16;A-1;5
1587579932.716819;gros-17;A-1;5
1587579932.716819;gros-18;A-1;5
1587579932.716819;gros-19;A-1;5
1587579932.716819;gros-20;A-1;5
1587579932.716819;gros-70;G-1;6
1587579932.716819;gros-71;G-1;6
1587579932.716819;gros-72;G-1;6
1587579932.716819;gros-73;G-1;6
1587579932.716819;gros-74;G-1;6
1587579932.716819;gros-75;G-1;6
1587579932.716819;gros-76;G-1;6
1587579932.716819;gros-77;G-1;6
1587579932.716819;gros-78;G-1;7
1587579932.716819;gros-79;G-1;7
1587579932.716819;gros-80;G-1;7
1587579932.716819;gros-81;G-1;7
1587579932.716819;gros-82;G-1;7
1587579932.716819;gros-83;G-1;7
1587579932.716819;gros-84;G-1;7
1587579932.716819;gros-85;G-1;7
1587579932.716819;gros-53;G-1;8
1587579932.716819;gros-54;G-1;8
1587579932.716819;gros-55;G-1;8
1587579932.716819;gros-56;G-1;8
1587579932.716819;gros-57;G-1;8
1587579932.716819;gros-58;G-1;8
1587579932.716819;gros-59;G-1;8
1587579932.716819;gros-60;G-1;8
1587579932.716819;gros-61;G-1;9
1587579932.716819;gros-62;G-1;9
1587579932.716819;gros-64;G-1;9
1587579932.716819;gros-65;G-1;9
1587579932.716819;gros-66;G-1;9
1587579932.716819;gros-67;G-1;9
1587579932.716819;gros-68;G-1;9
1587579932.716819;gros-69;G-1;9
1587579947.775235;gros-21;A-1;0
1587579947.775235;gros-22;A-1;0
1587579947.775235;gros-23;A-1;0
1587579947.775235;gros-24;A-1;0
1587579947.775235;gros-25;A-1;0
1587579947.775235;gros-26;A-1;0
1587579947.775235;gros-27;A-1;0
1587579947.775235;gros-28;A-1;0
1587579947.775235;gros-29;A-1;1
1587579947.775235;gros-30;A-1;1
1587579947.775235;gros-31;A-1;1
1587579947.775235;gros-32;A-1;1
1587579947.775235;gros-33;A-1;1
1587579947.775235;gros-34;A-1;1
1587579947.775235;gros-35;A-1;1
1587579947.775235;gros-36;A-1;1
1587579947.775235;gros-102;A-1;2
1587579947.775235;gros-103;A-1;2
1587579947.775235;gros-104;A-1;2
1587579947.775235;gros-105;A-1;2
1587579947.775235;gros-106;A-1;2
1587579947.775235;gros-107;A-1;2
1587579947.775235;gros-108;A-1;2
1587579947.775235;gros-109;A-1;2
1587579947.775235;gros-13;A-1;3
1587579947.775235;gros-14;A-1;3
1587579947.775235;gros-15;A-1;3
1587579947.775235;gros-16;A-1;3
1587579947.775235;gros-17;A-1;3
1587579947.775235;gros-18;A-1;3
1587579947.775235;gros-19;A-1;3
1587579947.775235;gros-20;A-1;3
1587579947.775235;gros-70;G-1;4
1587579947.775235;gros-71;G-1;4
1587579947.775235;gros-72;G-1;4
1587579947.775235;gros-73;G-1;4
1587579947.775235;gros-74;G-1;4
1587579947.775235;gros-75;G-1;4
1587579947.775235;gros-76;G-1;4
1587579947.775235;gros-77;G-1;4
1587579947.775235;gros-78;G-1;5
1587579947.775235;gros-79;G-1;5
1587579947.775235;gros-80;G-1;5
1587579947.775235;gros-81;G-1;5
1587579947.775235;gros-82;G-1;5
1587579947.775235;gros-83;G-1;5
1587579947.775235;gros-84;G-1;5
1587579947.775235;gros-85;G-1;5
1587579947.775235;gros-53;G-1;6
1587579947.775235;gros-54;G-1;6
1587579947.775235;gros-55;G-1;6
1587579947.775235;gros-56;G-1;6
1587579947.775235;gros-57;G-1;6
1587579947.775235;gros-58;G-1;6
1587579947.775235;gros-59;G-1;6
1587579947.775235;gros-60;G-1;6
1587579947.775235;gros-61;G-1;7
1587579947.775235;gros-62;G-1;7
1587579947.775235;gros-64;G-1;7
1587579947.775235;gros-65;G-1;7
1587579947.775235;gros-66;G-1;7
1587579947.775235;gros-67;G-1;7
1587579947.775235;gros-68;G-1;7
1587579947.775235;gros-69;G-1;7
1587579947.775235;gros-86;G-2;8
1587579947.775235;gros-87;G-2;8
1587579947.775235;gros-88;G-2;8
1587579947.775235;gros-89;G-2;8
1587579947.775235;gros-90;G-2;8
1587579947.775235;gros-91;G-2;8
1587579947.775235;gros-92;G-2;8
1587579947.775235;gros-93;G-2;8
1587579947.775235;gros-94;G-2;9
1587579947.775235;gros-95;G-2;9
1587579947.775235;gros-96;G-2;9
1587579947.775235;gros-97;G-2;9
1587579947.775235;gros-98;G-2;9
1587579947.775235;gros-99;G-2;9
1587579947.775235;gros-100;G-2;9
1587579947.775235;gros-101;G-2;9
1587579947.775235;gros-37;G-2;10
1587579947.775235;gros-38;G-2;10
1587579947.775235;gros-39;G-2;10
1587579947.775235;gros-40;G-2;10
1587579947.775235;gros-41;G-2;10
1587579947.775235;gros-42;G-2;10
1587579947.775235;gros-43;G-2;10
1587579947.775235;gros-44;G-2;10
1587579947.775235;gros-45;G-2;11
1587579947.775235;gros-46;G-2;11
1587579947.775235;gros-47;G-2;11
1587579947.775235;gros-48;G-2;11
1587579947.775235;gros-49;G-2;11
1587579947.775235;gros-50;G-2;11
1587579947.775235;gros-51;G-2;11
1587579947.775235;gros-52;G-2;11
1587580053.704221;gros-86;G-2;0
1587580053.704221;gros-87;G-2;0
1587580053.704221;gros-88;G-2;0
1587580053.704221;gros-89;G-2;0
1587580053.704221;gros-90;G-2;0
1587580053.704221;gros-91;G-2;0
1587580053.704221;gros-92;G-2;0
1587580053.704221;gros-93;G-2;0
1587580053.704221;gros-94;G-2;1
1587580053.704221;gros-95;G-2;1
1587580053.704221;gros-96;G-2;1
1587580053.704221;gros-97;G-2;1
1587580053.704221;gros-98;G-2;1
1587580053.704221;gros-99;G-2;1
1587580053.704221;gros-100;G-2;1
1587580053.704221;gros-101;G-2;1
1587580053.704221;gros-37;G-2;2
1587580053.704221;gros-38;G-2;2
1587580053.704221;gros-39;G-2;2
1587580053.704221;gros-40;G-2;2
1587580053.704221;gros-41;G-2;2
1587580053.704221;gros-42;G-2;2
1587580053.704221;gros-43;G-2;2
1587580053.704221;gros-44;G-2;2
1587580053.704221;gros-45;G-2;3
1587580053.704221;gros-46;G-2;3
1587580053.704221;gros-47;G-2;3
1587580053.704221;gros-48;G-2;3
1587580053.704221;gros-49;G-2;3
1587580053.704221;gros-50;G-2;3
1587580053.704221;gros-51;G-2;3
1587580053.704221;gros-52;G-2;3
1587580053.704221;gros-70;I-1;4
1587580053.704221;gros-71;I-1;4
1587580053.704221;gros-72;I-1;4
1587580053.704221;gros-73;I-1;4
1587580053.704221;gros-74;I-1;4
1587580053.704221;gros-75;I-1;4
1587580053.704221;gros-76;I-1;4
1587580053.704221;gros-77;I-1;4
1587580053.704221;gros-78;I-1;5
1587580053.704221;gros-79;I-1;5
1587580053.704221;gros-80;I-1;5
1587580053.704221;gros-81;I-1;5
1587580053.704221;gros-82;I-1;5
1587580053.704221;gros-83;I-1;5
1587580053.704221;gros-84;I-1;5
1587580053.704221;gros-85;I-1;5
1587580053.704221;gros-53;I-1;6
1587580053.704221;gros-54;I-1;6
1587580053.704221;gros-55;I-1;6
1587580053.704221;gros-56;I-1;6
1587580053.704221;gros-57;I-1;6
1587580053.704221;gros-58;I-1;6
1587580053.704221;gros-59;I-1;6
1587580053.704221;gros-60;I-1;6
1587580053.704221;gros-61;I-1;7
1587580053.704221;gros-62;I-1;7
1587580053.704221;gros-64;I-1;7
1587580053.704221;gros-65;I-1;7
1587580053.704221;gros-66;I-1;7
1587580053.704221;gros-67;I-1;7
1587580053.704221;gros-68;I-1;7
1587580053.704221;gros-69;I-1;7
1587580053.704221;gros-21;I-1;8
1587580053.704221;gros-22;I-1;8
1587580053.704221;gros-23;I-1;8
1587580053.704221;gros-24;I-1;8
1587580053.704221;gros-25;I-1;8
1587580053.704221;gros-26;I-1;8
1587580053.704221;gros-27;I-1;8
1587580053.704221;gros-28;I-1;8
1587580053.704221;gros-29;I-1;9
1587580053.704221;gros-30;I-1;9
1587580053.704221;gros-31;I-1;9
1587580053.704221;gros-32;I-1;9
1587580053.704221;gros-33;I-1;9
1587580053.704221;gros-34;I-1;9
1587580053.704221;gros-35;I-1;9
1587580053.704221;gros-36;I-1;9
1587580053.704221;gros-102;I-1;10
1587580053.704221;gros-103;I-1;10
1587580053.704221;gros-104;I-1;10
1587580053.704221;gros-105;I-1;10
1587580053.704221;gros-106;I-1;10
1587580053.704221;gros-107;I-1;10
1587580053.704221;gros-108;I-1;10
1587580053.704221;gros-109;I-1;10
1587580053.704221;gros-13;I-1;11
1587580053.704221;gros-14;I-1;11
1587580053.704221;gros-15;I-1;11
1587580053.704221;gros-16;I-1;11
1587580053.704221;gros-17;I-1;11
1587580053.704221;gros-18;I-1;11
1587580053.704221;gros-19;I-1;11
1587580053.704221;gros-20;I-1;11
1587580098.694353;gros-70;I-1;0
1587580098.694353;gros-71;I-1;0
1587580098.694353;gros-72;I-1;0
1587580098.694353;gros-73;I-1;0
1587580098.694353;gros-74;I-1;0
1587580098.694353;gros-75;I-1;0
1587580098.694353;gros-76;I-1;0
1587580098.694353;gros-77;I-1;0
1587580098.694353;gros-78;I-1;1
1587580098.694353;gros-79;I-1;1
1587580098.694353;gros-80;I-1;1
1587580098.694353;gros-81;I-1;1
1587580098.694353;gros-82;I-1;1
1587580098.694353;gros-83;I-1;1
1587580098.694353;gros-84;I-1;1
1587580098.694353;gros-85;I-1;1
1587580098.694353;gros-53;I-1;2
1587580098.694353;gros-54;I-1;2
1587580098.694353;gros-55;I-1;2
1587580098.694353;gros-56;I-1;2
1587580098.694353;gros-57;I-1;2
1587580098.694353;gros-58;I-1;2
1587580098.694353;gros-59;I-1;2
1587580098.694353;gros-60;I-1;2
1587580098.694353;gros-61;I-1;3
1587580098.694353;gros-62;I-1;3
1587580098.694353;gros-64;I-1;3
1587580098.694353;gros-65;I-1;3
1587580098.694353;gros-66;I-1;3
1587580098.694353;gros-67;I-1;3
1587580098.694353;gros-68;I-1;3
1587580098.694353;gros-69;I-1;3
1587580098.694353;gros-21;I-1;4
1587580098.694353;gros-22;I-1;4
1587580098.694353;gros-23;I-1;4
1587580098.694353;gros-24;I-1;4
1587580098.694353;gros-25;I-1;4
1587580098.694353;gros-26;I-1;4
1587580098.694353;gros-27;I-1;4
1587580098.694353;gros-28;I-1;4
1587580098.694353;gros-29;I-1;5
1587580098.694353;gros-30;I-1;5
1587580098.694353;gros-31;I-1;5
1587580098.694353;gros-32;I-1;5
1587580098.694353;gros-33;I-1;5
1587580098.694353;gros-34;I-1;5
1587580098.694353;gros-35;I-1;5
1587580098.694353;gros-36;I-1;5
1587580098.694353;gros-102;I-1;6
1587580098.694353;gros-103;I-1;6
1587580098.694353;gros-104;I-1;6
1587580098.694353;gros-105;I-1;6
1587580098.694353;gros-106;I-1;6
1587580098.694353;gros-107;I-1;6
1587580098.694353;gros-108;I-1;6
1587580098.694353;gros-109;I-1;6
1587580098.694353;gros-13;I-1;7
1587580098.694353;gros-14;I-1;7
1587580098.694353;gros-15;I-1;7
1587580098.694353;gros-16;I-1;7
1587580098.694353;gros-17;I-1;7
1587580098.694353;gros-18;I-1;7
1587580098.694353;gros-19;I-1;7
1587580098.694353;gros-20;I-1;7
1587580098.694353;gros-86;C-2;8
1587580098.694353;gros-87;C-2;8
1587580098.694353;gros-88;C-2;8
1587580098.694353;gros-89;C-2;8
1587580098.694353;gros-90;C-2;8
1587580098.694353;gros-91;C-2;8
1587580098.694353;gros-92;C-2;8
1587580098.694353;gros-93;C-2;8
1587580100.521213;gros-70;I-1;0
1587580100.521213;gros-71;I-1;0
1587580100.521213;gros-72;I-1;0
1587580100.521213;gros-73;I-1;0
1587580100.521213;gros-74;I-1;0
1587580100.521213;gros-75;I-1;0
1587580100.521213;gros-76;I-1;0
1587580100.521213;gros-77;I-1;0
1587580100.521213;gros-78;I-1;1
1587580100.521213;gros-79;I-1;1
1587580100.521213;gros-80;I-1;1
1587580100.521213;gros-81;I-1;1
1587580100.521213;gros-82;I-1;1
1587580100.521213;gros-83;I-1;1
1587580100.521213;gros-84;I-1;1
1587580100.521213;gros-85;I-1;1
1587580100.521213;gros-53;I-1;2
1587580100.521213;gros-54;I-1;2
1587580100.521213;gros-55;I-1;2
1587580100.521213;gros-56;I-1;2
1587580100.521213;gros-57;I-1;2
1587580100.521213;gros-58;I-1;2
1587580100.521213;gros-59;I-1;2
1587580100.521213;gros-60;I-1;2
1587580100.521213;gros-61;I-1;3
1587580100.521213;gros-62;I-1;3
1587580100.521213;gros-64;I-1;3
1587580100.521213;gros-65;I-1;3
1587580100.521213;gros-66;I-1;3
1587580100.521213;gros-67;I-1;3
1587580100.521213;gros-68;I-1;3
1587580100.521213;gros-69;I-1;3
1587580100.521213;gros-21;I-1;4
1587580100.521213;gros-22;I-1;4
1587580100.521213;gros-23;I-1;4
1587580100.521213;gros-24;I-1;4
1587580100.521213;gros-25;I-1;4
1587580100.521213;gros-26;I-1;4
1587580100.521213;gros-27;I-1;4
1587580100.521213;gros-28;I-1;4
1587580100.521213;gros-29;I-1;5
1587580100.521213;gros-30;I-1;5
1587580100.521213;gros-31;I-1;5
1587580100.521213;gros-32;I-1;5
1587580100.521213;gros-33;I-1;5
1587580100.521213;gros-34;I-1;5
1587580100.521213;gros-35;I-1;5
1587580100.521213;gros-36;I-1;5
1587580100.521213;gros-102;I-1;6
1587580100.521213;gros-103;I-1;6
1587580100.521213;gros-104;I-1;6
1587580100.521213;gros-105;I-1;6
1587580100.521213;gros-106;I-1;6
1587580100.521213;gros-107;I-1;6
1587580100.521213;gros-108;I-1;6
1587580100.521213;gros-109;I-1;6
1587580100.521213;gros-13;I-1;7
1587580100.521213;gros-14;I-1;7
1587580100.521213;gros-15;I-1;7
1587580100.521213;gros-16;I-1;7
1587580100.521213;gros-17;I-1;7
1587580100.521213;gros-18;I-1;7
1587580100.521213;gros-19;I-1;7
1587580100.521213;gros-20;I-1;7
1587580100.521213;gros-86;C-2;8
1587580100.521213;gros-87;C-2;8
1587580100.521213;gros-88;C-2;8
1587580100.521213;gros-89;C-2;8
1587580100.521213;gros-90;C-2;8
1587580100.521213;gros-91;C-2;8
1587580100.521213;gros-92;C-2;8
1587580100.521213;gros-93;C-2;8
1587580100.521213;gros-94;C-3;9
1587580100.521213;gros-95;C-3;9
1587580100.521213;gros-96;C-3;9
1587580100.521213;gros-97;C-3;9
1587580100.521213;gros-98;C-3;9
1587580100.521213;gros-99;C-3;9
1587580100.521213;gros-100;C-3;9
1587580100.521213;gros-101;C-3;9
1587580328.759452;gros-37;B-1;0
1587580328.759452;gros-38;B-1;0
1587580328.759452;gros-39;B-1;0
1587580328.759452;gros-40;B-1;0
1587580328.759452;gros-41;B-1;0
1587580328.759452;gros-42;B-1;0
1587580328.759452;gros-43;B-1;0
1587580328.759452;gros-44;B-1;0
1587580328.759452;gros-45;B-1;1
1587580328.759452;gros-46;B-1;1
1587580328.759452;gros-47;B-1;1
1587580328.759452;gros-48;B-1;1
1587580328.759452;gros-49;B-1;1
1587580328.759452;gros-50;B-1;1
1587580328.759452;gros-51;B-1;1
1587580328.759452;gros-52;B-1;1
1587580328.759452;gros-94;B-1;2
1587580328.759452;gros-95;B-1;2
1587580328.759452;gros-96;B-1;2
1587580328.759452;gros-97;B-1;2
1587580328.759452;gros-98;B-1;2
1587580328.759452;gros-99;B-1;2
1587580328.759452;gros-100;B-1;2
1587580328.759452;gros-101;B-1;2
1587580328.759452;gros-86;B-1;3
1587580328.759452;gros-87;B-1;3
1587580328.759452;gros-88;B-1;3
1587580328.759452;gros-89;B-1;3
1587580328.759452;gros-90;B-1;3
1587580328.759452;gros-91;B-1;3
1587580328.759452;gros-92;B-1;3
1587580328.759452;gros-93;B-1;3
1587580328.759452;gros-70;B-1;4
1587580328.759452;gros-71;B-1;4
1587580328.759452;gros-72;B-1;4
1587580328.759452;gros-73;B-1;4
1587580328.759452;gros-74;B-1;4
1587580328.759452;gros-75;B-1;4
1587580328.759452;gros-76;B-1;4
1587580328.759452;gros-77;B-1;4
1587580328.759452;gros-78;B-1;5
1587580328.759452;gros-79;B-1;5
1587580328.759452;gros-80;B-1;5
1587580328.759452;gros-81;B-1;5
1587580328.759452;gros-82;B-1;5
1587580328.759452;gros-83;B-1;5
1587580328.759452;gros-84;B-1;5
1587580328.759452;gros-85;B-1;5
1587580328.759452;gros-53;B-1;6
1587580328.759452;gros-54;B-1;6
1587580328.759452;gros-55;B-1;6
1587580328.759452;gros-56;B-1;6
1587580328.759452;gros-57;B-1;6
1587580328.759452;gros-58;B-1;6
1587580328.759452;gros-59;B-1;6
1587580328.759452;gros-60;B-1;6
1587580328.759452;gros-61;B-1;7
1587580328.759452;gros-62;B-1;7
1587580328.759452;gros-64;B-1;7
1587580328.759452;gros-65;B-1;7
1587580328.759452;gros-66;B-1;7
1587580328.759452;gros-67;B-1;7
1587580328.759452;gros-68;B-1;7
1587580328.759452;gros-69;B-1;7
