[2020-04-22 20:19:27.053344 CEST] [3333] [info] Process cmdline: '/root/benchmarks/s3asim-1.00/s3asim-test --total-fragments 128 --query-count 100 --query-size-min 1 --query-size-max 10 --database-sequence-size-min 6 --database-sequence-size-max 45088768 --result-size-min 1 --result-count-min 1 --result-count-max 5 --compute-speed 10.0 --io-method 0 --parallel-io 0 --query-sync 0 --output_file /mnt/gkfs/output-H-1 --atomicity 0'
[2020-04-22 20:19:27.053638 CEST] [3333] [info] Initializing RPC subsystem...
[2020-04-22 20:19:27.070522 CEST] [3333] [info] Loading peer addresses...
[2020-04-22 20:19:27.076121 CEST] [3333] [info] Hosts pool size: 12
[2020-04-22 20:19:27.087246 CEST] [3333] [info] Forwarding map loaded for 'gros-48' as '5'
[2020-04-22 20:19:27.087413 CEST] [3333] [info] init_ld_environment_() Forward to 5
[2020-04-22 20:19:27.087561 CEST] [3333] [info] Retrieving file system configuration...
[2020-04-22 20:19:27.092618 CEST] [3333] [info] Mountdir: '/mnt/gkfs'
[2020-04-22 20:19:27.092743 CEST] [3333] [info] Environment initialization successful.
[2020-04-22 20:19:27.124048 CEST] [3338] [info] Forwarding map loaded for 'gros-48' as '5'
[2020-04-22 20:19:27.124200 CEST] [3338] [info] forwarding_mapper() Forward to 5
[2020-04-22 20:19:37.133412 CEST] [3338] [info] Forwarding map loaded for 'gros-48' as '5'
[2020-04-22 20:19:37.133617 CEST] [3338] [info] forwarding_mapper() Forward to 5
[2020-04-22 20:19:47.146878 CEST] [3338] [info] Forwarding map loaded for 'gros-48' as '5'
[2020-04-22 20:19:47.147071 CEST] [3338] [info] forwarding_mapper() Forward to 5
[2020-04-22 20:19:57.155655 CEST] [3338] [info] Forwarding map loaded for 'gros-48' as '5'
[2020-04-22 20:19:57.155846 CEST] [3338] [info] forwarding_mapper() Forward to 5
[2020-04-22 20:20:07.210570 CEST] [3338] [info] Forwarding map loaded for 'gros-48' as '5'
[2020-04-22 20:20:07.210761 CEST] [3338] [info] forwarding_mapper() Forward to 5
[2020-04-22 20:20:17.221891 CEST] [3338] [info] Forwarding map loaded for 'gros-48' as '5'
[2020-04-22 20:20:17.222081 CEST] [3338] [info] forwarding_mapper() Forward to 5
[2020-04-22 20:20:27.233845 CEST] [3338] [info] Forwarding map loaded for 'gros-48' as '5'
[2020-04-22 20:20:27.234033 CEST] [3338] [info] forwarding_mapper() Forward to 5
[2020-04-22 20:20:37.242732 CEST] [3338] [info] Forwarding map loaded for 'gros-48' as '5'
[2020-04-22 20:20:37.242921 CEST] [3338] [info] forwarding_mapper() Forward to 5
[2020-04-22 20:20:47.256369 CEST] [3338] [info] Forwarding map loaded for 'gros-48' as '5'
[2020-04-22 20:20:47.256548 CEST] [3338] [info] forwarding_mapper() Forward to 5
[2020-04-22 20:20:57.340877 CEST] [3338] [info] Forwarding map loaded for 'gros-48' as '5'
[2020-04-22 20:20:57.341049 CEST] [3338] [info] forwarding_mapper() Forward to 5
[2020-04-22 20:21:07.357299 CEST] [3338] [info] Forwarding map loaded for 'gros-48' as '5'
[2020-04-22 20:21:07.357459 CEST] [3338] [info] forwarding_mapper() Forward to 5
[2020-04-22 20:21:17.366158 CEST] [3338] [info] Forwarding map loaded for 'gros-48' as '5'
[2020-04-22 20:21:17.366304 CEST] [3338] [info] forwarding_mapper() Forward to 5
[2020-04-22 20:21:27.379813 CEST] [3338] [info] Forwarding map loaded for 'gros-48' as '5'
[2020-04-22 20:21:27.379958 CEST] [3338] [info] forwarding_mapper() Forward to 5
[2020-04-22 20:21:37.388619 CEST] [3338] [info] Forwarding map loaded for 'gros-48' as '5'
[2020-04-22 20:21:37.388766 CEST] [3338] [info] forwarding_mapper() Forward to 5
[2020-04-22 20:21:47.402377 CEST] [3338] [info] Forwarding map loaded for 'gros-48' as '5'
[2020-04-22 20:21:47.402522 CEST] [3338] [info] forwarding_mapper() Forward to 5
[2020-04-22 20:21:57.411293 CEST] [3338] [info] Forwarding map loaded for 'gros-48' as '5'
[2020-04-22 20:21:57.411440 CEST] [3338] [info] forwarding_mapper() Forward to 5
[2020-04-22 20:22:07.424978 CEST] [3338] [info] Forwarding map loaded for 'gros-48' as '5'
[2020-04-22 20:22:07.425123 CEST] [3338] [info] forwarding_mapper() Forward to 5
[2020-04-22 20:22:17.433902 CEST] [3338] [info] Forwarding map loaded for 'gros-48' as '5'
[2020-04-22 20:22:17.434051 CEST] [3338] [info] forwarding_mapper() Forward to 5
[2020-04-22 20:22:27.447487 CEST] [3338] [info] Forwarding map loaded for 'gros-48' as '5'
[2020-04-22 20:22:27.447639 CEST] [3338] [info] forwarding_mapper() Forward to 5
[2020-04-22 20:22:37.456463 CEST] [3338] [info] Forwarding map loaded for 'gros-48' as '5'
[2020-04-22 20:22:37.456616 CEST] [3338] [info] forwarding_mapper() Forward to 5
[2020-04-22 20:22:47.470170 CEST] [3338] [info] Forwarding map loaded for 'gros-48' as '5'
[2020-04-22 20:22:47.470313 CEST] [3338] [info] forwarding_mapper() Forward to 5
[2020-04-22 20:22:57.479193 CEST] [3338] [info] Forwarding map loaded for 'gros-48' as '5'
[2020-04-22 20:22:57.479339 CEST] [3338] [info] forwarding_mapper() Forward to 5
[2020-04-22 20:23:07.490062 CEST] [3338] [info] Forwarding map loaded for 'gros-48' as '5'
[2020-04-22 20:23:07.490208 CEST] [3338] [info] forwarding_mapper() Forward to 5
[2020-04-22 20:23:17.502404 CEST] [3338] [info] Forwarding map loaded for 'gros-48' as '3'
[2020-04-22 20:23:17.502566 CEST] [3338] [info] forwarding_mapper() Forward to 3
[2020-04-22 20:23:27.517398 CEST] [3338] [info] Forwarding map loaded for 'gros-48' as '3'
[2020-04-22 20:23:27.517554 CEST] [3338] [info] forwarding_mapper() Forward to 3
[2020-04-22 20:23:37.526841 CEST] [3338] [info] Forwarding map loaded for 'gros-48' as '3'
[2020-04-22 20:23:37.526990 CEST] [3338] [info] forwarding_mapper() Forward to 3
[2020-04-22 20:23:47.537232 CEST] [3338] [info] Forwarding map loaded for 'gros-48' as '3'
[2020-04-22 20:23:47.537379 CEST] [3338] [info] forwarding_mapper() Forward to 3
[2020-04-22 20:23:57.546843 CEST] [3338] [info] Forwarding map loaded for 'gros-48' as '3'
[2020-04-22 20:23:57.546991 CEST] [3338] [info] forwarding_mapper() Forward to 3
[2020-04-22 20:24:07.556959 CEST] [3338] [info] Forwarding map loaded for 'gros-48' as '3'
[2020-04-22 20:24:07.557107 CEST] [3338] [info] forwarding_mapper() Forward to 3
[2020-04-22 20:24:17.566677 CEST] [3338] [info] Forwarding map loaded for 'gros-48' as '3'
[2020-04-22 20:24:17.566824 CEST] [3338] [info] forwarding_mapper() Forward to 3
[2020-04-22 20:24:27.580854 CEST] [3338] [info] Forwarding map loaded for 'gros-48' as '3'
[2020-04-22 20:24:27.581002 CEST] [3338] [info] forwarding_mapper() Forward to 3
[2020-04-22 20:24:37.590377 CEST] [3338] [info] Forwarding map loaded for 'gros-48' as '3'
[2020-04-22 20:24:37.590524 CEST] [3338] [info] forwarding_mapper() Forward to 3
[2020-04-22 20:24:47.602326 CEST] [3338] [info] Forwarding map loaded for 'gros-48' as '3'
[2020-04-22 20:24:47.602474 CEST] [3338] [info] forwarding_mapper() Forward to 3
[2020-04-22 20:24:57.611982 CEST] [3338] [info] Forwarding map loaded for 'gros-48' as '3'
[2020-04-22 20:24:57.612131 CEST] [3338] [info] forwarding_mapper() Forward to 3
[2020-04-22 20:25:07.625698 CEST] [3338] [info] Forwarding map loaded for 'gros-48' as '3'
[2020-04-22 20:25:07.625845 CEST] [3338] [info] forwarding_mapper() Forward to 3
[2020-04-22 20:25:17.635272 CEST] [3338] [info] Forwarding map loaded for 'gros-48' as '3'
[2020-04-22 20:25:17.635420 CEST] [3338] [info] forwarding_mapper() Forward to 3
[2020-04-22 20:25:27.647074 CEST] [3338] [info] Forwarding map loaded for 'gros-48' as '3'
[2020-04-22 20:25:27.647222 CEST] [3338] [info] forwarding_mapper() Forward to 3
[2020-04-22 20:25:37.661602 CEST] [3338] [info] Forwarding map loaded for 'gros-48' as '1'
[2020-04-22 20:25:37.661748 CEST] [3338] [info] forwarding_mapper() Forward to 1
[2020-04-22 20:25:47.713974 CEST] [3333] [info] All subsystems shut down. Client shutdown complete.
