[2020-04-22 20:27:36.653603 CEST] [3601] [info] Process cmdline: '/root/benchmarks/S3D-IO/s3d_io.x 384 384 384 8 8 8 1 F /mnt/gkfs'
[2020-04-22 20:27:36.653854 CEST] [3601] [info] Initializing RPC subsystem...
[2020-04-22 20:27:36.654887 CEST] [3602] [info] Process cmdline: '/root/benchmarks/S3D-IO/s3d_io.x 384 384 384 8 8 8 1 F /mnt/gkfs'
[2020-04-22 20:27:36.655111 CEST] [3602] [info] Initializing RPC subsystem...
[2020-04-22 20:27:36.655815 CEST] [3600] [info] Process cmdline: '/root/benchmarks/S3D-IO/s3d_io.x 384 384 384 8 8 8 1 F /mnt/gkfs'
[2020-04-22 20:27:36.656046 CEST] [3600] [info] Initializing RPC subsystem...
[2020-04-22 20:27:36.659703 CEST] [3603] [info] Process cmdline: '/root/benchmarks/S3D-IO/s3d_io.x 384 384 384 8 8 8 1 F /mnt/gkfs'
[2020-04-22 20:27:36.659926 CEST] [3603] [info] Initializing RPC subsystem...
[2020-04-22 20:27:36.665596 CEST] [3604] [info] Process cmdline: '/root/benchmarks/S3D-IO/s3d_io.x 384 384 384 8 8 8 1 F /mnt/gkfs'
[2020-04-22 20:27:36.665819 CEST] [3604] [info] Initializing RPC subsystem...
[2020-04-22 20:27:36.684008 CEST] [3598] [info] Loading peer addresses...
[2020-04-22 20:27:36.686231 CEST] [3597] [info] Loading peer addresses...
[2020-04-22 20:27:36.686514 CEST] [3598] [info] Hosts pool size: 12
[2020-04-22 20:27:36.687989 CEST] [3597] [info] Hosts pool size: 12
[2020-04-22 20:27:36.694009 CEST] [3599] [info] Loading peer addresses...
[2020-04-22 20:27:36.696611 CEST] [3600] [info] Loading peer addresses...
[2020-04-22 20:27:36.696636 CEST] [3599] [info] Hosts pool size: 12
[2020-04-22 20:27:36.697313 CEST] [3601] [info] Loading peer addresses...
[2020-04-22 20:27:36.698374 CEST] [3600] [info] Hosts pool size: 12
[2020-04-22 20:27:36.698618 CEST] [3604] [info] Loading peer addresses...
[2020-04-22 20:27:36.698679 CEST] [3603] [info] Loading peer addresses...
[2020-04-22 20:27:36.698834 CEST] [3601] [info] Hosts pool size: 12
[2020-04-22 20:27:36.700120 CEST] [3604] [info] Hosts pool size: 12
[2020-04-22 20:27:36.700142 CEST] [3602] [info] Loading peer addresses...
[2020-04-22 20:27:36.700270 CEST] [3603] [info] Hosts pool size: 12
[2020-04-22 20:27:36.702454 CEST] [3602] [info] Hosts pool size: 12
[2020-04-22 20:27:37.407842 CEST] [3598] [info] Forwarding map loaded for 'gros-13' as '11'
[2020-04-22 20:27:37.408027 CEST] [3598] [info] init_ld_environment_() Forward to 11
[2020-04-22 20:27:37.408161 CEST] [3598] [info] Retrieving file system configuration...
[2020-04-22 20:27:37.408122 CEST] [3599] [info] Forwarding map loaded for 'gros-13' as '11'
[2020-04-22 20:27:37.408322 CEST] [3599] [info] init_ld_environment_() Forward to 11
[2020-04-22 20:27:37.408466 CEST] [3599] [info] Retrieving file system configuration...
[2020-04-22 20:27:37.410496 CEST] [3597] [info] Forwarding map loaded for 'gros-13' as '11'
[2020-04-22 20:27:37.410689 CEST] [3597] [info] init_ld_environment_() Forward to 11
[2020-04-22 20:27:37.410818 CEST] [3597] [info] Retrieving file system configuration...
[2020-04-22 20:27:37.411807 CEST] [3600] [info] Forwarding map loaded for 'gros-13' as '11'
[2020-04-22 20:27:37.411989 CEST] [3600] [info] init_ld_environment_() Forward to 11
[2020-04-22 20:27:37.412117 CEST] [3600] [info] Retrieving file system configuration...
[2020-04-22 20:27:37.412190 CEST] [3601] [info] Forwarding map loaded for 'gros-13' as '11'
[2020-04-22 20:27:37.412386 CEST] [3601] [info] init_ld_environment_() Forward to 11
[2020-04-22 20:27:37.412517 CEST] [3601] [info] Retrieving file system configuration...
[2020-04-22 20:27:37.412890 CEST] [3602] [info] Forwarding map loaded for 'gros-13' as '11'
[2020-04-22 20:27:37.413132 CEST] [3602] [info] init_ld_environment_() Forward to 11
[2020-04-22 20:27:37.413316 CEST] [3602] [info] Retrieving file system configuration...
[2020-04-22 20:27:37.413253 CEST] [3604] [info] Forwarding map loaded for 'gros-13' as '11'
[2020-04-22 20:27:37.413407 CEST] [3598] [info] Mountdir: '/mnt/gkfs'
[2020-04-22 20:27:37.413481 CEST] [3604] [info] init_ld_environment_() Forward to 11
[2020-04-22 20:27:37.413531 CEST] [3598] [info] Environment initialization successful.
[2020-04-22 20:27:37.413612 CEST] [3604] [info] Retrieving file system configuration...
[2020-04-22 20:27:37.413591 CEST] [3599] [info] Mountdir: '/mnt/gkfs'
[2020-04-22 20:27:37.413721 CEST] [3599] [info] Environment initialization successful.
[2020-04-22 20:27:37.413803 CEST] [3603] [info] Forwarding map loaded for 'gros-13' as '11'
[2020-04-22 20:27:37.413987 CEST] [3603] [info] init_ld_environment_() Forward to 11
[2020-04-22 20:27:37.414116 CEST] [3603] [info] Retrieving file system configuration...
[2020-04-22 20:27:37.416148 CEST] [3597] [info] Mountdir: '/mnt/gkfs'
[2020-04-22 20:27:37.416312 CEST] [3597] [info] Environment initialization successful.
[2020-04-22 20:27:37.419824 CEST] [3600] [info] Mountdir: '/mnt/gkfs'
[2020-04-22 20:27:37.419955 CEST] [3600] [info] Environment initialization successful.
[2020-04-22 20:27:37.419946 CEST] [3601] [info] Mountdir: '/mnt/gkfs'
[2020-04-22 20:27:37.420075 CEST] [3601] [info] Environment initialization successful.
[2020-04-22 20:27:37.420155 CEST] [3602] [info] Mountdir: '/mnt/gkfs'
[2020-04-22 20:27:37.420225 CEST] [3603] [info] Mountdir: '/mnt/gkfs'
[2020-04-22 20:27:37.420313 CEST] [3602] [info] Environment initialization successful.
[2020-04-22 20:27:37.420384 CEST] [3603] [info] Environment initialization successful.
[2020-04-22 20:27:37.462439 CEST] [3637] [info] Forwarding map loaded for 'gros-13' as '11'
[2020-04-22 20:27:37.462543 CEST] [3637] [info] forwarding_mapper() Forward to 11
[2020-04-22 20:27:37.463610 CEST] [3638] [info] Forwarding map loaded for 'gros-13' as '11'
[2020-04-22 20:27:37.463784 CEST] [3638] [info] forwarding_mapper() Forward to 11
[2020-04-22 20:27:37.463770 CEST] [3639] [info] Forwarding map loaded for 'gros-13' as '11'
[2020-04-22 20:27:37.463941 CEST] [3639] [info] forwarding_mapper() Forward to 11
[2020-04-22 20:27:37.465078 CEST] [3640] [info] Forwarding map loaded for 'gros-13' as '11'
[2020-04-22 20:27:37.465229 CEST] [3640] [info] forwarding_mapper() Forward to 11
[2020-04-22 20:27:37.465698 CEST] [3641] [info] Forwarding map loaded for 'gros-13' as '11'
[2020-04-22 20:27:37.465863 CEST] [3641] [info] forwarding_mapper() Forward to 11
[2020-04-22 20:27:37.465961 CEST] [3642] [info] Forwarding map loaded for 'gros-13' as '11'
[2020-04-22 20:27:37.466119 CEST] [3642] [info] forwarding_mapper() Forward to 11
[2020-04-22 20:27:37.467080 CEST] [3643] [info] Forwarding map loaded for 'gros-13' as '11'
[2020-04-22 20:27:37.467247 CEST] [3643] [info] forwarding_mapper() Forward to 11
[2020-04-22 20:27:38.418809 CEST] [3604] [info] Mountdir: '/mnt/gkfs'
[2020-04-22 20:27:38.418960 CEST] [3604] [info] Environment initialization successful.
[2020-04-22 20:27:38.447983 CEST] [3658] [info] Forwarding map loaded for 'gros-13' as '11'
[2020-04-22 20:27:38.448155 CEST] [3658] [info] forwarding_mapper() Forward to 11
[2020-04-22 20:27:47.469708 CEST] [3639] [info] Forwarding map loaded for 'gros-13' as '11'
[2020-04-22 20:27:47.469889 CEST] [3639] [info] forwarding_mapper() Forward to 11
[2020-04-22 20:27:47.470753 CEST] [3641] [info] Forwarding map loaded for 'gros-13' as '11'
[2020-04-22 20:27:47.470928 CEST] [3641] [info] forwarding_mapper() Forward to 11
[2020-04-22 20:27:47.471274 CEST] [3642] [info] Forwarding map loaded for 'gros-13' as '11'
[2020-04-22 20:27:47.471436 CEST] [3642] [info] forwarding_mapper() Forward to 11
[2020-04-22 20:27:47.472105 CEST] [3643] [info] Forwarding map loaded for 'gros-13' as '11'
[2020-04-22 20:27:47.472256 CEST] [3643] [info] forwarding_mapper() Forward to 11
[2020-04-22 20:27:47.475213 CEST] [3638] [info] Forwarding map loaded for 'gros-13' as '11'
[2020-04-22 20:27:47.475314 CEST] [3638] [info] forwarding_mapper() Forward to 11
[2020-04-22 20:27:47.475763 CEST] [3637] [info] Forwarding map loaded for 'gros-13' as '11'
[2020-04-22 20:27:47.475917 CEST] [3637] [info] forwarding_mapper() Forward to 11
[2020-04-22 20:27:47.478638 CEST] [3640] [info] Forwarding map loaded for 'gros-13' as '11'
[2020-04-22 20:27:47.478795 CEST] [3640] [info] forwarding_mapper() Forward to 11
[2020-04-22 20:27:48.455117 CEST] [3658] [info] Forwarding map loaded for 'gros-13' as '11'
[2020-04-22 20:27:48.455318 CEST] [3658] [info] forwarding_mapper() Forward to 11
[2020-04-22 20:27:57.475368 CEST] [3639] [info] Forwarding map loaded for 'gros-13' as '11'
[2020-04-22 20:27:57.475532 CEST] [3639] [info] forwarding_mapper() Forward to 11
[2020-04-22 20:27:57.475946 CEST] [3641] [info] Forwarding map loaded for 'gros-13' as '11'
[2020-04-22 20:27:57.476117 CEST] [3641] [info] forwarding_mapper() Forward to 11
[2020-04-22 20:27:57.476341 CEST] [3642] [info] Forwarding map loaded for 'gros-13' as '11'
[2020-04-22 20:27:57.476493 CEST] [3642] [info] forwarding_mapper() Forward to 11
[2020-04-22 20:27:57.480717 CEST] [3643] [info] Forwarding map loaded for 'gros-13' as '11'
[2020-04-22 20:27:57.480864 CEST] [3643] [info] forwarding_mapper() Forward to 11
[2020-04-22 20:27:57.480821 CEST] [3637] [info] Forwarding map loaded for 'gros-13' as '11'
[2020-04-22 20:27:57.480971 CEST] [3637] [info] forwarding_mapper() Forward to 11
[2020-04-22 20:27:57.482255 CEST] [3638] [info] Forwarding map loaded for 'gros-13' as '11'
[2020-04-22 20:27:57.482342 CEST] [3638] [info] forwarding_mapper() Forward to 11
[2020-04-22 20:27:57.487851 CEST] [3640] [info] Forwarding map loaded for 'gros-13' as '11'
[2020-04-22 20:27:57.488005 CEST] [3640] [info] forwarding_mapper() Forward to 11
[2020-04-22 20:27:58.467059 CEST] [3658] [info] Forwarding map loaded for 'gros-13' as '11'
[2020-04-22 20:27:58.467221 CEST] [3658] [info] forwarding_mapper() Forward to 11
[2020-04-22 20:28:07.481480 CEST] [3641] [info] Forwarding map loaded for 'gros-13' as '11'
[2020-04-22 20:28:07.481647 CEST] [3641] [info] forwarding_mapper() Forward to 11
[2020-04-22 20:28:07.481975 CEST] [3639] [info] Forwarding map loaded for 'gros-13' as '11'
[2020-04-22 20:28:07.482137 CEST] [3639] [info] forwarding_mapper() Forward to 11
[2020-04-22 20:28:07.482859 CEST] [3642] [info] Forwarding map loaded for 'gros-13' as '11'
[2020-04-22 20:28:07.483011 CEST] [3642] [info] forwarding_mapper() Forward to 11
[2020-04-22 20:28:07.485430 CEST] [3638] [info] Forwarding map loaded for 'gros-13' as '11'
[2020-04-22 20:28:07.485510 CEST] [3638] [info] forwarding_mapper() Forward to 11
[2020-04-22 20:28:07.486104 CEST] [3637] [info] Forwarding map loaded for 'gros-13' as '11'
[2020-04-22 20:28:07.486257 CEST] [3637] [info] forwarding_mapper() Forward to 11
[2020-04-22 20:28:07.494677 CEST] [3643] [info] Forwarding map loaded for 'gros-13' as '11'
[2020-04-22 20:28:07.494835 CEST] [3643] [info] forwarding_mapper() Forward to 11
[2020-04-22 20:28:07.501746 CEST] [3640] [info] Forwarding map loaded for 'gros-13' as '11'
[2020-04-22 20:28:07.501901 CEST] [3640] [info] forwarding_mapper() Forward to 11
[2020-04-22 20:28:08.473917 CEST] [3658] [info] Forwarding map loaded for 'gros-13' as '11'
[2020-04-22 20:28:08.474073 CEST] [3658] [info] forwarding_mapper() Forward to 11
[2020-04-22 20:28:17.486923 CEST] [3641] [info] Forwarding map loaded for 'gros-13' as '11'
[2020-04-22 20:28:17.487086 CEST] [3641] [info] forwarding_mapper() Forward to 11
[2020-04-22 20:28:17.488337 CEST] [3642] [info] Forwarding map loaded for 'gros-13' as '11'
[2020-04-22 20:28:17.488501 CEST] [3642] [info] forwarding_mapper() Forward to 11
[2020-04-22 20:28:17.489237 CEST] [3639] [info] Forwarding map loaded for 'gros-13' as '11'
[2020-04-22 20:28:17.489394 CEST] [3639] [info] forwarding_mapper() Forward to 11
[2020-04-22 20:28:17.491064 CEST] [3637] [info] Forwarding map loaded for 'gros-13' as '11'
[2020-04-22 20:28:17.491214 CEST] [3637] [info] forwarding_mapper() Forward to 11
[2020-04-22 20:28:17.492601 CEST] [3638] [info] Forwarding map loaded for 'gros-13' as '11'
[2020-04-22 20:28:17.492684 CEST] [3638] [info] forwarding_mapper() Forward to 11
[2020-04-22 20:28:17.504065 CEST] [3643] [info] Forwarding map loaded for 'gros-13' as '11'
[2020-04-22 20:28:17.504223 CEST] [3643] [info] forwarding_mapper() Forward to 11
[2020-04-22 20:28:17.511024 CEST] [3640] [info] Forwarding map loaded for 'gros-13' as '11'
[2020-04-22 20:28:17.511179 CEST] [3640] [info] forwarding_mapper() Forward to 11
[2020-04-22 20:28:18.485896 CEST] [3658] [info] Forwarding map loaded for 'gros-13' as '11'
[2020-04-22 20:28:18.486050 CEST] [3658] [info] forwarding_mapper() Forward to 11
[2020-04-22 20:28:27.500745 CEST] [3641] [info] Forwarding map loaded for 'gros-13' as '7'
[2020-04-22 20:28:27.500760 CEST] [3642] [info] Forwarding map loaded for 'gros-13' as '7'
[2020-04-22 20:28:27.500918 CEST] [3641] [info] forwarding_mapper() Forward to 7
[2020-04-22 20:28:27.500934 CEST] [3642] [info] forwarding_mapper() Forward to 7
[2020-04-22 20:28:27.501017 CEST] [3639] [info] Forwarding map loaded for 'gros-13' as '7'
[2020-04-22 20:28:27.501171 CEST] [3639] [info] forwarding_mapper() Forward to 7
[2020-04-22 20:28:27.501884 CEST] [3637] [info] Forwarding map loaded for 'gros-13' as '7'
[2020-04-22 20:28:27.502054 CEST] [3637] [info] forwarding_mapper() Forward to 7
[2020-04-22 20:28:27.507101 CEST] [3638] [info] Forwarding map loaded for 'gros-13' as '7'
[2020-04-22 20:28:27.507183 CEST] [3638] [info] forwarding_mapper() Forward to 7
[2020-04-22 20:28:27.517536 CEST] [3640] [info] Forwarding map loaded for 'gros-13' as '7'
[2020-04-22 20:28:27.517686 CEST] [3640] [info] forwarding_mapper() Forward to 7
[2020-04-22 20:28:27.518773 CEST] [3643] [info] Forwarding map loaded for 'gros-13' as '7'
[2020-04-22 20:28:27.518925 CEST] [3643] [info] forwarding_mapper() Forward to 7
[2020-04-22 20:28:28.493858 CEST] [3658] [info] Forwarding map loaded for 'gros-13' as '7'
[2020-04-22 20:28:28.494016 CEST] [3658] [info] forwarding_mapper() Forward to 7
[2020-04-22 20:28:37.506379 CEST] [3641] [info] Forwarding map loaded for 'gros-13' as '7'
[2020-04-22 20:28:37.506541 CEST] [3641] [info] forwarding_mapper() Forward to 7
[2020-04-22 20:28:37.506796 CEST] [3642] [info] Forwarding map loaded for 'gros-13' as '7'
[2020-04-22 20:28:37.506958 CEST] [3642] [info] forwarding_mapper() Forward to 7
[2020-04-22 20:28:37.506970 CEST] [3639] [info] Forwarding map loaded for 'gros-13' as '7'
[2020-04-22 20:28:37.507114 CEST] [3639] [info] forwarding_mapper() Forward to 7
[2020-04-22 20:28:37.507298 CEST] [3637] [info] Forwarding map loaded for 'gros-13' as '7'
[2020-04-22 20:28:37.507451 CEST] [3637] [info] forwarding_mapper() Forward to 7
[2020-04-22 20:28:37.510537 CEST] [3638] [info] Forwarding map loaded for 'gros-13' as '7'
[2020-04-22 20:28:37.510619 CEST] [3638] [info] forwarding_mapper() Forward to 7
[2020-04-22 20:28:37.522589 CEST] [3640] [info] Forwarding map loaded for 'gros-13' as '7'
[2020-04-22 20:28:37.522734 CEST] [3640] [info] forwarding_mapper() Forward to 7
[2020-04-22 20:28:37.523736 CEST] [3643] [info] Forwarding map loaded for 'gros-13' as '7'
[2020-04-22 20:28:37.523891 CEST] [3643] [info] forwarding_mapper() Forward to 7
[2020-04-22 20:28:38.499827 CEST] [3658] [info] Forwarding map loaded for 'gros-13' as '7'
[2020-04-22 20:28:38.499977 CEST] [3658] [info] forwarding_mapper() Forward to 7
[2020-04-22 20:28:47.511642 CEST] [3641] [info] Forwarding map loaded for 'gros-13' as '7'
[2020-04-22 20:28:47.511818 CEST] [3641] [info] forwarding_mapper() Forward to 7
[2020-04-22 20:28:47.511805 CEST] [3639] [info] Forwarding map loaded for 'gros-13' as '7'
[2020-04-22 20:28:47.511971 CEST] [3639] [info] forwarding_mapper() Forward to 7
[2020-04-22 20:28:47.512302 CEST] [3637] [info] Forwarding map loaded for 'gros-13' as '7'
[2020-04-22 20:28:47.512452 CEST] [3637] [info] forwarding_mapper() Forward to 7
[2020-04-22 20:28:47.512652 CEST] [3642] [info] Forwarding map loaded for 'gros-13' as '7'
[2020-04-22 20:28:47.512810 CEST] [3642] [info] forwarding_mapper() Forward to 7
[2020-04-22 20:28:47.524368 CEST] [3638] [info] Forwarding map loaded for 'gros-13' as '7'
[2020-04-22 20:28:47.524540 CEST] [3638] [info] forwarding_mapper() Forward to 7
[2020-04-22 20:28:47.529295 CEST] [3643] [info] Forwarding map loaded for 'gros-13' as '7'
[2020-04-22 20:28:47.529462 CEST] [3643] [info] forwarding_mapper() Forward to 7
[2020-04-22 20:28:47.536547 CEST] [3640] [info] Forwarding map loaded for 'gros-13' as '7'
[2020-04-22 20:28:47.536729 CEST] [3640] [info] forwarding_mapper() Forward to 7
[2020-04-22 20:28:48.504874 CEST] [3658] [info] Forwarding map loaded for 'gros-13' as '7'
[2020-04-22 20:28:48.504990 CEST] [3658] [info] forwarding_mapper() Forward to 7
[2020-04-22 20:28:57.516801 CEST] [3641] [info] Forwarding map loaded for 'gros-13' as '7'
[2020-04-22 20:28:57.516962 CEST] [3641] [info] forwarding_mapper() Forward to 7
[2020-04-22 20:28:57.517059 CEST] [3637] [info] Forwarding map loaded for 'gros-13' as '7'
[2020-04-22 20:28:57.517070 CEST] [3639] [info] Forwarding map loaded for 'gros-13' as '7'
[2020-04-22 20:28:57.517216 CEST] [3637] [info] forwarding_mapper() Forward to 7
[2020-04-22 20:28:57.517226 CEST] [3639] [info] forwarding_mapper() Forward to 7
[2020-04-22 20:28:57.517543 CEST] [3642] [info] Forwarding map loaded for 'gros-13' as '7'
[2020-04-22 20:28:57.517698 CEST] [3642] [info] forwarding_mapper() Forward to 7
[2020-04-22 20:28:57.533107 CEST] [3638] [info] Forwarding map loaded for 'gros-13' as '7'
[2020-04-22 20:28:57.533252 CEST] [3638] [info] forwarding_mapper() Forward to 7
[2020-04-22 20:28:57.534217 CEST] [3643] [info] Forwarding map loaded for 'gros-13' as '7'
[2020-04-22 20:28:57.534376 CEST] [3643] [info] forwarding_mapper() Forward to 7
[2020-04-22 20:28:57.545719 CEST] [3640] [info] Forwarding map loaded for 'gros-13' as '7'
[2020-04-22 20:28:57.545870 CEST] [3640] [info] forwarding_mapper() Forward to 7
[2020-04-22 20:28:58.510742 CEST] [3658] [info] Forwarding map loaded for 'gros-13' as '7'
[2020-04-22 20:28:58.510820 CEST] [3658] [info] forwarding_mapper() Forward to 7
[2020-04-22 20:29:07.522083 CEST] [3641] [info] Forwarding map loaded for 'gros-13' as '7'
[2020-04-22 20:29:07.522245 CEST] [3641] [info] forwarding_mapper() Forward to 7
[2020-04-22 20:29:07.522424 CEST] [3637] [info] Forwarding map loaded for 'gros-13' as '7'
[2020-04-22 20:29:07.522447 CEST] [3642] [info] Forwarding map loaded for 'gros-13' as '7'
[2020-04-22 20:29:07.522579 CEST] [3637] [info] forwarding_mapper() Forward to 7
[2020-04-22 20:29:07.522596 CEST] [3642] [info] forwarding_mapper() Forward to 7
[2020-04-22 20:29:07.522944 CEST] [3639] [info] Forwarding map loaded for 'gros-13' as '7'
[2020-04-22 20:29:07.523095 CEST] [3639] [info] forwarding_mapper() Forward to 7
[2020-04-22 20:29:07.539561 CEST] [3643] [info] Forwarding map loaded for 'gros-13' as '7'
[2020-04-22 20:29:07.539715 CEST] [3643] [info] forwarding_mapper() Forward to 7
[2020-04-22 20:29:07.547181 CEST] [3638] [info] Forwarding map loaded for 'gros-13' as '7'
[2020-04-22 20:29:07.547345 CEST] [3638] [info] forwarding_mapper() Forward to 7
[2020-04-22 20:29:07.559875 CEST] [3640] [info] Forwarding map loaded for 'gros-13' as '7'
[2020-04-22 20:29:07.560030 CEST] [3640] [info] forwarding_mapper() Forward to 7
[2020-04-22 20:29:08.515491 CEST] [3658] [info] Forwarding map loaded for 'gros-13' as '7'
[2020-04-22 20:29:08.515571 CEST] [3658] [info] forwarding_mapper() Forward to 7
[2020-04-22 20:29:17.527329 CEST] [3641] [info] Forwarding map loaded for 'gros-13' as '7'
[2020-04-22 20:29:17.527504 CEST] [3641] [info] forwarding_mapper() Forward to 7
[2020-04-22 20:29:17.527652 CEST] [3639] [info] Forwarding map loaded for 'gros-13' as '7'
[2020-04-22 20:29:17.527701 CEST] [3642] [info] Forwarding map loaded for 'gros-13' as '7'
[2020-04-22 20:29:17.527805 CEST] [3639] [info] forwarding_mapper() Forward to 7
[2020-04-22 20:29:17.527850 CEST] [3642] [info] forwarding_mapper() Forward to 7
[2020-04-22 20:29:17.531331 CEST] [3637] [info] Forwarding map loaded for 'gros-13' as '7'
[2020-04-22 20:29:17.531481 CEST] [3637] [info] forwarding_mapper() Forward to 7
[2020-04-22 20:29:17.544808 CEST] [3643] [info] Forwarding map loaded for 'gros-13' as '7'
[2020-04-22 20:29:17.544963 CEST] [3643] [info] forwarding_mapper() Forward to 7
[2020-04-22 20:29:17.556386 CEST] [3638] [info] Forwarding map loaded for 'gros-13' as '7'
[2020-04-22 20:29:17.556539 CEST] [3638] [info] forwarding_mapper() Forward to 7
[2020-04-22 20:29:17.569166 CEST] [3640] [info] Forwarding map loaded for 'gros-13' as '7'
[2020-04-22 20:29:17.569340 CEST] [3640] [info] forwarding_mapper() Forward to 7
[2020-04-22 20:29:18.523273 CEST] [3658] [info] Forwarding map loaded for 'gros-13' as '7'
[2020-04-22 20:29:18.523351 CEST] [3658] [info] forwarding_mapper() Forward to 7
[2020-04-22 20:29:27.532760 CEST] [3641] [info] Forwarding map loaded for 'gros-13' as '7'
[2020-04-22 20:29:27.532921 CEST] [3641] [info] forwarding_mapper() Forward to 7
[2020-04-22 20:29:27.533130 CEST] [3642] [info] Forwarding map loaded for 'gros-13' as '7'
[2020-04-22 20:29:27.533176 CEST] [3639] [info] Forwarding map loaded for 'gros-13' as '7'
[2020-04-22 20:29:27.533301 CEST] [3642] [info] forwarding_mapper() Forward to 7
[2020-04-22 20:29:27.533331 CEST] [3639] [info] forwarding_mapper() Forward to 7
[2020-04-22 20:29:27.536188 CEST] [3637] [info] Forwarding map loaded for 'gros-13' as '7'
[2020-04-22 20:29:27.536350 CEST] [3637] [info] forwarding_mapper() Forward to 7
[2020-04-22 20:29:27.550101 CEST] [3643] [info] Forwarding map loaded for 'gros-13' as '7'
[2020-04-22 20:29:27.550255 CEST] [3643] [info] forwarding_mapper() Forward to 7
[2020-04-22 20:29:27.564830 CEST] [3638] [info] Forwarding map loaded for 'gros-13' as '7'
[2020-04-22 20:29:27.564982 CEST] [3638] [info] forwarding_mapper() Forward to 7
[2020-04-22 20:29:27.577808 CEST] [3640] [info] Forwarding map loaded for 'gros-13' as '7'
[2020-04-22 20:29:27.577958 CEST] [3640] [info] forwarding_mapper() Forward to 7
[2020-04-22 20:29:28.527920 CEST] [3658] [info] Forwarding map loaded for 'gros-13' as '7'
[2020-04-22 20:29:28.527999 CEST] [3658] [info] forwarding_mapper() Forward to 7
[2020-04-22 20:29:37.537919 CEST] [3641] [info] Forwarding map loaded for 'gros-13' as '7'
[2020-04-22 20:29:37.538082 CEST] [3641] [info] forwarding_mapper() Forward to 7
[2020-04-22 20:29:37.538635 CEST] [3642] [info] Forwarding map loaded for 'gros-13' as '7'
[2020-04-22 20:29:37.538797 CEST] [3642] [info] forwarding_mapper() Forward to 7
[2020-04-22 20:29:37.538783 CEST] [3639] [info] Forwarding map loaded for 'gros-13' as '7'
[2020-04-22 20:29:37.538929 CEST] [3639] [info] forwarding_mapper() Forward to 7
[2020-04-22 20:29:37.541200 CEST] [3637] [info] Forwarding map loaded for 'gros-13' as '7'
[2020-04-22 20:29:37.541362 CEST] [3637] [info] forwarding_mapper() Forward to 7
[2020-04-22 20:29:37.555318 CEST] [3643] [info] Forwarding map loaded for 'gros-13' as '7'
[2020-04-22 20:29:37.555469 CEST] [3643] [info] forwarding_mapper() Forward to 7
[2020-04-22 20:29:37.570258 CEST] [3638] [info] Forwarding map loaded for 'gros-13' as '7'
[2020-04-22 20:29:37.570423 CEST] [3638] [info] forwarding_mapper() Forward to 7
[2020-04-22 20:29:37.587052 CEST] [3640] [info] Forwarding map loaded for 'gros-13' as '7'
[2020-04-22 20:29:37.587204 CEST] [3640] [info] forwarding_mapper() Forward to 7
[2020-04-22 20:29:38.532198 CEST] [3658] [info] Forwarding map loaded for 'gros-13' as '7'
[2020-04-22 20:29:38.532283 CEST] [3658] [info] forwarding_mapper() Forward to 7
[2020-04-22 20:29:47.543372 CEST] [3641] [info] Forwarding map loaded for 'gros-13' as '7'
[2020-04-22 20:29:47.543452 CEST] [3639] [info] Forwarding map loaded for 'gros-13' as '7'
[2020-04-22 20:29:47.543487 CEST] [3642] [info] Forwarding map loaded for 'gros-13' as '7'
[2020-04-22 20:29:47.543544 CEST] [3641] [info] forwarding_mapper() Forward to 7
[2020-04-22 20:29:47.543620 CEST] [3639] [info] forwarding_mapper() Forward to 7
[2020-04-22 20:29:47.543636 CEST] [3642] [info] forwarding_mapper() Forward to 7
[2020-04-22 20:29:47.545983 CEST] [3637] [info] Forwarding map loaded for 'gros-13' as '7'
[2020-04-22 20:29:47.546139 CEST] [3637] [info] forwarding_mapper() Forward to 7
[2020-04-22 20:29:47.560770 CEST] [3643] [info] Forwarding map loaded for 'gros-13' as '7'
[2020-04-22 20:29:47.560933 CEST] [3643] [info] forwarding_mapper() Forward to 7
[2020-04-22 20:29:47.575772 CEST] [3638] [info] Forwarding map loaded for 'gros-13' as '7'
[2020-04-22 20:29:47.575939 CEST] [3638] [info] forwarding_mapper() Forward to 7
[2020-04-22 20:29:47.599550 CEST] [3640] [info] Forwarding map loaded for 'gros-13' as '7'
[2020-04-22 20:29:47.599674 CEST] [3640] [info] forwarding_mapper() Forward to 7
[2020-04-22 20:29:48.539227 CEST] [3658] [info] Forwarding map loaded for 'gros-13' as '7'
[2020-04-22 20:29:48.539413 CEST] [3658] [info] forwarding_mapper() Forward to 7
[2020-04-22 20:29:57.548622 CEST] [3641] [info] Forwarding map loaded for 'gros-13' as '7'
[2020-04-22 20:29:57.548784 CEST] [3641] [info] forwarding_mapper() Forward to 7
[2020-04-22 20:29:57.549004 CEST] [3642] [info] Forwarding map loaded for 'gros-13' as '7'
[2020-04-22 20:29:57.549163 CEST] [3642] [info] forwarding_mapper() Forward to 7
[2020-04-22 20:29:57.549121 CEST] [3639] [info] Forwarding map loaded for 'gros-13' as '7'
[2020-04-22 20:29:57.549266 CEST] [3639] [info] forwarding_mapper() Forward to 7
[2020-04-22 20:29:57.552674 CEST] [3637] [info] Forwarding map loaded for 'gros-13' as '7'
[2020-04-22 20:29:57.552829 CEST] [3637] [info] forwarding_mapper() Forward to 7
[2020-04-22 20:29:57.565891 CEST] [3643] [info] Forwarding map loaded for 'gros-13' as '7'
[2020-04-22 20:29:57.566042 CEST] [3643] [info] forwarding_mapper() Forward to 7
[2020-04-22 20:29:57.581252 CEST] [3638] [info] Forwarding map loaded for 'gros-13' as '7'
[2020-04-22 20:29:57.581415 CEST] [3638] [info] forwarding_mapper() Forward to 7
[2020-04-22 20:29:57.607111 CEST] [3640] [info] Forwarding map loaded for 'gros-13' as '7'
[2020-04-22 20:29:57.607187 CEST] [3640] [info] forwarding_mapper() Forward to 7
[2020-04-22 20:29:58.550956 CEST] [3658] [info] Forwarding map loaded for 'gros-13' as '7'
[2020-04-22 20:29:58.551106 CEST] [3658] [info] forwarding_mapper() Forward to 7
[2020-04-22 20:30:07.554037 CEST] [3641] [info] Forwarding map loaded for 'gros-13' as '7'
[2020-04-22 20:30:07.554207 CEST] [3641] [info] forwarding_mapper() Forward to 7
[2020-04-22 20:30:07.554513 CEST] [3642] [info] Forwarding map loaded for 'gros-13' as '7'
[2020-04-22 20:30:07.554675 CEST] [3642] [info] forwarding_mapper() Forward to 7
[2020-04-22 20:30:07.554777 CEST] [3639] [info] Forwarding map loaded for 'gros-13' as '7'
[2020-04-22 20:30:07.554923 CEST] [3639] [info] forwarding_mapper() Forward to 7
[2020-04-22 20:30:07.557463 CEST] [3637] [info] Forwarding map loaded for 'gros-13' as '7'
[2020-04-22 20:30:07.557617 CEST] [3637] [info] forwarding_mapper() Forward to 7
[2020-04-22 20:30:07.570975 CEST] [3643] [info] Forwarding map loaded for 'gros-13' as '7'
[2020-04-22 20:30:07.571130 CEST] [3643] [info] forwarding_mapper() Forward to 7
[2020-04-22 20:30:07.586774 CEST] [3638] [info] Forwarding map loaded for 'gros-13' as '7'
[2020-04-22 20:30:07.586928 CEST] [3638] [info] forwarding_mapper() Forward to 7
[2020-04-22 20:30:07.610195 CEST] [3640] [info] Forwarding map loaded for 'gros-13' as '7'
[2020-04-22 20:30:07.610266 CEST] [3640] [info] forwarding_mapper() Forward to 7
[2020-04-22 20:30:08.557822 CEST] [3658] [info] Forwarding map loaded for 'gros-13' as '7'
[2020-04-22 20:30:08.557977 CEST] [3658] [info] forwarding_mapper() Forward to 7
[2020-04-22 20:30:17.559255 CEST] [3641] [info] Forwarding map loaded for 'gros-13' as '7'
[2020-04-22 20:30:17.559261 CEST] [3642] [info] Forwarding map loaded for 'gros-13' as '7'
[2020-04-22 20:30:17.559426 CEST] [3641] [info] forwarding_mapper() Forward to 7
[2020-04-22 20:30:17.559443 CEST] [3642] [info] forwarding_mapper() Forward to 7
[2020-04-22 20:30:17.560432 CEST] [3639] [info] Forwarding map loaded for 'gros-13' as '7'
[2020-04-22 20:30:17.560582 CEST] [3639] [info] forwarding_mapper() Forward to 7
[2020-04-22 20:30:17.562419 CEST] [3637] [info] Forwarding map loaded for 'gros-13' as '7'
[2020-04-22 20:30:17.562569 CEST] [3637] [info] forwarding_mapper() Forward to 7
[2020-04-22 20:30:17.575998 CEST] [3643] [info] Forwarding map loaded for 'gros-13' as '7'
[2020-04-22 20:30:17.576152 CEST] [3643] [info] forwarding_mapper() Forward to 7
[2020-04-22 20:30:17.596001 CEST] [3638] [info] Forwarding map loaded for 'gros-13' as '7'
[2020-04-22 20:30:17.596157 CEST] [3638] [info] forwarding_mapper() Forward to 7
[2020-04-22 20:30:17.617465 CEST] [3640] [info] Forwarding map loaded for 'gros-13' as '7'
[2020-04-22 20:30:17.617542 CEST] [3640] [info] forwarding_mapper() Forward to 7
[2020-04-22 20:30:18.569630 CEST] [3658] [info] Forwarding map loaded for 'gros-13' as '7'
[2020-04-22 20:30:18.569791 CEST] [3658] [info] forwarding_mapper() Forward to 7
[2020-04-22 20:30:27.564650 CEST] [3641] [info] Forwarding map loaded for 'gros-13' as '7'
[2020-04-22 20:30:27.564822 CEST] [3641] [info] forwarding_mapper() Forward to 7
[2020-04-22 20:30:27.564896 CEST] [3642] [info] Forwarding map loaded for 'gros-13' as '7'
[2020-04-22 20:30:27.565060 CEST] [3642] [info] forwarding_mapper() Forward to 7
[2020-04-22 20:30:27.565032 CEST] [3639] [info] Forwarding map loaded for 'gros-13' as '7'
[2020-04-22 20:30:27.565180 CEST] [3639] [info] forwarding_mapper() Forward to 7
[2020-04-22 20:30:27.567126 CEST] [3637] [info] Forwarding map loaded for 'gros-13' as '7'
[2020-04-22 20:30:27.567281 CEST] [3637] [info] forwarding_mapper() Forward to 7
[2020-04-22 20:30:27.581128 CEST] [3643] [info] Forwarding map loaded for 'gros-13' as '7'
[2020-04-22 20:30:27.581286 CEST] [3643] [info] forwarding_mapper() Forward to 7
[2020-04-22 20:30:27.605514 CEST] [3638] [info] Forwarding map loaded for 'gros-13' as '7'
[2020-04-22 20:30:27.605683 CEST] [3638] [info] forwarding_mapper() Forward to 7
[2020-04-22 20:30:27.624731 CEST] [3640] [info] Forwarding map loaded for 'gros-13' as '7'
[2020-04-22 20:30:27.624827 CEST] [3640] [info] forwarding_mapper() Forward to 7
[2020-04-22 20:30:28.574567 CEST] [3658] [info] Forwarding map loaded for 'gros-13' as '7'
[2020-04-22 20:30:28.574676 CEST] [3658] [info] forwarding_mapper() Forward to 7
[2020-04-22 20:30:37.569933 CEST] [3641] [info] Forwarding map loaded for 'gros-13' as '7'
[2020-04-22 20:30:37.570103 CEST] [3641] [info] forwarding_mapper() Forward to 7
[2020-04-22 20:30:37.570163 CEST] [3642] [info] Forwarding map loaded for 'gros-13' as '7'
[2020-04-22 20:30:37.570333 CEST] [3642] [info] forwarding_mapper() Forward to 7
[2020-04-22 20:30:37.571644 CEST] [3637] [info] Forwarding map loaded for 'gros-13' as '7'
[2020-04-22 20:30:37.571794 CEST] [3637] [info] forwarding_mapper() Forward to 7
[2020-04-22 20:30:37.573933 CEST] [3639] [info] Forwarding map loaded for 'gros-13' as '7'
[2020-04-22 20:30:37.574090 CEST] [3639] [info] forwarding_mapper() Forward to 7
[2020-04-22 20:30:37.586310 CEST] [3643] [info] Forwarding map loaded for 'gros-13' as '7'
[2020-04-22 20:30:37.586477 CEST] [3643] [info] forwarding_mapper() Forward to 7
[2020-04-22 20:30:37.609162 CEST] [3638] [info] Forwarding map loaded for 'gros-13' as '7'
[2020-04-22 20:30:37.609280 CEST] [3638] [info] forwarding_mapper() Forward to 7
[2020-04-22 20:30:37.632383 CEST] [3640] [info] Forwarding map loaded for 'gros-13' as '7'
[2020-04-22 20:30:37.632496 CEST] [3640] [info] forwarding_mapper() Forward to 7
[2020-04-22 20:30:38.580544 CEST] [3658] [info] Forwarding map loaded for 'gros-13' as '7'
[2020-04-22 20:30:38.580654 CEST] [3658] [info] forwarding_mapper() Forward to 7
[2020-04-22 20:30:47.575125 CEST] [3641] [info] Forwarding map loaded for 'gros-13' as '7'
[2020-04-22 20:30:47.575289 CEST] [3641] [info] forwarding_mapper() Forward to 7
[2020-04-22 20:30:47.575489 CEST] [3642] [info] Forwarding map loaded for 'gros-13' as '7'
[2020-04-22 20:30:47.575648 CEST] [3642] [info] forwarding_mapper() Forward to 7
[2020-04-22 20:30:47.576130 CEST] [3637] [info] Forwarding map loaded for 'gros-13' as '7'
[2020-04-22 20:30:47.576274 CEST] [3637] [info] forwarding_mapper() Forward to 7
[2020-04-22 20:30:47.578786 CEST] [3639] [info] Forwarding map loaded for 'gros-13' as '7'
[2020-04-22 20:30:47.578938 CEST] [3639] [info] forwarding_mapper() Forward to 7
[2020-04-22 20:30:47.591287 CEST] [3643] [info] Forwarding map loaded for 'gros-13' as '7'
[2020-04-22 20:30:47.591443 CEST] [3643] [info] forwarding_mapper() Forward to 7
[2020-04-22 20:30:47.612403 CEST] [3638] [info] Forwarding map loaded for 'gros-13' as '7'
[2020-04-22 20:30:47.612477 CEST] [3638] [info] forwarding_mapper() Forward to 7
[2020-04-22 20:30:47.644300 CEST] [3640] [info] Forwarding map loaded for 'gros-13' as '7'
[2020-04-22 20:30:47.644375 CEST] [3640] [info] forwarding_mapper() Forward to 7
[2020-04-22 20:30:48.585415 CEST] [3658] [info] Forwarding map loaded for 'gros-13' as '7'
[2020-04-22 20:30:48.585501 CEST] [3658] [info] forwarding_mapper() Forward to 7
[2020-04-22 20:30:57.580141 CEST] [3642] [info] Forwarding map loaded for 'gros-13' as '7'
[2020-04-22 20:30:57.580225 CEST] [3641] [info] Forwarding map loaded for 'gros-13' as '7'
[2020-04-22 20:30:57.580313 CEST] [3642] [info] forwarding_mapper() Forward to 7
[2020-04-22 20:30:57.580390 CEST] [3641] [info] forwarding_mapper() Forward to 7
[2020-04-22 20:30:57.580839 CEST] [3637] [info] Forwarding map loaded for 'gros-13' as '7'
[2020-04-22 20:30:57.580987 CEST] [3637] [info] forwarding_mapper() Forward to 7
[2020-04-22 20:30:57.586025 CEST] [3639] [info] Forwarding map loaded for 'gros-13' as '7'
[2020-04-22 20:30:57.586176 CEST] [3639] [info] forwarding_mapper() Forward to 7
[2020-04-22 20:30:57.596253 CEST] [3643] [info] Forwarding map loaded for 'gros-13' as '7'
[2020-04-22 20:30:57.596408 CEST] [3643] [info] forwarding_mapper() Forward to 7
[2020-04-22 20:30:57.615545 CEST] [3638] [info] Forwarding map loaded for 'gros-13' as '7'
[2020-04-22 20:30:57.615616 CEST] [3638] [info] forwarding_mapper() Forward to 7
[2020-04-22 20:30:57.651490 CEST] [3640] [info] Forwarding map loaded for 'gros-13' as '7'
[2020-04-22 20:30:57.651565 CEST] [3640] [info] forwarding_mapper() Forward to 7
[2020-04-22 20:30:58.591175 CEST] [3658] [info] Forwarding map loaded for 'gros-13' as '7'
[2020-04-22 20:30:58.591247 CEST] [3658] [info] forwarding_mapper() Forward to 7
[2020-04-22 20:31:07.585425 CEST] [3641] [info] Forwarding map loaded for 'gros-13' as '7'
[2020-04-22 20:31:07.585584 CEST] [3641] [info] forwarding_mapper() Forward to 7
[2020-04-22 20:31:07.585814 CEST] [3642] [info] Forwarding map loaded for 'gros-13' as '7'
[2020-04-22 20:31:07.585970 CEST] [3642] [info] forwarding_mapper() Forward to 7
[2020-04-22 20:31:07.586064 CEST] [3637] [info] Forwarding map loaded for 'gros-13' as '7'
[2020-04-22 20:31:07.586218 CEST] [3637] [info] forwarding_mapper() Forward to 7
[2020-04-22 20:31:07.591341 CEST] [3639] [info] Forwarding map loaded for 'gros-13' as '7'
[2020-04-22 20:31:07.591498 CEST] [3639] [info] forwarding_mapper() Forward to 7
[2020-04-22 20:31:07.601262 CEST] [3643] [info] Forwarding map loaded for 'gros-13' as '7'
[2020-04-22 20:31:07.601422 CEST] [3643] [info] forwarding_mapper() Forward to 7
[2020-04-22 20:31:07.618371 CEST] [3638] [info] Forwarding map loaded for 'gros-13' as '7'
[2020-04-22 20:31:07.618446 CEST] [3638] [info] forwarding_mapper() Forward to 7
[2020-04-22 20:31:07.663057 CEST] [3640] [info] Forwarding map loaded for 'gros-13' as '7'
[2020-04-22 20:31:07.663135 CEST] [3640] [info] forwarding_mapper() Forward to 7
[2020-04-22 20:31:08.595914 CEST] [3658] [info] Forwarding map loaded for 'gros-13' as '7'
[2020-04-22 20:31:08.595991 CEST] [3658] [info] forwarding_mapper() Forward to 7
[2020-04-22 20:31:17.590644 CEST] [3641] [info] Forwarding map loaded for 'gros-13' as '7'
[2020-04-22 20:31:17.590657 CEST] [3637] [info] Forwarding map loaded for 'gros-13' as '7'
[2020-04-22 20:31:17.590824 CEST] [3641] [info] forwarding_mapper() Forward to 7
[2020-04-22 20:31:17.590837 CEST] [3637] [info] forwarding_mapper() Forward to 7
[2020-04-22 20:31:17.592102 CEST] [3642] [info] Forwarding map loaded for 'gros-13' as '7'
[2020-04-22 20:31:17.592258 CEST] [3642] [info] forwarding_mapper() Forward to 7
[2020-04-22 20:31:17.600872 CEST] [3639] [info] Forwarding map loaded for 'gros-13' as '7'
[2020-04-22 20:31:17.601034 CEST] [3639] [info] forwarding_mapper() Forward to 7
[2020-04-22 20:31:17.606670 CEST] [3643] [info] Forwarding map loaded for 'gros-13' as '7'
[2020-04-22 20:31:17.606831 CEST] [3643] [info] forwarding_mapper() Forward to 7
[2020-04-22 20:31:17.621762 CEST] [3638] [info] Forwarding map loaded for 'gros-13' as '7'
[2020-04-22 20:31:17.621868 CEST] [3638] [info] forwarding_mapper() Forward to 7
[2020-04-22 20:31:17.672746 CEST] [3640] [info] Forwarding map loaded for 'gros-13' as '7'
[2020-04-22 20:31:17.672920 CEST] [3640] [info] forwarding_mapper() Forward to 7
[2020-04-22 20:31:18.601943 CEST] [3658] [info] Forwarding map loaded for 'gros-13' as '7'
[2020-04-22 20:31:18.602055 CEST] [3658] [info] forwarding_mapper() Forward to 7
[2020-04-22 20:31:27.595929 CEST] [3641] [info] Forwarding map loaded for 'gros-13' as '7'
[2020-04-22 20:31:27.596095 CEST] [3641] [info] forwarding_mapper() Forward to 7
[2020-04-22 20:31:27.596426 CEST] [3637] [info] Forwarding map loaded for 'gros-13' as '7'
[2020-04-22 20:31:27.596589 CEST] [3637] [info] forwarding_mapper() Forward to 7
[2020-04-22 20:31:27.600983 CEST] [3642] [info] Forwarding map loaded for 'gros-13' as '7'
[2020-04-22 20:31:27.601138 CEST] [3642] [info] forwarding_mapper() Forward to 7
[2020-04-22 20:31:27.606149 CEST] [3639] [info] Forwarding map loaded for 'gros-13' as '7'
[2020-04-22 20:31:27.606313 CEST] [3639] [info] forwarding_mapper() Forward to 7
[2020-04-22 20:31:27.611687 CEST] [3643] [info] Forwarding map loaded for 'gros-13' as '7'
[2020-04-22 20:31:27.611837 CEST] [3643] [info] forwarding_mapper() Forward to 7
[2020-04-22 20:31:27.625017 CEST] [3638] [info] Forwarding map loaded for 'gros-13' as '7'
[2020-04-22 20:31:27.625093 CEST] [3638] [info] forwarding_mapper() Forward to 7
[2020-04-22 20:31:27.687312 CEST] [3640] [info] Forwarding map loaded for 'gros-13' as '7'
[2020-04-22 20:31:27.687465 CEST] [3640] [info] forwarding_mapper() Forward to 7
[2020-04-22 20:31:28.606565 CEST] [3658] [info] Forwarding map loaded for 'gros-13' as '7'
[2020-04-22 20:31:28.606648 CEST] [3658] [info] forwarding_mapper() Forward to 7
[2020-04-22 20:31:37.601312 CEST] [3641] [info] Forwarding map loaded for 'gros-13' as '7'
[2020-04-22 20:31:37.601474 CEST] [3641] [info] forwarding_mapper() Forward to 7
[2020-04-22 20:31:37.601980 CEST] [3637] [info] Forwarding map loaded for 'gros-13' as '7'
[2020-04-22 20:31:37.602138 CEST] [3637] [info] forwarding_mapper() Forward to 7
[2020-04-22 20:31:37.605810 CEST] [3642] [info] Forwarding map loaded for 'gros-13' as '7'
[2020-04-22 20:31:37.605966 CEST] [3642] [info] forwarding_mapper() Forward to 7
[2020-04-22 20:31:37.611492 CEST] [3639] [info] Forwarding map loaded for 'gros-13' as '7'
[2020-04-22 20:31:37.611643 CEST] [3639] [info] forwarding_mapper() Forward to 7
[2020-04-22 20:31:37.616860 CEST] [3643] [info] Forwarding map loaded for 'gros-13' as '7'
[2020-04-22 20:31:37.617008 CEST] [3643] [info] forwarding_mapper() Forward to 7
[2020-04-22 20:31:37.628282 CEST] [3638] [info] Forwarding map loaded for 'gros-13' as '7'
[2020-04-22 20:31:37.628361 CEST] [3638] [info] forwarding_mapper() Forward to 7
[2020-04-22 20:31:37.697082 CEST] [3640] [info] Forwarding map loaded for 'gros-13' as '7'
[2020-04-22 20:31:37.697234 CEST] [3640] [info] forwarding_mapper() Forward to 7
[2020-04-22 20:31:38.612336 CEST] [3658] [info] Forwarding map loaded for 'gros-13' as '7'
[2020-04-22 20:31:38.612412 CEST] [3658] [info] forwarding_mapper() Forward to 7
[2020-04-22 20:31:47.606623 CEST] [3641] [info] Forwarding map loaded for 'gros-13' as '7'
[2020-04-22 20:31:47.606786 CEST] [3641] [info] forwarding_mapper() Forward to 7
[2020-04-22 20:31:47.607053 CEST] [3637] [info] Forwarding map loaded for 'gros-13' as '7'
[2020-04-22 20:31:47.607216 CEST] [3637] [info] forwarding_mapper() Forward to 7
[2020-04-22 20:31:47.614882 CEST] [3642] [info] Forwarding map loaded for 'gros-13' as '7'
[2020-04-22 20:31:47.615031 CEST] [3642] [info] forwarding_mapper() Forward to 7
[2020-04-22 20:31:47.616259 CEST] [3639] [info] Forwarding map loaded for 'gros-13' as '7'
[2020-04-22 20:31:47.616422 CEST] [3639] [info] forwarding_mapper() Forward to 7
[2020-04-22 20:31:47.621867 CEST] [3643] [info] Forwarding map loaded for 'gros-13' as '7'
[2020-04-22 20:31:47.622005 CEST] [3643] [info] forwarding_mapper() Forward to 7
[2020-04-22 20:31:47.631932 CEST] [3638] [info] Forwarding map loaded for 'gros-13' as '7'
[2020-04-22 20:31:47.632023 CEST] [3638] [info] forwarding_mapper() Forward to 7
[2020-04-22 20:31:47.709137 CEST] [3640] [info] Forwarding map loaded for 'gros-13' as '7'
[2020-04-22 20:31:47.709214 CEST] [3640] [info] forwarding_mapper() Forward to 7
[2020-04-22 20:31:48.617246 CEST] [3658] [info] Forwarding map loaded for 'gros-13' as '7'
[2020-04-22 20:31:48.617322 CEST] [3658] [info] forwarding_mapper() Forward to 7
[2020-04-22 20:31:57.611920 CEST] [3641] [info] Forwarding map loaded for 'gros-13' as '7'
[2020-04-22 20:31:57.612084 CEST] [3641] [info] forwarding_mapper() Forward to 7
[2020-04-22 20:31:57.612276 CEST] [3637] [info] Forwarding map loaded for 'gros-13' as '7'
[2020-04-22 20:31:57.612448 CEST] [3637] [info] forwarding_mapper() Forward to 7
[2020-04-22 20:31:57.620051 CEST] [3642] [info] Forwarding map loaded for 'gros-13' as '7'
[2020-04-22 20:31:57.620198 CEST] [3642] [info] forwarding_mapper() Forward to 7
[2020-04-22 20:31:57.622234 CEST] [3639] [info] Forwarding map loaded for 'gros-13' as '7'
[2020-04-22 20:31:57.622397 CEST] [3639] [info] forwarding_mapper() Forward to 7
[2020-04-22 20:31:57.626968 CEST] [3643] [info] Forwarding map loaded for 'gros-13' as '7'
[2020-04-22 20:31:57.627118 CEST] [3643] [info] forwarding_mapper() Forward to 7
[2020-04-22 20:31:57.635440 CEST] [3638] [info] Forwarding map loaded for 'gros-13' as '7'
[2020-04-22 20:31:57.635526 CEST] [3638] [info] forwarding_mapper() Forward to 7
[2020-04-22 20:31:57.718499 CEST] [3640] [info] Forwarding map loaded for 'gros-13' as '7'
[2020-04-22 20:31:57.718650 CEST] [3640] [info] forwarding_mapper() Forward to 7
[2020-04-22 20:31:58.621076 CEST] [3658] [info] Forwarding map loaded for 'gros-13' as '7'
[2020-04-22 20:31:58.621157 CEST] [3658] [info] forwarding_mapper() Forward to 7
[2020-04-22 20:32:07.614782 CEST] [3599] [info] All subsystems shut down. Client shutdown complete.
[2020-04-22 20:32:07.630626 CEST] [3600] [info] All subsystems shut down. Client shutdown complete.
[2020-04-22 20:32:07.640454 CEST] [3597] [info] All subsystems shut down. Client shutdown complete.
[2020-04-22 20:32:07.666350 CEST] [3601] [info] All subsystems shut down. Client shutdown complete.
[2020-04-22 20:32:07.705612 CEST] [3598] [info] All subsystems shut down. Client shutdown complete.
[2020-04-22 20:32:07.727969 CEST] [3603] [info] All subsystems shut down. Client shutdown complete.
[2020-04-22 20:32:07.804468 CEST] [3602] [info] All subsystems shut down. Client shutdown complete.
[2020-04-22 20:32:08.720572 CEST] [3604] [info] All subsystems shut down. Client shutdown complete.
