[2020-04-22 21:24:13.574235 CEST] [3756] [info] Process cmdline: '/root/benchmarks/S3D-IO/s3d_io.x 384 384 384 8 8 8 1 F /mnt/gkfs'
[2020-04-22 21:24:13.574524 CEST] [3756] [info] Initializing RPC subsystem...
[2020-04-22 21:24:13.574372 CEST] [3757] [info] Process cmdline: '/root/benchmarks/S3D-IO/s3d_io.x 384 384 384 8 8 8 1 F /mnt/gkfs'
[2020-04-22 21:24:13.574623 CEST] [3757] [info] Initializing RPC subsystem...
[2020-04-22 21:24:13.575160 CEST] [3755] [info] Process cmdline: '/root/benchmarks/S3D-IO/s3d_io.x 384 384 384 8 8 8 1 F /mnt/gkfs'
[2020-04-22 21:24:13.575386 CEST] [3755] [info] Initializing RPC subsystem...
[2020-04-22 21:24:13.575364 CEST] [3754] [info] Process cmdline: '/root/benchmarks/S3D-IO/s3d_io.x 384 384 384 8 8 8 1 F /mnt/gkfs'
[2020-04-22 21:24:13.575592 CEST] [3754] [info] Initializing RPC subsystem...
[2020-04-22 21:24:13.575532 CEST] [3758] [info] Process cmdline: '/root/benchmarks/S3D-IO/s3d_io.x 384 384 384 8 8 8 1 F /mnt/gkfs'
[2020-04-22 21:24:13.575764 CEST] [3758] [info] Initializing RPC subsystem...
[2020-04-22 21:24:13.584678 CEST] [3760] [info] Process cmdline: '/root/benchmarks/S3D-IO/s3d_io.x 384 384 384 8 8 8 1 F /mnt/gkfs'
[2020-04-22 21:24:13.584916 CEST] [3760] [info] Initializing RPC subsystem...
[2020-04-22 21:24:13.584898 CEST] [3759] [info] Process cmdline: '/root/benchmarks/S3D-IO/s3d_io.x 384 384 384 8 8 8 1 F /mnt/gkfs'
[2020-04-22 21:24:13.585146 CEST] [3759] [info] Initializing RPC subsystem...
[2020-04-22 21:24:13.587225 CEST] [3761] [info] Process cmdline: '/root/benchmarks/S3D-IO/s3d_io.x 384 384 384 8 8 8 1 F /mnt/gkfs'
[2020-04-22 21:24:13.587463 CEST] [3761] [info] Initializing RPC subsystem...
[2020-04-22 21:24:13.626802 CEST] [3757] [info] Loading peer addresses...
[2020-04-22 21:24:13.627817 CEST] [3754] [info] Loading peer addresses...
[2020-04-22 21:24:13.627969 CEST] [3756] [info] Loading peer addresses...
[2020-04-22 21:24:13.628985 CEST] [3757] [info] Hosts pool size: 12
[2020-04-22 21:24:13.629429 CEST] [3754] [info] Hosts pool size: 12
[2020-04-22 21:24:13.629769 CEST] [3755] [info] Loading peer addresses...
[2020-04-22 21:24:13.629763 CEST] [3759] [info] Loading peer addresses...
[2020-04-22 21:24:13.629951 CEST] [3756] [info] Hosts pool size: 12
[2020-04-22 21:24:13.630016 CEST] [3761] [info] Loading peer addresses...
[2020-04-22 21:24:13.630882 CEST] [3760] [info] Loading peer addresses...
[2020-04-22 21:24:13.630965 CEST] [3758] [info] Loading peer addresses...
[2020-04-22 21:24:13.631712 CEST] [3755] [info] Hosts pool size: 12
[2020-04-22 21:24:13.632145 CEST] [3759] [info] Hosts pool size: 12
[2020-04-22 21:24:13.632484 CEST] [3760] [info] Hosts pool size: 12
[2020-04-22 21:24:13.632680 CEST] [3758] [info] Hosts pool size: 12
[2020-04-22 21:24:13.635187 CEST] [3761] [info] Hosts pool size: 12
[2020-04-22 21:24:14.072250 CEST] [3756] [info] Forwarding map loaded for 'gros-41' as '4'
[2020-04-22 21:24:14.072254 CEST] [3761] [info] Forwarding map loaded for 'gros-41' as '4'
[2020-04-22 21:24:14.072306 CEST] [3754] [info] Forwarding map loaded for 'gros-41' as '4'
[2020-04-22 21:24:14.072432 CEST] [3756] [info] init_ld_environment_() Forward to 4
[2020-04-22 21:24:14.072444 CEST] [3761] [info] init_ld_environment_() Forward to 4
[2020-04-22 21:24:14.072488 CEST] [3754] [info] init_ld_environment_() Forward to 4
[2020-04-22 21:24:14.072567 CEST] [3756] [info] Retrieving file system configuration...
[2020-04-22 21:24:14.072614 CEST] [3761] [info] Retrieving file system configuration...
[2020-04-22 21:24:14.072616 CEST] [3754] [info] Retrieving file system configuration...
[2020-04-22 21:24:14.072818 CEST] [3758] [info] Forwarding map loaded for 'gros-41' as '4'
[2020-04-22 21:24:14.073062 CEST] [3758] [info] init_ld_environment_() Forward to 4
[2020-04-22 21:24:14.073195 CEST] [3758] [info] Retrieving file system configuration...
[2020-04-22 21:24:14.073181 CEST] [3757] [info] Forwarding map loaded for 'gros-41' as '4'
[2020-04-22 21:24:14.073359 CEST] [3757] [info] init_ld_environment_() Forward to 4
[2020-04-22 21:24:14.073487 CEST] [3757] [info] Retrieving file system configuration...
[2020-04-22 21:24:14.074181 CEST] [3760] [info] Forwarding map loaded for 'gros-41' as '4'
[2020-04-22 21:24:14.074381 CEST] [3760] [info] init_ld_environment_() Forward to 4
[2020-04-22 21:24:14.074514 CEST] [3760] [info] Retrieving file system configuration...
[2020-04-22 21:24:14.077201 CEST] [3759] [info] Forwarding map loaded for 'gros-41' as '4'
[2020-04-22 21:24:14.077382 CEST] [3759] [info] init_ld_environment_() Forward to 4
[2020-04-22 21:24:14.077510 CEST] [3759] [info] Retrieving file system configuration...
[2020-04-22 21:24:14.078435 CEST] [3755] [info] Forwarding map loaded for 'gros-41' as '4'
[2020-04-22 21:24:14.078622 CEST] [3755] [info] init_ld_environment_() Forward to 4
[2020-04-22 21:24:14.078767 CEST] [3755] [info] Retrieving file system configuration...
[2020-04-22 21:24:14.082560 CEST] [3756] [info] Mountdir: '/mnt/gkfs'
[2020-04-22 21:24:14.082716 CEST] [3756] [info] Environment initialization successful.
[2020-04-22 21:24:14.082703 CEST] [3761] [info] Mountdir: '/mnt/gkfs'
[2020-04-22 21:24:14.082774 CEST] [3758] [info] Mountdir: '/mnt/gkfs'
[2020-04-22 21:24:14.082834 CEST] [3761] [info] Environment initialization successful.
[2020-04-22 21:24:14.082776 CEST] [3754] [info] Mountdir: '/mnt/gkfs'
[2020-04-22 21:24:14.082901 CEST] [3758] [info] Environment initialization successful.
[2020-04-22 21:24:14.082939 CEST] [3754] [info] Environment initialization successful.
[2020-04-22 21:24:14.083062 CEST] [3757] [info] Mountdir: '/mnt/gkfs'
[2020-04-22 21:24:14.083189 CEST] [3757] [info] Environment initialization successful.
[2020-04-22 21:24:14.087517 CEST] [3760] [info] Mountdir: '/mnt/gkfs'
[2020-04-22 21:24:14.087668 CEST] [3760] [info] Environment initialization successful.
[2020-04-22 21:24:14.088189 CEST] [3759] [info] Mountdir: '/mnt/gkfs'
[2020-04-22 21:24:14.088318 CEST] [3759] [info] Environment initialization successful.
[2020-04-22 21:24:14.088679 CEST] [3755] [info] Mountdir: '/mnt/gkfs'
[2020-04-22 21:24:14.088810 CEST] [3755] [info] Environment initialization successful.
[2020-04-22 21:24:14.126651 CEST] [3797] [info] Forwarding map loaded for 'gros-41' as '4'
[2020-04-22 21:24:14.126673 CEST] [3798] [info] Forwarding map loaded for 'gros-41' as '4'
[2020-04-22 21:24:14.126825 CEST] [3797] [info] forwarding_mapper() Forward to 4
[2020-04-22 21:24:14.126840 CEST] [3798] [info] forwarding_mapper() Forward to 4
[2020-04-22 21:24:14.127404 CEST] [3796] [info] Forwarding map loaded for 'gros-41' as '4'
[2020-04-22 21:24:14.127553 CEST] [3796] [info] forwarding_mapper() Forward to 4
[2020-04-22 21:24:14.129415 CEST] [3795] [info] Forwarding map loaded for 'gros-41' as '4'
[2020-04-22 21:24:14.129527 CEST] [3795] [info] forwarding_mapper() Forward to 4
[2020-04-22 21:24:14.131577 CEST] [3799] [info] Forwarding map loaded for 'gros-41' as '4'
[2020-04-22 21:24:14.131760 CEST] [3799] [info] forwarding_mapper() Forward to 4
[2020-04-22 21:24:14.132637 CEST] [3800] [info] Forwarding map loaded for 'gros-41' as '4'
[2020-04-22 21:24:14.132802 CEST] [3800] [info] forwarding_mapper() Forward to 4
[2020-04-22 21:24:14.134333 CEST] [3801] [info] Forwarding map loaded for 'gros-41' as '4'
[2020-04-22 21:24:14.134486 CEST] [3801] [info] forwarding_mapper() Forward to 4
[2020-04-22 21:24:14.136834 CEST] [3805] [info] Forwarding map loaded for 'gros-41' as '4'
[2020-04-22 21:24:14.136994 CEST] [3805] [info] forwarding_mapper() Forward to 4
[2020-04-22 21:24:24.135229 CEST] [3797] [info] Forwarding map loaded for 'gros-41' as '0'
[2020-04-22 21:24:24.135408 CEST] [3797] [info] forwarding_mapper() Forward to 0
[2020-04-22 21:24:24.137619 CEST] [3798] [info] Forwarding map loaded for 'gros-41' as '0'
[2020-04-22 21:24:24.137815 CEST] [3798] [info] forwarding_mapper() Forward to 0
[2020-04-22 21:24:24.138518 CEST] [3796] [info] Forwarding map loaded for 'gros-41' as '0'
[2020-04-22 21:24:24.138695 CEST] [3796] [info] forwarding_mapper() Forward to 0
[2020-04-22 21:24:24.140860 CEST] [3795] [info] Forwarding map loaded for 'gros-41' as '0'
[2020-04-22 21:24:24.141024 CEST] [3795] [info] forwarding_mapper() Forward to 0
[2020-04-22 21:24:24.148205 CEST] [3799] [info] Forwarding map loaded for 'gros-41' as '0'
[2020-04-22 21:24:24.148371 CEST] [3799] [info] forwarding_mapper() Forward to 0
[2020-04-22 21:24:24.150862 CEST] [3800] [info] Forwarding map loaded for 'gros-41' as '0'
[2020-04-22 21:24:24.151024 CEST] [3800] [info] forwarding_mapper() Forward to 0
[2020-04-22 21:24:24.155739 CEST] [3801] [info] Forwarding map loaded for 'gros-41' as '0'
[2020-04-22 21:24:24.155904 CEST] [3801] [info] forwarding_mapper() Forward to 0
[2020-04-22 21:24:24.159364 CEST] [3805] [info] Forwarding map loaded for 'gros-41' as '0'
[2020-04-22 21:24:24.159527 CEST] [3805] [info] forwarding_mapper() Forward to 0
[2020-04-22 21:24:34.143372 CEST] [3798] [info] Forwarding map loaded for 'gros-41' as '0'
[2020-04-22 21:24:34.143546 CEST] [3798] [info] forwarding_mapper() Forward to 0
[2020-04-22 21:24:34.143849 CEST] [3796] [info] Forwarding map loaded for 'gros-41' as '0'
[2020-04-22 21:24:34.144012 CEST] [3796] [info] forwarding_mapper() Forward to 0
[2020-04-22 21:24:34.145459 CEST] [3797] [info] Forwarding map loaded for 'gros-41' as '0'
[2020-04-22 21:24:34.145613 CEST] [3797] [info] forwarding_mapper() Forward to 0
[2020-04-22 21:24:34.151063 CEST] [3795] [info] Forwarding map loaded for 'gros-41' as '0'
[2020-04-22 21:24:34.151213 CEST] [3795] [info] forwarding_mapper() Forward to 0
[2020-04-22 21:24:34.152841 CEST] [3799] [info] Forwarding map loaded for 'gros-41' as '0'
[2020-04-22 21:24:34.152990 CEST] [3799] [info] forwarding_mapper() Forward to 0
[2020-04-22 21:24:34.155771 CEST] [3800] [info] Forwarding map loaded for 'gros-41' as '0'
[2020-04-22 21:24:34.155922 CEST] [3800] [info] forwarding_mapper() Forward to 0
[2020-04-22 21:24:34.160809 CEST] [3801] [info] Forwarding map loaded for 'gros-41' as '0'
[2020-04-22 21:24:34.160956 CEST] [3801] [info] forwarding_mapper() Forward to 0
[2020-04-22 21:24:34.164223 CEST] [3805] [info] Forwarding map loaded for 'gros-41' as '0'
[2020-04-22 21:24:34.164370 CEST] [3805] [info] forwarding_mapper() Forward to 0
[2020-04-22 21:24:44.148576 CEST] [3798] [info] Forwarding map loaded for 'gros-41' as '0'
[2020-04-22 21:24:44.148750 CEST] [3798] [info] forwarding_mapper() Forward to 0
[2020-04-22 21:24:44.149069 CEST] [3796] [info] Forwarding map loaded for 'gros-41' as '0'
[2020-04-22 21:24:44.149226 CEST] [3796] [info] forwarding_mapper() Forward to 0
[2020-04-22 21:24:44.150943 CEST] [3797] [info] Forwarding map loaded for 'gros-41' as '0'
[2020-04-22 21:24:44.151095 CEST] [3797] [info] forwarding_mapper() Forward to 0
[2020-04-22 21:24:44.156587 CEST] [3795] [info] Forwarding map loaded for 'gros-41' as '0'
[2020-04-22 21:24:44.156743 CEST] [3795] [info] forwarding_mapper() Forward to 0
[2020-04-22 21:24:44.157356 CEST] [3799] [info] Forwarding map loaded for 'gros-41' as '0'
[2020-04-22 21:24:44.157502 CEST] [3799] [info] forwarding_mapper() Forward to 0
[2020-04-22 21:24:44.161128 CEST] [3800] [info] Forwarding map loaded for 'gros-41' as '0'
[2020-04-22 21:24:44.161276 CEST] [3800] [info] forwarding_mapper() Forward to 0
[2020-04-22 21:24:44.165939 CEST] [3801] [info] Forwarding map loaded for 'gros-41' as '0'
[2020-04-22 21:24:44.166086 CEST] [3801] [info] forwarding_mapper() Forward to 0
[2020-04-22 21:24:44.169012 CEST] [3805] [info] Forwarding map loaded for 'gros-41' as '0'
[2020-04-22 21:24:44.169162 CEST] [3805] [info] forwarding_mapper() Forward to 0
[2020-04-22 21:24:54.153960 CEST] [3798] [info] Forwarding map loaded for 'gros-41' as '0'
[2020-04-22 21:24:54.154122 CEST] [3798] [info] forwarding_mapper() Forward to 0
[2020-04-22 21:24:54.154855 CEST] [3796] [info] Forwarding map loaded for 'gros-41' as '0'
[2020-04-22 21:24:54.155020 CEST] [3796] [info] forwarding_mapper() Forward to 0
[2020-04-22 21:24:54.161418 CEST] [3797] [info] Forwarding map loaded for 'gros-41' as '0'
[2020-04-22 21:24:54.161563 CEST] [3797] [info] forwarding_mapper() Forward to 0
[2020-04-22 21:24:54.161854 CEST] [3799] [info] Forwarding map loaded for 'gros-41' as '0'
[2020-04-22 21:24:54.162002 CEST] [3799] [info] forwarding_mapper() Forward to 0
[2020-04-22 21:24:54.164474 CEST] [3795] [info] Forwarding map loaded for 'gros-41' as '0'
[2020-04-22 21:24:54.164636 CEST] [3795] [info] forwarding_mapper() Forward to 0
[2020-04-22 21:24:54.169731 CEST] [3800] [info] Forwarding map loaded for 'gros-41' as '0'
[2020-04-22 21:24:54.169927 CEST] [3800] [info] forwarding_mapper() Forward to 0
[2020-04-22 21:24:54.170558 CEST] [3801] [info] Forwarding map loaded for 'gros-41' as '0'
[2020-04-22 21:24:54.170710 CEST] [3801] [info] forwarding_mapper() Forward to 0
[2020-04-22 21:24:54.174127 CEST] [3805] [info] Forwarding map loaded for 'gros-41' as '0'
[2020-04-22 21:24:54.174277 CEST] [3805] [info] forwarding_mapper() Forward to 0
[2020-04-22 21:25:04.159213 CEST] [3798] [info] Forwarding map loaded for 'gros-41' as '0'
[2020-04-22 21:25:04.159378 CEST] [3798] [info] forwarding_mapper() Forward to 0
[2020-04-22 21:25:04.159958 CEST] [3796] [info] Forwarding map loaded for 'gros-41' as '0'
[2020-04-22 21:25:04.160117 CEST] [3796] [info] forwarding_mapper() Forward to 0
[2020-04-22 21:25:04.166938 CEST] [3799] [info] Forwarding map loaded for 'gros-41' as '0'
[2020-04-22 21:25:04.167087 CEST] [3799] [info] forwarding_mapper() Forward to 0
[2020-04-22 21:25:04.167257 CEST] [3797] [info] Forwarding map loaded for 'gros-41' as '0'
[2020-04-22 21:25:04.167401 CEST] [3797] [info] forwarding_mapper() Forward to 0
[2020-04-22 21:25:04.169895 CEST] [3795] [info] Forwarding map loaded for 'gros-41' as '0'
[2020-04-22 21:25:04.170048 CEST] [3795] [info] forwarding_mapper() Forward to 0
[2020-04-22 21:25:04.175912 CEST] [3801] [info] Forwarding map loaded for 'gros-41' as '0'
[2020-04-22 21:25:04.175938 CEST] [3800] [info] Forwarding map loaded for 'gros-41' as '0'
[2020-04-22 21:25:04.176061 CEST] [3801] [info] forwarding_mapper() Forward to 0
[2020-04-22 21:25:04.176122 CEST] [3800] [info] forwarding_mapper() Forward to 0
[2020-04-22 21:25:04.179783 CEST] [3805] [info] Forwarding map loaded for 'gros-41' as '0'
[2020-04-22 21:25:04.179931 CEST] [3805] [info] forwarding_mapper() Forward to 0
[2020-04-22 21:25:14.162030 CEST] [3796] [info] Forwarding map loaded for 'gros-41' as '0'
[2020-04-22 21:25:14.162125 CEST] [3796] [info] forwarding_mapper() Forward to 0
[2020-04-22 21:25:14.164717 CEST] [3798] [info] Forwarding map loaded for 'gros-41' as '0'
[2020-04-22 21:25:14.164868 CEST] [3798] [info] forwarding_mapper() Forward to 0
[2020-04-22 21:25:14.172649 CEST] [3799] [info] Forwarding map loaded for 'gros-41' as '0'
[2020-04-22 21:25:14.172793 CEST] [3799] [info] forwarding_mapper() Forward to 0
[2020-04-22 21:25:14.177144 CEST] [3795] [info] Forwarding map loaded for 'gros-41' as '0'
[2020-04-22 21:25:14.177211 CEST] [3795] [info] forwarding_mapper() Forward to 0
[2020-04-22 21:25:14.177687 CEST] [3797] [info] Forwarding map loaded for 'gros-41' as '0'
[2020-04-22 21:25:14.177828 CEST] [3797] [info] forwarding_mapper() Forward to 0
[2020-04-22 21:25:14.181304 CEST] [3801] [info] Forwarding map loaded for 'gros-41' as '0'
[2020-04-22 21:25:14.181491 CEST] [3801] [info] forwarding_mapper() Forward to 0
[2020-04-22 21:25:14.183756 CEST] [3805] [info] Forwarding map loaded for 'gros-41' as '0'
[2020-04-22 21:25:14.183895 CEST] [3805] [info] forwarding_mapper() Forward to 0
[2020-04-22 21:25:14.184868 CEST] [3800] [info] Forwarding map loaded for 'gros-41' as '0'
[2020-04-22 21:25:14.185009 CEST] [3800] [info] forwarding_mapper() Forward to 0
[2020-04-22 21:25:24.167829 CEST] [3796] [info] Forwarding map loaded for 'gros-41' as '0'
[2020-04-22 21:25:24.168002 CEST] [3796] [info] forwarding_mapper() Forward to 0
[2020-04-22 21:25:24.169877 CEST] [3798] [info] Forwarding map loaded for 'gros-41' as '0'
[2020-04-22 21:25:24.170056 CEST] [3798] [info] forwarding_mapper() Forward to 0
[2020-04-22 21:25:24.178232 CEST] [3799] [info] Forwarding map loaded for 'gros-41' as '0'
[2020-04-22 21:25:24.178405 CEST] [3799] [info] forwarding_mapper() Forward to 0
[2020-04-22 21:25:24.182468 CEST] [3795] [info] Forwarding map loaded for 'gros-41' as '0'
[2020-04-22 21:25:24.182654 CEST] [3795] [info] forwarding_mapper() Forward to 0
[2020-04-22 21:25:24.182899 CEST] [3797] [info] Forwarding map loaded for 'gros-41' as '0'
[2020-04-22 21:25:24.183048 CEST] [3797] [info] forwarding_mapper() Forward to 0
[2020-04-22 21:25:24.185980 CEST] [3801] [info] Forwarding map loaded for 'gros-41' as '0'
[2020-04-22 21:25:24.186130 CEST] [3801] [info] forwarding_mapper() Forward to 0
[2020-04-22 21:25:24.188330 CEST] [3805] [info] Forwarding map loaded for 'gros-41' as '0'
[2020-04-22 21:25:24.188479 CEST] [3805] [info] forwarding_mapper() Forward to 0
[2020-04-22 21:25:24.188811 CEST] [3800] [info] Forwarding map loaded for 'gros-41' as '0'
[2020-04-22 21:25:24.188907 CEST] [3800] [info] forwarding_mapper() Forward to 0
[2020-04-22 21:25:34.177011 CEST] [3798] [info] Forwarding map loaded for 'gros-41' as '0'
[2020-04-22 21:25:34.177179 CEST] [3798] [info] forwarding_mapper() Forward to 0
[2020-04-22 21:25:34.178193 CEST] [3796] [info] Forwarding map loaded for 'gros-41' as '0'
[2020-04-22 21:25:34.178356 CEST] [3796] [info] forwarding_mapper() Forward to 0
[2020-04-22 21:25:34.183756 CEST] [3799] [info] Forwarding map loaded for 'gros-41' as '0'
[2020-04-22 21:25:34.183908 CEST] [3799] [info] forwarding_mapper() Forward to 0
[2020-04-22 21:25:34.190948 CEST] [3801] [info] Forwarding map loaded for 'gros-41' as '0'
[2020-04-22 21:25:34.191093 CEST] [3801] [info] forwarding_mapper() Forward to 0
[2020-04-22 21:25:34.192353 CEST] [3795] [info] Forwarding map loaded for 'gros-41' as '0'
[2020-04-22 21:25:34.192500 CEST] [3795] [info] forwarding_mapper() Forward to 0
[2020-04-22 21:25:34.192869 CEST] [3805] [info] Forwarding map loaded for 'gros-41' as '0'
[2020-04-22 21:25:34.192937 CEST] [3797] [info] Forwarding map loaded for 'gros-41' as '0'
[2020-04-22 21:25:34.193014 CEST] [3805] [info] forwarding_mapper() Forward to 0
[2020-04-22 21:25:34.193080 CEST] [3797] [info] forwarding_mapper() Forward to 0
[2020-04-22 21:25:34.194070 CEST] [3800] [info] Forwarding map loaded for 'gros-41' as '0'
[2020-04-22 21:25:34.194150 CEST] [3800] [info] forwarding_mapper() Forward to 0
[2020-04-22 21:25:44.182874 CEST] [3798] [info] Forwarding map loaded for 'gros-41' as '0'
[2020-04-22 21:25:44.183042 CEST] [3798] [info] forwarding_mapper() Forward to 0
[2020-04-22 21:25:44.183570 CEST] [3796] [info] Forwarding map loaded for 'gros-41' as '0'
[2020-04-22 21:25:44.183743 CEST] [3796] [info] forwarding_mapper() Forward to 0
[2020-04-22 21:25:44.189304 CEST] [3799] [info] Forwarding map loaded for 'gros-41' as '0'
[2020-04-22 21:25:44.189457 CEST] [3799] [info] forwarding_mapper() Forward to 0
[2020-04-22 21:25:44.195959 CEST] [3801] [info] Forwarding map loaded for 'gros-41' as '0'
[2020-04-22 21:25:44.196102 CEST] [3801] [info] forwarding_mapper() Forward to 0
[2020-04-22 21:25:44.197406 CEST] [3805] [info] Forwarding map loaded for 'gros-41' as '0'
[2020-04-22 21:25:44.197471 CEST] [3795] [info] Forwarding map loaded for 'gros-41' as '0'
[2020-04-22 21:25:44.197554 CEST] [3805] [info] forwarding_mapper() Forward to 0
[2020-04-22 21:25:44.197550 CEST] [3800] [info] Forwarding map loaded for 'gros-41' as '0'
[2020-04-22 21:25:44.197635 CEST] [3800] [info] forwarding_mapper() Forward to 0
[2020-04-22 21:25:44.197616 CEST] [3795] [info] forwarding_mapper() Forward to 0
[2020-04-22 21:25:44.198511 CEST] [3797] [info] Forwarding map loaded for 'gros-41' as '0'
[2020-04-22 21:25:44.198670 CEST] [3797] [info] forwarding_mapper() Forward to 0
[2020-04-22 21:25:54.188170 CEST] [3798] [info] Forwarding map loaded for 'gros-41' as '0'
[2020-04-22 21:25:54.188337 CEST] [3798] [info] forwarding_mapper() Forward to 0
[2020-04-22 21:25:54.188980 CEST] [3796] [info] Forwarding map loaded for 'gros-41' as '0'
[2020-04-22 21:25:54.189143 CEST] [3796] [info] forwarding_mapper() Forward to 0
[2020-04-22 21:25:54.194646 CEST] [3799] [info] Forwarding map loaded for 'gros-41' as '0'
[2020-04-22 21:25:54.194798 CEST] [3799] [info] forwarding_mapper() Forward to 0
[2020-04-22 21:25:54.200806 CEST] [3801] [info] Forwarding map loaded for 'gros-41' as '0'
[2020-04-22 21:25:54.200978 CEST] [3801] [info] forwarding_mapper() Forward to 0
[2020-04-22 21:25:54.201572 CEST] [3800] [info] Forwarding map loaded for 'gros-41' as '0'
[2020-04-22 21:25:54.201650 CEST] [3800] [info] forwarding_mapper() Forward to 0
[2020-04-22 21:25:54.201868 CEST] [3805] [info] Forwarding map loaded for 'gros-41' as '0'
[2020-04-22 21:25:54.202011 CEST] [3805] [info] forwarding_mapper() Forward to 0
[2020-04-22 21:25:54.204809 CEST] [3795] [info] Forwarding map loaded for 'gros-41' as '0'
[2020-04-22 21:25:54.204955 CEST] [3795] [info] forwarding_mapper() Forward to 0
[2020-04-22 21:25:54.209048 CEST] [3797] [info] Forwarding map loaded for 'gros-41' as '0'
[2020-04-22 21:25:54.209199 CEST] [3797] [info] forwarding_mapper() Forward to 0
[2020-04-22 21:26:04.193816 CEST] [3798] [info] Forwarding map loaded for 'gros-41' as '0'
[2020-04-22 21:26:04.193989 CEST] [3798] [info] forwarding_mapper() Forward to 0
[2020-04-22 21:26:04.194722 CEST] [3796] [info] Forwarding map loaded for 'gros-41' as '0'
[2020-04-22 21:26:04.194900 CEST] [3796] [info] forwarding_mapper() Forward to 0
[2020-04-22 21:26:04.200305 CEST] [3799] [info] Forwarding map loaded for 'gros-41' as '0'
[2020-04-22 21:26:04.200472 CEST] [3799] [info] forwarding_mapper() Forward to 0
[2020-04-22 21:26:04.205023 CEST] [3800] [info] Forwarding map loaded for 'gros-41' as '0'
[2020-04-22 21:26:04.205128 CEST] [3800] [info] forwarding_mapper() Forward to 0
[2020-04-22 21:26:04.205748 CEST] [3801] [info] Forwarding map loaded for 'gros-41' as '0'
[2020-04-22 21:26:04.205896 CEST] [3801] [info] forwarding_mapper() Forward to 0
[2020-04-22 21:26:04.206863 CEST] [3805] [info] Forwarding map loaded for 'gros-41' as '0'
[2020-04-22 21:26:04.207062 CEST] [3805] [info] forwarding_mapper() Forward to 0
[2020-04-22 21:26:04.210592 CEST] [3795] [info] Forwarding map loaded for 'gros-41' as '0'
[2020-04-22 21:26:04.210742 CEST] [3795] [info] forwarding_mapper() Forward to 0
[2020-04-22 21:26:04.213006 CEST] [3797] [info] Forwarding map loaded for 'gros-41' as '0'
[2020-04-22 21:26:04.213101 CEST] [3797] [info] forwarding_mapper() Forward to 0
[2020-04-22 21:26:14.199318 CEST] [3798] [info] Forwarding map loaded for 'gros-41' as '0'
[2020-04-22 21:26:14.199483 CEST] [3798] [info] forwarding_mapper() Forward to 0
[2020-04-22 21:26:14.199773 CEST] [3796] [info] Forwarding map loaded for 'gros-41' as '0'
[2020-04-22 21:26:14.199941 CEST] [3796] [info] forwarding_mapper() Forward to 0
[2020-04-22 21:26:14.205822 CEST] [3799] [info] Forwarding map loaded for 'gros-41' as '0'
[2020-04-22 21:26:14.205973 CEST] [3799] [info] forwarding_mapper() Forward to 0
[2020-04-22 21:26:14.208149 CEST] [3800] [info] Forwarding map loaded for 'gros-41' as '0'
[2020-04-22 21:26:14.208224 CEST] [3800] [info] forwarding_mapper() Forward to 0
[2020-04-22 21:26:14.210252 CEST] [3801] [info] Forwarding map loaded for 'gros-41' as '0'
[2020-04-22 21:26:14.210409 CEST] [3801] [info] forwarding_mapper() Forward to 0
[2020-04-22 21:26:14.211894 CEST] [3805] [info] Forwarding map loaded for 'gros-41' as '0'
[2020-04-22 21:26:14.212091 CEST] [3805] [info] forwarding_mapper() Forward to 0
[2020-04-22 21:26:14.216154 CEST] [3795] [info] Forwarding map loaded for 'gros-41' as '0'
[2020-04-22 21:26:14.216307 CEST] [3795] [info] forwarding_mapper() Forward to 0
[2020-04-22 21:26:14.221460 CEST] [3797] [info] Forwarding map loaded for 'gros-41' as '0'
[2020-04-22 21:26:14.221536 CEST] [3797] [info] forwarding_mapper() Forward to 0
[2020-04-22 21:26:24.204674 CEST] [3798] [info] Forwarding map loaded for 'gros-41' as '0'
[2020-04-22 21:26:24.204843 CEST] [3798] [info] forwarding_mapper() Forward to 0
[2020-04-22 21:26:24.205387 CEST] [3796] [info] Forwarding map loaded for 'gros-41' as '0'
[2020-04-22 21:26:24.205552 CEST] [3796] [info] forwarding_mapper() Forward to 0
[2020-04-22 21:26:24.210897 CEST] [3799] [info] Forwarding map loaded for 'gros-41' as '0'
[2020-04-22 21:26:24.211045 CEST] [3799] [info] forwarding_mapper() Forward to 0
[2020-04-22 21:26:24.211136 CEST] [3800] [info] Forwarding map loaded for 'gros-41' as '0'
[2020-04-22 21:26:24.211211 CEST] [3800] [info] forwarding_mapper() Forward to 0
[2020-04-22 21:26:24.214891 CEST] [3801] [info] Forwarding map loaded for 'gros-41' as '0'
[2020-04-22 21:26:24.215035 CEST] [3801] [info] forwarding_mapper() Forward to 0
[2020-04-22 21:26:24.216730 CEST] [3805] [info] Forwarding map loaded for 'gros-41' as '0'
[2020-04-22 21:26:24.216881 CEST] [3805] [info] forwarding_mapper() Forward to 0
[2020-04-22 21:26:24.221841 CEST] [3795] [info] Forwarding map loaded for 'gros-41' as '0'
[2020-04-22 21:26:24.221990 CEST] [3795] [info] forwarding_mapper() Forward to 0
[2020-04-22 21:26:24.225529 CEST] [3797] [info] Forwarding map loaded for 'gros-41' as '0'
[2020-04-22 21:26:24.225606 CEST] [3797] [info] forwarding_mapper() Forward to 0
[2020-04-22 21:26:34.210196 CEST] [3798] [info] Forwarding map loaded for 'gros-41' as '0'
[2020-04-22 21:26:34.210367 CEST] [3798] [info] forwarding_mapper() Forward to 0
[2020-04-22 21:26:34.216004 CEST] [3796] [info] Forwarding map loaded for 'gros-41' as '0'
[2020-04-22 21:26:34.216160 CEST] [3796] [info] forwarding_mapper() Forward to 0
[2020-04-22 21:26:34.218678 CEST] [3800] [info] Forwarding map loaded for 'gros-41' as '0'
[2020-04-22 21:26:34.218754 CEST] [3800] [info] forwarding_mapper() Forward to 0
[2020-04-22 21:26:34.219419 CEST] [3801] [info] Forwarding map loaded for 'gros-41' as '0'
[2020-04-22 21:26:34.219564 CEST] [3801] [info] forwarding_mapper() Forward to 0
[2020-04-22 21:26:34.221101 CEST] [3799] [info] Forwarding map loaded for 'gros-41' as '0'
[2020-04-22 21:26:34.221249 CEST] [3799] [info] forwarding_mapper() Forward to 0
[2020-04-22 21:26:34.221680 CEST] [3805] [info] Forwarding map loaded for 'gros-41' as '0'
[2020-04-22 21:26:34.221831 CEST] [3805] [info] forwarding_mapper() Forward to 0
[2020-04-22 21:26:34.227054 CEST] [3795] [info] Forwarding map loaded for 'gros-41' as '0'
[2020-04-22 21:26:34.227205 CEST] [3795] [info] forwarding_mapper() Forward to 0
[2020-04-22 21:26:34.234445 CEST] [3797] [info] Forwarding map loaded for 'gros-41' as '0'
[2020-04-22 21:26:34.234520 CEST] [3797] [info] forwarding_mapper() Forward to 0
[2020-04-22 21:26:44.215846 CEST] [3798] [info] Forwarding map loaded for 'gros-41' as '0'
[2020-04-22 21:26:44.216018 CEST] [3798] [info] forwarding_mapper() Forward to 0
[2020-04-22 21:26:44.221038 CEST] [3800] [info] Forwarding map loaded for 'gros-41' as '0'
[2020-04-22 21:26:44.221117 CEST] [3800] [info] forwarding_mapper() Forward to 0
[2020-04-22 21:26:44.221917 CEST] [3796] [info] Forwarding map loaded for 'gros-41' as '0'
[2020-04-22 21:26:44.222069 CEST] [3796] [info] forwarding_mapper() Forward to 0
[2020-04-22 21:26:44.223954 CEST] [3801] [info] Forwarding map loaded for 'gros-41' as '0'
[2020-04-22 21:26:44.224103 CEST] [3801] [info] forwarding_mapper() Forward to 0
[2020-04-22 21:26:44.226274 CEST] [3805] [info] Forwarding map loaded for 'gros-41' as '0'
[2020-04-22 21:26:44.226423 CEST] [3805] [info] forwarding_mapper() Forward to 0
[2020-04-22 21:26:44.226849 CEST] [3799] [info] Forwarding map loaded for 'gros-41' as '0'
[2020-04-22 21:26:44.227000 CEST] [3799] [info] forwarding_mapper() Forward to 0
[2020-04-22 21:26:44.232340 CEST] [3795] [info] Forwarding map loaded for 'gros-41' as '0'
[2020-04-22 21:26:44.232494 CEST] [3795] [info] forwarding_mapper() Forward to 0
[2020-04-22 21:26:44.238243 CEST] [3797] [info] Forwarding map loaded for 'gros-41' as '0'
[2020-04-22 21:26:44.238315 CEST] [3797] [info] forwarding_mapper() Forward to 0
[2020-04-22 21:26:54.221413 CEST] [3798] [info] Forwarding map loaded for 'gros-41' as '0'
[2020-04-22 21:26:54.221597 CEST] [3798] [info] forwarding_mapper() Forward to 0
[2020-04-22 21:26:54.228867 CEST] [3801] [info] Forwarding map loaded for 'gros-41' as '0'
[2020-04-22 21:26:54.229025 CEST] [3801] [info] forwarding_mapper() Forward to 0
[2020-04-22 21:26:54.230418 CEST] [3800] [info] Forwarding map loaded for 'gros-41' as '0'
[2020-04-22 21:26:54.230587 CEST] [3800] [info] forwarding_mapper() Forward to 0
[2020-04-22 21:26:54.230996 CEST] [3805] [info] Forwarding map loaded for 'gros-41' as '0'
[2020-04-22 21:26:54.231143 CEST] [3805] [info] forwarding_mapper() Forward to 0
[2020-04-22 21:26:54.231607 CEST] [3799] [info] Forwarding map loaded for 'gros-41' as '0'
[2020-04-22 21:26:54.231764 CEST] [3799] [info] forwarding_mapper() Forward to 0
[2020-04-22 21:26:54.232130 CEST] [3796] [info] Forwarding map loaded for 'gros-41' as '0'
[2020-04-22 21:26:54.232285 CEST] [3796] [info] forwarding_mapper() Forward to 0
[2020-04-22 21:26:54.238356 CEST] [3795] [info] Forwarding map loaded for 'gros-41' as '0'
[2020-04-22 21:26:54.238454 CEST] [3795] [info] forwarding_mapper() Forward to 0
[2020-04-22 21:26:54.247111 CEST] [3797] [info] Forwarding map loaded for 'gros-41' as '0'
[2020-04-22 21:26:54.247208 CEST] [3797] [info] forwarding_mapper() Forward to 0
[2020-04-22 21:27:04.226806 CEST] [3798] [info] Forwarding map loaded for 'gros-41' as '0'
[2020-04-22 21:27:04.226980 CEST] [3798] [info] forwarding_mapper() Forward to 0
[2020-04-22 21:27:04.233686 CEST] [3801] [info] Forwarding map loaded for 'gros-41' as '0'
[2020-04-22 21:27:04.233822 CEST] [3801] [info] forwarding_mapper() Forward to 0
[2020-04-22 21:27:04.235725 CEST] [3800] [info] Forwarding map loaded for 'gros-41' as '0'
[2020-04-22 21:27:04.235885 CEST] [3800] [info] forwarding_mapper() Forward to 0
[2020-04-22 21:27:04.236254 CEST] [3799] [info] Forwarding map loaded for 'gros-41' as '0'
[2020-04-22 21:27:04.236329 CEST] [3805] [info] Forwarding map loaded for 'gros-41' as '0'
[2020-04-22 21:27:04.236400 CEST] [3799] [info] forwarding_mapper() Forward to 0
[2020-04-22 21:27:04.236473 CEST] [3805] [info] forwarding_mapper() Forward to 0
[2020-04-22 21:27:04.236920 CEST] [3796] [info] Forwarding map loaded for 'gros-41' as '0'
[2020-04-22 21:27:04.237071 CEST] [3796] [info] forwarding_mapper() Forward to 0
[2020-04-22 21:27:04.242277 CEST] [3795] [info] Forwarding map loaded for 'gros-41' as '0'
[2020-04-22 21:27:04.242360 CEST] [3795] [info] forwarding_mapper() Forward to 0
[2020-04-22 21:27:04.251193 CEST] [3797] [info] Forwarding map loaded for 'gros-41' as '0'
[2020-04-22 21:27:04.251275 CEST] [3797] [info] forwarding_mapper() Forward to 0
[2020-04-22 21:27:14.232297 CEST] [3798] [info] Forwarding map loaded for 'gros-41' as '0'
[2020-04-22 21:27:14.232468 CEST] [3798] [info] forwarding_mapper() Forward to 0
[2020-04-22 21:27:14.238457 CEST] [3801] [info] Forwarding map loaded for 'gros-41' as '0'
[2020-04-22 21:27:14.238605 CEST] [3801] [info] forwarding_mapper() Forward to 0
[2020-04-22 21:27:14.241081 CEST] [3799] [info] Forwarding map loaded for 'gros-41' as '0'
[2020-04-22 21:27:14.241241 CEST] [3799] [info] forwarding_mapper() Forward to 0
[2020-04-22 21:27:14.241536 CEST] [3796] [info] Forwarding map loaded for 'gros-41' as '0'
[2020-04-22 21:27:14.241695 CEST] [3796] [info] forwarding_mapper() Forward to 0
[2020-04-22 21:27:14.242721 CEST] [3800] [info] Forwarding map loaded for 'gros-41' as '0'
[2020-04-22 21:27:14.242869 CEST] [3800] [info] forwarding_mapper() Forward to 0
[2020-04-22 21:27:14.243353 CEST] [3805] [info] Forwarding map loaded for 'gros-41' as '0'
[2020-04-22 21:27:14.243504 CEST] [3805] [info] forwarding_mapper() Forward to 0
[2020-04-22 21:27:14.247751 CEST] [3795] [info] Forwarding map loaded for 'gros-41' as '0'
[2020-04-22 21:27:14.247834 CEST] [3795] [info] forwarding_mapper() Forward to 0
[2020-04-22 21:27:14.259820 CEST] [3797] [info] Forwarding map loaded for 'gros-41' as '0'
[2020-04-22 21:27:14.259895 CEST] [3797] [info] forwarding_mapper() Forward to 0
[2020-04-22 21:27:24.237679 CEST] [3798] [info] Forwarding map loaded for 'gros-41' as '0'
[2020-04-22 21:27:24.237853 CEST] [3798] [info] forwarding_mapper() Forward to 0
[2020-04-22 21:27:24.243328 CEST] [3801] [info] Forwarding map loaded for 'gros-41' as '0'
[2020-04-22 21:27:24.243476 CEST] [3801] [info] forwarding_mapper() Forward to 0
[2020-04-22 21:27:24.245841 CEST] [3799] [info] Forwarding map loaded for 'gros-41' as '0'
[2020-04-22 21:27:24.246003 CEST] [3799] [info] forwarding_mapper() Forward to 0
[2020-04-22 21:27:24.246069 CEST] [3796] [info] Forwarding map loaded for 'gros-41' as '0'
[2020-04-22 21:27:24.246214 CEST] [3796] [info] forwarding_mapper() Forward to 0
[2020-04-22 21:27:24.248016 CEST] [3800] [info] Forwarding map loaded for 'gros-41' as '0'
[2020-04-22 21:27:24.248162 CEST] [3800] [info] forwarding_mapper() Forward to 0
[2020-04-22 21:27:24.248308 CEST] [3805] [info] Forwarding map loaded for 'gros-41' as '0'
[2020-04-22 21:27:24.248456 CEST] [3805] [info] forwarding_mapper() Forward to 0
[2020-04-22 21:27:24.251672 CEST] [3795] [info] Forwarding map loaded for 'gros-41' as '0'
[2020-04-22 21:27:24.251755 CEST] [3795] [info] forwarding_mapper() Forward to 0
[2020-04-22 21:27:24.263866 CEST] [3797] [info] Forwarding map loaded for 'gros-41' as '0'
[2020-04-22 21:27:24.263946 CEST] [3797] [info] forwarding_mapper() Forward to 0
[2020-04-22 21:27:34.243874 CEST] [3798] [info] Forwarding map loaded for 'gros-41' as '0'
[2020-04-22 21:27:34.244074 CEST] [3798] [info] forwarding_mapper() Forward to 0
[2020-04-22 21:27:34.248496 CEST] [3801] [info] Forwarding map loaded for 'gros-41' as '0'
[2020-04-22 21:27:34.248682 CEST] [3801] [info] forwarding_mapper() Forward to 0
[2020-04-22 21:27:34.250782 CEST] [3796] [info] Forwarding map loaded for 'gros-41' as '0'
[2020-04-22 21:27:34.250792 CEST] [3799] [info] Forwarding map loaded for 'gros-41' as '0'
[2020-04-22 21:27:34.250958 CEST] [3796] [info] forwarding_mapper() Forward to 0
[2020-04-22 21:27:34.250968 CEST] [3799] [info] forwarding_mapper() Forward to 0
[2020-04-22 21:27:34.251970 CEST] [3800] [info] Forwarding map loaded for 'gros-41' as '0'
[2020-04-22 21:27:34.252078 CEST] [3800] [info] forwarding_mapper() Forward to 0
[2020-04-22 21:27:34.253021 CEST] [3805] [info] Forwarding map loaded for 'gros-41' as '0'
[2020-04-22 21:27:34.253184 CEST] [3805] [info] forwarding_mapper() Forward to 0
[2020-04-22 21:27:34.257215 CEST] [3795] [info] Forwarding map loaded for 'gros-41' as '0'
[2020-04-22 21:27:34.257405 CEST] [3795] [info] forwarding_mapper() Forward to 0
[2020-04-22 21:27:34.270298 CEST] [3797] [info] Forwarding map loaded for 'gros-41' as '0'
[2020-04-22 21:27:34.270477 CEST] [3797] [info] forwarding_mapper() Forward to 0
[2020-04-22 21:27:44.249656 CEST] [3798] [info] Forwarding map loaded for 'gros-41' as '0'
[2020-04-22 21:27:44.249833 CEST] [3798] [info] forwarding_mapper() Forward to 0
[2020-04-22 21:27:44.253145 CEST] [3801] [info] Forwarding map loaded for 'gros-41' as '0'
[2020-04-22 21:27:44.253309 CEST] [3801] [info] forwarding_mapper() Forward to 0
[2020-04-22 21:27:44.255378 CEST] [3800] [info] Forwarding map loaded for 'gros-41' as '0'
[2020-04-22 21:27:44.255353 CEST] [3799] [info] Forwarding map loaded for 'gros-41' as '0'
[2020-04-22 21:27:44.255467 CEST] [3800] [info] forwarding_mapper() Forward to 0
[2020-04-22 21:27:44.255407 CEST] [3796] [info] Forwarding map loaded for 'gros-41' as '0'
[2020-04-22 21:27:44.255500 CEST] [3799] [info] forwarding_mapper() Forward to 0
[2020-04-22 21:27:44.255558 CEST] [3796] [info] forwarding_mapper() Forward to 0
[2020-04-22 21:27:44.258609 CEST] [3805] [info] Forwarding map loaded for 'gros-41' as '0'
[2020-04-22 21:27:44.258767 CEST] [3805] [info] forwarding_mapper() Forward to 0
[2020-04-22 21:27:44.262888 CEST] [3795] [info] Forwarding map loaded for 'gros-41' as '0'
[2020-04-22 21:27:44.263046 CEST] [3795] [info] forwarding_mapper() Forward to 0
[2020-04-22 21:27:44.276756 CEST] [3797] [info] Forwarding map loaded for 'gros-41' as '0'
[2020-04-22 21:27:44.276923 CEST] [3797] [info] forwarding_mapper() Forward to 0
[2020-04-22 21:27:54.255264 CEST] [3798] [info] Forwarding map loaded for 'gros-41' as '0'
[2020-04-22 21:27:54.255432 CEST] [3798] [info] forwarding_mapper() Forward to 0
[2020-04-22 21:27:54.257801 CEST] [3801] [info] Forwarding map loaded for 'gros-41' as '0'
[2020-04-22 21:27:54.257957 CEST] [3801] [info] forwarding_mapper() Forward to 0
[2020-04-22 21:27:54.259841 CEST] [3799] [info] Forwarding map loaded for 'gros-41' as '0'
[2020-04-22 21:27:54.259999 CEST] [3799] [info] forwarding_mapper() Forward to 0
[2020-04-22 21:27:54.260049 CEST] [3796] [info] Forwarding map loaded for 'gros-41' as '0'
[2020-04-22 21:27:54.260195 CEST] [3796] [info] forwarding_mapper() Forward to 0
[2020-04-22 21:27:54.260635 CEST] [3800] [info] Forwarding map loaded for 'gros-41' as '0'
[2020-04-22 21:27:54.260719 CEST] [3800] [info] forwarding_mapper() Forward to 0
[2020-04-22 21:27:54.269175 CEST] [3795] [info] Forwarding map loaded for 'gros-41' as '0'
[2020-04-22 21:27:54.269308 CEST] [3795] [info] forwarding_mapper() Forward to 0
[2020-04-22 21:27:54.269730 CEST] [3805] [info] Forwarding map loaded for 'gros-41' as '0'
[2020-04-22 21:27:54.269882 CEST] [3805] [info] forwarding_mapper() Forward to 0
[2020-04-22 21:27:54.287804 CEST] [3797] [info] Forwarding map loaded for 'gros-41' as '0'
[2020-04-22 21:27:54.287946 CEST] [3797] [info] forwarding_mapper() Forward to 0
[2020-04-22 21:28:04.260696 CEST] [3798] [info] Forwarding map loaded for 'gros-41' as '0'
[2020-04-22 21:28:04.260863 CEST] [3798] [info] forwarding_mapper() Forward to 0
[2020-04-22 21:28:04.262402 CEST] [3801] [info] Forwarding map loaded for 'gros-41' as '0'
[2020-04-22 21:28:04.262562 CEST] [3801] [info] forwarding_mapper() Forward to 0
[2020-04-22 21:28:04.263835 CEST] [3800] [info] Forwarding map loaded for 'gros-41' as '0'
[2020-04-22 21:28:04.263909 CEST] [3800] [info] forwarding_mapper() Forward to 0
[2020-04-22 21:28:04.264471 CEST] [3799] [info] Forwarding map loaded for 'gros-41' as '0'
[2020-04-22 21:28:04.264616 CEST] [3799] [info] forwarding_mapper() Forward to 0
[2020-04-22 21:28:04.265054 CEST] [3796] [info] Forwarding map loaded for 'gros-41' as '0'
[2020-04-22 21:28:04.265202 CEST] [3796] [info] forwarding_mapper() Forward to 0
[2020-04-22 21:28:04.274755 CEST] [3795] [info] Forwarding map loaded for 'gros-41' as '0'
[2020-04-22 21:28:04.274901 CEST] [3795] [info] forwarding_mapper() Forward to 0
[2020-04-22 21:28:04.275232 CEST] [3805] [info] Forwarding map loaded for 'gros-41' as '0'
[2020-04-22 21:28:04.275381 CEST] [3805] [info] forwarding_mapper() Forward to 0
[2020-04-22 21:28:04.294074 CEST] [3797] [info] Forwarding map loaded for 'gros-41' as '0'
[2020-04-22 21:28:04.294225 CEST] [3797] [info] forwarding_mapper() Forward to 0
[2020-04-22 21:28:14.266097 CEST] [3798] [info] Forwarding map loaded for 'gros-41' as '0'
[2020-04-22 21:28:14.266262 CEST] [3798] [info] forwarding_mapper() Forward to 0
[2020-04-22 21:28:14.266612 CEST] [3800] [info] Forwarding map loaded for 'gros-41' as '0'
[2020-04-22 21:28:14.266703 CEST] [3800] [info] forwarding_mapper() Forward to 0
[2020-04-22 21:28:14.266968 CEST] [3801] [info] Forwarding map loaded for 'gros-41' as '0'
[2020-04-22 21:28:14.267113 CEST] [3801] [info] forwarding_mapper() Forward to 0
[2020-04-22 21:28:14.269148 CEST] [3799] [info] Forwarding map loaded for 'gros-41' as '0'
[2020-04-22 21:28:14.269293 CEST] [3799] [info] forwarding_mapper() Forward to 0
[2020-04-22 21:28:14.270401 CEST] [3796] [info] Forwarding map loaded for 'gros-41' as '0'
[2020-04-22 21:28:14.270549 CEST] [3796] [info] forwarding_mapper() Forward to 0
[2020-04-22 21:28:14.280285 CEST] [3805] [info] Forwarding map loaded for 'gros-41' as '0'
[2020-04-22 21:28:14.280431 CEST] [3805] [info] forwarding_mapper() Forward to 0
[2020-04-22 21:28:14.280959 CEST] [3795] [info] Forwarding map loaded for 'gros-41' as '0'
[2020-04-22 21:28:14.281111 CEST] [3795] [info] forwarding_mapper() Forward to 0
[2020-04-22 21:28:14.305104 CEST] [3797] [info] Forwarding map loaded for 'gros-41' as '0'
[2020-04-22 21:28:14.305256 CEST] [3797] [info] forwarding_mapper() Forward to 0
[2020-04-22 21:28:24.318868 CEST] [3759] [info] All subsystems shut down. Client shutdown complete.
[2020-04-22 21:28:24.323956 CEST] [3760] [info] All subsystems shut down. Client shutdown complete.
[2020-04-22 21:28:24.325030 CEST] [3754] [info] All subsystems shut down. Client shutdown complete.
[2020-04-22 21:28:24.341218 CEST] [3758] [info] All subsystems shut down. Client shutdown complete.
[2020-04-22 21:28:24.343355 CEST] [3757] [info] All subsystems shut down. Client shutdown complete.
[2020-04-22 21:28:24.347336 CEST] [3755] [info] All subsystems shut down. Client shutdown complete.
[2020-04-22 21:28:24.359176 CEST] [3756] [info] All subsystems shut down. Client shutdown complete.
[2020-04-22 21:28:24.359374 CEST] [3761] [info] All subsystems shut down. Client shutdown complete.
