[2020-04-22 20:19:27.104716 CEST] [3330] [info] Process cmdline: '/root/benchmarks/ior-3.2.1/src/ior -a POSIX -b 128m -t 2m -B -w -r -o /mnt/gkfs/output-E-1'
[2020-04-22 20:19:27.105000 CEST] [3330] [info] Initializing RPC subsystem...
[2020-04-22 20:19:27.104981 CEST] [3331] [info] Process cmdline: '/root/benchmarks/ior-3.2.1/src/ior -a POSIX -b 128m -t 2m -B -w -r -o /mnt/gkfs/output-E-1'
[2020-04-22 20:19:27.105025 CEST] [3332] [info] Process cmdline: '/root/benchmarks/ior-3.2.1/src/ior -a POSIX -b 128m -t 2m -B -w -r -o /mnt/gkfs/output-E-1'
[2020-04-22 20:19:27.105036 CEST] [3326] [info] Process cmdline: '/root/benchmarks/ior-3.2.1/src/ior -a POSIX -b 128m -t 2m -B -w -r -o /mnt/gkfs/output-E-1'
[2020-04-22 20:19:27.105233 CEST] [3331] [info] Initializing RPC subsystem...
[2020-04-22 20:19:27.105050 CEST] [3328] [info] Process cmdline: '/root/benchmarks/ior-3.2.1/src/ior -a POSIX -b 128m -t 2m -B -w -r -o /mnt/gkfs/output-E-1'
[2020-04-22 20:19:27.105068 CEST] [3327] [info] Process cmdline: '/root/benchmarks/ior-3.2.1/src/ior -a POSIX -b 128m -t 2m -B -w -r -o /mnt/gkfs/output-E-1'
[2020-04-22 20:19:27.105257 CEST] [3332] [info] Initializing RPC subsystem...
[2020-04-22 20:19:27.105261 CEST] [3326] [info] Initializing RPC subsystem...
[2020-04-22 20:19:27.105280 CEST] [3328] [info] Initializing RPC subsystem...
[2020-04-22 20:19:27.105296 CEST] [3327] [info] Initializing RPC subsystem...
[2020-04-22 20:19:27.105110 CEST] [3325] [info] Process cmdline: '/root/benchmarks/ior-3.2.1/src/ior -a POSIX -b 128m -t 2m -B -w -r -o /mnt/gkfs/output-E-1'
[2020-04-22 20:19:27.105343 CEST] [3325] [info] Initializing RPC subsystem...
[2020-04-22 20:19:27.124705 CEST] [3329] [info] Process cmdline: '/root/benchmarks/ior-3.2.1/src/ior -a POSIX -b 128m -t 2m -B -w -r -o /mnt/gkfs/output-E-1'
[2020-04-22 20:19:27.124953 CEST] [3329] [info] Initializing RPC subsystem...
[2020-04-22 20:19:27.145301 CEST] [3328] [info] Loading peer addresses...
[2020-04-22 20:19:27.146989 CEST] [3327] [info] Loading peer addresses...
[2020-04-22 20:19:27.147013 CEST] [3332] [info] Loading peer addresses...
[2020-04-22 20:19:27.148812 CEST] [3325] [info] Loading peer addresses...
[2020-04-22 20:19:27.148979 CEST] [3327] [info] Hosts pool size: 12
[2020-04-22 20:19:27.149163 CEST] [3332] [info] Hosts pool size: 12
[2020-04-22 20:19:27.149308 CEST] [3328] [info] Hosts pool size: 12
[2020-04-22 20:19:27.150188 CEST] [3326] [info] Loading peer addresses...
[2020-04-22 20:19:27.150915 CEST] [3325] [info] Hosts pool size: 12
[2020-04-22 20:19:27.152013 CEST] [3326] [info] Hosts pool size: 12
[2020-04-22 20:19:27.152098 CEST] [3331] [info] Loading peer addresses...
[2020-04-22 20:19:27.153209 CEST] [3329] [info] Loading peer addresses...
[2020-04-22 20:19:27.153325 CEST] [3330] [info] Loading peer addresses...
[2020-04-22 20:19:27.153851 CEST] [3332] [info] Forwarding map loaded for 'gros-89' as '10'
[2020-04-22 20:19:27.153942 CEST] [3332] [info] init_ld_environment_() Forward to 10
[2020-04-22 20:19:27.154024 CEST] [3332] [info] Retrieving file system configuration...
[2020-04-22 20:19:27.154211 CEST] [3325] [info] Forwarding map loaded for 'gros-89' as '10'
[2020-04-22 20:19:27.154204 CEST] [3327] [info] Forwarding map loaded for 'gros-89' as '10'
[2020-04-22 20:19:27.154273 CEST] [3325] [info] init_ld_environment_() Forward to 10
[2020-04-22 20:19:27.154286 CEST] [3327] [info] init_ld_environment_() Forward to 10
[2020-04-22 20:19:27.154324 CEST] [3325] [info] Retrieving file system configuration...
[2020-04-22 20:19:27.154349 CEST] [3327] [info] Retrieving file system configuration...
[2020-04-22 20:19:27.154787 CEST] [3329] [info] Hosts pool size: 12
[2020-04-22 20:19:27.154888 CEST] [3326] [info] Forwarding map loaded for 'gros-89' as '10'
[2020-04-22 20:19:27.154950 CEST] [3326] [info] init_ld_environment_() Forward to 10
[2020-04-22 20:19:27.154996 CEST] [3326] [info] Retrieving file system configuration...
[2020-04-22 20:19:27.155128 CEST] [3330] [info] Hosts pool size: 12
[2020-04-22 20:19:27.155393 CEST] [3328] [info] Forwarding map loaded for 'gros-89' as '10'
[2020-04-22 20:19:27.155561 CEST] [3328] [info] init_ld_environment_() Forward to 10
[2020-04-22 20:19:27.155677 CEST] [3328] [info] Retrieving file system configuration...
[2020-04-22 20:19:27.156933 CEST] [3331] [info] Hosts pool size: 12
[2020-04-22 20:19:27.158973 CEST] [3329] [info] Forwarding map loaded for 'gros-89' as '10'
[2020-04-22 20:19:27.159032 CEST] [3329] [info] init_ld_environment_() Forward to 10
[2020-04-22 20:19:27.159078 CEST] [3329] [info] Retrieving file system configuration...
[2020-04-22 20:19:27.159268 CEST] [3330] [info] Forwarding map loaded for 'gros-89' as '10'
[2020-04-22 20:19:27.159336 CEST] [3330] [info] init_ld_environment_() Forward to 10
[2020-04-22 20:19:27.159388 CEST] [3330] [info] Retrieving file system configuration...
[2020-04-22 20:19:27.165785 CEST] [3331] [info] Forwarding map loaded for 'gros-89' as '10'
[2020-04-22 20:19:27.165952 CEST] [3331] [info] init_ld_environment_() Forward to 10
[2020-04-22 20:19:27.166081 CEST] [3331] [info] Retrieving file system configuration...
[2020-04-22 20:19:27.183849 CEST] [3332] [info] Mountdir: '/mnt/gkfs'
[2020-04-22 20:19:27.183917 CEST] [3332] [info] Environment initialization successful.
[2020-04-22 20:19:27.184071 CEST] [3325] [info] Mountdir: '/mnt/gkfs'
[2020-04-22 20:19:27.184153 CEST] [3325] [info] Environment initialization successful.
[2020-04-22 20:19:27.184547 CEST] [3327] [info] Mountdir: '/mnt/gkfs'
[2020-04-22 20:19:27.184621 CEST] [3326] [info] Mountdir: '/mnt/gkfs'
[2020-04-22 20:19:27.184673 CEST] [3326] [info] Environment initialization successful.
[2020-04-22 20:19:27.184654 CEST] [3327] [info] Environment initialization successful.
[2020-04-22 20:19:27.190328 CEST] [3329] [info] Mountdir: '/mnt/gkfs'
[2020-04-22 20:19:27.190386 CEST] [3329] [info] Environment initialization successful.
[2020-04-22 20:19:27.190605 CEST] [3330] [info] Mountdir: '/mnt/gkfs'
[2020-04-22 20:19:27.190730 CEST] [3330] [info] Environment initialization successful.
[2020-04-22 20:19:27.201654 CEST] [3365] [info] Forwarding map loaded for 'gros-89' as '10'
[2020-04-22 20:19:27.202037 CEST] [3365] [info] forwarding_mapper() Forward to 10
[2020-04-22 20:19:27.204929 CEST] [3366] [info] Forwarding map loaded for 'gros-89' as '10'
[2020-04-22 20:19:27.205082 CEST] [3366] [info] forwarding_mapper() Forward to 10
[2020-04-22 20:19:27.207007 CEST] [3367] [info] Forwarding map loaded for 'gros-89' as '10'
[2020-04-22 20:19:27.207131 CEST] [3367] [info] forwarding_mapper() Forward to 10
[2020-04-22 20:19:27.209135 CEST] [3369] [info] Forwarding map loaded for 'gros-89' as '10'
[2020-04-22 20:19:27.209288 CEST] [3369] [info] forwarding_mapper() Forward to 10
[2020-04-22 20:19:27.213414 CEST] [3373] [info] Forwarding map loaded for 'gros-89' as '10'
[2020-04-22 20:19:27.213812 CEST] [3373] [info] forwarding_mapper() Forward to 10
[2020-04-22 20:19:27.219820 CEST] [3377] [info] Forwarding map loaded for 'gros-89' as '10'
[2020-04-22 20:19:27.220052 CEST] [3377] [info] forwarding_mapper() Forward to 10
[2020-04-22 20:19:27.380426 CEST] [3331] [info] Mountdir: '/mnt/gkfs'
[2020-04-22 20:19:27.380575 CEST] [3331] [info] Environment initialization successful.
[2020-04-22 20:19:27.409153 CEST] [3383] [info] Forwarding map loaded for 'gros-89' as '10'
[2020-04-22 20:19:27.409356 CEST] [3383] [info] forwarding_mapper() Forward to 10
[2020-04-22 20:19:28.160005 CEST] [3328] [info] Mountdir: '/mnt/gkfs'
[2020-04-22 20:19:28.160163 CEST] [3328] [info] Environment initialization successful.
[2020-04-22 20:19:28.189989 CEST] [3386] [info] Forwarding map loaded for 'gros-89' as '10'
[2020-04-22 20:19:28.190220 CEST] [3386] [info] forwarding_mapper() Forward to 10
[2020-04-22 20:19:37.208468 CEST] [3365] [info] Forwarding map loaded for 'gros-89' as '10'
[2020-04-22 20:19:37.208647 CEST] [3365] [info] forwarding_mapper() Forward to 10
[2020-04-22 20:19:37.212943 CEST] [3366] [info] Forwarding map loaded for 'gros-89' as '10'
[2020-04-22 20:19:37.213097 CEST] [3366] [info] forwarding_mapper() Forward to 10
[2020-04-22 20:19:37.214120 CEST] [3369] [info] Forwarding map loaded for 'gros-89' as '10'
[2020-04-22 20:19:37.214301 CEST] [3369] [info] forwarding_mapper() Forward to 10
[2020-04-22 20:19:37.214672 CEST] [3367] [info] Forwarding map loaded for 'gros-89' as '10'
[2020-04-22 20:19:37.214827 CEST] [3367] [info] forwarding_mapper() Forward to 10
[2020-04-22 20:19:37.218948 CEST] [3373] [info] Forwarding map loaded for 'gros-89' as '10'
[2020-04-22 20:19:37.219106 CEST] [3373] [info] forwarding_mapper() Forward to 10
[2020-04-22 20:19:37.225701 CEST] [3377] [info] Forwarding map loaded for 'gros-89' as '10'
[2020-04-22 20:19:37.225856 CEST] [3377] [info] forwarding_mapper() Forward to 10
[2020-04-22 20:19:37.415330 CEST] [3383] [info] Forwarding map loaded for 'gros-89' as '10'
[2020-04-22 20:19:37.415489 CEST] [3383] [info] forwarding_mapper() Forward to 10
[2020-04-22 20:19:38.201290 CEST] [3386] [info] Forwarding map loaded for 'gros-89' as '10'
[2020-04-22 20:19:38.201446 CEST] [3386] [info] forwarding_mapper() Forward to 10
[2020-04-22 20:19:47.214422 CEST] [3365] [info] Forwarding map loaded for 'gros-89' as '10'
[2020-04-22 20:19:47.214586 CEST] [3365] [info] forwarding_mapper() Forward to 10
[2020-04-22 20:19:47.219848 CEST] [3369] [info] Forwarding map loaded for 'gros-89' as '10'
[2020-04-22 20:19:47.220012 CEST] [3369] [info] forwarding_mapper() Forward to 10
[2020-04-22 20:19:47.223775 CEST] [3373] [info] Forwarding map loaded for 'gros-89' as '10'
[2020-04-22 20:19:47.223932 CEST] [3373] [info] forwarding_mapper() Forward to 10
[2020-04-22 20:19:47.225427 CEST] [3366] [info] Forwarding map loaded for 'gros-89' as '10'
[2020-04-22 20:19:47.225578 CEST] [3366] [info] forwarding_mapper() Forward to 10
[2020-04-22 20:19:47.227155 CEST] [3367] [info] Forwarding map loaded for 'gros-89' as '10'
[2020-04-22 20:19:47.227306 CEST] [3367] [info] forwarding_mapper() Forward to 10
[2020-04-22 20:19:47.230945 CEST] [3377] [info] Forwarding map loaded for 'gros-89' as '10'
[2020-04-22 20:19:47.231105 CEST] [3377] [info] forwarding_mapper() Forward to 10
[2020-04-22 20:19:47.429778 CEST] [3383] [info] Forwarding map loaded for 'gros-89' as '10'
[2020-04-22 20:19:47.429944 CEST] [3383] [info] forwarding_mapper() Forward to 10
[2020-04-22 20:19:48.207926 CEST] [3386] [info] Forwarding map loaded for 'gros-89' as '10'
[2020-04-22 20:19:48.208085 CEST] [3386] [info] forwarding_mapper() Forward to 10
[2020-04-22 20:19:57.220773 CEST] [3365] [info] Forwarding map loaded for 'gros-89' as '10'
[2020-04-22 20:19:57.220945 CEST] [3365] [info] forwarding_mapper() Forward to 10
[2020-04-22 20:19:57.225276 CEST] [3369] [info] Forwarding map loaded for 'gros-89' as '10'
[2020-04-22 20:19:57.225431 CEST] [3369] [info] forwarding_mapper() Forward to 10
[2020-04-22 20:19:57.229068 CEST] [3373] [info] Forwarding map loaded for 'gros-89' as '10'
[2020-04-22 20:19:57.229220 CEST] [3373] [info] forwarding_mapper() Forward to 10
[2020-04-22 20:19:57.233565 CEST] [3366] [info] Forwarding map loaded for 'gros-89' as '10'
[2020-04-22 20:19:57.233716 CEST] [3366] [info] forwarding_mapper() Forward to 10
[2020-04-22 20:19:57.234891 CEST] [3367] [info] Forwarding map loaded for 'gros-89' as '10'
[2020-04-22 20:19:57.235047 CEST] [3367] [info] forwarding_mapper() Forward to 10
[2020-04-22 20:19:57.236221 CEST] [3377] [info] Forwarding map loaded for 'gros-89' as '10'
[2020-04-22 20:19:57.236382 CEST] [3377] [info] forwarding_mapper() Forward to 10
[2020-04-22 20:19:57.439296 CEST] [3383] [info] Forwarding map loaded for 'gros-89' as '10'
[2020-04-22 20:19:57.439453 CEST] [3383] [info] forwarding_mapper() Forward to 10
[2020-04-22 20:19:58.219151 CEST] [3386] [info] Forwarding map loaded for 'gros-89' as '10'
[2020-04-22 20:19:58.219308 CEST] [3386] [info] forwarding_mapper() Forward to 10
[2020-04-22 20:20:07.226739 CEST] [3365] [info] Forwarding map loaded for 'gros-89' as '10'
[2020-04-22 20:20:07.226900 CEST] [3365] [info] forwarding_mapper() Forward to 10
[2020-04-22 20:20:07.231233 CEST] [3369] [info] Forwarding map loaded for 'gros-89' as '10'
[2020-04-22 20:20:07.231387 CEST] [3369] [info] forwarding_mapper() Forward to 10
[2020-04-22 20:20:07.234404 CEST] [3373] [info] Forwarding map loaded for 'gros-89' as '10'
[2020-04-22 20:20:07.234559 CEST] [3373] [info] forwarding_mapper() Forward to 10
[2020-04-22 20:20:07.242002 CEST] [3377] [info] Forwarding map loaded for 'gros-89' as '10'
[2020-04-22 20:20:07.242174 CEST] [3377] [info] forwarding_mapper() Forward to 10
[2020-04-22 20:20:07.246331 CEST] [3366] [info] Forwarding map loaded for 'gros-89' as '10'
[2020-04-22 20:20:07.246481 CEST] [3366] [info] forwarding_mapper() Forward to 10
[2020-04-22 20:20:07.247878 CEST] [3367] [info] Forwarding map loaded for 'gros-89' as '10'
[2020-04-22 20:20:07.248037 CEST] [3367] [info] forwarding_mapper() Forward to 10
[2020-04-22 20:20:07.446405 CEST] [3383] [info] Forwarding map loaded for 'gros-89' as '10'
[2020-04-22 20:20:07.446572 CEST] [3383] [info] forwarding_mapper() Forward to 10
[2020-04-22 20:20:08.225519 CEST] [3386] [info] Forwarding map loaded for 'gros-89' as '10'
[2020-04-22 20:20:08.225676 CEST] [3386] [info] forwarding_mapper() Forward to 10
[2020-04-22 20:20:17.232208 CEST] [3365] [info] Forwarding map loaded for 'gros-89' as '10'
[2020-04-22 20:20:17.232365 CEST] [3365] [info] forwarding_mapper() Forward to 10
[2020-04-22 20:20:17.238162 CEST] [3369] [info] Forwarding map loaded for 'gros-89' as '10'
[2020-04-22 20:20:17.238378 CEST] [3369] [info] forwarding_mapper() Forward to 10
[2020-04-22 20:20:17.239632 CEST] [3373] [info] Forwarding map loaded for 'gros-89' as '10'
[2020-04-22 20:20:17.239788 CEST] [3373] [info] forwarding_mapper() Forward to 10
[2020-04-22 20:20:17.250463 CEST] [3377] [info] Forwarding map loaded for 'gros-89' as '10'
[2020-04-22 20:20:17.250614 CEST] [3377] [info] forwarding_mapper() Forward to 10
[2020-04-22 20:20:17.254111 CEST] [3366] [info] Forwarding map loaded for 'gros-89' as '10'
[2020-04-22 20:20:17.254260 CEST] [3366] [info] forwarding_mapper() Forward to 10
[2020-04-22 20:20:17.256114 CEST] [3367] [info] Forwarding map loaded for 'gros-89' as '10'
[2020-04-22 20:20:17.256265 CEST] [3367] [info] forwarding_mapper() Forward to 10
[2020-04-22 20:20:17.455838 CEST] [3383] [info] Forwarding map loaded for 'gros-89' as '10'
[2020-04-22 20:20:17.456004 CEST] [3383] [info] forwarding_mapper() Forward to 10
[2020-04-22 20:20:18.236750 CEST] [3386] [info] Forwarding map loaded for 'gros-89' as '10'
[2020-04-22 20:20:18.236922 CEST] [3386] [info] forwarding_mapper() Forward to 10
[2020-04-22 20:20:27.238062 CEST] [3365] [info] Forwarding map loaded for 'gros-89' as '10'
[2020-04-22 20:20:27.238224 CEST] [3365] [info] forwarding_mapper() Forward to 10
[2020-04-22 20:20:27.244017 CEST] [3369] [info] Forwarding map loaded for 'gros-89' as '10'
[2020-04-22 20:20:27.244170 CEST] [3369] [info] forwarding_mapper() Forward to 10
[2020-04-22 20:20:27.244833 CEST] [3373] [info] Forwarding map loaded for 'gros-89' as '10'
[2020-04-22 20:20:27.245001 CEST] [3373] [info] forwarding_mapper() Forward to 10
[2020-04-22 20:20:27.256245 CEST] [3377] [info] Forwarding map loaded for 'gros-89' as '10'
[2020-04-22 20:20:27.256399 CEST] [3377] [info] forwarding_mapper() Forward to 10
[2020-04-22 20:20:27.267432 CEST] [3366] [info] Forwarding map loaded for 'gros-89' as '10'
[2020-04-22 20:20:27.267583 CEST] [3366] [info] forwarding_mapper() Forward to 10
[2020-04-22 20:20:27.269120 CEST] [3367] [info] Forwarding map loaded for 'gros-89' as '10'
[2020-04-22 20:20:27.269278 CEST] [3367] [info] forwarding_mapper() Forward to 10
[2020-04-22 20:20:27.469998 CEST] [3383] [info] Forwarding map loaded for 'gros-89' as '10'
[2020-04-22 20:20:27.470155 CEST] [3383] [info] forwarding_mapper() Forward to 10
[2020-04-22 20:20:28.243174 CEST] [3386] [info] Forwarding map loaded for 'gros-89' as '10'
[2020-04-22 20:20:28.243330 CEST] [3386] [info] forwarding_mapper() Forward to 10
[2020-04-22 20:20:37.244113 CEST] [3365] [info] Forwarding map loaded for 'gros-89' as '10'
[2020-04-22 20:20:37.244275 CEST] [3365] [info] forwarding_mapper() Forward to 10
[2020-04-22 20:20:37.249637 CEST] [3373] [info] Forwarding map loaded for 'gros-89' as '10'
[2020-04-22 20:20:37.249801 CEST] [3373] [info] forwarding_mapper() Forward to 10
[2020-04-22 20:20:37.250074 CEST] [3369] [info] Forwarding map loaded for 'gros-89' as '10'
[2020-04-22 20:20:37.250237 CEST] [3369] [info] forwarding_mapper() Forward to 10
[2020-04-22 20:20:37.262056 CEST] [3377] [info] Forwarding map loaded for 'gros-89' as '10'
[2020-04-22 20:20:37.262209 CEST] [3377] [info] forwarding_mapper() Forward to 10
[2020-04-22 20:20:37.274479 CEST] [3366] [info] Forwarding map loaded for 'gros-89' as '10'
[2020-04-22 20:20:37.274629 CEST] [3366] [info] forwarding_mapper() Forward to 10
[2020-04-22 20:20:37.277405 CEST] [3367] [info] Forwarding map loaded for 'gros-89' as '10'
[2020-04-22 20:20:37.277558 CEST] [3367] [info] forwarding_mapper() Forward to 10
[2020-04-22 20:20:37.477445 CEST] [3383] [info] Forwarding map loaded for 'gros-89' as '10'
[2020-04-22 20:20:37.477602 CEST] [3383] [info] forwarding_mapper() Forward to 10
[2020-04-22 20:20:38.254376 CEST] [3386] [info] Forwarding map loaded for 'gros-89' as '10'
[2020-04-22 20:20:38.254532 CEST] [3386] [info] forwarding_mapper() Forward to 10
[2020-04-22 20:20:47.255132 CEST] [3373] [info] Forwarding map loaded for 'gros-89' as '10'
[2020-04-22 20:20:47.255293 CEST] [3373] [info] forwarding_mapper() Forward to 10
[2020-04-22 20:20:47.255960 CEST] [3369] [info] Forwarding map loaded for 'gros-89' as '10'
[2020-04-22 20:20:47.256113 CEST] [3369] [info] forwarding_mapper() Forward to 10
[2020-04-22 20:20:47.257360 CEST] [3365] [info] Forwarding map loaded for 'gros-89' as '10'
[2020-04-22 20:20:47.257513 CEST] [3365] [info] forwarding_mapper() Forward to 10
[2020-04-22 20:20:47.276089 CEST] [3377] [info] Forwarding map loaded for 'gros-89' as '10'
[2020-04-22 20:20:47.276246 CEST] [3377] [info] forwarding_mapper() Forward to 10
[2020-04-22 20:20:47.287539 CEST] [3366] [info] Forwarding map loaded for 'gros-89' as '10'
[2020-04-22 20:20:47.287687 CEST] [3366] [info] forwarding_mapper() Forward to 10
[2020-04-22 20:20:47.290494 CEST] [3367] [info] Forwarding map loaded for 'gros-89' as '10'
[2020-04-22 20:20:47.290648 CEST] [3367] [info] forwarding_mapper() Forward to 10
[2020-04-22 20:20:47.491960 CEST] [3383] [info] Forwarding map loaded for 'gros-89' as '10'
[2020-04-22 20:20:47.492117 CEST] [3383] [info] forwarding_mapper() Forward to 10
[2020-04-22 20:20:48.260738 CEST] [3386] [info] Forwarding map loaded for 'gros-89' as '10'
[2020-04-22 20:20:48.260892 CEST] [3386] [info] forwarding_mapper() Forward to 10
[2020-04-22 20:20:57.354061 CEST] [3365] [info] Forwarding map loaded for 'gros-89' as '10'
[2020-04-22 20:20:57.354249 CEST] [3365] [info] forwarding_mapper() Forward to 10
[2020-04-22 20:20:57.357480 CEST] [3377] [info] Forwarding map loaded for 'gros-89' as '10'
[2020-04-22 20:20:57.357639 CEST] [3377] [info] forwarding_mapper() Forward to 10
[2020-04-22 20:20:57.357887 CEST] [3369] [info] Forwarding map loaded for 'gros-89' as '10'
[2020-04-22 20:20:57.358048 CEST] [3369] [info] forwarding_mapper() Forward to 10
[2020-04-22 20:20:57.358321 CEST] [3373] [info] Forwarding map loaded for 'gros-89' as '10'
[2020-04-22 20:20:57.358472 CEST] [3373] [info] forwarding_mapper() Forward to 10
[2020-04-22 20:20:57.358721 CEST] [3366] [info] Forwarding map loaded for 'gros-89' as '10'
[2020-04-22 20:20:57.358870 CEST] [3366] [info] forwarding_mapper() Forward to 10
[2020-04-22 20:20:57.359425 CEST] [3367] [info] Forwarding map loaded for 'gros-89' as '10'
[2020-04-22 20:20:57.359577 CEST] [3367] [info] forwarding_mapper() Forward to 10
[2020-04-22 20:20:57.498480 CEST] [3383] [info] Forwarding map loaded for 'gros-89' as '10'
[2020-04-22 20:20:57.498639 CEST] [3383] [info] forwarding_mapper() Forward to 10
[2020-04-22 20:20:58.272242 CEST] [3386] [info] Forwarding map loaded for 'gros-89' as '10'
[2020-04-22 20:20:58.272400 CEST] [3386] [info] forwarding_mapper() Forward to 10
[2020-04-22 20:21:07.363427 CEST] [3369] [info] Forwarding map loaded for 'gros-89' as '10'
[2020-04-22 20:21:07.363593 CEST] [3369] [info] forwarding_mapper() Forward to 10
[2020-04-22 20:21:07.363851 CEST] [3377] [info] Forwarding map loaded for 'gros-89' as '10'
[2020-04-22 20:21:07.364020 CEST] [3377] [info] forwarding_mapper() Forward to 10
[2020-04-22 20:21:07.363978 CEST] [3373] [info] Forwarding map loaded for 'gros-89' as '10'
[2020-04-22 20:21:07.364124 CEST] [3373] [info] forwarding_mapper() Forward to 10
[2020-04-22 20:21:07.367414 CEST] [3365] [info] Forwarding map loaded for 'gros-89' as '10'
[2020-04-22 20:21:07.367567 CEST] [3365] [info] forwarding_mapper() Forward to 10
[2020-04-22 20:21:07.371914 CEST] [3366] [info] Forwarding map loaded for 'gros-89' as '10'
[2020-04-22 20:21:07.372064 CEST] [3366] [info] forwarding_mapper() Forward to 10
[2020-04-22 20:21:07.372686 CEST] [3367] [info] Forwarding map loaded for 'gros-89' as '10'
[2020-04-22 20:21:07.372842 CEST] [3367] [info] forwarding_mapper() Forward to 10
[2020-04-22 20:21:07.504795 CEST] [3383] [info] Forwarding map loaded for 'gros-89' as '10'
[2020-04-22 20:21:07.504960 CEST] [3383] [info] forwarding_mapper() Forward to 10
[2020-04-22 20:21:08.278803 CEST] [3386] [info] Forwarding map loaded for 'gros-89' as '10'
[2020-04-22 20:21:08.278970 CEST] [3386] [info] forwarding_mapper() Forward to 10
[2020-04-22 20:21:17.369211 CEST] [3369] [info] Forwarding map loaded for 'gros-89' as '10'
[2020-04-22 20:21:17.369370 CEST] [3369] [info] forwarding_mapper() Forward to 10
[2020-04-22 20:21:17.369622 CEST] [3373] [info] Forwarding map loaded for 'gros-89' as '10'
[2020-04-22 20:21:17.369773 CEST] [3373] [info] forwarding_mapper() Forward to 10
[2020-04-22 20:21:17.372214 CEST] [3377] [info] Forwarding map loaded for 'gros-89' as '10'
[2020-04-22 20:21:17.372362 CEST] [3377] [info] forwarding_mapper() Forward to 10
[2020-04-22 20:21:17.375588 CEST] [3365] [info] Forwarding map loaded for 'gros-89' as '10'
[2020-04-22 20:21:17.375736 CEST] [3365] [info] forwarding_mapper() Forward to 10
[2020-04-22 20:21:17.376789 CEST] [3366] [info] Forwarding map loaded for 'gros-89' as '10'
[2020-04-22 20:21:17.376944 CEST] [3366] [info] forwarding_mapper() Forward to 10
[2020-04-22 20:21:17.381363 CEST] [3367] [info] Forwarding map loaded for 'gros-89' as '10'
[2020-04-22 20:21:17.381522 CEST] [3367] [info] forwarding_mapper() Forward to 10
[2020-04-22 20:21:17.511101 CEST] [3383] [info] Forwarding map loaded for 'gros-89' as '10'
[2020-04-22 20:21:17.511259 CEST] [3383] [info] forwarding_mapper() Forward to 10
[2020-04-22 20:21:18.290176 CEST] [3386] [info] Forwarding map loaded for 'gros-89' as '10'
[2020-04-22 20:21:18.290333 CEST] [3386] [info] forwarding_mapper() Forward to 10
[2020-04-22 20:21:27.374417 CEST] [3369] [info] Forwarding map loaded for 'gros-89' as '10'
[2020-04-22 20:21:27.374518 CEST] [3373] [info] Forwarding map loaded for 'gros-89' as '10'
[2020-04-22 20:21:27.374579 CEST] [3369] [info] forwarding_mapper() Forward to 10
[2020-04-22 20:21:27.374668 CEST] [3373] [info] forwarding_mapper() Forward to 10
[2020-04-22 20:21:27.378658 CEST] [3377] [info] Forwarding map loaded for 'gros-89' as '10'
[2020-04-22 20:21:27.378810 CEST] [3377] [info] forwarding_mapper() Forward to 10
[2020-04-22 20:21:27.389137 CEST] [3365] [info] Forwarding map loaded for 'gros-89' as '10'
[2020-04-22 20:21:27.389286 CEST] [3365] [info] forwarding_mapper() Forward to 10
[2020-04-22 20:21:27.390059 CEST] [3366] [info] Forwarding map loaded for 'gros-89' as '10'
[2020-04-22 20:21:27.390213 CEST] [3366] [info] forwarding_mapper() Forward to 10
[2020-04-22 20:21:27.395045 CEST] [3367] [info] Forwarding map loaded for 'gros-89' as '10'
[2020-04-22 20:21:27.395197 CEST] [3367] [info] forwarding_mapper() Forward to 10
[2020-04-22 20:21:27.519872 CEST] [3383] [info] Forwarding map loaded for 'gros-89' as '10'
[2020-04-22 20:21:27.520060 CEST] [3383] [info] forwarding_mapper() Forward to 10
[2020-04-22 20:21:28.296796 CEST] [3386] [info] Forwarding map loaded for 'gros-89' as '10'
[2020-04-22 20:21:28.296963 CEST] [3386] [info] forwarding_mapper() Forward to 10
[2020-04-22 20:21:37.383267 CEST] [3369] [info] Forwarding map loaded for 'gros-89' as '10'
[2020-04-22 20:21:37.383439 CEST] [3369] [info] forwarding_mapper() Forward to 10
[2020-04-22 20:21:37.385947 CEST] [3377] [info] Forwarding map loaded for 'gros-89' as '10'
[2020-04-22 20:21:37.386099 CEST] [3377] [info] forwarding_mapper() Forward to 10
[2020-04-22 20:21:37.386398 CEST] [3373] [info] Forwarding map loaded for 'gros-89' as '10'
[2020-04-22 20:21:37.386550 CEST] [3373] [info] forwarding_mapper() Forward to 10
[2020-04-22 20:21:37.397921 CEST] [3365] [info] Forwarding map loaded for 'gros-89' as '10'
[2020-04-22 20:21:37.398070 CEST] [3365] [info] forwarding_mapper() Forward to 10
[2020-04-22 20:21:37.398617 CEST] [3366] [info] Forwarding map loaded for 'gros-89' as '10'
[2020-04-22 20:21:37.398770 CEST] [3366] [info] forwarding_mapper() Forward to 10
[2020-04-22 20:21:37.404133 CEST] [3367] [info] Forwarding map loaded for 'gros-89' as '10'
[2020-04-22 20:21:37.404288 CEST] [3367] [info] forwarding_mapper() Forward to 10
[2020-04-22 20:21:37.526287 CEST] [3383] [info] Forwarding map loaded for 'gros-89' as '10'
[2020-04-22 20:21:37.526445 CEST] [3383] [info] forwarding_mapper() Forward to 10
[2020-04-22 20:21:38.308361 CEST] [3386] [info] Forwarding map loaded for 'gros-89' as '10'
[2020-04-22 20:21:38.308516 CEST] [3386] [info] forwarding_mapper() Forward to 10
[2020-04-22 20:21:47.388718 CEST] [3369] [info] Forwarding map loaded for 'gros-89' as '10'
[2020-04-22 20:21:47.388877 CEST] [3369] [info] forwarding_mapper() Forward to 10
[2020-04-22 20:21:47.389230 CEST] [3377] [info] Forwarding map loaded for 'gros-89' as '10'
[2020-04-22 20:21:47.389343 CEST] [3377] [info] forwarding_mapper() Forward to 10
[2020-04-22 20:21:47.391745 CEST] [3373] [info] Forwarding map loaded for 'gros-89' as '10'
[2020-04-22 20:21:47.391899 CEST] [3373] [info] forwarding_mapper() Forward to 10
[2020-04-22 20:21:47.411401 CEST] [3365] [info] Forwarding map loaded for 'gros-89' as '10'
[2020-04-22 20:21:47.411549 CEST] [3365] [info] forwarding_mapper() Forward to 10
[2020-04-22 20:21:47.411985 CEST] [3366] [info] Forwarding map loaded for 'gros-89' as '10'
[2020-04-22 20:21:47.412138 CEST] [3366] [info] forwarding_mapper() Forward to 10
[2020-04-22 20:21:47.418126 CEST] [3367] [info] Forwarding map loaded for 'gros-89' as '10'
[2020-04-22 20:21:47.418278 CEST] [3367] [info] forwarding_mapper() Forward to 10
[2020-04-22 20:21:47.532569 CEST] [3383] [info] Forwarding map loaded for 'gros-89' as '10'
[2020-04-22 20:21:47.532725 CEST] [3383] [info] forwarding_mapper() Forward to 10
[2020-04-22 20:21:48.315041 CEST] [3386] [info] Forwarding map loaded for 'gros-89' as '10'
[2020-04-22 20:21:48.315198 CEST] [3386] [info] forwarding_mapper() Forward to 10
[2020-04-22 20:21:57.394889 CEST] [3369] [info] Forwarding map loaded for 'gros-89' as '10'
[2020-04-22 20:21:57.395055 CEST] [3369] [info] forwarding_mapper() Forward to 10
[2020-04-22 20:21:57.396307 CEST] [3377] [info] Forwarding map loaded for 'gros-89' as '10'
[2020-04-22 20:21:57.396459 CEST] [3377] [info] forwarding_mapper() Forward to 10
[2020-04-22 20:21:57.397049 CEST] [3373] [info] Forwarding map loaded for 'gros-89' as '10'
[2020-04-22 20:21:57.397200 CEST] [3373] [info] forwarding_mapper() Forward to 10
[2020-04-22 20:21:57.420157 CEST] [3365] [info] Forwarding map loaded for 'gros-89' as '10'
[2020-04-22 20:21:57.420305 CEST] [3365] [info] forwarding_mapper() Forward to 10
[2020-04-22 20:21:57.421264 CEST] [3366] [info] Forwarding map loaded for 'gros-89' as '10'
[2020-04-22 20:21:57.421419 CEST] [3366] [info] forwarding_mapper() Forward to 10
[2020-04-22 20:21:57.427399 CEST] [3367] [info] Forwarding map loaded for 'gros-89' as '10'
[2020-04-22 20:21:57.427554 CEST] [3367] [info] forwarding_mapper() Forward to 10
[2020-04-22 20:21:57.539136 CEST] [3383] [info] Forwarding map loaded for 'gros-89' as '10'
[2020-04-22 20:21:57.539302 CEST] [3383] [info] forwarding_mapper() Forward to 10
[2020-04-22 20:21:58.326464 CEST] [3386] [info] Forwarding map loaded for 'gros-89' as '10'
[2020-04-22 20:21:58.326622 CEST] [3386] [info] forwarding_mapper() Forward to 10
[2020-04-22 20:22:07.400117 CEST] [3369] [info] Forwarding map loaded for 'gros-89' as '10'
[2020-04-22 20:22:07.400271 CEST] [3369] [info] forwarding_mapper() Forward to 10
[2020-04-22 20:22:07.400938 CEST] [3377] [info] Forwarding map loaded for 'gros-89' as '10'
[2020-04-22 20:22:07.401083 CEST] [3377] [info] forwarding_mapper() Forward to 10
[2020-04-22 20:22:07.402270 CEST] [3373] [info] Forwarding map loaded for 'gros-89' as '10'
[2020-04-22 20:22:07.402415 CEST] [3373] [info] forwarding_mapper() Forward to 10
[2020-04-22 20:22:07.433622 CEST] [3365] [info] Forwarding map loaded for 'gros-89' as '10'
[2020-04-22 20:22:07.433763 CEST] [3365] [info] forwarding_mapper() Forward to 10
[2020-04-22 20:22:07.434545 CEST] [3366] [info] Forwarding map loaded for 'gros-89' as '10'
[2020-04-22 20:22:07.434692 CEST] [3366] [info] forwarding_mapper() Forward to 10
[2020-04-22 20:22:07.441132 CEST] [3367] [info] Forwarding map loaded for 'gros-89' as '10'
[2020-04-22 20:22:07.441278 CEST] [3367] [info] forwarding_mapper() Forward to 10
[2020-04-22 20:22:07.543276 CEST] [3383] [info] Forwarding map loaded for 'gros-89' as '10'
[2020-04-22 20:22:07.543342 CEST] [3383] [info] forwarding_mapper() Forward to 10
[2020-04-22 20:22:08.332989 CEST] [3386] [info] Forwarding map loaded for 'gros-89' as '10'
[2020-04-22 20:22:08.333135 CEST] [3386] [info] forwarding_mapper() Forward to 10
[2020-04-22 20:22:17.404887 CEST] [3369] [info] Forwarding map loaded for 'gros-89' as '10'
[2020-04-22 20:22:17.404959 CEST] [3369] [info] forwarding_mapper() Forward to 10
[2020-04-22 20:22:17.409384 CEST] [3377] [info] Forwarding map loaded for 'gros-89' as '10'
[2020-04-22 20:22:17.409572 CEST] [3377] [info] forwarding_mapper() Forward to 10
[2020-04-22 20:22:17.410722 CEST] [3373] [info] Forwarding map loaded for 'gros-89' as '10'
[2020-04-22 20:22:17.410850 CEST] [3373] [info] forwarding_mapper() Forward to 10
[2020-04-22 20:22:17.442220 CEST] [3365] [info] Forwarding map loaded for 'gros-89' as '10'
[2020-04-22 20:22:17.442356 CEST] [3365] [info] forwarding_mapper() Forward to 10
[2020-04-22 20:22:17.443008 CEST] [3366] [info] Forwarding map loaded for 'gros-89' as '10'
[2020-04-22 20:22:17.443149 CEST] [3366] [info] forwarding_mapper() Forward to 10
[2020-04-22 20:22:17.448078 CEST] [3367] [info] Forwarding map loaded for 'gros-89' as '10'
[2020-04-22 20:22:17.448152 CEST] [3367] [info] forwarding_mapper() Forward to 10
[2020-04-22 20:22:17.548451 CEST] [3383] [info] Forwarding map loaded for 'gros-89' as '10'
[2020-04-22 20:22:17.548518 CEST] [3383] [info] forwarding_mapper() Forward to 10
[2020-04-22 20:22:18.340648 CEST] [3386] [info] Forwarding map loaded for 'gros-89' as '10'
[2020-04-22 20:22:18.340793 CEST] [3386] [info] forwarding_mapper() Forward to 10
[2020-04-22 20:22:27.408666 CEST] [3369] [info] Forwarding map loaded for 'gros-89' as '10'
[2020-04-22 20:22:27.408767 CEST] [3369] [info] forwarding_mapper() Forward to 10
[2020-04-22 20:22:27.417769 CEST] [3377] [info] Forwarding map loaded for 'gros-89' as '10'
[2020-04-22 20:22:27.417981 CEST] [3377] [info] forwarding_mapper() Forward to 10
[2020-04-22 20:22:27.419048 CEST] [3373] [info] Forwarding map loaded for 'gros-89' as '10'
[2020-04-22 20:22:27.419184 CEST] [3373] [info] forwarding_mapper() Forward to 10
[2020-04-22 20:22:27.448504 CEST] [3366] [info] Forwarding map loaded for 'gros-89' as '10'
[2020-04-22 20:22:27.448663 CEST] [3366] [info] forwarding_mapper() Forward to 10
[2020-04-22 20:22:27.454184 CEST] [3365] [info] Forwarding map loaded for 'gros-89' as '10'
[2020-04-22 20:22:27.454279 CEST] [3365] [info] forwarding_mapper() Forward to 10
[2020-04-22 20:22:27.461626 CEST] [3367] [info] Forwarding map loaded for 'gros-89' as '10'
[2020-04-22 20:22:27.461777 CEST] [3367] [info] forwarding_mapper() Forward to 10
[2020-04-22 20:22:27.561897 CEST] [3383] [info] Forwarding map loaded for 'gros-89' as '10'
[2020-04-22 20:22:27.562052 CEST] [3383] [info] forwarding_mapper() Forward to 10
[2020-04-22 20:22:28.347169 CEST] [3386] [info] Forwarding map loaded for 'gros-89' as '10'
[2020-04-22 20:22:28.347318 CEST] [3386] [info] forwarding_mapper() Forward to 10
[2020-04-22 20:22:37.414117 CEST] [3369] [info] Forwarding map loaded for 'gros-89' as '10'
[2020-04-22 20:22:37.414272 CEST] [3369] [info] forwarding_mapper() Forward to 10
[2020-04-22 20:22:37.422073 CEST] [3373] [info] Forwarding map loaded for 'gros-89' as '10'
[2020-04-22 20:22:37.422159 CEST] [3373] [info] forwarding_mapper() Forward to 10
[2020-04-22 20:22:37.423388 CEST] [3377] [info] Forwarding map loaded for 'gros-89' as '10'
[2020-04-22 20:22:37.423547 CEST] [3377] [info] forwarding_mapper() Forward to 10
[2020-04-22 20:22:37.455459 CEST] [3366] [info] Forwarding map loaded for 'gros-89' as '10'
[2020-04-22 20:22:37.455535 CEST] [3366] [info] forwarding_mapper() Forward to 10
[2020-04-22 20:22:37.463294 CEST] [3365] [info] Forwarding map loaded for 'gros-89' as '10'
[2020-04-22 20:22:37.463443 CEST] [3365] [info] forwarding_mapper() Forward to 10
[2020-04-22 20:22:37.468639 CEST] [3367] [info] Forwarding map loaded for 'gros-89' as '10'
[2020-04-22 20:22:37.468723 CEST] [3367] [info] forwarding_mapper() Forward to 10
[2020-04-22 20:22:37.568641 CEST] [3383] [info] Forwarding map loaded for 'gros-89' as '10'
[2020-04-22 20:22:37.568784 CEST] [3383] [info] forwarding_mapper() Forward to 10
[2020-04-22 20:22:38.354900 CEST] [3386] [info] Forwarding map loaded for 'gros-89' as '10'
[2020-04-22 20:22:38.355056 CEST] [3386] [info] forwarding_mapper() Forward to 10
[2020-04-22 20:22:47.419917 CEST] [3369] [info] Forwarding map loaded for 'gros-89' as '10'
[2020-04-22 20:22:47.420063 CEST] [3369] [info] forwarding_mapper() Forward to 10
[2020-04-22 20:22:47.425538 CEST] [3373] [info] Forwarding map loaded for 'gros-89' as '10'
[2020-04-22 20:22:47.425609 CEST] [3373] [info] forwarding_mapper() Forward to 10
[2020-04-22 20:22:47.437320 CEST] [3377] [info] Forwarding map loaded for 'gros-89' as '10'
[2020-04-22 20:22:47.437465 CEST] [3377] [info] forwarding_mapper() Forward to 10
[2020-04-22 20:22:47.467169 CEST] [3366] [info] Forwarding map loaded for 'gros-89' as '10'
[2020-04-22 20:22:47.467234 CEST] [3366] [info] forwarding_mapper() Forward to 10
[2020-04-22 20:22:47.477136 CEST] [3365] [info] Forwarding map loaded for 'gros-89' as '10'
[2020-04-22 20:22:47.477279 CEST] [3365] [info] forwarding_mapper() Forward to 10
[2020-04-22 20:22:47.480260 CEST] [3367] [info] Forwarding map loaded for 'gros-89' as '10'
[2020-04-22 20:22:47.480331 CEST] [3367] [info] forwarding_mapper() Forward to 10
[2020-04-22 20:22:47.582979 CEST] [3383] [info] Forwarding map loaded for 'gros-89' as '10'
[2020-04-22 20:22:47.583120 CEST] [3383] [info] forwarding_mapper() Forward to 10
[2020-04-22 20:22:48.361530 CEST] [3386] [info] Forwarding map loaded for 'gros-89' as '10'
[2020-04-22 20:22:48.361675 CEST] [3386] [info] forwarding_mapper() Forward to 10
[2020-04-22 20:22:57.426203 CEST] [3369] [info] Forwarding map loaded for 'gros-89' as '10'
[2020-04-22 20:22:57.426345 CEST] [3369] [info] forwarding_mapper() Forward to 10
[2020-04-22 20:22:57.428801 CEST] [3373] [info] Forwarding map loaded for 'gros-89' as '10'
[2020-04-22 20:22:57.428870 CEST] [3373] [info] forwarding_mapper() Forward to 10
[2020-04-22 20:22:57.442734 CEST] [3377] [info] Forwarding map loaded for 'gros-89' as '10'
[2020-04-22 20:22:57.442879 CEST] [3377] [info] forwarding_mapper() Forward to 10
[2020-04-22 20:22:57.474231 CEST] [3366] [info] Forwarding map loaded for 'gros-89' as '10'
[2020-04-22 20:22:57.474299 CEST] [3366] [info] forwarding_mapper() Forward to 10
[2020-04-22 20:22:57.485952 CEST] [3365] [info] Forwarding map loaded for 'gros-89' as '10'
[2020-04-22 20:22:57.486090 CEST] [3365] [info] forwarding_mapper() Forward to 10
[2020-04-22 20:22:57.486793 CEST] [3367] [info] Forwarding map loaded for 'gros-89' as '10'
[2020-04-22 20:22:57.486861 CEST] [3367] [info] forwarding_mapper() Forward to 10
[2020-04-22 20:22:57.592634 CEST] [3383] [info] Forwarding map loaded for 'gros-89' as '10'
[2020-04-22 20:22:57.592777 CEST] [3383] [info] forwarding_mapper() Forward to 10
[2020-04-22 20:22:58.368969 CEST] [3386] [info] Forwarding map loaded for 'gros-89' as '10'
[2020-04-22 20:22:58.369125 CEST] [3386] [info] forwarding_mapper() Forward to 10
[2020-04-22 20:23:07.436165 CEST] [3327] [info] All subsystems shut down. Client shutdown complete.
[2020-04-22 20:23:07.436810 CEST] [3325] [info] All subsystems shut down. Client shutdown complete.
[2020-04-22 20:23:07.493108 CEST] [3326] [info] All subsystems shut down. Client shutdown complete.
[2020-04-22 20:23:07.530770 CEST] [3330] [info] All subsystems shut down. Client shutdown complete.
[2020-04-22 20:23:07.534420 CEST] [3329] [info] All subsystems shut down. Client shutdown complete.
[2020-04-22 20:23:07.569625 CEST] [3332] [info] All subsystems shut down. Client shutdown complete.
[2020-04-22 20:23:07.677317 CEST] [3331] [info] All subsystems shut down. Client shutdown complete.
[2020-04-22 20:23:08.446393 CEST] [3328] [info] All subsystems shut down. Client shutdown complete.
