[2020-04-22 20:19:27.091368 CEST] [3336] [info] Process cmdline: '/root/benchmarks/ior-3.2.1/src/ior -a MPIIO -b 128m -t 2m -B -w -r -o /mnt/gkfs/output-D-2'
[2020-04-22 20:19:27.091410 CEST] [3337] [info] Process cmdline: '/root/benchmarks/ior-3.2.1/src/ior -a MPIIO -b 128m -t 2m -B -w -r -o /mnt/gkfs/output-D-2'
[2020-04-22 20:19:27.091409 CEST] [3338] [info] Process cmdline: '/root/benchmarks/ior-3.2.1/src/ior -a MPIIO -b 128m -t 2m -B -w -r -o /mnt/gkfs/output-D-2'
[2020-04-22 20:19:27.091657 CEST] [3336] [info] Initializing RPC subsystem...
[2020-04-22 20:19:27.091668 CEST] [3337] [info] Initializing RPC subsystem...
[2020-04-22 20:19:27.091671 CEST] [3338] [info] Initializing RPC subsystem...
[2020-04-22 20:19:27.091490 CEST] [3331] [info] Process cmdline: '/root/benchmarks/ior-3.2.1/src/ior -a MPIIO -b 128m -t 2m -B -w -r -o /mnt/gkfs/output-D-2'
[2020-04-22 20:19:27.091719 CEST] [3331] [info] Initializing RPC subsystem...
[2020-04-22 20:19:27.100848 CEST] [3334] [info] Process cmdline: '/root/benchmarks/ior-3.2.1/src/ior -a MPIIO -b 128m -t 2m -B -w -r -o /mnt/gkfs/output-D-2'
[2020-04-22 20:19:27.101071 CEST] [3334] [info] Initializing RPC subsystem...
[2020-04-22 20:19:27.104637 CEST] [3333] [info] Process cmdline: '/root/benchmarks/ior-3.2.1/src/ior -a MPIIO -b 128m -t 2m -B -w -r -o /mnt/gkfs/output-D-2'
[2020-04-22 20:19:27.104855 CEST] [3333] [info] Initializing RPC subsystem...
[2020-04-22 20:19:27.104900 CEST] [3335] [info] Process cmdline: '/root/benchmarks/ior-3.2.1/src/ior -a MPIIO -b 128m -t 2m -B -w -r -o /mnt/gkfs/output-D-2'
[2020-04-22 20:19:27.105128 CEST] [3335] [info] Initializing RPC subsystem...
[2020-04-22 20:19:27.106677 CEST] [3332] [info] Process cmdline: '/root/benchmarks/ior-3.2.1/src/ior -a MPIIO -b 128m -t 2m -B -w -r -o /mnt/gkfs/output-D-2'
[2020-04-22 20:19:27.106944 CEST] [3332] [info] Initializing RPC subsystem...
[2020-04-22 20:19:27.132927 CEST] [3337] [info] Loading peer addresses...
[2020-04-22 20:19:27.134205 CEST] [3331] [info] Loading peer addresses...
[2020-04-22 20:19:27.136446 CEST] [3331] [info] Hosts pool size: 12
[2020-04-22 20:19:27.137750 CEST] [3334] [info] Loading peer addresses...
[2020-04-22 20:19:27.137772 CEST] [3335] [info] Loading peer addresses...
[2020-04-22 20:19:27.138451 CEST] [3338] [info] Loading peer addresses...
[2020-04-22 20:19:27.139136 CEST] [3332] [info] Loading peer addresses...
[2020-04-22 20:19:27.140039 CEST] [3337] [info] Hosts pool size: 12
[2020-04-22 20:19:27.140450 CEST] [3333] [info] Loading peer addresses...
[2020-04-22 20:19:27.141108 CEST] [3336] [info] Loading peer addresses...
[2020-04-22 20:19:27.143243 CEST] [3334] [info] Hosts pool size: 12
[2020-04-22 20:19:27.143425 CEST] [3335] [info] Hosts pool size: 12
[2020-04-22 20:19:27.143461 CEST] [3332] [info] Hosts pool size: 12
[2020-04-22 20:19:27.143935 CEST] [3333] [info] Hosts pool size: 12
[2020-04-22 20:19:27.144674 CEST] [3336] [info] Hosts pool size: 12
[2020-04-22 20:19:27.145186 CEST] [3338] [info] Hosts pool size: 12
[2020-04-22 20:19:27.149138 CEST] [3334] [info] Forwarding map loaded for 'gros-62' as '7'
[2020-04-22 20:19:27.149202 CEST] [3334] [info] init_ld_environment_() Forward to 7
[2020-04-22 20:19:27.149253 CEST] [3334] [info] Retrieving file system configuration...
[2020-04-22 20:19:27.149307 CEST] [3331] [info] Forwarding map loaded for 'gros-62' as '7'
[2020-04-22 20:19:27.149372 CEST] [3331] [info] init_ld_environment_() Forward to 7
[2020-04-22 20:19:27.149424 CEST] [3331] [info] Retrieving file system configuration...
[2020-04-22 20:19:27.149585 CEST] [3332] [info] Forwarding map loaded for 'gros-62' as '7'
[2020-04-22 20:19:27.149643 CEST] [3332] [info] init_ld_environment_() Forward to 7
[2020-04-22 20:19:27.149689 CEST] [3332] [info] Retrieving file system configuration...
[2020-04-22 20:19:27.149796 CEST] [3333] [info] Forwarding map loaded for 'gros-62' as '7'
[2020-04-22 20:19:27.149856 CEST] [3333] [info] init_ld_environment_() Forward to 7
[2020-04-22 20:19:27.149902 CEST] [3333] [info] Retrieving file system configuration...
[2020-04-22 20:19:27.150023 CEST] [3335] [info] Forwarding map loaded for 'gros-62' as '7'
[2020-04-22 20:19:27.150116 CEST] [3335] [info] init_ld_environment_() Forward to 7
[2020-04-22 20:19:27.150179 CEST] [3335] [info] Retrieving file system configuration...
[2020-04-22 20:19:27.150226 CEST] [3337] [info] Forwarding map loaded for 'gros-62' as '7'
[2020-04-22 20:19:27.150404 CEST] [3337] [info] init_ld_environment_() Forward to 7
[2020-04-22 20:19:27.150485 CEST] [3336] [info] Forwarding map loaded for 'gros-62' as '7'
[2020-04-22 20:19:27.150541 CEST] [3337] [info] Retrieving file system configuration...
[2020-04-22 20:19:27.150599 CEST] [3336] [info] init_ld_environment_() Forward to 7
[2020-04-22 20:19:27.150682 CEST] [3336] [info] Retrieving file system configuration...
[2020-04-22 20:19:27.151941 CEST] [3338] [info] Forwarding map loaded for 'gros-62' as '7'
[2020-04-22 20:19:27.152115 CEST] [3338] [info] init_ld_environment_() Forward to 7
[2020-04-22 20:19:27.152239 CEST] [3338] [info] Retrieving file system configuration...
[2020-04-22 20:19:27.170928 CEST] [3334] [info] Mountdir: '/mnt/gkfs'
[2020-04-22 20:19:27.171064 CEST] [3334] [info] Environment initialization successful.
[2020-04-22 20:19:27.172076 CEST] [3331] [info] Mountdir: '/mnt/gkfs'
[2020-04-22 20:19:27.172203 CEST] [3331] [info] Environment initialization successful.
[2020-04-22 20:19:27.173751 CEST] [3332] [info] Mountdir: '/mnt/gkfs'
[2020-04-22 20:19:27.173874 CEST] [3332] [info] Environment initialization successful.
[2020-04-22 20:19:27.175021 CEST] [3333] [info] Mountdir: '/mnt/gkfs'
[2020-04-22 20:19:27.175097 CEST] [3333] [info] Environment initialization successful.
[2020-04-22 20:19:27.176860 CEST] [3335] [info] Mountdir: '/mnt/gkfs'
[2020-04-22 20:19:27.176978 CEST] [3335] [info] Environment initialization successful.
[2020-04-22 20:19:27.178587 CEST] [3336] [info] Mountdir: '/mnt/gkfs'
[2020-04-22 20:19:27.178709 CEST] [3336] [info] Environment initialization successful.
[2020-04-22 20:19:27.180717 CEST] [3337] [info] Mountdir: '/mnt/gkfs'
[2020-04-22 20:19:27.180838 CEST] [3337] [info] Environment initialization successful.
[2020-04-22 20:19:27.183134 CEST] [3338] [info] Mountdir: '/mnt/gkfs'
[2020-04-22 20:19:27.183245 CEST] [3338] [info] Environment initialization successful.
[2020-04-22 20:19:27.198039 CEST] [3371] [info] Forwarding map loaded for 'gros-62' as '7'
[2020-04-22 20:19:27.198153 CEST] [3371] [info] forwarding_mapper() Forward to 7
[2020-04-22 20:19:27.199066 CEST] [3372] [info] Forwarding map loaded for 'gros-62' as '7'
[2020-04-22 20:19:27.199202 CEST] [3372] [info] forwarding_mapper() Forward to 7
[2020-04-22 20:19:27.199784 CEST] [3373] [info] Forwarding map loaded for 'gros-62' as '7'
[2020-04-22 20:19:27.199962 CEST] [3373] [info] forwarding_mapper() Forward to 7
[2020-04-22 20:19:27.202700 CEST] [3374] [info] Forwarding map loaded for 'gros-62' as '7'
[2020-04-22 20:19:27.202859 CEST] [3374] [info] forwarding_mapper() Forward to 7
[2020-04-22 20:19:27.204207 CEST] [3375] [info] Forwarding map loaded for 'gros-62' as '7'
[2020-04-22 20:19:27.204354 CEST] [3375] [info] forwarding_mapper() Forward to 7
[2020-04-22 20:19:27.206286 CEST] [3377] [info] Forwarding map loaded for 'gros-62' as '7'
[2020-04-22 20:19:27.206439 CEST] [3377] [info] forwarding_mapper() Forward to 7
[2020-04-22 20:19:27.207380 CEST] [3379] [info] Forwarding map loaded for 'gros-62' as '7'
[2020-04-22 20:19:27.207523 CEST] [3379] [info] forwarding_mapper() Forward to 7
[2020-04-22 20:19:27.208529 CEST] [3380] [info] Forwarding map loaded for 'gros-62' as '7'
[2020-04-22 20:19:27.208680 CEST] [3380] [info] forwarding_mapper() Forward to 7
[2020-04-22 20:19:37.206269 CEST] [3373] [info] Forwarding map loaded for 'gros-62' as '7'
[2020-04-22 20:19:37.206455 CEST] [3373] [info] forwarding_mapper() Forward to 7
[2020-04-22 20:19:37.206791 CEST] [3372] [info] Forwarding map loaded for 'gros-62' as '7'
[2020-04-22 20:19:37.206849 CEST] [3371] [info] Forwarding map loaded for 'gros-62' as '7'
[2020-04-22 20:19:37.206954 CEST] [3372] [info] forwarding_mapper() Forward to 7
[2020-04-22 20:19:37.207063 CEST] [3371] [info] forwarding_mapper() Forward to 7
[2020-04-22 20:19:37.210116 CEST] [3375] [info] Forwarding map loaded for 'gros-62' as '7'
[2020-04-22 20:19:37.210263 CEST] [3375] [info] forwarding_mapper() Forward to 7
[2020-04-22 20:19:37.210589 CEST] [3374] [info] Forwarding map loaded for 'gros-62' as '7'
[2020-04-22 20:19:37.210735 CEST] [3374] [info] forwarding_mapper() Forward to 7
[2020-04-22 20:19:37.211659 CEST] [3377] [info] Forwarding map loaded for 'gros-62' as '7'
[2020-04-22 20:19:37.211808 CEST] [3377] [info] forwarding_mapper() Forward to 7
[2020-04-22 20:19:37.211986 CEST] [3379] [info] Forwarding map loaded for 'gros-62' as '7'
[2020-04-22 20:19:37.212139 CEST] [3379] [info] forwarding_mapper() Forward to 7
[2020-04-22 20:19:37.213828 CEST] [3380] [info] Forwarding map loaded for 'gros-62' as '7'
[2020-04-22 20:19:37.213985 CEST] [3380] [info] forwarding_mapper() Forward to 7
[2020-04-22 20:19:47.214102 CEST] [3371] [info] Forwarding map loaded for 'gros-62' as '7'
[2020-04-22 20:19:47.214330 CEST] [3371] [info] forwarding_mapper() Forward to 7
[2020-04-22 20:19:47.214570 CEST] [3373] [info] Forwarding map loaded for 'gros-62' as '7'
[2020-04-22 20:19:47.214732 CEST] [3373] [info] forwarding_mapper() Forward to 7
[2020-04-22 20:19:47.215300 CEST] [3374] [info] Forwarding map loaded for 'gros-62' as '7'
[2020-04-22 20:19:47.215449 CEST] [3374] [info] forwarding_mapper() Forward to 7
[2020-04-22 20:19:47.216723 CEST] [3379] [info] Forwarding map loaded for 'gros-62' as '7'
[2020-04-22 20:19:47.216875 CEST] [3379] [info] forwarding_mapper() Forward to 7
[2020-04-22 20:19:47.218408 CEST] [3375] [info] Forwarding map loaded for 'gros-62' as '7'
[2020-04-22 20:19:47.218553 CEST] [3375] [info] forwarding_mapper() Forward to 7
[2020-04-22 20:19:47.218702 CEST] [3380] [info] Forwarding map loaded for 'gros-62' as '7'
[2020-04-22 20:19:47.218850 CEST] [3380] [info] forwarding_mapper() Forward to 7
[2020-04-22 20:19:47.219388 CEST] [3372] [info] Forwarding map loaded for 'gros-62' as '7'
[2020-04-22 20:19:47.219539 CEST] [3372] [info] forwarding_mapper() Forward to 7
[2020-04-22 20:19:47.220357 CEST] [3377] [info] Forwarding map loaded for 'gros-62' as '7'
[2020-04-22 20:19:47.220516 CEST] [3377] [info] forwarding_mapper() Forward to 7
[2020-04-22 20:19:57.219676 CEST] [3371] [info] Forwarding map loaded for 'gros-62' as '7'
[2020-04-22 20:19:57.219834 CEST] [3371] [info] forwarding_mapper() Forward to 7
[2020-04-22 20:19:57.221479 CEST] [3379] [info] Forwarding map loaded for 'gros-62' as '7'
[2020-04-22 20:19:57.221627 CEST] [3379] [info] forwarding_mapper() Forward to 7
[2020-04-22 20:19:57.222501 CEST] [3373] [info] Forwarding map loaded for 'gros-62' as '7'
[2020-04-22 20:19:57.222653 CEST] [3373] [info] forwarding_mapper() Forward to 7
[2020-04-22 20:19:57.223186 CEST] [3374] [info] Forwarding map loaded for 'gros-62' as '7'
[2020-04-22 20:19:57.223338 CEST] [3374] [info] forwarding_mapper() Forward to 7
[2020-04-22 20:19:57.223412 CEST] [3380] [info] Forwarding map loaded for 'gros-62' as '7'
[2020-04-22 20:19:57.223558 CEST] [3380] [info] forwarding_mapper() Forward to 7
[2020-04-22 20:19:57.225201 CEST] [3377] [info] Forwarding map loaded for 'gros-62' as '7'
[2020-04-22 20:19:57.225350 CEST] [3377] [info] forwarding_mapper() Forward to 7
[2020-04-22 20:19:57.226311 CEST] [3375] [info] Forwarding map loaded for 'gros-62' as '7'
[2020-04-22 20:19:57.226460 CEST] [3375] [info] forwarding_mapper() Forward to 7
[2020-04-22 20:19:57.227709 CEST] [3372] [info] Forwarding map loaded for 'gros-62' as '7'
[2020-04-22 20:19:57.227861 CEST] [3372] [info] forwarding_mapper() Forward to 7
[2020-04-22 20:20:07.227131 CEST] [3379] [info] Forwarding map loaded for 'gros-62' as '7'
[2020-04-22 20:20:07.227101 CEST] [3371] [info] Forwarding map loaded for 'gros-62' as '7'
[2020-04-22 20:20:07.227303 CEST] [3379] [info] forwarding_mapper() Forward to 7
[2020-04-22 20:20:07.227342 CEST] [3371] [info] forwarding_mapper() Forward to 7
[2020-04-22 20:20:07.228053 CEST] [3374] [info] Forwarding map loaded for 'gros-62' as '7'
[2020-04-22 20:20:07.228217 CEST] [3374] [info] forwarding_mapper() Forward to 7
[2020-04-22 20:20:07.228472 CEST] [3380] [info] Forwarding map loaded for 'gros-62' as '7'
[2020-04-22 20:20:07.228624 CEST] [3380] [info] forwarding_mapper() Forward to 7
[2020-04-22 20:20:07.229068 CEST] [3373] [info] Forwarding map loaded for 'gros-62' as '7'
[2020-04-22 20:20:07.229222 CEST] [3373] [info] forwarding_mapper() Forward to 7
[2020-04-22 20:20:07.231375 CEST] [3375] [info] Forwarding map loaded for 'gros-62' as '7'
[2020-04-22 20:20:07.231524 CEST] [3375] [info] forwarding_mapper() Forward to 7
[2020-04-22 20:20:07.233278 CEST] [3377] [info] Forwarding map loaded for 'gros-62' as '7'
[2020-04-22 20:20:07.233435 CEST] [3377] [info] forwarding_mapper() Forward to 7
[2020-04-22 20:20:07.241248 CEST] [3372] [info] Forwarding map loaded for 'gros-62' as '7'
[2020-04-22 20:20:07.241407 CEST] [3372] [info] forwarding_mapper() Forward to 7
[2020-04-22 20:20:17.232621 CEST] [3379] [info] Forwarding map loaded for 'gros-62' as '7'
[2020-04-22 20:20:17.232779 CEST] [3379] [info] forwarding_mapper() Forward to 7
[2020-04-22 20:20:17.233296 CEST] [3380] [info] Forwarding map loaded for 'gros-62' as '7'
[2020-04-22 20:20:17.233449 CEST] [3380] [info] forwarding_mapper() Forward to 7
[2020-04-22 20:20:17.233962 CEST] [3373] [info] Forwarding map loaded for 'gros-62' as '7'
[2020-04-22 20:20:17.234124 CEST] [3373] [info] forwarding_mapper() Forward to 7
[2020-04-22 20:20:17.235663 CEST] [3371] [info] Forwarding map loaded for 'gros-62' as '7'
[2020-04-22 20:20:17.235864 CEST] [3371] [info] forwarding_mapper() Forward to 7
[2020-04-22 20:20:17.235973 CEST] [3374] [info] Forwarding map loaded for 'gros-62' as '7'
[2020-04-22 20:20:17.236129 CEST] [3374] [info] forwarding_mapper() Forward to 7
[2020-04-22 20:20:17.239708 CEST] [3375] [info] Forwarding map loaded for 'gros-62' as '7'
[2020-04-22 20:20:17.239855 CEST] [3375] [info] forwarding_mapper() Forward to 7
[2020-04-22 20:20:17.241899 CEST] [3377] [info] Forwarding map loaded for 'gros-62' as '7'
[2020-04-22 20:20:17.242064 CEST] [3377] [info] forwarding_mapper() Forward to 7
[2020-04-22 20:20:17.250209 CEST] [3372] [info] Forwarding map loaded for 'gros-62' as '7'
[2020-04-22 20:20:17.250367 CEST] [3372] [info] forwarding_mapper() Forward to 7
[2020-04-22 20:20:27.238043 CEST] [3379] [info] Forwarding map loaded for 'gros-62' as '7'
[2020-04-22 20:20:27.238202 CEST] [3379] [info] forwarding_mapper() Forward to 7
[2020-04-22 20:20:27.238302 CEST] [3380] [info] Forwarding map loaded for 'gros-62' as '7'
[2020-04-22 20:20:27.238455 CEST] [3380] [info] forwarding_mapper() Forward to 7
[2020-04-22 20:20:27.238840 CEST] [3373] [info] Forwarding map loaded for 'gros-62' as '7'
[2020-04-22 20:20:27.238990 CEST] [3373] [info] forwarding_mapper() Forward to 7
[2020-04-22 20:20:27.240791 CEST] [3371] [info] Forwarding map loaded for 'gros-62' as '7'
[2020-04-22 20:20:27.240995 CEST] [3371] [info] forwarding_mapper() Forward to 7
[2020-04-22 20:20:27.244930 CEST] [3375] [info] Forwarding map loaded for 'gros-62' as '7'
[2020-04-22 20:20:27.245084 CEST] [3375] [info] forwarding_mapper() Forward to 7
[2020-04-22 20:20:27.246929 CEST] [3377] [info] Forwarding map loaded for 'gros-62' as '7'
[2020-04-22 20:20:27.247085 CEST] [3377] [info] forwarding_mapper() Forward to 7
[2020-04-22 20:20:27.249201 CEST] [3374] [info] Forwarding map loaded for 'gros-62' as '7'
[2020-04-22 20:20:27.249356 CEST] [3374] [info] forwarding_mapper() Forward to 7
[2020-04-22 20:20:27.256120 CEST] [3372] [info] Forwarding map loaded for 'gros-62' as '7'
[2020-04-22 20:20:27.256276 CEST] [3372] [info] forwarding_mapper() Forward to 7
[2020-04-22 20:20:37.243474 CEST] [3379] [info] Forwarding map loaded for 'gros-62' as '7'
[2020-04-22 20:20:37.243636 CEST] [3379] [info] forwarding_mapper() Forward to 7
[2020-04-22 20:20:37.243878 CEST] [3373] [info] Forwarding map loaded for 'gros-62' as '7'
[2020-04-22 20:20:37.244038 CEST] [3373] [info] forwarding_mapper() Forward to 7
[2020-04-22 20:20:37.245862 CEST] [3371] [info] Forwarding map loaded for 'gros-62' as '7'
[2020-04-22 20:20:37.246036 CEST] [3371] [info] forwarding_mapper() Forward to 7
[2020-04-22 20:20:37.246905 CEST] [3380] [info] Forwarding map loaded for 'gros-62' as '7'
[2020-04-22 20:20:37.247068 CEST] [3380] [info] forwarding_mapper() Forward to 7
[2020-04-22 20:20:37.252219 CEST] [3377] [info] Forwarding map loaded for 'gros-62' as '7'
[2020-04-22 20:20:37.252367 CEST] [3377] [info] forwarding_mapper() Forward to 7
[2020-04-22 20:20:37.252869 CEST] [3375] [info] Forwarding map loaded for 'gros-62' as '7'
[2020-04-22 20:20:37.253028 CEST] [3375] [info] forwarding_mapper() Forward to 7
[2020-04-22 20:20:37.257782 CEST] [3374] [info] Forwarding map loaded for 'gros-62' as '7'
[2020-04-22 20:20:37.257937 CEST] [3374] [info] forwarding_mapper() Forward to 7
[2020-04-22 20:20:37.265165 CEST] [3372] [info] Forwarding map loaded for 'gros-62' as '7'
[2020-04-22 20:20:37.265319 CEST] [3372] [info] forwarding_mapper() Forward to 7
[2020-04-22 20:20:47.248875 CEST] [3379] [info] Forwarding map loaded for 'gros-62' as '7'
[2020-04-22 20:20:47.249041 CEST] [3379] [info] forwarding_mapper() Forward to 7
[2020-04-22 20:20:47.249331 CEST] [3373] [info] Forwarding map loaded for 'gros-62' as '7'
[2020-04-22 20:20:47.249485 CEST] [3373] [info] forwarding_mapper() Forward to 7
[2020-04-22 20:20:47.251200 CEST] [3371] [info] Forwarding map loaded for 'gros-62' as '7'
[2020-04-22 20:20:47.251355 CEST] [3371] [info] forwarding_mapper() Forward to 7
[2020-04-22 20:20:47.257532 CEST] [3377] [info] Forwarding map loaded for 'gros-62' as '7'
[2020-04-22 20:20:47.257679 CEST] [3377] [info] forwarding_mapper() Forward to 7
[2020-04-22 20:20:47.259869 CEST] [3380] [info] Forwarding map loaded for 'gros-62' as '7'
[2020-04-22 20:20:47.260024 CEST] [3380] [info] forwarding_mapper() Forward to 7
[2020-04-22 20:20:47.264282 CEST] [3375] [info] Forwarding map loaded for 'gros-62' as '7'
[2020-04-22 20:20:47.264438 CEST] [3375] [info] forwarding_mapper() Forward to 7
[2020-04-22 20:20:47.271511 CEST] [3374] [info] Forwarding map loaded for 'gros-62' as '7'
[2020-04-22 20:20:47.271666 CEST] [3374] [info] forwarding_mapper() Forward to 7
[2020-04-22 20:20:47.278677 CEST] [3372] [info] Forwarding map loaded for 'gros-62' as '7'
[2020-04-22 20:20:47.278833 CEST] [3372] [info] forwarding_mapper() Forward to 7
[2020-04-22 20:20:57.351310 CEST] [3377] [info] Forwarding map loaded for 'gros-62' as '7'
[2020-04-22 20:20:57.351491 CEST] [3377] [info] forwarding_mapper() Forward to 7
[2020-04-22 20:20:57.354833 CEST] [3379] [info] Forwarding map loaded for 'gros-62' as '7'
[2020-04-22 20:20:57.354986 CEST] [3379] [info] forwarding_mapper() Forward to 7
[2020-04-22 20:20:57.355355 CEST] [3372] [info] Forwarding map loaded for 'gros-62' as '7'
[2020-04-22 20:20:57.355512 CEST] [3372] [info] forwarding_mapper() Forward to 7
[2020-04-22 20:20:57.355966 CEST] [3380] [info] Forwarding map loaded for 'gros-62' as '7'
[2020-04-22 20:20:57.356124 CEST] [3380] [info] forwarding_mapper() Forward to 7
[2020-04-22 20:20:57.356321 CEST] [3373] [info] Forwarding map loaded for 'gros-62' as '7'
[2020-04-22 20:20:57.356470 CEST] [3373] [info] forwarding_mapper() Forward to 7
[2020-04-22 20:20:57.357048 CEST] [3374] [info] Forwarding map loaded for 'gros-62' as '7'
[2020-04-22 20:20:57.357199 CEST] [3374] [info] forwarding_mapper() Forward to 7
[2020-04-22 20:20:57.358549 CEST] [3371] [info] Forwarding map loaded for 'gros-62' as '7'
[2020-04-22 20:20:57.358752 CEST] [3371] [info] forwarding_mapper() Forward to 7
[2020-04-22 20:20:57.360158 CEST] [3375] [info] Forwarding map loaded for 'gros-62' as '7'
[2020-04-22 20:20:57.360309 CEST] [3375] [info] forwarding_mapper() Forward to 7
[2020-04-22 20:21:07.360308 CEST] [3379] [info] Forwarding map loaded for 'gros-62' as '7'
[2020-04-22 20:21:07.360471 CEST] [3379] [info] forwarding_mapper() Forward to 7
[2020-04-22 20:21:07.360636 CEST] [3377] [info] Forwarding map loaded for 'gros-62' as '7'
[2020-04-22 20:21:07.360719 CEST] [3380] [info] Forwarding map loaded for 'gros-62' as '7'
[2020-04-22 20:21:07.360789 CEST] [3377] [info] forwarding_mapper() Forward to 7
[2020-04-22 20:21:07.360884 CEST] [3380] [info] forwarding_mapper() Forward to 7
[2020-04-22 20:21:07.361262 CEST] [3373] [info] Forwarding map loaded for 'gros-62' as '7'
[2020-04-22 20:21:07.361414 CEST] [3373] [info] forwarding_mapper() Forward to 7
[2020-04-22 20:21:07.365712 CEST] [3371] [info] Forwarding map loaded for 'gros-62' as '7'
[2020-04-22 20:21:07.365915 CEST] [3371] [info] forwarding_mapper() Forward to 7
[2020-04-22 20:21:07.367539 CEST] [3375] [info] Forwarding map loaded for 'gros-62' as '7'
[2020-04-22 20:21:07.367681 CEST] [3375] [info] forwarding_mapper() Forward to 7
[2020-04-22 20:21:07.368258 CEST] [3372] [info] Forwarding map loaded for 'gros-62' as '7'
[2020-04-22 20:21:07.368407 CEST] [3372] [info] forwarding_mapper() Forward to 7
[2020-04-22 20:21:07.370601 CEST] [3374] [info] Forwarding map loaded for 'gros-62' as '7'
[2020-04-22 20:21:07.370756 CEST] [3374] [info] forwarding_mapper() Forward to 7
[2020-04-22 20:21:17.366111 CEST] [3379] [info] Forwarding map loaded for 'gros-62' as '7'
[2020-04-22 20:21:17.366272 CEST] [3379] [info] forwarding_mapper() Forward to 7
[2020-04-22 20:21:17.366475 CEST] [3373] [info] Forwarding map loaded for 'gros-62' as '7'
[2020-04-22 20:21:17.366482 CEST] [3380] [info] Forwarding map loaded for 'gros-62' as '7'
[2020-04-22 20:21:17.366629 CEST] [3373] [info] forwarding_mapper() Forward to 7
[2020-04-22 20:21:17.366641 CEST] [3380] [info] forwarding_mapper() Forward to 7
[2020-04-22 20:21:17.369007 CEST] [3377] [info] Forwarding map loaded for 'gros-62' as '7'
[2020-04-22 20:21:17.369157 CEST] [3377] [info] forwarding_mapper() Forward to 7
[2020-04-22 20:21:17.371168 CEST] [3371] [info] Forwarding map loaded for 'gros-62' as '7'
[2020-04-22 20:21:17.371369 CEST] [3371] [info] forwarding_mapper() Forward to 7
[2020-04-22 20:21:17.375019 CEST] [3375] [info] Forwarding map loaded for 'gros-62' as '7'
[2020-04-22 20:21:17.375163 CEST] [3375] [info] forwarding_mapper() Forward to 7
[2020-04-22 20:21:17.376416 CEST] [3372] [info] Forwarding map loaded for 'gros-62' as '7'
[2020-04-22 20:21:17.376565 CEST] [3372] [info] forwarding_mapper() Forward to 7
[2020-04-22 20:21:17.379302 CEST] [3374] [info] Forwarding map loaded for 'gros-62' as '7'
[2020-04-22 20:21:17.379457 CEST] [3374] [info] forwarding_mapper() Forward to 7
[2020-04-22 20:21:27.371849 CEST] [3379] [info] Forwarding map loaded for 'gros-62' as '7'
[2020-04-22 20:21:27.372016 CEST] [3379] [info] forwarding_mapper() Forward to 7
[2020-04-22 20:21:27.372357 CEST] [3380] [info] Forwarding map loaded for 'gros-62' as '7'
[2020-04-22 20:21:27.372508 CEST] [3380] [info] forwarding_mapper() Forward to 7
[2020-04-22 20:21:27.373995 CEST] [3373] [info] Forwarding map loaded for 'gros-62' as '7'
[2020-04-22 20:21:27.374153 CEST] [3373] [info] forwarding_mapper() Forward to 7
[2020-04-22 20:21:27.375207 CEST] [3377] [info] Forwarding map loaded for 'gros-62' as '7'
[2020-04-22 20:21:27.375354 CEST] [3377] [info] forwarding_mapper() Forward to 7
[2020-04-22 20:21:27.376529 CEST] [3371] [info] Forwarding map loaded for 'gros-62' as '7'
[2020-04-22 20:21:27.376684 CEST] [3371] [info] forwarding_mapper() Forward to 7
[2020-04-22 20:21:27.384988 CEST] [3375] [info] Forwarding map loaded for 'gros-62' as '7'
[2020-04-22 20:21:27.385157 CEST] [3375] [info] forwarding_mapper() Forward to 7
[2020-04-22 20:21:27.389744 CEST] [3372] [info] Forwarding map loaded for 'gros-62' as '7'
[2020-04-22 20:21:27.389895 CEST] [3372] [info] forwarding_mapper() Forward to 7
[2020-04-22 20:21:27.392798 CEST] [3374] [info] Forwarding map loaded for 'gros-62' as '7'
[2020-04-22 20:21:27.392953 CEST] [3374] [info] forwarding_mapper() Forward to 7
[2020-04-22 20:21:37.381914 CEST] [3373] [info] Forwarding map loaded for 'gros-62' as '7'
[2020-04-22 20:21:37.382083 CEST] [3373] [info] forwarding_mapper() Forward to 7
[2020-04-22 20:21:37.384014 CEST] [3379] [info] Forwarding map loaded for 'gros-62' as '7'
[2020-04-22 20:21:37.384169 CEST] [3379] [info] forwarding_mapper() Forward to 7
[2020-04-22 20:21:37.384407 CEST] [3380] [info] Forwarding map loaded for 'gros-62' as '7'
[2020-04-22 20:21:37.384556 CEST] [3380] [info] forwarding_mapper() Forward to 7
[2020-04-22 20:21:37.384692 CEST] [3371] [info] Forwarding map loaded for 'gros-62' as '7'
[2020-04-22 20:21:37.384841 CEST] [3371] [info] forwarding_mapper() Forward to 7
[2020-04-22 20:21:37.385270 CEST] [3377] [info] Forwarding map loaded for 'gros-62' as '7'
[2020-04-22 20:21:37.385422 CEST] [3377] [info] forwarding_mapper() Forward to 7
[2020-04-22 20:21:37.393823 CEST] [3375] [info] Forwarding map loaded for 'gros-62' as '7'
[2020-04-22 20:21:37.393973 CEST] [3375] [info] forwarding_mapper() Forward to 7
[2020-04-22 20:21:37.397976 CEST] [3372] [info] Forwarding map loaded for 'gros-62' as '7'
[2020-04-22 20:21:37.398135 CEST] [3372] [info] forwarding_mapper() Forward to 7
[2020-04-22 20:21:37.401651 CEST] [3374] [info] Forwarding map loaded for 'gros-62' as '7'
[2020-04-22 20:21:37.401807 CEST] [3374] [info] forwarding_mapper() Forward to 7
[2020-04-22 20:21:47.388701 CEST] [3373] [info] Forwarding map loaded for 'gros-62' as '7'
[2020-04-22 20:21:47.388711 CEST] [3379] [info] Forwarding map loaded for 'gros-62' as '7'
[2020-04-22 20:21:47.388857 CEST] [3373] [info] forwarding_mapper() Forward to 7
[2020-04-22 20:21:47.388869 CEST] [3379] [info] forwarding_mapper() Forward to 7
[2020-04-22 20:21:47.389303 CEST] [3380] [info] Forwarding map loaded for 'gros-62' as '7'
[2020-04-22 20:21:47.389451 CEST] [3380] [info] forwarding_mapper() Forward to 7
[2020-04-22 20:21:47.391847 CEST] [3377] [info] Forwarding map loaded for 'gros-62' as '7'
[2020-04-22 20:21:47.391998 CEST] [3377] [info] forwarding_mapper() Forward to 7
[2020-04-22 20:21:47.400913 CEST] [3371] [info] Forwarding map loaded for 'gros-62' as '7'
[2020-04-22 20:21:47.401124 CEST] [3371] [info] forwarding_mapper() Forward to 7
[2020-04-22 20:21:47.403024 CEST] [3375] [info] Forwarding map loaded for 'gros-62' as '7'
[2020-04-22 20:21:47.403173 CEST] [3375] [info] forwarding_mapper() Forward to 7
[2020-04-22 20:21:47.411516 CEST] [3372] [info] Forwarding map loaded for 'gros-62' as '7'
[2020-04-22 20:21:47.411665 CEST] [3372] [info] forwarding_mapper() Forward to 7
[2020-04-22 20:21:47.413027 CEST] [3374] [info] Forwarding map loaded for 'gros-62' as '7'
[2020-04-22 20:21:47.413182 CEST] [3374] [info] forwarding_mapper() Forward to 7
[2020-04-22 20:21:57.394006 CEST] [3379] [info] Forwarding map loaded for 'gros-62' as '7'
[2020-04-22 20:21:57.394166 CEST] [3379] [info] forwarding_mapper() Forward to 7
[2020-04-22 20:21:57.394359 CEST] [3380] [info] Forwarding map loaded for 'gros-62' as '7'
[2020-04-22 20:21:57.394514 CEST] [3380] [info] forwarding_mapper() Forward to 7
[2020-04-22 20:21:57.397029 CEST] [3373] [info] Forwarding map loaded for 'gros-62' as '7'
[2020-04-22 20:21:57.397184 CEST] [3373] [info] forwarding_mapper() Forward to 7
[2020-04-22 20:21:57.400673 CEST] [3377] [info] Forwarding map loaded for 'gros-62' as '7'
[2020-04-22 20:21:57.400829 CEST] [3377] [info] forwarding_mapper() Forward to 7
[2020-04-22 20:21:57.413736 CEST] [3371] [info] Forwarding map loaded for 'gros-62' as '7'
[2020-04-22 20:21:57.413940 CEST] [3371] [info] forwarding_mapper() Forward to 7
[2020-04-22 20:21:57.415025 CEST] [3375] [info] Forwarding map loaded for 'gros-62' as '7'
[2020-04-22 20:21:57.415175 CEST] [3375] [info] forwarding_mapper() Forward to 7
[2020-04-22 20:21:57.420292 CEST] [3372] [info] Forwarding map loaded for 'gros-62' as '7'
[2020-04-22 20:21:57.420443 CEST] [3372] [info] forwarding_mapper() Forward to 7
[2020-04-22 20:21:57.421773 CEST] [3374] [info] Forwarding map loaded for 'gros-62' as '7'
[2020-04-22 20:21:57.421928 CEST] [3374] [info] forwarding_mapper() Forward to 7
[2020-04-22 20:22:07.399432 CEST] [3379] [info] Forwarding map loaded for 'gros-62' as '7'
[2020-04-22 20:22:07.399591 CEST] [3379] [info] forwarding_mapper() Forward to 7
[2020-04-22 20:22:07.399931 CEST] [3380] [info] Forwarding map loaded for 'gros-62' as '7'
[2020-04-22 20:22:07.400095 CEST] [3380] [info] forwarding_mapper() Forward to 7
[2020-04-22 20:22:07.402657 CEST] [3373] [info] Forwarding map loaded for 'gros-62' as '7'
[2020-04-22 20:22:07.402815 CEST] [3373] [info] forwarding_mapper() Forward to 7
[2020-04-22 20:22:07.414986 CEST] [3377] [info] Forwarding map loaded for 'gros-62' as '7'
[2020-04-22 20:22:07.415152 CEST] [3377] [info] forwarding_mapper() Forward to 7
[2020-04-22 20:22:07.421955 CEST] [3375] [info] Forwarding map loaded for 'gros-62' as '7'
[2020-04-22 20:22:07.422166 CEST] [3375] [info] forwarding_mapper() Forward to 7
[2020-04-22 20:22:07.424846 CEST] [3371] [info] Forwarding map loaded for 'gros-62' as '7'
[2020-04-22 20:22:07.425015 CEST] [3371] [info] forwarding_mapper() Forward to 7
[2020-04-22 20:22:07.433868 CEST] [3372] [info] Forwarding map loaded for 'gros-62' as '7'
[2020-04-22 20:22:07.434030 CEST] [3372] [info] forwarding_mapper() Forward to 7
[2020-04-22 20:22:07.435447 CEST] [3374] [info] Forwarding map loaded for 'gros-62' as '7'
[2020-04-22 20:22:07.435600 CEST] [3374] [info] forwarding_mapper() Forward to 7
[2020-04-22 20:22:17.404730 CEST] [3380] [info] Forwarding map loaded for 'gros-62' as '7'
[2020-04-22 20:22:17.404896 CEST] [3380] [info] forwarding_mapper() Forward to 7
[2020-04-22 20:22:17.404858 CEST] [3379] [info] Forwarding map loaded for 'gros-62' as '7'
[2020-04-22 20:22:17.405030 CEST] [3379] [info] forwarding_mapper() Forward to 7
[2020-04-22 20:22:17.407872 CEST] [3373] [info] Forwarding map loaded for 'gros-62' as '7'
[2020-04-22 20:22:17.408031 CEST] [3373] [info] forwarding_mapper() Forward to 7
[2020-04-22 20:22:17.420433 CEST] [3377] [info] Forwarding map loaded for 'gros-62' as '7'
[2020-04-22 20:22:17.420587 CEST] [3377] [info] forwarding_mapper() Forward to 7
[2020-04-22 20:22:17.427273 CEST] [3375] [info] Forwarding map loaded for 'gros-62' as '7'
[2020-04-22 20:22:17.427424 CEST] [3375] [info] forwarding_mapper() Forward to 7
[2020-04-22 20:22:17.428146 CEST] [3371] [info] Forwarding map loaded for 'gros-62' as '7'
[2020-04-22 20:22:17.428235 CEST] [3371] [info] forwarding_mapper() Forward to 7
[2020-04-22 20:22:17.440137 CEST] [3374] [info] Forwarding map loaded for 'gros-62' as '7'
[2020-04-22 20:22:17.440205 CEST] [3374] [info] forwarding_mapper() Forward to 7
[2020-04-22 20:22:17.440607 CEST] [3372] [info] Forwarding map loaded for 'gros-62' as '7'
[2020-04-22 20:22:17.440755 CEST] [3372] [info] forwarding_mapper() Forward to 7
[2020-04-22 20:22:27.410142 CEST] [3379] [info] Forwarding map loaded for 'gros-62' as '7'
[2020-04-22 20:22:27.410296 CEST] [3379] [info] forwarding_mapper() Forward to 7
[2020-04-22 20:22:27.411015 CEST] [3373] [info] Forwarding map loaded for 'gros-62' as '7'
[2020-04-22 20:22:27.411106 CEST] [3373] [info] forwarding_mapper() Forward to 7
[2020-04-22 20:22:27.416750 CEST] [3380] [info] Forwarding map loaded for 'gros-62' as '7'
[2020-04-22 20:22:27.416822 CEST] [3380] [info] forwarding_mapper() Forward to 7
[2020-04-22 20:22:27.425864 CEST] [3377] [info] Forwarding map loaded for 'gros-62' as '7'
[2020-04-22 20:22:27.426020 CEST] [3377] [info] forwarding_mapper() Forward to 7
[2020-04-22 20:22:27.432195 CEST] [3375] [info] Forwarding map loaded for 'gros-62' as '7'
[2020-04-22 20:22:27.432328 CEST] [3375] [info] forwarding_mapper() Forward to 7
[2020-04-22 20:22:27.433160 CEST] [3371] [info] Forwarding map loaded for 'gros-62' as '7'
[2020-04-22 20:22:27.433305 CEST] [3371] [info] forwarding_mapper() Forward to 7
[2020-04-22 20:22:27.446036 CEST] [3372] [info] Forwarding map loaded for 'gros-62' as '7'
[2020-04-22 20:22:27.446182 CEST] [3372] [info] forwarding_mapper() Forward to 7
[2020-04-22 20:22:27.453852 CEST] [3374] [info] Forwarding map loaded for 'gros-62' as '7'
[2020-04-22 20:22:27.453995 CEST] [3374] [info] forwarding_mapper() Forward to 7
[2020-04-22 20:22:37.413966 CEST] [3373] [info] Forwarding map loaded for 'gros-62' as '7'
[2020-04-22 20:22:37.414033 CEST] [3373] [info] forwarding_mapper() Forward to 7
[2020-04-22 20:22:37.415626 CEST] [3379] [info] Forwarding map loaded for 'gros-62' as '7'
[2020-04-22 20:22:37.415783 CEST] [3379] [info] forwarding_mapper() Forward to 7
[2020-04-22 20:22:37.423784 CEST] [3380] [info] Forwarding map loaded for 'gros-62' as '7'
[2020-04-22 20:22:37.423848 CEST] [3380] [info] forwarding_mapper() Forward to 7
[2020-04-22 20:22:37.431246 CEST] [3377] [info] Forwarding map loaded for 'gros-62' as '7'
[2020-04-22 20:22:37.431390 CEST] [3377] [info] forwarding_mapper() Forward to 7
[2020-04-22 20:22:37.437126 CEST] [3375] [info] Forwarding map loaded for 'gros-62' as '7'
[2020-04-22 20:22:37.437253 CEST] [3375] [info] forwarding_mapper() Forward to 7
[2020-04-22 20:22:37.438128 CEST] [3371] [info] Forwarding map loaded for 'gros-62' as '7'
[2020-04-22 20:22:37.438270 CEST] [3371] [info] forwarding_mapper() Forward to 7
[2020-04-22 20:22:37.451666 CEST] [3372] [info] Forwarding map loaded for 'gros-62' as '7'
[2020-04-22 20:22:37.451808 CEST] [3372] [info] forwarding_mapper() Forward to 7
[2020-04-22 20:22:37.462959 CEST] [3374] [info] Forwarding map loaded for 'gros-62' as '7'
[2020-04-22 20:22:37.463109 CEST] [3374] [info] forwarding_mapper() Forward to 7
[2020-04-22 20:22:47.417258 CEST] [3373] [info] Forwarding map loaded for 'gros-62' as '7'
[2020-04-22 20:22:47.417321 CEST] [3373] [info] forwarding_mapper() Forward to 7
[2020-04-22 20:22:47.420519 CEST] [3379] [info] Forwarding map loaded for 'gros-62' as '7'
[2020-04-22 20:22:47.420661 CEST] [3379] [info] forwarding_mapper() Forward to 7
[2020-04-22 20:22:47.435034 CEST] [3380] [info] Forwarding map loaded for 'gros-62' as '7'
[2020-04-22 20:22:47.435094 CEST] [3380] [info] forwarding_mapper() Forward to 7
[2020-04-22 20:22:47.436723 CEST] [3377] [info] Forwarding map loaded for 'gros-62' as '7'
[2020-04-22 20:22:47.436865 CEST] [3377] [info] forwarding_mapper() Forward to 7
[2020-04-22 20:22:47.441897 CEST] [3375] [info] Forwarding map loaded for 'gros-62' as '7'
[2020-04-22 20:22:47.442029 CEST] [3375] [info] forwarding_mapper() Forward to 7
[2020-04-22 20:22:47.443151 CEST] [3371] [info] Forwarding map loaded for 'gros-62' as '7'
[2020-04-22 20:22:47.443291 CEST] [3371] [info] forwarding_mapper() Forward to 7
[2020-04-22 20:22:47.465423 CEST] [3372] [info] Forwarding map loaded for 'gros-62' as '7'
[2020-04-22 20:22:47.465563 CEST] [3372] [info] forwarding_mapper() Forward to 7
[2020-04-22 20:22:47.476842 CEST] [3374] [info] Forwarding map loaded for 'gros-62' as '7'
[2020-04-22 20:22:47.476983 CEST] [3374] [info] forwarding_mapper() Forward to 7
[2020-04-22 20:22:57.420839 CEST] [3373] [info] Forwarding map loaded for 'gros-62' as '7'
[2020-04-22 20:22:57.420903 CEST] [3373] [info] forwarding_mapper() Forward to 7
[2020-04-22 20:22:57.425940 CEST] [3379] [info] Forwarding map loaded for 'gros-62' as '7'
[2020-04-22 20:22:57.426099 CEST] [3379] [info] forwarding_mapper() Forward to 7
[2020-04-22 20:22:57.441431 CEST] [3380] [info] Forwarding map loaded for 'gros-62' as '7'
[2020-04-22 20:22:57.441490 CEST] [3380] [info] forwarding_mapper() Forward to 7
[2020-04-22 20:22:57.442435 CEST] [3377] [info] Forwarding map loaded for 'gros-62' as '7'
[2020-04-22 20:22:57.442580 CEST] [3377] [info] forwarding_mapper() Forward to 7
[2020-04-22 20:22:57.446834 CEST] [3375] [info] Forwarding map loaded for 'gros-62' as '7'
[2020-04-22 20:22:57.446969 CEST] [3375] [info] forwarding_mapper() Forward to 7
[2020-04-22 20:22:57.448260 CEST] [3371] [info] Forwarding map loaded for 'gros-62' as '7'
[2020-04-22 20:22:57.448401 CEST] [3371] [info] forwarding_mapper() Forward to 7
[2020-04-22 20:22:57.474582 CEST] [3372] [info] Forwarding map loaded for 'gros-62' as '7'
[2020-04-22 20:22:57.474722 CEST] [3372] [info] forwarding_mapper() Forward to 7
[2020-04-22 20:22:57.486144 CEST] [3374] [info] Forwarding map loaded for 'gros-62' as '7'
[2020-04-22 20:22:57.486285 CEST] [3374] [info] forwarding_mapper() Forward to 7
[2020-04-22 20:23:07.449276 CEST] [3336] [info] All subsystems shut down. Client shutdown complete.
[2020-04-22 20:23:07.477830 CEST] [3338] [info] All subsystems shut down. Client shutdown complete.
[2020-04-22 20:23:07.478071 CEST] [3331] [info] All subsystems shut down. Client shutdown complete.
[2020-04-22 20:23:07.484840 CEST] [3334] [info] All subsystems shut down. Client shutdown complete.
[2020-04-22 20:23:07.490204 CEST] [3337] [info] All subsystems shut down. Client shutdown complete.
[2020-04-22 20:23:07.495698 CEST] [3332] [info] All subsystems shut down. Client shutdown complete.
[2020-04-22 20:23:07.504180 CEST] [3335] [info] All subsystems shut down. Client shutdown complete.
[2020-04-22 20:23:07.504284 CEST] [3333] [info] All subsystems shut down. Client shutdown complete.
