[2020-04-22 21:19:45.555389 CEST] [3969] [info] Process cmdline: '/root/benchmarks/NPB3.4/NPB3.4-MPI/bin/bt.C.x.mpi_io_full'
[2020-04-22 21:19:45.555649 CEST] [3969] [info] Initializing RPC subsystem...
[2020-04-22 21:19:45.561417 CEST] [3969] [info] Loading peer addresses...
[2020-04-22 21:19:45.561981 CEST] [3970] [info] Process cmdline: '/root/benchmarks/NPB3.4/NPB3.4-MPI/bin/bt.C.x.mpi_io_full'
[2020-04-22 21:19:45.562242 CEST] [3970] [info] Initializing RPC subsystem...
[2020-04-22 21:19:45.562732 CEST] [3972] [info] Process cmdline: '/root/benchmarks/NPB3.4/NPB3.4-MPI/bin/bt.C.x.mpi_io_full'
[2020-04-22 21:19:45.562990 CEST] [3972] [info] Initializing RPC subsystem...
[2020-04-22 21:19:45.562780 CEST] [3971] [info] Process cmdline: '/root/benchmarks/NPB3.4/NPB3.4-MPI/bin/bt.C.x.mpi_io_full'
[2020-04-22 21:19:45.563051 CEST] [3971] [info] Initializing RPC subsystem...
[2020-04-22 21:19:45.564049 CEST] [3969] [info] Hosts pool size: 12
[2020-04-22 21:19:45.574530 CEST] [3970] [info] Loading peer addresses...
[2020-04-22 21:19:45.575383 CEST] [3972] [info] Loading peer addresses...
[2020-04-22 21:19:45.575426 CEST] [3971] [info] Loading peer addresses...
[2020-04-22 21:19:45.576454 CEST] [3970] [info] Hosts pool size: 12
[2020-04-22 21:19:45.576862 CEST] [3972] [info] Hosts pool size: 12
[2020-04-22 21:19:45.577231 CEST] [3971] [info] Hosts pool size: 12
[2020-04-22 21:19:46.206273 CEST] [3969] [info] Forwarding map loaded for 'gros-84' as '11'
[2020-04-22 21:19:46.206457 CEST] [3969] [info] init_ld_environment_() Forward to 11
[2020-04-22 21:19:46.206592 CEST] [3969] [info] Retrieving file system configuration...
[2020-04-22 21:19:46.207458 CEST] [3971] [info] Forwarding map loaded for 'gros-84' as '11'
[2020-04-22 21:19:46.207641 CEST] [3971] [info] init_ld_environment_() Forward to 11
[2020-04-22 21:19:46.207774 CEST] [3971] [info] Retrieving file system configuration...
[2020-04-22 21:19:46.209460 CEST] [3969] [info] Mountdir: '/mnt/gkfs'
[2020-04-22 21:19:46.209591 CEST] [3969] [info] Environment initialization successful.
[2020-04-22 21:19:46.210293 CEST] [3972] [info] Forwarding map loaded for 'gros-84' as '11'
[2020-04-22 21:19:46.210473 CEST] [3972] [info] init_ld_environment_() Forward to 11
[2020-04-22 21:19:46.210510 CEST] [3971] [info] Mountdir: '/mnt/gkfs'
[2020-04-22 21:19:46.210600 CEST] [3972] [info] Retrieving file system configuration...
[2020-04-22 21:19:46.210634 CEST] [3971] [info] Environment initialization successful.
[2020-04-22 21:19:46.211439 CEST] [3970] [info] Forwarding map loaded for 'gros-84' as '11'
[2020-04-22 21:19:46.211647 CEST] [3970] [info] init_ld_environment_() Forward to 11
[2020-04-22 21:19:46.211809 CEST] [3970] [info] Retrieving file system configuration...
[2020-04-22 21:19:46.213253 CEST] [3972] [info] Mountdir: '/mnt/gkfs'
[2020-04-22 21:19:46.213384 CEST] [3972] [info] Environment initialization successful.
[2020-04-22 21:19:46.215043 CEST] [3970] [info] Mountdir: '/mnt/gkfs'
[2020-04-22 21:19:46.215176 CEST] [3970] [info] Environment initialization successful.
[2020-04-22 21:19:46.239997 CEST] [3989] [info] Forwarding map loaded for 'gros-84' as '11'
[2020-04-22 21:19:46.240162 CEST] [3989] [info] forwarding_mapper() Forward to 11
[2020-04-22 21:19:46.241326 CEST] [3990] [info] Forwarding map loaded for 'gros-84' as '11'
[2020-04-22 21:19:46.241603 CEST] [3990] [info] forwarding_mapper() Forward to 11
[2020-04-22 21:19:46.242908 CEST] [3991] [info] Forwarding map loaded for 'gros-84' as '11'
[2020-04-22 21:19:46.243089 CEST] [3991] [info] forwarding_mapper() Forward to 11
[2020-04-22 21:19:46.245121 CEST] [3992] [info] Forwarding map loaded for 'gros-84' as '11'
[2020-04-22 21:19:46.245289 CEST] [3992] [info] forwarding_mapper() Forward to 11
[2020-04-22 21:19:56.246611 CEST] [3989] [info] Forwarding map loaded for 'gros-84' as '11'
[2020-04-22 21:19:56.246784 CEST] [3989] [info] forwarding_mapper() Forward to 11
[2020-04-22 21:19:56.247064 CEST] [3990] [info] Forwarding map loaded for 'gros-84' as '11'
[2020-04-22 21:19:56.247232 CEST] [3990] [info] forwarding_mapper() Forward to 11
[2020-04-22 21:19:56.247852 CEST] [3991] [info] Forwarding map loaded for 'gros-84' as '11'
[2020-04-22 21:19:56.248016 CEST] [3991] [info] forwarding_mapper() Forward to 11
[2020-04-22 21:19:56.251153 CEST] [3992] [info] Forwarding map loaded for 'gros-84' as '11'
[2020-04-22 21:19:56.251313 CEST] [3992] [info] forwarding_mapper() Forward to 11
[2020-04-22 21:20:06.254322 CEST] [3991] [info] Forwarding map loaded for 'gros-84' as '11'
[2020-04-22 21:20:06.254493 CEST] [3991] [info] forwarding_mapper() Forward to 11
[2020-04-22 21:20:06.257072 CEST] [3989] [info] Forwarding map loaded for 'gros-84' as '11'
[2020-04-22 21:20:06.257240 CEST] [3989] [info] forwarding_mapper() Forward to 11
[2020-04-22 21:20:06.257378 CEST] [3990] [info] Forwarding map loaded for 'gros-84' as '11'
[2020-04-22 21:20:06.257530 CEST] [3990] [info] forwarding_mapper() Forward to 11
[2020-04-22 21:20:06.258247 CEST] [3992] [info] Forwarding map loaded for 'gros-84' as '11'
[2020-04-22 21:20:06.258407 CEST] [3992] [info] forwarding_mapper() Forward to 11
[2020-04-22 21:20:16.260596 CEST] [3991] [info] Forwarding map loaded for 'gros-84' as '11'
[2020-04-22 21:20:16.260772 CEST] [3991] [info] forwarding_mapper() Forward to 11
[2020-04-22 21:20:16.262901 CEST] [3989] [info] Forwarding map loaded for 'gros-84' as '11'
[2020-04-22 21:20:16.262897 CEST] [3990] [info] Forwarding map loaded for 'gros-84' as '11'
[2020-04-22 21:20:16.263063 CEST] [3989] [info] forwarding_mapper() Forward to 11
[2020-04-22 21:20:16.263074 CEST] [3990] [info] forwarding_mapper() Forward to 11
[2020-04-22 21:20:16.264101 CEST] [3992] [info] Forwarding map loaded for 'gros-84' as '11'
[2020-04-22 21:20:16.264261 CEST] [3992] [info] forwarding_mapper() Forward to 11
[2020-04-22 21:20:26.271265 CEST] [3991] [info] Forwarding map loaded for 'gros-84' as '11'
[2020-04-22 21:20:26.271375 CEST] [3992] [info] Forwarding map loaded for 'gros-84' as '11'
[2020-04-22 21:20:26.271438 CEST] [3991] [info] forwarding_mapper() Forward to 11
[2020-04-22 21:20:26.271538 CEST] [3992] [info] forwarding_mapper() Forward to 11
[2020-04-22 21:20:26.273217 CEST] [3990] [info] Forwarding map loaded for 'gros-84' as '11'
[2020-04-22 21:20:26.273373 CEST] [3990] [info] forwarding_mapper() Forward to 11
[2020-04-22 21:20:26.273696 CEST] [3989] [info] Forwarding map loaded for 'gros-84' as '11'
[2020-04-22 21:20:26.273853 CEST] [3989] [info] forwarding_mapper() Forward to 11
[2020-04-22 21:20:36.277517 CEST] [3992] [info] Forwarding map loaded for 'gros-84' as '11'
[2020-04-22 21:20:36.277682 CEST] [3992] [info] forwarding_mapper() Forward to 11
[2020-04-22 21:20:36.277926 CEST] [3991] [info] Forwarding map loaded for 'gros-84' as '11'
[2020-04-22 21:20:36.278094 CEST] [3991] [info] forwarding_mapper() Forward to 11
[2020-04-22 21:20:36.278782 CEST] [3990] [info] Forwarding map loaded for 'gros-84' as '11'
[2020-04-22 21:20:36.278945 CEST] [3990] [info] forwarding_mapper() Forward to 11
[2020-04-22 21:20:36.279800 CEST] [3989] [info] Forwarding map loaded for 'gros-84' as '11'
[2020-04-22 21:20:36.279965 CEST] [3989] [info] forwarding_mapper() Forward to 11
[2020-04-22 21:20:46.284616 CEST] [3991] [info] Forwarding map loaded for 'gros-84' as '11'
[2020-04-22 21:20:46.284788 CEST] [3991] [info] forwarding_mapper() Forward to 11
[2020-04-22 21:20:46.286751 CEST] [3992] [info] Forwarding map loaded for 'gros-84' as '11'
[2020-04-22 21:20:46.286925 CEST] [3992] [info] forwarding_mapper() Forward to 11
[2020-04-22 21:20:46.289184 CEST] [3990] [info] Forwarding map loaded for 'gros-84' as '11'
[2020-04-22 21:20:46.289342 CEST] [3990] [info] forwarding_mapper() Forward to 11
[2020-04-22 21:20:46.290636 CEST] [3989] [info] Forwarding map loaded for 'gros-84' as '11'
[2020-04-22 21:20:46.290795 CEST] [3989] [info] forwarding_mapper() Forward to 11
[2020-04-22 21:20:56.291018 CEST] [3991] [info] Forwarding map loaded for 'gros-84' as '11'
[2020-04-22 21:20:56.291195 CEST] [3991] [info] forwarding_mapper() Forward to 11
[2020-04-22 21:20:56.292580 CEST] [3992] [info] Forwarding map loaded for 'gros-84' as '11'
[2020-04-22 21:20:56.292758 CEST] [3992] [info] forwarding_mapper() Forward to 11
[2020-04-22 21:20:56.294853 CEST] [3990] [info] Forwarding map loaded for 'gros-84' as '11'
[2020-04-22 21:20:56.295014 CEST] [3990] [info] forwarding_mapper() Forward to 11
[2020-04-22 21:20:56.296726 CEST] [3989] [info] Forwarding map loaded for 'gros-84' as '11'
[2020-04-22 21:20:56.296892 CEST] [3989] [info] forwarding_mapper() Forward to 11
[2020-04-22 21:21:06.302247 CEST] [3991] [info] Forwarding map loaded for 'gros-84' as '11'
[2020-04-22 21:21:06.302420 CEST] [3991] [info] forwarding_mapper() Forward to 11
[2020-04-22 21:21:06.303139 CEST] [3992] [info] Forwarding map loaded for 'gros-84' as '11'
[2020-04-22 21:21:06.303302 CEST] [3992] [info] forwarding_mapper() Forward to 11
[2020-04-22 21:21:06.305277 CEST] [3990] [info] Forwarding map loaded for 'gros-84' as '11'
[2020-04-22 21:21:06.305433 CEST] [3990] [info] forwarding_mapper() Forward to 11
[2020-04-22 21:21:06.307503 CEST] [3989] [info] Forwarding map loaded for 'gros-84' as '11'
[2020-04-22 21:21:06.307654 CEST] [3989] [info] forwarding_mapper() Forward to 11
[2020-04-22 21:21:16.308721 CEST] [3991] [info] Forwarding map loaded for 'gros-84' as '11'
[2020-04-22 21:21:16.308891 CEST] [3991] [info] forwarding_mapper() Forward to 11
[2020-04-22 21:21:16.308936 CEST] [3992] [info] Forwarding map loaded for 'gros-84' as '11'
[2020-04-22 21:21:16.309090 CEST] [3992] [info] forwarding_mapper() Forward to 11
[2020-04-22 21:21:16.310924 CEST] [3990] [info] Forwarding map loaded for 'gros-84' as '11'
[2020-04-22 21:21:16.311075 CEST] [3990] [info] forwarding_mapper() Forward to 11
[2020-04-22 21:21:16.313595 CEST] [3989] [info] Forwarding map loaded for 'gros-84' as '11'
[2020-04-22 21:21:16.313747 CEST] [3989] [info] forwarding_mapper() Forward to 11
[2020-04-22 21:21:26.320058 CEST] [3992] [info] Forwarding map loaded for 'gros-84' as '11'
[2020-04-22 21:21:26.320162 CEST] [3991] [info] Forwarding map loaded for 'gros-84' as '11'
[2020-04-22 21:21:26.320216 CEST] [3992] [info] forwarding_mapper() Forward to 11
[2020-04-22 21:21:26.320313 CEST] [3991] [info] forwarding_mapper() Forward to 11
[2020-04-22 21:21:26.321312 CEST] [3990] [info] Forwarding map loaded for 'gros-84' as '11'
[2020-04-22 21:21:26.321464 CEST] [3990] [info] forwarding_mapper() Forward to 11
[2020-04-22 21:21:26.324484 CEST] [3989] [info] Forwarding map loaded for 'gros-84' as '11'
[2020-04-22 21:21:26.324635 CEST] [3989] [info] forwarding_mapper() Forward to 11
[2020-04-22 21:21:36.364093 CEST] [3969] [info] All subsystems shut down. Client shutdown complete.
[2020-04-22 21:21:36.368945 CEST] [3971] [info] All subsystems shut down. Client shutdown complete.
[2020-04-22 21:21:36.381420 CEST] [3970] [info] All subsystems shut down. Client shutdown complete.
[2020-04-22 21:21:36.412077 CEST] [3972] [info] All subsystems shut down. Client shutdown complete.
