[2020-04-22 21:14:44.356041 CEST] [3876] [info] Process cmdline: '/root/benchmarks/ior-3.2.1/src/ior -a POSIX -b 128m -t 2m -B -w -r -o /mnt/gkfs/output-E-1'
[2020-04-22 21:14:44.356287 CEST] [3876] [info] Initializing RPC subsystem...
[2020-04-22 21:14:44.360931 CEST] [3877] [info] Process cmdline: '/root/benchmarks/ior-3.2.1/src/ior -a POSIX -b 128m -t 2m -B -w -r -o /mnt/gkfs/output-E-1'
[2020-04-22 21:14:44.361163 CEST] [3877] [info] Initializing RPC subsystem...
[2020-04-22 21:14:44.361950 CEST] [3878] [info] Process cmdline: '/root/benchmarks/ior-3.2.1/src/ior -a POSIX -b 128m -t 2m -B -w -r -o /mnt/gkfs/output-E-1'
[2020-04-22 21:14:44.362178 CEST] [3878] [info] Initializing RPC subsystem...
[2020-04-22 21:14:44.362312 CEST] [3879] [info] Process cmdline: '/root/benchmarks/ior-3.2.1/src/ior -a POSIX -b 128m -t 2m -B -w -r -o /mnt/gkfs/output-E-1'
[2020-04-22 21:14:44.362544 CEST] [3879] [info] Initializing RPC subsystem...
[2020-04-22 21:14:44.362850 CEST] [3874] [info] Loading peer addresses...
[2020-04-22 21:14:44.365640 CEST] [3880] [info] Process cmdline: '/root/benchmarks/ior-3.2.1/src/ior -a POSIX -b 128m -t 2m -B -w -r -o /mnt/gkfs/output-E-1'
[2020-04-22 21:14:44.365811 CEST] [3874] [info] Hosts pool size: 12
[2020-04-22 21:14:44.365884 CEST] [3880] [info] Initializing RPC subsystem...
[2020-04-22 21:14:44.366717 CEST] [3875] [info] Loading peer addresses...
[2020-04-22 21:14:44.369717 CEST] [3875] [info] Hosts pool size: 12
[2020-04-22 21:14:44.370148 CEST] [3874] [info] Forwarding map loaded for 'gros-87' as '11'
[2020-04-22 21:14:44.370216 CEST] [3874] [info] init_ld_environment_() Forward to 11
[2020-04-22 21:14:44.370269 CEST] [3874] [info] Retrieving file system configuration...
[2020-04-22 21:14:44.374228 CEST] [3881] [info] Process cmdline: '/root/benchmarks/ior-3.2.1/src/ior -a POSIX -b 128m -t 2m -B -w -r -o /mnt/gkfs/output-E-1'
[2020-04-22 21:14:44.374488 CEST] [3881] [info] Initializing RPC subsystem...
[2020-04-22 21:14:44.374661 CEST] [3875] [info] Forwarding map loaded for 'gros-87' as '11'
[2020-04-22 21:14:44.374737 CEST] [3875] [info] init_ld_environment_() Forward to 11
[2020-04-22 21:14:44.374798 CEST] [3875] [info] Retrieving file system configuration...
[2020-04-22 21:14:44.376488 CEST] [3876] [info] Loading peer addresses...
[2020-04-22 21:14:44.378986 CEST] [3876] [info] Hosts pool size: 12
[2020-04-22 21:14:44.383147 CEST] [3876] [info] Forwarding map loaded for 'gros-87' as '11'
[2020-04-22 21:14:44.383211 CEST] [3876] [info] init_ld_environment_() Forward to 11
[2020-04-22 21:14:44.383258 CEST] [3876] [info] Retrieving file system configuration...
[2020-04-22 21:14:44.383798 CEST] [3874] [info] Mountdir: '/mnt/gkfs'
[2020-04-22 21:14:44.383916 CEST] [3875] [info] Mountdir: '/mnt/gkfs'
[2020-04-22 21:14:44.383933 CEST] [3874] [info] Environment initialization successful.
[2020-04-22 21:14:44.383976 CEST] [3875] [info] Environment initialization successful.
[2020-04-22 21:14:44.384181 CEST] [3877] [info] Loading peer addresses...
[2020-04-22 21:14:44.385097 CEST] [3879] [info] Loading peer addresses...
[2020-04-22 21:14:44.386605 CEST] [3880] [info] Loading peer addresses...
[2020-04-22 21:14:44.386717 CEST] [3877] [info] Hosts pool size: 12
[2020-04-22 21:14:44.386861 CEST] [3878] [info] Loading peer addresses...
[2020-04-22 21:14:44.387138 CEST] [3879] [info] Hosts pool size: 12
[2020-04-22 21:14:44.388084 CEST] [3880] [info] Hosts pool size: 12
[2020-04-22 21:14:44.388958 CEST] [3878] [info] Hosts pool size: 12
[2020-04-22 21:14:44.389817 CEST] [3881] [info] Loading peer addresses...
[2020-04-22 21:14:44.390402 CEST] [3877] [info] Forwarding map loaded for 'gros-87' as '11'
[2020-04-22 21:14:44.390439 CEST] [3879] [info] Forwarding map loaded for 'gros-87' as '11'
[2020-04-22 21:14:44.390463 CEST] [3877] [info] init_ld_environment_() Forward to 11
[2020-04-22 21:14:44.390499 CEST] [3879] [info] init_ld_environment_() Forward to 11
[2020-04-22 21:14:44.390510 CEST] [3877] [info] Retrieving file system configuration...
[2020-04-22 21:14:44.390547 CEST] [3879] [info] Retrieving file system configuration...
[2020-04-22 21:14:44.391656 CEST] [3880] [info] Forwarding map loaded for 'gros-87' as '11'
[2020-04-22 21:14:44.391720 CEST] [3880] [info] init_ld_environment_() Forward to 11
[2020-04-22 21:14:44.391767 CEST] [3880] [info] Retrieving file system configuration...
[2020-04-22 21:14:44.392802 CEST] [3881] [info] Hosts pool size: 12
[2020-04-22 21:14:44.393157 CEST] [3878] [info] Forwarding map loaded for 'gros-87' as '11'
[2020-04-22 21:14:44.393217 CEST] [3878] [info] init_ld_environment_() Forward to 11
[2020-04-22 21:14:44.393262 CEST] [3878] [info] Retrieving file system configuration...
[2020-04-22 21:14:44.396257 CEST] [3876] [info] Mountdir: '/mnt/gkfs'
[2020-04-22 21:14:44.396318 CEST] [3876] [info] Environment initialization successful.
[2020-04-22 21:14:44.396975 CEST] [3879] [info] Mountdir: '/mnt/gkfs'
[2020-04-22 21:14:44.397019 CEST] [3879] [info] Environment initialization successful.
[2020-04-22 21:14:44.397006 CEST] [3880] [info] Mountdir: '/mnt/gkfs'
[2020-04-22 21:14:44.397049 CEST] [3880] [info] Environment initialization successful.
[2020-04-22 21:14:44.397055 CEST] [3881] [info] Forwarding map loaded for 'gros-87' as '11'
[2020-04-22 21:14:44.397089 CEST] [3877] [info] Mountdir: '/mnt/gkfs'
[2020-04-22 21:14:44.397114 CEST] [3881] [info] init_ld_environment_() Forward to 11
[2020-04-22 21:14:44.397136 CEST] [3877] [info] Environment initialization successful.
[2020-04-22 21:14:44.397159 CEST] [3881] [info] Retrieving file system configuration...
[2020-04-22 21:14:44.398479 CEST] [3878] [info] Mountdir: '/mnt/gkfs'
[2020-04-22 21:14:44.398629 CEST] [3878] [info] Environment initialization successful.
[2020-04-22 21:14:44.399520 CEST] [3914] [info] Forwarding map loaded for 'gros-87' as '11'
[2020-04-22 21:14:44.399580 CEST] [3914] [info] forwarding_mapper() Forward to 11
[2020-04-22 21:14:44.401000 CEST] [3881] [info] Mountdir: '/mnt/gkfs'
[2020-04-22 21:14:44.401120 CEST] [3881] [info] Environment initialization successful.
[2020-04-22 21:14:44.413941 CEST] [3918] [info] Forwarding map loaded for 'gros-87' as '11'
[2020-04-22 21:14:44.414033 CEST] [3918] [info] forwarding_mapper() Forward to 11
[2020-04-22 21:14:44.414350 CEST] [3920] [info] Forwarding map loaded for 'gros-87' as '11'
[2020-04-22 21:14:44.414484 CEST] [3920] [info] forwarding_mapper() Forward to 11
[2020-04-22 21:14:44.415115 CEST] [3917] [info] Forwarding map loaded for 'gros-87' as '11'
[2020-04-22 21:14:44.415253 CEST] [3917] [info] forwarding_mapper() Forward to 11
[2020-04-22 21:14:44.416419 CEST] [3919] [info] Forwarding map loaded for 'gros-87' as '11'
[2020-04-22 21:14:44.416660 CEST] [3919] [info] forwarding_mapper() Forward to 11
[2020-04-22 21:14:44.417899 CEST] [3921] [info] Forwarding map loaded for 'gros-87' as '11'
[2020-04-22 21:14:44.418124 CEST] [3921] [info] forwarding_mapper() Forward to 11
[2020-04-22 21:14:44.424550 CEST] [3931] [info] Forwarding map loaded for 'gros-87' as '11'
[2020-04-22 21:14:44.424710 CEST] [3931] [info] forwarding_mapper() Forward to 11
[2020-04-22 21:14:44.429122 CEST] [3934] [info] Forwarding map loaded for 'gros-87' as '11'
[2020-04-22 21:14:44.429288 CEST] [3934] [info] forwarding_mapper() Forward to 11
[2020-04-22 21:14:54.405708 CEST] [3914] [info] Forwarding map loaded for 'gros-87' as '11'
[2020-04-22 21:14:54.405837 CEST] [3914] [info] forwarding_mapper() Forward to 11
[2020-04-22 21:14:54.419189 CEST] [3918] [info] Forwarding map loaded for 'gros-87' as '11'
[2020-04-22 21:14:54.419347 CEST] [3918] [info] forwarding_mapper() Forward to 11
[2020-04-22 21:14:54.419796 CEST] [3920] [info] Forwarding map loaded for 'gros-87' as '11'
[2020-04-22 21:14:54.419959 CEST] [3920] [info] forwarding_mapper() Forward to 11
[2020-04-22 21:14:54.419905 CEST] [3917] [info] Forwarding map loaded for 'gros-87' as '11'
[2020-04-22 21:14:54.420058 CEST] [3917] [info] forwarding_mapper() Forward to 11
[2020-04-22 21:14:54.421277 CEST] [3919] [info] Forwarding map loaded for 'gros-87' as '11'
[2020-04-22 21:14:54.421437 CEST] [3919] [info] forwarding_mapper() Forward to 11
[2020-04-22 21:14:54.423209 CEST] [3921] [info] Forwarding map loaded for 'gros-87' as '11'
[2020-04-22 21:14:54.423390 CEST] [3921] [info] forwarding_mapper() Forward to 11
[2020-04-22 21:14:54.430314 CEST] [3931] [info] Forwarding map loaded for 'gros-87' as '11'
[2020-04-22 21:14:54.430482 CEST] [3931] [info] forwarding_mapper() Forward to 11
[2020-04-22 21:14:54.441059 CEST] [3934] [info] Forwarding map loaded for 'gros-87' as '11'
[2020-04-22 21:14:54.441221 CEST] [3934] [info] forwarding_mapper() Forward to 11
[2020-04-22 21:15:04.412932 CEST] [3914] [info] Forwarding map loaded for 'gros-87' as '11'
[2020-04-22 21:15:04.413091 CEST] [3914] [info] forwarding_mapper() Forward to 11
[2020-04-22 21:15:04.424634 CEST] [3918] [info] Forwarding map loaded for 'gros-87' as '11'
[2020-04-22 21:15:04.424786 CEST] [3918] [info] forwarding_mapper() Forward to 11
[2020-04-22 21:15:04.424874 CEST] [3917] [info] Forwarding map loaded for 'gros-87' as '11'
[2020-04-22 21:15:04.425025 CEST] [3917] [info] forwarding_mapper() Forward to 11
[2020-04-22 21:15:04.425969 CEST] [3920] [info] Forwarding map loaded for 'gros-87' as '11'
[2020-04-22 21:15:04.426028 CEST] [3919] [info] Forwarding map loaded for 'gros-87' as '11'
[2020-04-22 21:15:04.426119 CEST] [3920] [info] forwarding_mapper() Forward to 11
[2020-04-22 21:15:04.426173 CEST] [3919] [info] forwarding_mapper() Forward to 11
[2020-04-22 21:15:04.429794 CEST] [3921] [info] Forwarding map loaded for 'gros-87' as '11'
[2020-04-22 21:15:04.429949 CEST] [3921] [info] forwarding_mapper() Forward to 11
[2020-04-22 21:15:04.437337 CEST] [3931] [info] Forwarding map loaded for 'gros-87' as '11'
[2020-04-22 21:15:04.437510 CEST] [3931] [info] forwarding_mapper() Forward to 11
[2020-04-22 21:15:04.447961 CEST] [3934] [info] Forwarding map loaded for 'gros-87' as '11'
[2020-04-22 21:15:04.448116 CEST] [3934] [info] forwarding_mapper() Forward to 11
[2020-04-22 21:15:14.419589 CEST] [3914] [info] Forwarding map loaded for 'gros-87' as '11'
[2020-04-22 21:15:14.419749 CEST] [3914] [info] forwarding_mapper() Forward to 11
[2020-04-22 21:15:14.429924 CEST] [3918] [info] Forwarding map loaded for 'gros-87' as '11'
[2020-04-22 21:15:14.430077 CEST] [3918] [info] forwarding_mapper() Forward to 11
[2020-04-22 21:15:14.430800 CEST] [3919] [info] Forwarding map loaded for 'gros-87' as '11'
[2020-04-22 21:15:14.430952 CEST] [3919] [info] forwarding_mapper() Forward to 11
[2020-04-22 21:15:14.431003 CEST] [3920] [info] Forwarding map loaded for 'gros-87' as '11'
[2020-04-22 21:15:14.431151 CEST] [3920] [info] forwarding_mapper() Forward to 11
[2020-04-22 21:15:14.434511 CEST] [3921] [info] Forwarding map loaded for 'gros-87' as '11'
[2020-04-22 21:15:14.434659 CEST] [3921] [info] forwarding_mapper() Forward to 11
[2020-04-22 21:15:14.436188 CEST] [3917] [info] Forwarding map loaded for 'gros-87' as '11'
[2020-04-22 21:15:14.436341 CEST] [3917] [info] forwarding_mapper() Forward to 11
[2020-04-22 21:15:14.443082 CEST] [3931] [info] Forwarding map loaded for 'gros-87' as '11'
[2020-04-22 21:15:14.443237 CEST] [3931] [info] forwarding_mapper() Forward to 11
[2020-04-22 21:15:14.458296 CEST] [3934] [info] Forwarding map loaded for 'gros-87' as '11'
[2020-04-22 21:15:14.458465 CEST] [3934] [info] forwarding_mapper() Forward to 11
[2020-04-22 21:15:24.426894 CEST] [3914] [info] Forwarding map loaded for 'gros-87' as '11'
[2020-04-22 21:15:24.427060 CEST] [3914] [info] forwarding_mapper() Forward to 11
[2020-04-22 21:15:24.435188 CEST] [3918] [info] Forwarding map loaded for 'gros-87' as '11'
[2020-04-22 21:15:24.435340 CEST] [3918] [info] forwarding_mapper() Forward to 11
[2020-04-22 21:15:24.436424 CEST] [3920] [info] Forwarding map loaded for 'gros-87' as '11'
[2020-04-22 21:15:24.436575 CEST] [3920] [info] forwarding_mapper() Forward to 11
[2020-04-22 21:15:24.436956 CEST] [3919] [info] Forwarding map loaded for 'gros-87' as '11'
[2020-04-22 21:15:24.437104 CEST] [3919] [info] forwarding_mapper() Forward to 11
[2020-04-22 21:15:24.439232 CEST] [3921] [info] Forwarding map loaded for 'gros-87' as '11'
[2020-04-22 21:15:24.439388 CEST] [3921] [info] forwarding_mapper() Forward to 11
[2020-04-22 21:15:24.441350 CEST] [3917] [info] Forwarding map loaded for 'gros-87' as '11'
[2020-04-22 21:15:24.441513 CEST] [3917] [info] forwarding_mapper() Forward to 11
[2020-04-22 21:15:24.448780 CEST] [3931] [info] Forwarding map loaded for 'gros-87' as '11'
[2020-04-22 21:15:24.448939 CEST] [3931] [info] forwarding_mapper() Forward to 11
[2020-04-22 21:15:24.464114 CEST] [3934] [info] Forwarding map loaded for 'gros-87' as '11'
[2020-04-22 21:15:24.464271 CEST] [3934] [info] forwarding_mapper() Forward to 11
[2020-04-22 21:15:34.434994 CEST] [3914] [info] Forwarding map loaded for 'gros-87' as '11'
[2020-04-22 21:15:34.435154 CEST] [3914] [info] forwarding_mapper() Forward to 11
[2020-04-22 21:15:34.440691 CEST] [3918] [info] Forwarding map loaded for 'gros-87' as '11'
[2020-04-22 21:15:34.440843 CEST] [3918] [info] forwarding_mapper() Forward to 11
[2020-04-22 21:15:34.442107 CEST] [3919] [info] Forwarding map loaded for 'gros-87' as '11'
[2020-04-22 21:15:34.442307 CEST] [3919] [info] forwarding_mapper() Forward to 11
[2020-04-22 21:15:34.446704 CEST] [3920] [info] Forwarding map loaded for 'gros-87' as '11'
[2020-04-22 21:15:34.446855 CEST] [3920] [info] forwarding_mapper() Forward to 11
[2020-04-22 21:15:34.447077 CEST] [3917] [info] Forwarding map loaded for 'gros-87' as '11'
[2020-04-22 21:15:34.447227 CEST] [3917] [info] forwarding_mapper() Forward to 11
[2020-04-22 21:15:34.449356 CEST] [3921] [info] Forwarding map loaded for 'gros-87' as '11'
[2020-04-22 21:15:34.449526 CEST] [3921] [info] forwarding_mapper() Forward to 11
[2020-04-22 21:15:34.457937 CEST] [3931] [info] Forwarding map loaded for 'gros-87' as '11'
[2020-04-22 21:15:34.458094 CEST] [3931] [info] forwarding_mapper() Forward to 11
[2020-04-22 21:15:34.473990 CEST] [3934] [info] Forwarding map loaded for 'gros-87' as '11'
[2020-04-22 21:15:34.474146 CEST] [3934] [info] forwarding_mapper() Forward to 11
[2020-04-22 21:15:44.441087 CEST] [3914] [info] Forwarding map loaded for 'gros-87' as '11'
[2020-04-22 21:15:44.441254 CEST] [3914] [info] forwarding_mapper() Forward to 11
[2020-04-22 21:15:44.446099 CEST] [3918] [info] Forwarding map loaded for 'gros-87' as '11'
[2020-04-22 21:15:44.446251 CEST] [3918] [info] forwarding_mapper() Forward to 11
[2020-04-22 21:15:44.447321 CEST] [3919] [info] Forwarding map loaded for 'gros-87' as '11'
[2020-04-22 21:15:44.447494 CEST] [3919] [info] forwarding_mapper() Forward to 11
[2020-04-22 21:15:44.452303 CEST] [3917] [info] Forwarding map loaded for 'gros-87' as '11'
[2020-04-22 21:15:44.452462 CEST] [3917] [info] forwarding_mapper() Forward to 11
[2020-04-22 21:15:44.452716 CEST] [3920] [info] Forwarding map loaded for 'gros-87' as '11'
[2020-04-22 21:15:44.452868 CEST] [3920] [info] forwarding_mapper() Forward to 11
[2020-04-22 21:15:44.454526 CEST] [3921] [info] Forwarding map loaded for 'gros-87' as '11'
[2020-04-22 21:15:44.454686 CEST] [3921] [info] forwarding_mapper() Forward to 11
[2020-04-22 21:15:44.463922 CEST] [3931] [info] Forwarding map loaded for 'gros-87' as '11'
[2020-04-22 21:15:44.464082 CEST] [3931] [info] forwarding_mapper() Forward to 11
[2020-04-22 21:15:44.480575 CEST] [3934] [info] Forwarding map loaded for 'gros-87' as '11'
[2020-04-22 21:15:44.480733 CEST] [3934] [info] forwarding_mapper() Forward to 11
[2020-04-22 21:15:54.446880 CEST] [3914] [info] Forwarding map loaded for 'gros-87' as '11'
[2020-04-22 21:15:54.447041 CEST] [3914] [info] forwarding_mapper() Forward to 11
[2020-04-22 21:15:54.450896 CEST] [3918] [info] Forwarding map loaded for 'gros-87' as '11'
[2020-04-22 21:15:54.451048 CEST] [3918] [info] forwarding_mapper() Forward to 11
[2020-04-22 21:15:54.452549 CEST] [3919] [info] Forwarding map loaded for 'gros-87' as '11'
[2020-04-22 21:15:54.452717 CEST] [3919] [info] forwarding_mapper() Forward to 11
[2020-04-22 21:15:54.457679 CEST] [3917] [info] Forwarding map loaded for 'gros-87' as '11'
[2020-04-22 21:15:54.457832 CEST] [3917] [info] forwarding_mapper() Forward to 11
[2020-04-22 21:15:54.460520 CEST] [3920] [info] Forwarding map loaded for 'gros-87' as '11'
[2020-04-22 21:15:54.460683 CEST] [3920] [info] forwarding_mapper() Forward to 11
[2020-04-22 21:15:54.462459 CEST] [3921] [info] Forwarding map loaded for 'gros-87' as '11'
[2020-04-22 21:15:54.462618 CEST] [3921] [info] forwarding_mapper() Forward to 11
[2020-04-22 21:15:54.471482 CEST] [3931] [info] Forwarding map loaded for 'gros-87' as '11'
[2020-04-22 21:15:54.471636 CEST] [3931] [info] forwarding_mapper() Forward to 11
[2020-04-22 21:15:54.488248 CEST] [3934] [info] Forwarding map loaded for 'gros-87' as '11'
[2020-04-22 21:15:54.488416 CEST] [3934] [info] forwarding_mapper() Forward to 11
[2020-04-22 21:16:04.452900 CEST] [3914] [info] Forwarding map loaded for 'gros-87' as '11'
[2020-04-22 21:16:04.453061 CEST] [3914] [info] forwarding_mapper() Forward to 11
[2020-04-22 21:16:04.455754 CEST] [3918] [info] Forwarding map loaded for 'gros-87' as '11'
[2020-04-22 21:16:04.455905 CEST] [3918] [info] forwarding_mapper() Forward to 11
[2020-04-22 21:16:04.457804 CEST] [3919] [info] Forwarding map loaded for 'gros-87' as '11'
[2020-04-22 21:16:04.457962 CEST] [3919] [info] forwarding_mapper() Forward to 11
[2020-04-22 21:16:04.462910 CEST] [3917] [info] Forwarding map loaded for 'gros-87' as '11'
[2020-04-22 21:16:04.463062 CEST] [3917] [info] forwarding_mapper() Forward to 11
[2020-04-22 21:16:04.465821 CEST] [3920] [info] Forwarding map loaded for 'gros-87' as '11'
[2020-04-22 21:16:04.465971 CEST] [3920] [info] forwarding_mapper() Forward to 11
[2020-04-22 21:16:04.467684 CEST] [3921] [info] Forwarding map loaded for 'gros-87' as '11'
[2020-04-22 21:16:04.467839 CEST] [3921] [info] forwarding_mapper() Forward to 11
[2020-04-22 21:16:04.477325 CEST] [3931] [info] Forwarding map loaded for 'gros-87' as '11'
[2020-04-22 21:16:04.477496 CEST] [3931] [info] forwarding_mapper() Forward to 11
[2020-04-22 21:16:04.494567 CEST] [3934] [info] Forwarding map loaded for 'gros-87' as '11'
[2020-04-22 21:16:04.494726 CEST] [3934] [info] forwarding_mapper() Forward to 11
[2020-04-22 21:16:14.459129 CEST] [3914] [info] Forwarding map loaded for 'gros-87' as '11'
[2020-04-22 21:16:14.459294 CEST] [3914] [info] forwarding_mapper() Forward to 11
[2020-04-22 21:16:14.460444 CEST] [3918] [info] Forwarding map loaded for 'gros-87' as '11'
[2020-04-22 21:16:14.460596 CEST] [3918] [info] forwarding_mapper() Forward to 11
[2020-04-22 21:16:14.463269 CEST] [3919] [info] Forwarding map loaded for 'gros-87' as '11'
[2020-04-22 21:16:14.463437 CEST] [3919] [info] forwarding_mapper() Forward to 11
[2020-04-22 21:16:14.468385 CEST] [3917] [info] Forwarding map loaded for 'gros-87' as '11'
[2020-04-22 21:16:14.468536 CEST] [3917] [info] forwarding_mapper() Forward to 11
[2020-04-22 21:16:14.472498 CEST] [3921] [info] Forwarding map loaded for 'gros-87' as '11'
[2020-04-22 21:16:14.472649 CEST] [3921] [info] forwarding_mapper() Forward to 11
[2020-04-22 21:16:14.475606 CEST] [3920] [info] Forwarding map loaded for 'gros-87' as '11'
[2020-04-22 21:16:14.475763 CEST] [3920] [info] forwarding_mapper() Forward to 11
[2020-04-22 21:16:14.483195 CEST] [3931] [info] Forwarding map loaded for 'gros-87' as '11'
[2020-04-22 21:16:14.483369 CEST] [3931] [info] forwarding_mapper() Forward to 11
[2020-04-22 21:16:14.500330 CEST] [3934] [info] Forwarding map loaded for 'gros-87' as '11'
[2020-04-22 21:16:14.500496 CEST] [3934] [info] forwarding_mapper() Forward to 11
[2020-04-22 21:16:24.465611 CEST] [3914] [info] Forwarding map loaded for 'gros-87' as '11'
[2020-04-22 21:16:24.465777 CEST] [3914] [info] forwarding_mapper() Forward to 11
[2020-04-22 21:16:24.466091 CEST] [3918] [info] Forwarding map loaded for 'gros-87' as '11'
[2020-04-22 21:16:24.466251 CEST] [3918] [info] forwarding_mapper() Forward to 11
[2020-04-22 21:16:24.468496 CEST] [3919] [info] Forwarding map loaded for 'gros-87' as '11'
[2020-04-22 21:16:24.468655 CEST] [3919] [info] forwarding_mapper() Forward to 11
[2020-04-22 21:16:24.473646 CEST] [3917] [info] Forwarding map loaded for 'gros-87' as '11'
[2020-04-22 21:16:24.473796 CEST] [3917] [info] forwarding_mapper() Forward to 11
[2020-04-22 21:16:24.477147 CEST] [3921] [info] Forwarding map loaded for 'gros-87' as '11'
[2020-04-22 21:16:24.477299 CEST] [3921] [info] forwarding_mapper() Forward to 11
[2020-04-22 21:16:24.481057 CEST] [3920] [info] Forwarding map loaded for 'gros-87' as '11'
[2020-04-22 21:16:24.481216 CEST] [3920] [info] forwarding_mapper() Forward to 11
[2020-04-22 21:16:24.490082 CEST] [3931] [info] Forwarding map loaded for 'gros-87' as '11'
[2020-04-22 21:16:24.490237 CEST] [3931] [info] forwarding_mapper() Forward to 11
[2020-04-22 21:16:24.506082 CEST] [3934] [info] Forwarding map loaded for 'gros-87' as '11'
[2020-04-22 21:16:24.506242 CEST] [3934] [info] forwarding_mapper() Forward to 11
[2020-04-22 21:16:34.471514 CEST] [3918] [info] Forwarding map loaded for 'gros-87' as '11'
[2020-04-22 21:16:34.471676 CEST] [3918] [info] forwarding_mapper() Forward to 11
[2020-04-22 21:16:34.472333 CEST] [3914] [info] Forwarding map loaded for 'gros-87' as '11'
[2020-04-22 21:16:34.472502 CEST] [3914] [info] forwarding_mapper() Forward to 11
[2020-04-22 21:16:34.473598 CEST] [3919] [info] Forwarding map loaded for 'gros-87' as '11'
[2020-04-22 21:16:34.473757 CEST] [3919] [info] forwarding_mapper() Forward to 11
[2020-04-22 21:16:34.478950 CEST] [3917] [info] Forwarding map loaded for 'gros-87' as '11'
[2020-04-22 21:16:34.479102 CEST] [3917] [info] forwarding_mapper() Forward to 11
[2020-04-22 21:16:34.482378 CEST] [3921] [info] Forwarding map loaded for 'gros-87' as '11'
[2020-04-22 21:16:34.482534 CEST] [3921] [info] forwarding_mapper() Forward to 11
[2020-04-22 21:16:34.490351 CEST] [3920] [info] Forwarding map loaded for 'gros-87' as '11'
[2020-04-22 21:16:34.490520 CEST] [3920] [info] forwarding_mapper() Forward to 11
[2020-04-22 21:16:34.495843 CEST] [3931] [info] Forwarding map loaded for 'gros-87' as '11'
[2020-04-22 21:16:34.496003 CEST] [3931] [info] forwarding_mapper() Forward to 11
[2020-04-22 21:16:34.511883 CEST] [3934] [info] Forwarding map loaded for 'gros-87' as '11'
[2020-04-22 21:16:34.512040 CEST] [3934] [info] forwarding_mapper() Forward to 11
[2020-04-22 21:16:44.476847 CEST] [3918] [info] Forwarding map loaded for 'gros-87' as '11'
[2020-04-22 21:16:44.477006 CEST] [3918] [info] forwarding_mapper() Forward to 11
[2020-04-22 21:16:44.478536 CEST] [3919] [info] Forwarding map loaded for 'gros-87' as '11'
[2020-04-22 21:16:44.478693 CEST] [3919] [info] forwarding_mapper() Forward to 11
[2020-04-22 21:16:44.478903 CEST] [3914] [info] Forwarding map loaded for 'gros-87' as '11'
[2020-04-22 21:16:44.479059 CEST] [3914] [info] forwarding_mapper() Forward to 11
[2020-04-22 21:16:44.484322 CEST] [3917] [info] Forwarding map loaded for 'gros-87' as '11'
[2020-04-22 21:16:44.484478 CEST] [3917] [info] forwarding_mapper() Forward to 11
[2020-04-22 21:16:44.487486 CEST] [3921] [info] Forwarding map loaded for 'gros-87' as '11'
[2020-04-22 21:16:44.487645 CEST] [3921] [info] forwarding_mapper() Forward to 11
[2020-04-22 21:16:44.496693 CEST] [3920] [info] Forwarding map loaded for 'gros-87' as '11'
[2020-04-22 21:16:44.496849 CEST] [3920] [info] forwarding_mapper() Forward to 11
[2020-04-22 21:16:44.502680 CEST] [3931] [info] Forwarding map loaded for 'gros-87' as '11'
[2020-04-22 21:16:44.502835 CEST] [3931] [info] forwarding_mapper() Forward to 11
[2020-04-22 21:16:44.519052 CEST] [3934] [info] Forwarding map loaded for 'gros-87' as '11'
[2020-04-22 21:16:44.519209 CEST] [3934] [info] forwarding_mapper() Forward to 11
[2020-04-22 21:16:54.482515 CEST] [3918] [info] Forwarding map loaded for 'gros-87' as '11'
[2020-04-22 21:16:54.482677 CEST] [3918] [info] forwarding_mapper() Forward to 11
[2020-04-22 21:16:54.483298 CEST] [3919] [info] Forwarding map loaded for 'gros-87' as '11'
[2020-04-22 21:16:54.483460 CEST] [3919] [info] forwarding_mapper() Forward to 11
[2020-04-22 21:16:54.485322 CEST] [3914] [info] Forwarding map loaded for 'gros-87' as '11'
[2020-04-22 21:16:54.485480 CEST] [3914] [info] forwarding_mapper() Forward to 11
[2020-04-22 21:16:54.489600 CEST] [3917] [info] Forwarding map loaded for 'gros-87' as '11'
[2020-04-22 21:16:54.489779 CEST] [3917] [info] forwarding_mapper() Forward to 11
[2020-04-22 21:16:54.495296 CEST] [3921] [info] Forwarding map loaded for 'gros-87' as '11'
[2020-04-22 21:16:54.495462 CEST] [3921] [info] forwarding_mapper() Forward to 11
[2020-04-22 21:16:54.505049 CEST] [3920] [info] Forwarding map loaded for 'gros-87' as '11'
[2020-04-22 21:16:54.505205 CEST] [3920] [info] forwarding_mapper() Forward to 11
[2020-04-22 21:16:54.510648 CEST] [3931] [info] Forwarding map loaded for 'gros-87' as '11'
[2020-04-22 21:16:54.510803 CEST] [3931] [info] forwarding_mapper() Forward to 11
[2020-04-22 21:16:54.525063 CEST] [3934] [info] Forwarding map loaded for 'gros-87' as '11'
[2020-04-22 21:16:54.525221 CEST] [3934] [info] forwarding_mapper() Forward to 11
[2020-04-22 21:17:04.488863 CEST] [3919] [info] Forwarding map loaded for 'gros-87' as '11'
[2020-04-22 21:17:04.489023 CEST] [3919] [info] forwarding_mapper() Forward to 11
[2020-04-22 21:17:04.489442 CEST] [3918] [info] Forwarding map loaded for 'gros-87' as '11'
[2020-04-22 21:17:04.489599 CEST] [3918] [info] forwarding_mapper() Forward to 11
[2020-04-22 21:17:04.491561 CEST] [3914] [info] Forwarding map loaded for 'gros-87' as '11'
[2020-04-22 21:17:04.491711 CEST] [3914] [info] forwarding_mapper() Forward to 11
[2020-04-22 21:17:04.494990 CEST] [3917] [info] Forwarding map loaded for 'gros-87' as '11'
[2020-04-22 21:17:04.495144 CEST] [3917] [info] forwarding_mapper() Forward to 11
[2020-04-22 21:17:04.502580 CEST] [3921] [info] Forwarding map loaded for 'gros-87' as '11'
[2020-04-22 21:17:04.502736 CEST] [3921] [info] forwarding_mapper() Forward to 11
[2020-04-22 21:17:04.511984 CEST] [3920] [info] Forwarding map loaded for 'gros-87' as '11'
[2020-04-22 21:17:04.512136 CEST] [3920] [info] forwarding_mapper() Forward to 11
[2020-04-22 21:17:04.515869 CEST] [3931] [info] Forwarding map loaded for 'gros-87' as '11'
[2020-04-22 21:17:04.516026 CEST] [3931] [info] forwarding_mapper() Forward to 11
[2020-04-22 21:17:04.532411 CEST] [3934] [info] Forwarding map loaded for 'gros-87' as '11'
[2020-04-22 21:17:04.532568 CEST] [3934] [info] forwarding_mapper() Forward to 11
[2020-04-22 21:17:14.494545 CEST] [3919] [info] Forwarding map loaded for 'gros-87' as '11'
[2020-04-22 21:17:14.494705 CEST] [3919] [info] forwarding_mapper() Forward to 11
[2020-04-22 21:17:14.496521 CEST] [3918] [info] Forwarding map loaded for 'gros-87' as '11'
[2020-04-22 21:17:14.496673 CEST] [3918] [info] forwarding_mapper() Forward to 11
[2020-04-22 21:17:14.498140 CEST] [3914] [info] Forwarding map loaded for 'gros-87' as '11'
[2020-04-22 21:17:14.498296 CEST] [3914] [info] forwarding_mapper() Forward to 11
[2020-04-22 21:17:14.506534 CEST] [3917] [info] Forwarding map loaded for 'gros-87' as '11'
[2020-04-22 21:17:14.506684 CEST] [3917] [info] forwarding_mapper() Forward to 11
[2020-04-22 21:17:14.507973 CEST] [3921] [info] Forwarding map loaded for 'gros-87' as '11'
[2020-04-22 21:17:14.508133 CEST] [3921] [info] forwarding_mapper() Forward to 11
[2020-04-22 21:17:14.517588 CEST] [3920] [info] Forwarding map loaded for 'gros-87' as '11'
[2020-04-22 21:17:14.517737 CEST] [3920] [info] forwarding_mapper() Forward to 11
[2020-04-22 21:17:14.521147 CEST] [3931] [info] Forwarding map loaded for 'gros-87' as '11'
[2020-04-22 21:17:14.521303 CEST] [3931] [info] forwarding_mapper() Forward to 11
[2020-04-22 21:17:14.544440 CEST] [3934] [info] Forwarding map loaded for 'gros-87' as '11'
[2020-04-22 21:17:14.544594 CEST] [3934] [info] forwarding_mapper() Forward to 11
[2020-04-22 21:17:24.500001 CEST] [3919] [info] Forwarding map loaded for 'gros-87' as '11'
[2020-04-22 21:17:24.500162 CEST] [3919] [info] forwarding_mapper() Forward to 11
[2020-04-22 21:17:24.502608 CEST] [3918] [info] Forwarding map loaded for 'gros-87' as '11'
[2020-04-22 21:17:24.502764 CEST] [3918] [info] forwarding_mapper() Forward to 11
[2020-04-22 21:17:24.503477 CEST] [3914] [info] Forwarding map loaded for 'gros-87' as '11'
[2020-04-22 21:17:24.503633 CEST] [3914] [info] forwarding_mapper() Forward to 11
[2020-04-22 21:17:24.513382 CEST] [3921] [info] Forwarding map loaded for 'gros-87' as '11'
[2020-04-22 21:17:24.513534 CEST] [3921] [info] forwarding_mapper() Forward to 11
[2020-04-22 21:17:24.513912 CEST] [3917] [info] Forwarding map loaded for 'gros-87' as '11'
[2020-04-22 21:17:24.514065 CEST] [3917] [info] forwarding_mapper() Forward to 11
[2020-04-22 21:17:24.524470 CEST] [3920] [info] Forwarding map loaded for 'gros-87' as '11'
[2020-04-22 21:17:24.524620 CEST] [3920] [info] forwarding_mapper() Forward to 11
[2020-04-22 21:17:24.526253 CEST] [3931] [info] Forwarding map loaded for 'gros-87' as '11'
[2020-04-22 21:17:24.526422 CEST] [3931] [info] forwarding_mapper() Forward to 11
[2020-04-22 21:17:24.551410 CEST] [3934] [info] Forwarding map loaded for 'gros-87' as '11'
[2020-04-22 21:17:24.551568 CEST] [3934] [info] forwarding_mapper() Forward to 11
[2020-04-22 21:17:34.505518 CEST] [3919] [info] Forwarding map loaded for 'gros-87' as '11'
[2020-04-22 21:17:34.505678 CEST] [3919] [info] forwarding_mapper() Forward to 11
[2020-04-22 21:17:34.508585 CEST] [3914] [info] Forwarding map loaded for 'gros-87' as '11'
[2020-04-22 21:17:34.508735 CEST] [3914] [info] forwarding_mapper() Forward to 11
[2020-04-22 21:17:34.509517 CEST] [3918] [info] Forwarding map loaded for 'gros-87' as '11'
[2020-04-22 21:17:34.509679 CEST] [3918] [info] forwarding_mapper() Forward to 11
[2020-04-22 21:17:34.521006 CEST] [3921] [info] Forwarding map loaded for 'gros-87' as '11'
[2020-04-22 21:17:34.521170 CEST] [3921] [info] forwarding_mapper() Forward to 11
[2020-04-22 21:17:34.525942 CEST] [3917] [info] Forwarding map loaded for 'gros-87' as '11'
[2020-04-22 21:17:34.526100 CEST] [3917] [info] forwarding_mapper() Forward to 11
[2020-04-22 21:17:34.531702 CEST] [3931] [info] Forwarding map loaded for 'gros-87' as '11'
[2020-04-22 21:17:34.531856 CEST] [3931] [info] forwarding_mapper() Forward to 11
[2020-04-22 21:17:34.534291 CEST] [3920] [info] Forwarding map loaded for 'gros-87' as '11'
[2020-04-22 21:17:34.534455 CEST] [3920] [info] forwarding_mapper() Forward to 11
[2020-04-22 21:17:34.562066 CEST] [3934] [info] Forwarding map loaded for 'gros-87' as '11'
[2020-04-22 21:17:34.562223 CEST] [3934] [info] forwarding_mapper() Forward to 11
[2020-04-22 21:17:44.511133 CEST] [3919] [info] Forwarding map loaded for 'gros-87' as '11'
[2020-04-22 21:17:44.511296 CEST] [3919] [info] forwarding_mapper() Forward to 11
[2020-04-22 21:17:44.513831 CEST] [3914] [info] Forwarding map loaded for 'gros-87' as '11'
[2020-04-22 21:17:44.513989 CEST] [3914] [info] forwarding_mapper() Forward to 11
[2020-04-22 21:17:44.515865 CEST] [3918] [info] Forwarding map loaded for 'gros-87' as '11'
[2020-04-22 21:17:44.516024 CEST] [3918] [info] forwarding_mapper() Forward to 11
[2020-04-22 21:17:44.527023 CEST] [3921] [info] Forwarding map loaded for 'gros-87' as '11'
[2020-04-22 21:17:44.527180 CEST] [3921] [info] forwarding_mapper() Forward to 11
[2020-04-22 21:17:44.532794 CEST] [3917] [info] Forwarding map loaded for 'gros-87' as '11'
[2020-04-22 21:17:44.532943 CEST] [3917] [info] forwarding_mapper() Forward to 11
[2020-04-22 21:17:44.536530 CEST] [3931] [info] Forwarding map loaded for 'gros-87' as '11'
[2020-04-22 21:17:44.536683 CEST] [3931] [info] forwarding_mapper() Forward to 11
[2020-04-22 21:17:44.539836 CEST] [3920] [info] Forwarding map loaded for 'gros-87' as '11'
[2020-04-22 21:17:44.539991 CEST] [3920] [info] forwarding_mapper() Forward to 11
[2020-04-22 21:17:44.569480 CEST] [3934] [info] Forwarding map loaded for 'gros-87' as '11'
[2020-04-22 21:17:44.569640 CEST] [3934] [info] forwarding_mapper() Forward to 11
[2020-04-22 21:17:54.516649 CEST] [3919] [info] Forwarding map loaded for 'gros-87' as '11'
[2020-04-22 21:17:54.516810 CEST] [3919] [info] forwarding_mapper() Forward to 11
[2020-04-22 21:17:54.519291 CEST] [3914] [info] Forwarding map loaded for 'gros-87' as '11'
[2020-04-22 21:17:54.519451 CEST] [3914] [info] forwarding_mapper() Forward to 11
[2020-04-22 21:17:54.521864 CEST] [3918] [info] Forwarding map loaded for 'gros-87' as '11'
[2020-04-22 21:17:54.522037 CEST] [3918] [info] forwarding_mapper() Forward to 11
[2020-04-22 21:17:54.532673 CEST] [3921] [info] Forwarding map loaded for 'gros-87' as '11'
[2020-04-22 21:17:54.532832 CEST] [3921] [info] forwarding_mapper() Forward to 11
[2020-04-22 21:17:54.541961 CEST] [3931] [info] Forwarding map loaded for 'gros-87' as '11'
[2020-04-22 21:17:54.542116 CEST] [3931] [info] forwarding_mapper() Forward to 11
[2020-04-22 21:17:54.543881 CEST] [3917] [info] Forwarding map loaded for 'gros-87' as '11'
[2020-04-22 21:17:54.544031 CEST] [3917] [info] forwarding_mapper() Forward to 11
[2020-04-22 21:17:54.545109 CEST] [3920] [info] Forwarding map loaded for 'gros-87' as '11'
[2020-04-22 21:17:54.545268 CEST] [3920] [info] forwarding_mapper() Forward to 11
[2020-04-22 21:17:54.573909 CEST] [3934] [info] Forwarding map loaded for 'gros-87' as '11'
[2020-04-22 21:17:54.574069 CEST] [3934] [info] forwarding_mapper() Forward to 11
[2020-04-22 21:18:04.522287 CEST] [3919] [info] Forwarding map loaded for 'gros-87' as '11'
[2020-04-22 21:18:04.522455 CEST] [3919] [info] forwarding_mapper() Forward to 11
[2020-04-22 21:18:04.525001 CEST] [3914] [info] Forwarding map loaded for 'gros-87' as '11'
[2020-04-22 21:18:04.525153 CEST] [3914] [info] forwarding_mapper() Forward to 11
[2020-04-22 21:18:04.527564 CEST] [3918] [info] Forwarding map loaded for 'gros-87' as '11'
[2020-04-22 21:18:04.527719 CEST] [3918] [info] forwarding_mapper() Forward to 11
[2020-04-22 21:18:04.539871 CEST] [3921] [info] Forwarding map loaded for 'gros-87' as '11'
[2020-04-22 21:18:04.540027 CEST] [3921] [info] forwarding_mapper() Forward to 11
[2020-04-22 21:18:04.547474 CEST] [3931] [info] Forwarding map loaded for 'gros-87' as '11'
[2020-04-22 21:18:04.547625 CEST] [3931] [info] forwarding_mapper() Forward to 11
[2020-04-22 21:18:04.550333 CEST] [3917] [info] Forwarding map loaded for 'gros-87' as '11'
[2020-04-22 21:18:04.550491 CEST] [3917] [info] forwarding_mapper() Forward to 11
[2020-04-22 21:18:04.552051 CEST] [3920] [info] Forwarding map loaded for 'gros-87' as '11'
[2020-04-22 21:18:04.552209 CEST] [3920] [info] forwarding_mapper() Forward to 11
[2020-04-22 21:18:04.581348 CEST] [3934] [info] Forwarding map loaded for 'gros-87' as '11'
[2020-04-22 21:18:04.581514 CEST] [3934] [info] forwarding_mapper() Forward to 11
[2020-04-22 21:18:14.527885 CEST] [3919] [info] Forwarding map loaded for 'gros-87' as '11'
[2020-04-22 21:18:14.528051 CEST] [3919] [info] forwarding_mapper() Forward to 11
[2020-04-22 21:18:14.531614 CEST] [3914] [info] Forwarding map loaded for 'gros-87' as '11'
[2020-04-22 21:18:14.531784 CEST] [3914] [info] forwarding_mapper() Forward to 11
[2020-04-22 21:18:14.539120 CEST] [3918] [info] Forwarding map loaded for 'gros-87' as '11'
[2020-04-22 21:18:14.539279 CEST] [3918] [info] forwarding_mapper() Forward to 11
[2020-04-22 21:18:14.545608 CEST] [3921] [info] Forwarding map loaded for 'gros-87' as '11'
[2020-04-22 21:18:14.545774 CEST] [3921] [info] forwarding_mapper() Forward to 11
[2020-04-22 21:18:14.552747 CEST] [3931] [info] Forwarding map loaded for 'gros-87' as '11'
[2020-04-22 21:18:14.552899 CEST] [3931] [info] forwarding_mapper() Forward to 11
[2020-04-22 21:18:14.555745 CEST] [3917] [info] Forwarding map loaded for 'gros-87' as '11'
[2020-04-22 21:18:14.555892 CEST] [3917] [info] forwarding_mapper() Forward to 11
[2020-04-22 21:18:14.558516 CEST] [3920] [info] Forwarding map loaded for 'gros-87' as '11'
[2020-04-22 21:18:14.558672 CEST] [3920] [info] forwarding_mapper() Forward to 11
[2020-04-22 21:18:14.593553 CEST] [3934] [info] Forwarding map loaded for 'gros-87' as '11'
[2020-04-22 21:18:14.593710 CEST] [3934] [info] forwarding_mapper() Forward to 11
[2020-04-22 21:18:24.533454 CEST] [3919] [info] Forwarding map loaded for 'gros-87' as '11'
[2020-04-22 21:18:24.533619 CEST] [3919] [info] forwarding_mapper() Forward to 11
[2020-04-22 21:18:24.534789 CEST] [3914] [info] Forwarding map loaded for 'gros-87' as '11'
[2020-04-22 21:18:24.534884 CEST] [3914] [info] forwarding_mapper() Forward to 11
[2020-04-22 21:18:24.545900 CEST] [3918] [info] Forwarding map loaded for 'gros-87' as '11'
[2020-04-22 21:18:24.546054 CEST] [3918] [info] forwarding_mapper() Forward to 11
[2020-04-22 21:18:24.548008 CEST] [3921] [info] Forwarding map loaded for 'gros-87' as '11'
[2020-04-22 21:18:24.548075 CEST] [3921] [info] forwarding_mapper() Forward to 11
[2020-04-22 21:18:24.555412 CEST] [3931] [info] Forwarding map loaded for 'gros-87' as '11'
[2020-04-22 21:18:24.555493 CEST] [3931] [info] forwarding_mapper() Forward to 11
[2020-04-22 21:18:24.561109 CEST] [3917] [info] Forwarding map loaded for 'gros-87' as '11'
[2020-04-22 21:18:24.561255 CEST] [3917] [info] forwarding_mapper() Forward to 11
[2020-04-22 21:18:24.563511 CEST] [3920] [info] Forwarding map loaded for 'gros-87' as '11'
[2020-04-22 21:18:24.563669 CEST] [3920] [info] forwarding_mapper() Forward to 11
[2020-04-22 21:18:24.599007 CEST] [3934] [info] Forwarding map loaded for 'gros-87' as '11'
[2020-04-22 21:18:24.599166 CEST] [3934] [info] forwarding_mapper() Forward to 11
[2020-04-22 21:18:34.538828 CEST] [3919] [info] Forwarding map loaded for 'gros-87' as '11'
[2020-04-22 21:18:34.538992 CEST] [3919] [info] forwarding_mapper() Forward to 11
[2020-04-22 21:18:34.539858 CEST] [3914] [info] Forwarding map loaded for 'gros-87' as '11'
[2020-04-22 21:18:34.540017 CEST] [3914] [info] forwarding_mapper() Forward to 11
[2020-04-22 21:18:34.554824 CEST] [3918] [info] Forwarding map loaded for 'gros-87' as '11'
[2020-04-22 21:18:34.554972 CEST] [3918] [info] forwarding_mapper() Forward to 11
[2020-04-22 21:18:34.562796 CEST] [3921] [info] Forwarding map loaded for 'gros-87' as '11'
[2020-04-22 21:18:34.562994 CEST] [3921] [info] forwarding_mapper() Forward to 11
[2020-04-22 21:18:34.563710 CEST] [3931] [info] Forwarding map loaded for 'gros-87' as '11'
[2020-04-22 21:18:34.563839 CEST] [3931] [info] forwarding_mapper() Forward to 11
[2020-04-22 21:18:34.565753 CEST] [3917] [info] Forwarding map loaded for 'gros-87' as '11'
[2020-04-22 21:18:34.565897 CEST] [3917] [info] forwarding_mapper() Forward to 11
[2020-04-22 21:18:34.568406 CEST] [3920] [info] Forwarding map loaded for 'gros-87' as '11'
[2020-04-22 21:18:34.568556 CEST] [3920] [info] forwarding_mapper() Forward to 11
[2020-04-22 21:18:34.604477 CEST] [3934] [info] Forwarding map loaded for 'gros-87' as '11'
[2020-04-22 21:18:34.604627 CEST] [3934] [info] forwarding_mapper() Forward to 11
[2020-04-22 21:18:44.544140 CEST] [3919] [info] Forwarding map loaded for 'gros-87' as '11'
[2020-04-22 21:18:44.544281 CEST] [3919] [info] forwarding_mapper() Forward to 11
[2020-04-22 21:18:44.546534 CEST] [3914] [info] Forwarding map loaded for 'gros-87' as '11'
[2020-04-22 21:18:44.546675 CEST] [3914] [info] forwarding_mapper() Forward to 11
[2020-04-22 21:18:44.561706 CEST] [3918] [info] Forwarding map loaded for 'gros-87' as '11'
[2020-04-22 21:18:44.561848 CEST] [3918] [info] forwarding_mapper() Forward to 11
[2020-04-22 21:18:44.570350 CEST] [3917] [info] Forwarding map loaded for 'gros-87' as '11'
[2020-04-22 21:18:44.570492 CEST] [3917] [info] forwarding_mapper() Forward to 11
[2020-04-22 21:18:44.572113 CEST] [3921] [info] Forwarding map loaded for 'gros-87' as '11'
[2020-04-22 21:18:44.572303 CEST] [3921] [info] forwarding_mapper() Forward to 11
[2020-04-22 21:18:44.572590 CEST] [3931] [info] Forwarding map loaded for 'gros-87' as '11'
[2020-04-22 21:18:44.572721 CEST] [3931] [info] forwarding_mapper() Forward to 11
[2020-04-22 21:18:44.573347 CEST] [3920] [info] Forwarding map loaded for 'gros-87' as '11'
[2020-04-22 21:18:44.573496 CEST] [3920] [info] forwarding_mapper() Forward to 11
[2020-04-22 21:18:44.610200 CEST] [3934] [info] Forwarding map loaded for 'gros-87' as '11'
[2020-04-22 21:18:44.610341 CEST] [3934] [info] forwarding_mapper() Forward to 11
[2020-04-22 21:18:54.549712 CEST] [3919] [info] Forwarding map loaded for 'gros-87' as '11'
[2020-04-22 21:18:54.549860 CEST] [3919] [info] forwarding_mapper() Forward to 11
[2020-04-22 21:18:54.558453 CEST] [3914] [info] Forwarding map loaded for 'gros-87' as '11'
[2020-04-22 21:18:54.558607 CEST] [3914] [info] forwarding_mapper() Forward to 11
[2020-04-22 21:18:54.567107 CEST] [3918] [info] Forwarding map loaded for 'gros-87' as '11'
[2020-04-22 21:18:54.567251 CEST] [3918] [info] forwarding_mapper() Forward to 11
[2020-04-22 21:18:54.575496 CEST] [3917] [info] Forwarding map loaded for 'gros-87' as '11'
[2020-04-22 21:18:54.575635 CEST] [3917] [info] forwarding_mapper() Forward to 11
[2020-04-22 21:18:54.577981 CEST] [3920] [info] Forwarding map loaded for 'gros-87' as '11'
[2020-04-22 21:18:54.578116 CEST] [3920] [info] forwarding_mapper() Forward to 11
[2020-04-22 21:18:54.580992 CEST] [3921] [info] Forwarding map loaded for 'gros-87' as '11'
[2020-04-22 21:18:54.581181 CEST] [3921] [info] forwarding_mapper() Forward to 11
[2020-04-22 21:18:54.581813 CEST] [3931] [info] Forwarding map loaded for 'gros-87' as '11'
[2020-04-22 21:18:54.581949 CEST] [3931] [info] forwarding_mapper() Forward to 11
[2020-04-22 21:18:54.615975 CEST] [3934] [info] Forwarding map loaded for 'gros-87' as '11'
[2020-04-22 21:18:54.616117 CEST] [3934] [info] forwarding_mapper() Forward to 11
[2020-04-22 21:19:04.555343 CEST] [3919] [info] Forwarding map loaded for 'gros-87' as '11'
[2020-04-22 21:19:04.555497 CEST] [3919] [info] forwarding_mapper() Forward to 11
[2020-04-22 21:19:04.565526 CEST] [3914] [info] Forwarding map loaded for 'gros-87' as '11'
[2020-04-22 21:19:04.565667 CEST] [3914] [info] forwarding_mapper() Forward to 11
[2020-04-22 21:19:04.574119 CEST] [3918] [info] Forwarding map loaded for 'gros-87' as '11'
[2020-04-22 21:19:04.574263 CEST] [3918] [info] forwarding_mapper() Forward to 11
[2020-04-22 21:19:04.580644 CEST] [3917] [info] Forwarding map loaded for 'gros-87' as '11'
[2020-04-22 21:19:04.580782 CEST] [3917] [info] forwarding_mapper() Forward to 11
[2020-04-22 21:19:04.582707 CEST] [3920] [info] Forwarding map loaded for 'gros-87' as '11'
[2020-04-22 21:19:04.582843 CEST] [3920] [info] forwarding_mapper() Forward to 11
[2020-04-22 21:19:04.589047 CEST] [3921] [info] Forwarding map loaded for 'gros-87' as '11'
[2020-04-22 21:19:04.589235 CEST] [3921] [info] forwarding_mapper() Forward to 11
[2020-04-22 21:19:04.590398 CEST] [3931] [info] Forwarding map loaded for 'gros-87' as '11'
[2020-04-22 21:19:04.590535 CEST] [3931] [info] forwarding_mapper() Forward to 11
[2020-04-22 21:19:04.621781 CEST] [3934] [info] Forwarding map loaded for 'gros-87' as '11'
[2020-04-22 21:19:04.621924 CEST] [3934] [info] forwarding_mapper() Forward to 11
[2020-04-22 21:19:14.561205 CEST] [3919] [info] Forwarding map loaded for 'gros-87' as '11'
[2020-04-22 21:19:14.561350 CEST] [3919] [info] forwarding_mapper() Forward to 11
[2020-04-22 21:19:14.577562 CEST] [3914] [info] Forwarding map loaded for 'gros-87' as '11'
[2020-04-22 21:19:14.577703 CEST] [3914] [info] forwarding_mapper() Forward to 11
[2020-04-22 21:19:14.582784 CEST] [3918] [info] Forwarding map loaded for 'gros-87' as '11'
[2020-04-22 21:19:14.582923 CEST] [3918] [info] forwarding_mapper() Forward to 11
[2020-04-22 21:19:14.585316 CEST] [3917] [info] Forwarding map loaded for 'gros-87' as '11'
[2020-04-22 21:19:14.585459 CEST] [3917] [info] forwarding_mapper() Forward to 11
[2020-04-22 21:19:14.587563 CEST] [3920] [info] Forwarding map loaded for 'gros-87' as '11'
[2020-04-22 21:19:14.587703 CEST] [3920] [info] forwarding_mapper() Forward to 11
[2020-04-22 21:19:14.597494 CEST] [3921] [info] Forwarding map loaded for 'gros-87' as '11'
[2020-04-22 21:19:14.597682 CEST] [3921] [info] forwarding_mapper() Forward to 11
[2020-04-22 21:19:14.598966 CEST] [3931] [info] Forwarding map loaded for 'gros-87' as '11'
[2020-04-22 21:19:14.599091 CEST] [3931] [info] forwarding_mapper() Forward to 11
[2020-04-22 21:19:14.627658 CEST] [3934] [info] Forwarding map loaded for 'gros-87' as '11'
[2020-04-22 21:19:14.627799 CEST] [3934] [info] forwarding_mapper() Forward to 11
[2020-04-22 21:19:24.601612 CEST] [3880] [info] All subsystems shut down. Client shutdown complete.
[2020-04-22 21:19:24.603207 CEST] [3874] [info] All subsystems shut down. Client shutdown complete.
[2020-04-22 21:19:24.611861 CEST] [3875] [info] All subsystems shut down. Client shutdown complete.
[2020-04-22 21:19:24.621593 CEST] [3878] [info] All subsystems shut down. Client shutdown complete.
[2020-04-22 21:19:24.637354 CEST] [3877] [info] All subsystems shut down. Client shutdown complete.
[2020-04-22 21:19:24.643582 CEST] [3876] [info] All subsystems shut down. Client shutdown complete.
[2020-04-22 21:19:24.651938 CEST] [3879] [info] All subsystems shut down. Client shutdown complete.
[2020-04-22 21:19:24.696705 CEST] [3881] [info] All subsystems shut down. Client shutdown complete.
