[2020-04-22 20:19:27.092207 CEST] [3358] [info] Process cmdline: '/root/benchmarks/ior-3.2.1/src/ior -a MPIIO -b 128m -t 2m -B -w -r -o /mnt/gkfs/output-D-1'
[2020-04-22 20:19:27.092204 CEST] [3360] [info] Process cmdline: '/root/benchmarks/ior-3.2.1/src/ior -a MPIIO -b 128m -t 2m -B -w -r -o /mnt/gkfs/output-D-1'
[2020-04-22 20:19:27.092190 CEST] [3365] [info] Process cmdline: '/root/benchmarks/ior-3.2.1/src/ior -a MPIIO -b 128m -t 2m -B -w -r -o /mnt/gkfs/output-D-1'
[2020-04-22 20:19:27.092208 CEST] [3362] [info] Process cmdline: '/root/benchmarks/ior-3.2.1/src/ior -a MPIIO -b 128m -t 2m -B -w -r -o /mnt/gkfs/output-D-1'
[2020-04-22 20:19:27.092307 CEST] [3361] [info] Process cmdline: '/root/benchmarks/ior-3.2.1/src/ior -a MPIIO -b 128m -t 2m -B -w -r -o /mnt/gkfs/output-D-1'
[2020-04-22 20:19:27.092504 CEST] [3358] [info] Initializing RPC subsystem...
[2020-04-22 20:19:27.092508 CEST] [3360] [info] Initializing RPC subsystem...
[2020-04-22 20:19:27.092512 CEST] [3365] [info] Initializing RPC subsystem...
[2020-04-22 20:19:27.092517 CEST] [3362] [info] Initializing RPC subsystem...
[2020-04-22 20:19:27.092531 CEST] [3361] [info] Initializing RPC subsystem...
[2020-04-22 20:19:27.092363 CEST] [3359] [info] Process cmdline: '/root/benchmarks/ior-3.2.1/src/ior -a MPIIO -b 128m -t 2m -B -w -r -o /mnt/gkfs/output-D-1'
[2020-04-22 20:19:27.092586 CEST] [3359] [info] Initializing RPC subsystem...
[2020-04-22 20:19:27.098685 CEST] [3364] [info] Process cmdline: '/root/benchmarks/ior-3.2.1/src/ior -a MPIIO -b 128m -t 2m -B -w -r -o /mnt/gkfs/output-D-1'
[2020-04-22 20:19:27.098939 CEST] [3364] [info] Initializing RPC subsystem...
[2020-04-22 20:19:27.106102 CEST] [3363] [info] Process cmdline: '/root/benchmarks/ior-3.2.1/src/ior -a MPIIO -b 128m -t 2m -B -w -r -o /mnt/gkfs/output-D-1'
[2020-04-22 20:19:27.106345 CEST] [3363] [info] Initializing RPC subsystem...
[2020-04-22 20:19:27.147168 CEST] [3360] [info] Loading peer addresses...
[2020-04-22 20:19:27.147273 CEST] [3361] [info] Loading peer addresses...
[2020-04-22 20:19:27.147435 CEST] [3362] [info] Loading peer addresses...
[2020-04-22 20:19:27.147436 CEST] [3364] [info] Loading peer addresses...
[2020-04-22 20:19:27.148534 CEST] [3363] [info] Loading peer addresses...
[2020-04-22 20:19:27.149353 CEST] [3358] [info] Loading peer addresses...
[2020-04-22 20:19:27.149867 CEST] [3365] [info] Loading peer addresses...
[2020-04-22 20:19:27.151412 CEST] [3359] [info] Loading peer addresses...
[2020-04-22 20:19:27.155315 CEST] [3360] [info] Hosts pool size: 12
[2020-04-22 20:19:27.155323 CEST] [3358] [info] Hosts pool size: 12
[2020-04-22 20:19:27.155323 CEST] [3362] [info] Hosts pool size: 12
[2020-04-22 20:19:27.155324 CEST] [3359] [info] Hosts pool size: 12
[2020-04-22 20:19:27.155323 CEST] [3363] [info] Hosts pool size: 12
[2020-04-22 20:19:27.155325 CEST] [3361] [info] Hosts pool size: 12
[2020-04-22 20:19:27.155327 CEST] [3364] [info] Hosts pool size: 12
[2020-04-22 20:19:27.155973 CEST] [3365] [info] Hosts pool size: 12
[2020-04-22 20:19:27.161901 CEST] [3360] [info] Forwarding map loaded for 'gros-28' as '2'
[2020-04-22 20:19:27.162003 CEST] [3360] [info] init_ld_environment_() Forward to 2
[2020-04-22 20:19:27.162097 CEST] [3360] [info] Retrieving file system configuration...
[2020-04-22 20:19:27.162159 CEST] [3359] [info] Forwarding map loaded for 'gros-28' as '2'
[2020-04-22 20:19:27.162185 CEST] [3362] [info] Forwarding map loaded for 'gros-28' as '2'
[2020-04-22 20:19:27.162191 CEST] [3364] [info] Forwarding map loaded for 'gros-28' as '2'
[2020-04-22 20:19:27.162233 CEST] [3359] [info] init_ld_environment_() Forward to 2
[2020-04-22 20:19:27.162263 CEST] [3362] [info] init_ld_environment_() Forward to 2
[2020-04-22 20:19:27.162273 CEST] [3364] [info] init_ld_environment_() Forward to 2
[2020-04-22 20:19:27.162291 CEST] [3359] [info] Retrieving file system configuration...
[2020-04-22 20:19:27.162324 CEST] [3362] [info] Retrieving file system configuration...
[2020-04-22 20:19:27.162337 CEST] [3364] [info] Retrieving file system configuration...
[2020-04-22 20:19:27.162304 CEST] [3358] [info] Forwarding map loaded for 'gros-28' as '2'
[2020-04-22 20:19:27.162368 CEST] [3363] [info] Forwarding map loaded for 'gros-28' as '2'
[2020-04-22 20:19:27.162396 CEST] [3358] [info] init_ld_environment_() Forward to 2
[2020-04-22 20:19:27.162448 CEST] [3363] [info] init_ld_environment_() Forward to 2
[2020-04-22 20:19:27.162462 CEST] [3358] [info] Retrieving file system configuration...
[2020-04-22 20:19:27.162510 CEST] [3363] [info] Retrieving file system configuration...
[2020-04-22 20:19:27.163341 CEST] [3361] [info] Forwarding map loaded for 'gros-28' as '2'
[2020-04-22 20:19:27.163558 CEST] [3361] [info] init_ld_environment_() Forward to 2
[2020-04-22 20:19:27.163726 CEST] [3361] [info] Retrieving file system configuration...
[2020-04-22 20:19:27.164878 CEST] [3365] [info] Forwarding map loaded for 'gros-28' as '2'
[2020-04-22 20:19:27.165046 CEST] [3365] [info] init_ld_environment_() Forward to 2
[2020-04-22 20:19:27.165167 CEST] [3365] [info] Retrieving file system configuration...
[2020-04-22 20:19:27.188317 CEST] [3360] [info] Mountdir: '/mnt/gkfs'
[2020-04-22 20:19:27.188337 CEST] [3363] [info] Mountdir: '/mnt/gkfs'
[2020-04-22 20:19:27.188338 CEST] [3358] [info] Mountdir: '/mnt/gkfs'
[2020-04-22 20:19:27.188384 CEST] [3364] [info] Mountdir: '/mnt/gkfs'
[2020-04-22 20:19:27.188441 CEST] [3360] [info] Environment initialization successful.
[2020-04-22 20:19:27.188374 CEST] [3362] [info] Mountdir: '/mnt/gkfs'
[2020-04-22 20:19:27.188454 CEST] [3363] [info] Environment initialization successful.
[2020-04-22 20:19:27.188464 CEST] [3358] [info] Environment initialization successful.
[2020-04-22 20:19:27.188504 CEST] [3364] [info] Environment initialization successful.
[2020-04-22 20:19:27.188526 CEST] [3362] [info] Environment initialization successful.
[2020-04-22 20:19:27.189704 CEST] [3359] [info] Mountdir: '/mnt/gkfs'
[2020-04-22 20:19:27.189824 CEST] [3359] [info] Environment initialization successful.
[2020-04-22 20:19:27.218026 CEST] [3401] [info] Forwarding map loaded for 'gros-28' as '2'
[2020-04-22 20:19:27.218179 CEST] [3401] [info] forwarding_mapper() Forward to 2
[2020-04-22 20:19:27.217962 CEST] [3399] [info] Forwarding map loaded for 'gros-28' as '2'
[2020-04-22 20:19:27.218346 CEST] [3402] [info] Forwarding map loaded for 'gros-28' as '2'
[2020-04-22 20:19:27.218426 CEST] [3399] [info] forwarding_mapper() Forward to 2
[2020-04-22 20:19:27.218499 CEST] [3402] [info] forwarding_mapper() Forward to 2
[2020-04-22 20:19:27.218733 CEST] [3400] [info] Forwarding map loaded for 'gros-28' as '2'
[2020-04-22 20:19:27.218879 CEST] [3400] [info] forwarding_mapper() Forward to 2
[2020-04-22 20:19:27.219048 CEST] [3398] [info] Forwarding map loaded for 'gros-28' as '2'
[2020-04-22 20:19:27.219206 CEST] [3398] [info] forwarding_mapper() Forward to 2
[2020-04-22 20:19:27.220231 CEST] [3403] [info] Forwarding map loaded for 'gros-28' as '2'
[2020-04-22 20:19:27.220447 CEST] [3403] [info] forwarding_mapper() Forward to 2
[2020-04-22 20:19:28.169566 CEST] [3365] [info] Mountdir: '/mnt/gkfs'
[2020-04-22 20:19:28.169725 CEST] [3365] [info] Environment initialization successful.
[2020-04-22 20:19:28.169854 CEST] [3361] [info] Mountdir: '/mnt/gkfs'
[2020-04-22 20:19:28.170027 CEST] [3361] [info] Environment initialization successful.
[2020-04-22 20:19:28.197844 CEST] [3416] [info] Forwarding map loaded for 'gros-28' as '2'
[2020-04-22 20:19:28.198159 CEST] [3416] [info] forwarding_mapper() Forward to 2
[2020-04-22 20:19:28.199268 CEST] [3417] [info] Forwarding map loaded for 'gros-28' as '2'
[2020-04-22 20:19:28.199513 CEST] [3417] [info] forwarding_mapper() Forward to 2
[2020-04-22 20:19:37.224125 CEST] [3401] [info] Forwarding map loaded for 'gros-28' as '2'
[2020-04-22 20:19:37.224147 CEST] [3402] [info] Forwarding map loaded for 'gros-28' as '2'
[2020-04-22 20:19:37.224307 CEST] [3401] [info] forwarding_mapper() Forward to 2
[2020-04-22 20:19:37.224349 CEST] [3402] [info] forwarding_mapper() Forward to 2
[2020-04-22 20:19:37.224595 CEST] [3398] [info] Forwarding map loaded for 'gros-28' as '2'
[2020-04-22 20:19:37.224763 CEST] [3398] [info] forwarding_mapper() Forward to 2
[2020-04-22 20:19:37.224713 CEST] [3400] [info] Forwarding map loaded for 'gros-28' as '2'
[2020-04-22 20:19:37.224868 CEST] [3400] [info] forwarding_mapper() Forward to 2
[2020-04-22 20:19:37.226289 CEST] [3399] [info] Forwarding map loaded for 'gros-28' as '2'
[2020-04-22 20:19:37.226440 CEST] [3399] [info] forwarding_mapper() Forward to 2
[2020-04-22 20:19:37.228639 CEST] [3403] [info] Forwarding map loaded for 'gros-28' as '2'
[2020-04-22 20:19:37.228798 CEST] [3403] [info] forwarding_mapper() Forward to 2
[2020-04-22 20:19:38.204483 CEST] [3416] [info] Forwarding map loaded for 'gros-28' as '2'
[2020-04-22 20:19:38.204635 CEST] [3416] [info] forwarding_mapper() Forward to 2
[2020-04-22 20:19:38.207254 CEST] [3417] [info] Forwarding map loaded for 'gros-28' as '2'
[2020-04-22 20:19:38.207421 CEST] [3417] [info] forwarding_mapper() Forward to 2
[2020-04-22 20:19:47.229766 CEST] [3401] [info] Forwarding map loaded for 'gros-28' as '2'
[2020-04-22 20:19:47.229930 CEST] [3401] [info] forwarding_mapper() Forward to 2
[2020-04-22 20:19:47.230234 CEST] [3400] [info] Forwarding map loaded for 'gros-28' as '2'
[2020-04-22 20:19:47.230390 CEST] [3400] [info] forwarding_mapper() Forward to 2
[2020-04-22 20:19:47.230803 CEST] [3398] [info] Forwarding map loaded for 'gros-28' as '2'
[2020-04-22 20:19:47.230954 CEST] [3398] [info] forwarding_mapper() Forward to 2
[2020-04-22 20:19:47.236649 CEST] [3399] [info] Forwarding map loaded for 'gros-28' as '2'
[2020-04-22 20:19:47.236801 CEST] [3399] [info] forwarding_mapper() Forward to 2
[2020-04-22 20:19:47.237131 CEST] [3402] [info] Forwarding map loaded for 'gros-28' as '2'
[2020-04-22 20:19:47.237283 CEST] [3402] [info] forwarding_mapper() Forward to 2
[2020-04-22 20:19:47.242506 CEST] [3403] [info] Forwarding map loaded for 'gros-28' as '2'
[2020-04-22 20:19:47.242666 CEST] [3403] [info] forwarding_mapper() Forward to 2
[2020-04-22 20:19:48.210574 CEST] [3416] [info] Forwarding map loaded for 'gros-28' as '2'
[2020-04-22 20:19:48.210729 CEST] [3416] [info] forwarding_mapper() Forward to 2
[2020-04-22 20:19:48.213089 CEST] [3417] [info] Forwarding map loaded for 'gros-28' as '2'
[2020-04-22 20:19:48.213244 CEST] [3417] [info] forwarding_mapper() Forward to 2
[2020-04-22 20:19:57.235158 CEST] [3401] [info] Forwarding map loaded for 'gros-28' as '2'
[2020-04-22 20:19:57.235251 CEST] [3400] [info] Forwarding map loaded for 'gros-28' as '2'
[2020-04-22 20:19:57.235316 CEST] [3401] [info] forwarding_mapper() Forward to 2
[2020-04-22 20:19:57.235398 CEST] [3400] [info] forwarding_mapper() Forward to 2
[2020-04-22 20:19:57.236156 CEST] [3398] [info] Forwarding map loaded for 'gros-28' as '2'
[2020-04-22 20:19:57.236309 CEST] [3398] [info] forwarding_mapper() Forward to 2
[2020-04-22 20:19:57.245365 CEST] [3399] [info] Forwarding map loaded for 'gros-28' as '2'
[2020-04-22 20:19:57.245515 CEST] [3399] [info] forwarding_mapper() Forward to 2
[2020-04-22 20:19:57.245845 CEST] [3402] [info] Forwarding map loaded for 'gros-28' as '2'
[2020-04-22 20:19:57.246004 CEST] [3402] [info] forwarding_mapper() Forward to 2
[2020-04-22 20:19:57.247840 CEST] [3403] [info] Forwarding map loaded for 'gros-28' as '2'
[2020-04-22 20:19:57.248009 CEST] [3403] [info] forwarding_mapper() Forward to 2
[2020-04-22 20:19:58.216225 CEST] [3416] [info] Forwarding map loaded for 'gros-28' as '2'
[2020-04-22 20:19:58.216380 CEST] [3416] [info] forwarding_mapper() Forward to 2
[2020-04-22 20:19:58.218638 CEST] [3417] [info] Forwarding map loaded for 'gros-28' as '2'
[2020-04-22 20:19:58.218792 CEST] [3417] [info] forwarding_mapper() Forward to 2
[2020-04-22 20:20:07.240591 CEST] [3401] [info] Forwarding map loaded for 'gros-28' as '2'
[2020-04-22 20:20:07.240748 CEST] [3401] [info] forwarding_mapper() Forward to 2
[2020-04-22 20:20:07.241260 CEST] [3400] [info] Forwarding map loaded for 'gros-28' as '2'
[2020-04-22 20:20:07.241418 CEST] [3400] [info] forwarding_mapper() Forward to 2
[2020-04-22 20:20:07.247561 CEST] [3398] [info] Forwarding map loaded for 'gros-28' as '2'
[2020-04-22 20:20:07.247728 CEST] [3398] [info] forwarding_mapper() Forward to 2
[2020-04-22 20:20:07.251008 CEST] [3402] [info] Forwarding map loaded for 'gros-28' as '2'
[2020-04-22 20:20:07.251169 CEST] [3402] [info] forwarding_mapper() Forward to 2
[2020-04-22 20:20:07.258701 CEST] [3399] [info] Forwarding map loaded for 'gros-28' as '2'
[2020-04-22 20:20:07.258850 CEST] [3399] [info] forwarding_mapper() Forward to 2
[2020-04-22 20:20:07.261200 CEST] [3403] [info] Forwarding map loaded for 'gros-28' as '2'
[2020-04-22 20:20:07.261359 CEST] [3403] [info] forwarding_mapper() Forward to 2
[2020-04-22 20:20:08.222630 CEST] [3416] [info] Forwarding map loaded for 'gros-28' as '2'
[2020-04-22 20:20:08.222783 CEST] [3416] [info] forwarding_mapper() Forward to 2
[2020-04-22 20:20:08.224775 CEST] [3417] [info] Forwarding map loaded for 'gros-28' as '2'
[2020-04-22 20:20:08.224936 CEST] [3417] [info] forwarding_mapper() Forward to 2
[2020-04-22 20:20:17.245992 CEST] [3401] [info] Forwarding map loaded for 'gros-28' as '2'
[2020-04-22 20:20:17.246151 CEST] [3401] [info] forwarding_mapper() Forward to 2
[2020-04-22 20:20:17.246610 CEST] [3400] [info] Forwarding map loaded for 'gros-28' as '2'
[2020-04-22 20:20:17.246769 CEST] [3400] [info] forwarding_mapper() Forward to 2
[2020-04-22 20:20:17.253389 CEST] [3398] [info] Forwarding map loaded for 'gros-28' as '2'
[2020-04-22 20:20:17.253545 CEST] [3398] [info] forwarding_mapper() Forward to 2
[2020-04-22 20:20:17.259884 CEST] [3402] [info] Forwarding map loaded for 'gros-28' as '2'
[2020-04-22 20:20:17.260054 CEST] [3402] [info] forwarding_mapper() Forward to 2
[2020-04-22 20:20:17.267221 CEST] [3399] [info] Forwarding map loaded for 'gros-28' as '2'
[2020-04-22 20:20:17.267374 CEST] [3399] [info] forwarding_mapper() Forward to 2
[2020-04-22 20:20:17.269810 CEST] [3403] [info] Forwarding map loaded for 'gros-28' as '2'
[2020-04-22 20:20:17.269977 CEST] [3403] [info] forwarding_mapper() Forward to 2
[2020-04-22 20:20:18.231332 CEST] [3416] [info] Forwarding map loaded for 'gros-28' as '2'
[2020-04-22 20:20:18.231486 CEST] [3416] [info] forwarding_mapper() Forward to 2
[2020-04-22 20:20:18.235418 CEST] [3417] [info] Forwarding map loaded for 'gros-28' as '2'
[2020-04-22 20:20:18.235576 CEST] [3417] [info] forwarding_mapper() Forward to 2
[2020-04-22 20:20:27.251908 CEST] [3400] [info] Forwarding map loaded for 'gros-28' as '2'
[2020-04-22 20:20:27.252074 CEST] [3400] [info] forwarding_mapper() Forward to 2
[2020-04-22 20:20:27.252763 CEST] [3401] [info] Forwarding map loaded for 'gros-28' as '2'
[2020-04-22 20:20:27.252922 CEST] [3401] [info] forwarding_mapper() Forward to 2
[2020-04-22 20:20:27.259178 CEST] [3398] [info] Forwarding map loaded for 'gros-28' as '2'
[2020-04-22 20:20:27.259334 CEST] [3398] [info] forwarding_mapper() Forward to 2
[2020-04-22 20:20:27.266574 CEST] [3402] [info] Forwarding map loaded for 'gros-28' as '2'
[2020-04-22 20:20:27.266733 CEST] [3402] [info] forwarding_mapper() Forward to 2
[2020-04-22 20:20:27.280585 CEST] [3399] [info] Forwarding map loaded for 'gros-28' as '2'
[2020-04-22 20:20:27.280736 CEST] [3399] [info] forwarding_mapper() Forward to 2
[2020-04-22 20:20:27.283023 CEST] [3403] [info] Forwarding map loaded for 'gros-28' as '2'
[2020-04-22 20:20:27.283183 CEST] [3403] [info] forwarding_mapper() Forward to 2
[2020-04-22 20:20:28.237680 CEST] [3416] [info] Forwarding map loaded for 'gros-28' as '2'
[2020-04-22 20:20:28.237836 CEST] [3416] [info] forwarding_mapper() Forward to 2
[2020-04-22 20:20:28.241416 CEST] [3417] [info] Forwarding map loaded for 'gros-28' as '2'
[2020-04-22 20:20:28.241570 CEST] [3417] [info] forwarding_mapper() Forward to 2
[2020-04-22 20:20:37.257383 CEST] [3400] [info] Forwarding map loaded for 'gros-28' as '2'
[2020-04-22 20:20:37.257541 CEST] [3400] [info] forwarding_mapper() Forward to 2
[2020-04-22 20:20:37.258879 CEST] [3401] [info] Forwarding map loaded for 'gros-28' as '2'
[2020-04-22 20:20:37.259046 CEST] [3401] [info] forwarding_mapper() Forward to 2
[2020-04-22 20:20:37.264999 CEST] [3398] [info] Forwarding map loaded for 'gros-28' as '2'
[2020-04-22 20:20:37.265172 CEST] [3398] [info] forwarding_mapper() Forward to 2
[2020-04-22 20:20:37.273427 CEST] [3402] [info] Forwarding map loaded for 'gros-28' as '2'
[2020-04-22 20:20:37.273590 CEST] [3402] [info] forwarding_mapper() Forward to 2
[2020-04-22 20:20:37.289241 CEST] [3399] [info] Forwarding map loaded for 'gros-28' as '2'
[2020-04-22 20:20:37.289392 CEST] [3399] [info] forwarding_mapper() Forward to 2
[2020-04-22 20:20:37.291629 CEST] [3403] [info] Forwarding map loaded for 'gros-28' as '2'
[2020-04-22 20:20:37.291787 CEST] [3403] [info] forwarding_mapper() Forward to 2
[2020-04-22 20:20:38.245000 CEST] [3416] [info] Forwarding map loaded for 'gros-28' as '2'
[2020-04-22 20:20:38.245160 CEST] [3416] [info] forwarding_mapper() Forward to 2
[2020-04-22 20:20:38.252706 CEST] [3417] [info] Forwarding map loaded for 'gros-28' as '2'
[2020-04-22 20:20:38.252861 CEST] [3417] [info] forwarding_mapper() Forward to 2
[2020-04-22 20:20:47.262674 CEST] [3400] [info] Forwarding map loaded for 'gros-28' as '2'
[2020-04-22 20:20:47.262831 CEST] [3400] [info] forwarding_mapper() Forward to 2
[2020-04-22 20:20:47.264934 CEST] [3401] [info] Forwarding map loaded for 'gros-28' as '2'
[2020-04-22 20:20:47.265096 CEST] [3401] [info] forwarding_mapper() Forward to 2
[2020-04-22 20:20:47.270912 CEST] [3398] [info] Forwarding map loaded for 'gros-28' as '2'
[2020-04-22 20:20:47.271073 CEST] [3398] [info] forwarding_mapper() Forward to 2
[2020-04-22 20:20:47.279109 CEST] [3402] [info] Forwarding map loaded for 'gros-28' as '2'
[2020-04-22 20:20:47.279266 CEST] [3402] [info] forwarding_mapper() Forward to 2
[2020-04-22 20:20:47.299709 CEST] [3399] [info] Forwarding map loaded for 'gros-28' as '2'
[2020-04-22 20:20:47.299869 CEST] [3399] [info] forwarding_mapper() Forward to 2
[2020-04-22 20:20:47.305622 CEST] [3403] [info] Forwarding map loaded for 'gros-28' as '2'
[2020-04-22 20:20:47.305780 CEST] [3403] [info] forwarding_mapper() Forward to 2
[2020-04-22 20:20:48.251788 CEST] [3416] [info] Forwarding map loaded for 'gros-28' as '2'
[2020-04-22 20:20:48.251946 CEST] [3416] [info] forwarding_mapper() Forward to 2
[2020-04-22 20:20:48.259250 CEST] [3417] [info] Forwarding map loaded for 'gros-28' as '2'
[2020-04-22 20:20:48.259406 CEST] [3417] [info] forwarding_mapper() Forward to 2
[2020-04-22 20:20:57.339322 CEST] [3402] [info] Forwarding map loaded for 'gros-28' as '2'
[2020-04-22 20:20:57.339496 CEST] [3402] [info] forwarding_mapper() Forward to 2
[2020-04-22 20:20:57.350621 CEST] [3400] [info] Forwarding map loaded for 'gros-28' as '2'
[2020-04-22 20:20:57.350774 CEST] [3400] [info] forwarding_mapper() Forward to 2
[2020-04-22 20:20:57.351375 CEST] [3401] [info] Forwarding map loaded for 'gros-28' as '2'
[2020-04-22 20:20:57.351536 CEST] [3401] [info] forwarding_mapper() Forward to 2
[2020-04-22 20:20:57.351613 CEST] [3398] [info] Forwarding map loaded for 'gros-28' as '2'
[2020-04-22 20:20:57.351761 CEST] [3398] [info] forwarding_mapper() Forward to 2
[2020-04-22 20:20:57.353805 CEST] [3399] [info] Forwarding map loaded for 'gros-28' as '2'
[2020-04-22 20:20:57.353954 CEST] [3399] [info] forwarding_mapper() Forward to 2
[2020-04-22 20:20:57.354564 CEST] [3403] [info] Forwarding map loaded for 'gros-28' as '2'
[2020-04-22 20:20:57.354724 CEST] [3403] [info] forwarding_mapper() Forward to 2
[2020-04-22 20:20:58.259274 CEST] [3416] [info] Forwarding map loaded for 'gros-28' as '2'
[2020-04-22 20:20:58.259438 CEST] [3416] [info] forwarding_mapper() Forward to 2
[2020-04-22 20:20:58.270662 CEST] [3417] [info] Forwarding map loaded for 'gros-28' as '2'
[2020-04-22 20:20:58.270817 CEST] [3417] [info] forwarding_mapper() Forward to 2
[2020-04-22 20:21:07.348808 CEST] [3402] [info] Forwarding map loaded for 'gros-28' as '2'
[2020-04-22 20:21:07.348988 CEST] [3402] [info] forwarding_mapper() Forward to 2
[2020-04-22 20:21:07.355924 CEST] [3400] [info] Forwarding map loaded for 'gros-28' as '2'
[2020-04-22 20:21:07.356088 CEST] [3400] [info] forwarding_mapper() Forward to 2
[2020-04-22 20:21:07.356204 CEST] [3401] [info] Forwarding map loaded for 'gros-28' as '2'
[2020-04-22 20:21:07.356360 CEST] [3401] [info] forwarding_mapper() Forward to 2
[2020-04-22 20:21:07.356858 CEST] [3398] [info] Forwarding map loaded for 'gros-28' as '2'
[2020-04-22 20:21:07.357021 CEST] [3398] [info] forwarding_mapper() Forward to 2
[2020-04-22 20:21:07.367578 CEST] [3399] [info] Forwarding map loaded for 'gros-28' as '2'
[2020-04-22 20:21:07.367730 CEST] [3399] [info] forwarding_mapper() Forward to 2
[2020-04-22 20:21:07.368756 CEST] [3403] [info] Forwarding map loaded for 'gros-28' as '2'
[2020-04-22 20:21:07.368918 CEST] [3403] [info] forwarding_mapper() Forward to 2
[2020-04-22 20:21:08.266115 CEST] [3416] [info] Forwarding map loaded for 'gros-28' as '2'
[2020-04-22 20:21:08.266275 CEST] [3416] [info] forwarding_mapper() Forward to 2
[2020-04-22 20:21:08.277221 CEST] [3417] [info] Forwarding map loaded for 'gros-28' as '2'
[2020-04-22 20:21:08.277381 CEST] [3417] [info] forwarding_mapper() Forward to 2
[2020-04-22 20:21:17.358211 CEST] [3402] [info] Forwarding map loaded for 'gros-28' as '2'
[2020-04-22 20:21:17.358370 CEST] [3402] [info] forwarding_mapper() Forward to 2
[2020-04-22 20:21:17.360752 CEST] [3400] [info] Forwarding map loaded for 'gros-28' as '2'
[2020-04-22 20:21:17.360901 CEST] [3400] [info] forwarding_mapper() Forward to 2
[2020-04-22 20:21:17.361126 CEST] [3401] [info] Forwarding map loaded for 'gros-28' as '2'
[2020-04-22 20:21:17.361281 CEST] [3401] [info] forwarding_mapper() Forward to 2
[2020-04-22 20:21:17.362403 CEST] [3398] [info] Forwarding map loaded for 'gros-28' as '2'
[2020-04-22 20:21:17.362558 CEST] [3398] [info] forwarding_mapper() Forward to 2
[2020-04-22 20:21:17.376467 CEST] [3399] [info] Forwarding map loaded for 'gros-28' as '2'
[2020-04-22 20:21:17.376616 CEST] [3399] [info] forwarding_mapper() Forward to 2
[2020-04-22 20:21:17.377414 CEST] [3403] [info] Forwarding map loaded for 'gros-28' as '2'
[2020-04-22 20:21:17.377574 CEST] [3403] [info] forwarding_mapper() Forward to 2
[2020-04-22 20:21:18.274294 CEST] [3416] [info] Forwarding map loaded for 'gros-28' as '2'
[2020-04-22 20:21:18.274454 CEST] [3416] [info] forwarding_mapper() Forward to 2
[2020-04-22 20:21:18.288644 CEST] [3417] [info] Forwarding map loaded for 'gros-28' as '2'
[2020-04-22 20:21:18.288800 CEST] [3417] [info] forwarding_mapper() Forward to 2
[2020-04-22 20:21:27.363794 CEST] [3402] [info] Forwarding map loaded for 'gros-28' as '2'
[2020-04-22 20:21:27.363951 CEST] [3402] [info] forwarding_mapper() Forward to 2
[2020-04-22 20:21:27.365514 CEST] [3400] [info] Forwarding map loaded for 'gros-28' as '2'
[2020-04-22 20:21:27.365663 CEST] [3400] [info] forwarding_mapper() Forward to 2
[2020-04-22 20:21:27.366056 CEST] [3401] [info] Forwarding map loaded for 'gros-28' as '2'
[2020-04-22 20:21:27.366210 CEST] [3401] [info] forwarding_mapper() Forward to 2
[2020-04-22 20:21:27.367838 CEST] [3398] [info] Forwarding map loaded for 'gros-28' as '2'
[2020-04-22 20:21:27.367998 CEST] [3398] [info] forwarding_mapper() Forward to 2
[2020-04-22 20:21:27.390222 CEST] [3399] [info] Forwarding map loaded for 'gros-28' as '2'
[2020-04-22 20:21:27.390373 CEST] [3399] [info] forwarding_mapper() Forward to 2
[2020-04-22 20:21:27.390938 CEST] [3403] [info] Forwarding map loaded for 'gros-28' as '2'
[2020-04-22 20:21:27.391108 CEST] [3403] [info] forwarding_mapper() Forward to 2
[2020-04-22 20:21:28.281202 CEST] [3416] [info] Forwarding map loaded for 'gros-28' as '2'
[2020-04-22 20:21:28.281361 CEST] [3416] [info] forwarding_mapper() Forward to 2
[2020-04-22 20:21:28.295391 CEST] [3417] [info] Forwarding map loaded for 'gros-28' as '2'
[2020-04-22 20:21:28.295548 CEST] [3417] [info] forwarding_mapper() Forward to 2
[2020-04-22 20:21:37.380010 CEST] [3400] [info] Forwarding map loaded for 'gros-28' as '2'
[2020-04-22 20:21:37.380168 CEST] [3400] [info] forwarding_mapper() Forward to 2
[2020-04-22 20:21:37.380691 CEST] [3398] [info] Forwarding map loaded for 'gros-28' as '2'
[2020-04-22 20:21:37.380841 CEST] [3398] [info] forwarding_mapper() Forward to 2
[2020-04-22 20:21:37.382604 CEST] [3401] [info] Forwarding map loaded for 'gros-28' as '2'
[2020-04-22 20:21:37.382757 CEST] [3401] [info] forwarding_mapper() Forward to 2
[2020-04-22 20:21:37.383216 CEST] [3402] [info] Forwarding map loaded for 'gros-28' as '2'
[2020-04-22 20:21:37.383377 CEST] [3402] [info] forwarding_mapper() Forward to 2
[2020-04-22 20:21:37.399093 CEST] [3399] [info] Forwarding map loaded for 'gros-28' as '2'
[2020-04-22 20:21:37.399245 CEST] [3399] [info] forwarding_mapper() Forward to 2
[2020-04-22 20:21:37.399781 CEST] [3403] [info] Forwarding map loaded for 'gros-28' as '2'
[2020-04-22 20:21:37.399943 CEST] [3403] [info] forwarding_mapper() Forward to 2
[2020-04-22 20:21:38.293114 CEST] [3416] [info] Forwarding map loaded for 'gros-28' as '2'
[2020-04-22 20:21:38.293273 CEST] [3416] [info] forwarding_mapper() Forward to 2
[2020-04-22 20:21:38.303518 CEST] [3417] [info] Forwarding map loaded for 'gros-28' as '2'
[2020-04-22 20:21:38.303674 CEST] [3417] [info] forwarding_mapper() Forward to 2
[2020-04-22 20:21:47.385630 CEST] [3400] [info] Forwarding map loaded for 'gros-28' as '2'
[2020-04-22 20:21:47.385784 CEST] [3400] [info] forwarding_mapper() Forward to 2
[2020-04-22 20:21:47.386241 CEST] [3398] [info] Forwarding map loaded for 'gros-28' as '2'
[2020-04-22 20:21:47.386393 CEST] [3398] [info] forwarding_mapper() Forward to 2
[2020-04-22 20:21:47.388381 CEST] [3402] [info] Forwarding map loaded for 'gros-28' as '2'
[2020-04-22 20:21:47.388538 CEST] [3402] [info] forwarding_mapper() Forward to 2
[2020-04-22 20:21:47.396794 CEST] [3401] [info] Forwarding map loaded for 'gros-28' as '2'
[2020-04-22 20:21:47.396954 CEST] [3401] [info] forwarding_mapper() Forward to 2
[2020-04-22 20:21:47.408907 CEST] [3399] [info] Forwarding map loaded for 'gros-28' as '2'
[2020-04-22 20:21:47.409063 CEST] [3399] [info] forwarding_mapper() Forward to 2
[2020-04-22 20:21:47.413307 CEST] [3403] [info] Forwarding map loaded for 'gros-28' as '2'
[2020-04-22 20:21:47.413465 CEST] [3403] [info] forwarding_mapper() Forward to 2
[2020-04-22 20:21:48.299798 CEST] [3416] [info] Forwarding map loaded for 'gros-28' as '2'
[2020-04-22 20:21:48.299957 CEST] [3416] [info] forwarding_mapper() Forward to 2
[2020-04-22 20:21:48.310273 CEST] [3417] [info] Forwarding map loaded for 'gros-28' as '2'
[2020-04-22 20:21:48.310426 CEST] [3417] [info] forwarding_mapper() Forward to 2
[2020-04-22 20:21:57.391887 CEST] [3398] [info] Forwarding map loaded for 'gros-28' as '2'
[2020-04-22 20:21:57.392047 CEST] [3398] [info] forwarding_mapper() Forward to 2
[2020-04-22 20:21:57.392372 CEST] [3400] [info] Forwarding map loaded for 'gros-28' as '2'
[2020-04-22 20:21:57.392521 CEST] [3400] [info] forwarding_mapper() Forward to 2
[2020-04-22 20:21:57.393585 CEST] [3402] [info] Forwarding map loaded for 'gros-28' as '2'
[2020-04-22 20:21:57.393743 CEST] [3402] [info] forwarding_mapper() Forward to 2
[2020-04-22 20:21:57.402768 CEST] [3401] [info] Forwarding map loaded for 'gros-28' as '2'
[2020-04-22 20:21:57.402927 CEST] [3401] [info] forwarding_mapper() Forward to 2
[2020-04-22 20:21:57.417960 CEST] [3399] [info] Forwarding map loaded for 'gros-28' as '2'
[2020-04-22 20:21:57.418117 CEST] [3399] [info] forwarding_mapper() Forward to 2
[2020-04-22 20:21:57.422099 CEST] [3403] [info] Forwarding map loaded for 'gros-28' as '2'
[2020-04-22 20:21:57.422256 CEST] [3403] [info] forwarding_mapper() Forward to 2
[2020-04-22 20:21:58.307859 CEST] [3416] [info] Forwarding map loaded for 'gros-28' as '2'
[2020-04-22 20:21:58.308026 CEST] [3416] [info] forwarding_mapper() Forward to 2
[2020-04-22 20:21:58.316247 CEST] [3417] [info] Forwarding map loaded for 'gros-28' as '2'
[2020-04-22 20:21:58.316401 CEST] [3417] [info] forwarding_mapper() Forward to 2
[2020-04-22 20:22:07.397481 CEST] [3398] [info] Forwarding map loaded for 'gros-28' as '2'
[2020-04-22 20:22:07.397637 CEST] [3398] [info] forwarding_mapper() Forward to 2
[2020-04-22 20:22:07.398728 CEST] [3402] [info] Forwarding map loaded for 'gros-28' as '2'
[2020-04-22 20:22:07.398888 CEST] [3402] [info] forwarding_mapper() Forward to 2
[2020-04-22 20:22:07.406190 CEST] [3400] [info] Forwarding map loaded for 'gros-28' as '2'
[2020-04-22 20:22:07.406340 CEST] [3400] [info] forwarding_mapper() Forward to 2
[2020-04-22 20:22:07.408151 CEST] [3401] [info] Forwarding map loaded for 'gros-28' as '2'
[2020-04-22 20:22:07.408309 CEST] [3401] [info] forwarding_mapper() Forward to 2
[2020-04-22 20:22:07.431735 CEST] [3399] [info] Forwarding map loaded for 'gros-28' as '2'
[2020-04-22 20:22:07.431886 CEST] [3399] [info] forwarding_mapper() Forward to 2
[2020-04-22 20:22:07.435782 CEST] [3403] [info] Forwarding map loaded for 'gros-28' as '2'
[2020-04-22 20:22:07.435935 CEST] [3403] [info] forwarding_mapper() Forward to 2
[2020-04-22 20:22:08.314952 CEST] [3416] [info] Forwarding map loaded for 'gros-28' as '2'
[2020-04-22 20:22:08.315119 CEST] [3416] [info] forwarding_mapper() Forward to 2
[2020-04-22 20:22:08.322986 CEST] [3417] [info] Forwarding map loaded for 'gros-28' as '2'
[2020-04-22 20:22:08.323142 CEST] [3417] [info] forwarding_mapper() Forward to 2
[2020-04-22 20:22:17.402785 CEST] [3398] [info] Forwarding map loaded for 'gros-28' as '2'
[2020-04-22 20:22:17.402937 CEST] [3398] [info] forwarding_mapper() Forward to 2
[2020-04-22 20:22:17.403729 CEST] [3402] [info] Forwarding map loaded for 'gros-28' as '2'
[2020-04-22 20:22:17.403874 CEST] [3402] [info] forwarding_mapper() Forward to 2
[2020-04-22 20:22:17.413142 CEST] [3401] [info] Forwarding map loaded for 'gros-28' as '2'
[2020-04-22 20:22:17.413272 CEST] [3401] [info] forwarding_mapper() Forward to 2
[2020-04-22 20:22:17.414779 CEST] [3400] [info] Forwarding map loaded for 'gros-28' as '2'
[2020-04-22 20:22:17.414927 CEST] [3400] [info] forwarding_mapper() Forward to 2
[2020-04-22 20:22:17.438676 CEST] [3399] [info] Forwarding map loaded for 'gros-28' as '2'
[2020-04-22 20:22:17.438746 CEST] [3399] [info] forwarding_mapper() Forward to 2
[2020-04-22 20:22:17.440773 CEST] [3403] [info] Forwarding map loaded for 'gros-28' as '2'
[2020-04-22 20:22:17.440925 CEST] [3403] [info] forwarding_mapper() Forward to 2
[2020-04-22 20:22:18.320228 CEST] [3416] [info] Forwarding map loaded for 'gros-28' as '2'
[2020-04-22 20:22:18.320377 CEST] [3416] [info] forwarding_mapper() Forward to 2
[2020-04-22 20:22:18.328366 CEST] [3417] [info] Forwarding map loaded for 'gros-28' as '2'
[2020-04-22 20:22:18.328511 CEST] [3417] [info] forwarding_mapper() Forward to 2
[2020-04-22 20:22:27.407981 CEST] [3398] [info] Forwarding map loaded for 'gros-28' as '2'
[2020-04-22 20:22:27.408142 CEST] [3398] [info] forwarding_mapper() Forward to 2
[2020-04-22 20:22:27.408839 CEST] [3402] [info] Forwarding map loaded for 'gros-28' as '2'
[2020-04-22 20:22:27.409008 CEST] [3402] [info] forwarding_mapper() Forward to 2
[2020-04-22 20:22:27.418182 CEST] [3401] [info] Forwarding map loaded for 'gros-28' as '2'
[2020-04-22 20:22:27.418321 CEST] [3401] [info] forwarding_mapper() Forward to 2
[2020-04-22 20:22:27.419635 CEST] [3400] [info] Forwarding map loaded for 'gros-28' as '2'
[2020-04-22 20:22:27.419787 CEST] [3400] [info] forwarding_mapper() Forward to 2
[2020-04-22 20:22:27.443726 CEST] [3399] [info] Forwarding map loaded for 'gros-28' as '2'
[2020-04-22 20:22:27.443875 CEST] [3399] [info] forwarding_mapper() Forward to 2
[2020-04-22 20:22:27.444810 CEST] [3403] [info] Forwarding map loaded for 'gros-28' as '2'
[2020-04-22 20:22:27.444899 CEST] [3403] [info] forwarding_mapper() Forward to 2
[2020-04-22 20:22:28.327113 CEST] [3416] [info] Forwarding map loaded for 'gros-28' as '2'
[2020-04-22 20:22:28.327295 CEST] [3416] [info] forwarding_mapper() Forward to 2
[2020-04-22 20:22:28.334098 CEST] [3417] [info] Forwarding map loaded for 'gros-28' as '2'
[2020-04-22 20:22:28.334263 CEST] [3417] [info] forwarding_mapper() Forward to 2
[2020-04-22 20:22:37.413214 CEST] [3398] [info] Forwarding map loaded for 'gros-28' as '2'
[2020-04-22 20:22:37.413376 CEST] [3398] [info] forwarding_mapper() Forward to 2
[2020-04-22 20:22:37.413809 CEST] [3402] [info] Forwarding map loaded for 'gros-28' as '2'
[2020-04-22 20:22:37.413988 CEST] [3402] [info] forwarding_mapper() Forward to 2
[2020-04-22 20:22:37.423053 CEST] [3401] [info] Forwarding map loaded for 'gros-28' as '2'
[2020-04-22 20:22:37.423181 CEST] [3401] [info] forwarding_mapper() Forward to 2
[2020-04-22 20:22:37.424439 CEST] [3400] [info] Forwarding map loaded for 'gros-28' as '2'
[2020-04-22 20:22:37.424584 CEST] [3400] [info] forwarding_mapper() Forward to 2
[2020-04-22 20:22:37.447279 CEST] [3399] [info] Forwarding map loaded for 'gros-28' as '2'
[2020-04-22 20:22:37.447352 CEST] [3399] [info] forwarding_mapper() Forward to 2
[2020-04-22 20:22:37.453796 CEST] [3403] [info] Forwarding map loaded for 'gros-28' as '2'
[2020-04-22 20:22:37.453944 CEST] [3403] [info] forwarding_mapper() Forward to 2
[2020-04-22 20:22:38.333952 CEST] [3416] [info] Forwarding map loaded for 'gros-28' as '2'
[2020-04-22 20:22:38.334109 CEST] [3416] [info] forwarding_mapper() Forward to 2
[2020-04-22 20:22:38.339379 CEST] [3417] [info] Forwarding map loaded for 'gros-28' as '2'
[2020-04-22 20:22:38.339525 CEST] [3417] [info] forwarding_mapper() Forward to 2
[2020-04-22 20:22:47.418317 CEST] [3398] [info] Forwarding map loaded for 'gros-28' as '2'
[2020-04-22 20:22:47.418459 CEST] [3398] [info] forwarding_mapper() Forward to 2
[2020-04-22 20:22:47.418818 CEST] [3402] [info] Forwarding map loaded for 'gros-28' as '2'
[2020-04-22 20:22:47.418956 CEST] [3402] [info] forwarding_mapper() Forward to 2
[2020-04-22 20:22:47.427908 CEST] [3401] [info] Forwarding map loaded for 'gros-28' as '2'
[2020-04-22 20:22:47.428039 CEST] [3401] [info] forwarding_mapper() Forward to 2
[2020-04-22 20:22:47.429229 CEST] [3400] [info] Forwarding map loaded for 'gros-28' as '2'
[2020-04-22 20:22:47.429369 CEST] [3400] [info] forwarding_mapper() Forward to 2
[2020-04-22 20:22:47.452533 CEST] [3399] [info] Forwarding map loaded for 'gros-28' as '2'
[2020-04-22 20:22:47.452599 CEST] [3399] [info] forwarding_mapper() Forward to 2
[2020-04-22 20:22:47.467655 CEST] [3403] [info] Forwarding map loaded for 'gros-28' as '2'
[2020-04-22 20:22:47.467797 CEST] [3403] [info] forwarding_mapper() Forward to 2
[2020-04-22 20:22:48.340199 CEST] [3416] [info] Forwarding map loaded for 'gros-28' as '2'
[2020-04-22 20:22:48.340339 CEST] [3416] [info] forwarding_mapper() Forward to 2
[2020-04-22 20:22:48.344425 CEST] [3417] [info] Forwarding map loaded for 'gros-28' as '2'
[2020-04-22 20:22:48.344565 CEST] [3417] [info] forwarding_mapper() Forward to 2
[2020-04-22 20:22:57.423631 CEST] [3398] [info] Forwarding map loaded for 'gros-28' as '2'
[2020-04-22 20:22:57.423774 CEST] [3398] [info] forwarding_mapper() Forward to 2
[2020-04-22 20:22:57.423933 CEST] [3402] [info] Forwarding map loaded for 'gros-28' as '2'
[2020-04-22 20:22:57.424085 CEST] [3402] [info] forwarding_mapper() Forward to 2
[2020-04-22 20:22:57.432838 CEST] [3401] [info] Forwarding map loaded for 'gros-28' as '2'
[2020-04-22 20:22:57.432970 CEST] [3401] [info] forwarding_mapper() Forward to 2
[2020-04-22 20:22:57.434018 CEST] [3400] [info] Forwarding map loaded for 'gros-28' as '2'
[2020-04-22 20:22:57.434159 CEST] [3400] [info] forwarding_mapper() Forward to 2
[2020-04-22 20:22:57.457733 CEST] [3399] [info] Forwarding map loaded for 'gros-28' as '2'
[2020-04-22 20:22:57.457798 CEST] [3399] [info] forwarding_mapper() Forward to 2
[2020-04-22 20:22:57.476833 CEST] [3403] [info] Forwarding map loaded for 'gros-28' as '2'
[2020-04-22 20:22:57.476986 CEST] [3403] [info] forwarding_mapper() Forward to 2
[2020-04-22 20:22:58.346829 CEST] [3416] [info] Forwarding map loaded for 'gros-28' as '2'
[2020-04-22 20:22:58.346975 CEST] [3416] [info] forwarding_mapper() Forward to 2
[2020-04-22 20:22:58.349516 CEST] [3417] [info] Forwarding map loaded for 'gros-28' as '2'
[2020-04-22 20:22:58.349658 CEST] [3417] [info] forwarding_mapper() Forward to 2
[2020-04-22 20:23:07.429060 CEST] [3398] [info] Forwarding map loaded for 'gros-28' as '2'
[2020-04-22 20:23:07.429202 CEST] [3398] [info] forwarding_mapper() Forward to 2
[2020-04-22 20:23:07.429609 CEST] [3402] [info] Forwarding map loaded for 'gros-28' as '2'
[2020-04-22 20:23:07.429761 CEST] [3402] [info] forwarding_mapper() Forward to 2
[2020-04-22 20:23:07.437821 CEST] [3401] [info] Forwarding map loaded for 'gros-28' as '2'
[2020-04-22 20:23:07.437947 CEST] [3401] [info] forwarding_mapper() Forward to 2
[2020-04-22 20:23:07.438861 CEST] [3400] [info] Forwarding map loaded for 'gros-28' as '2'
[2020-04-22 20:23:07.439006 CEST] [3400] [info] forwarding_mapper() Forward to 2
[2020-04-22 20:23:07.463208 CEST] [3399] [info] Forwarding map loaded for 'gros-28' as '2'
[2020-04-22 20:23:07.463271 CEST] [3399] [info] forwarding_mapper() Forward to 2
[2020-04-22 20:23:07.490982 CEST] [3403] [info] Forwarding map loaded for 'gros-28' as '2'
[2020-04-22 20:23:07.491124 CEST] [3403] [info] forwarding_mapper() Forward to 2
[2020-04-22 20:23:08.353197 CEST] [3416] [info] Forwarding map loaded for 'gros-28' as '2'
[2020-04-22 20:23:08.353336 CEST] [3416] [info] forwarding_mapper() Forward to 2
[2020-04-22 20:23:08.355482 CEST] [3417] [info] Forwarding map loaded for 'gros-28' as '2'
[2020-04-22 20:23:08.355622 CEST] [3417] [info] forwarding_mapper() Forward to 2
[2020-04-22 20:23:17.501842 CEST] [3362] [info] All subsystems shut down. Client shutdown complete.
[2020-04-22 20:23:17.517908 CEST] [3363] [info] All subsystems shut down. Client shutdown complete.
[2020-04-22 20:23:17.519182 CEST] [3358] [info] All subsystems shut down. Client shutdown complete.
[2020-04-22 20:23:17.521326 CEST] [3364] [info] All subsystems shut down. Client shutdown complete.
[2020-04-22 20:23:17.525300 CEST] [3359] [info] All subsystems shut down. Client shutdown complete.
[2020-04-22 20:23:17.537037 CEST] [3360] [info] All subsystems shut down. Client shutdown complete.
[2020-04-22 20:23:18.414281 CEST] [3361] [info] All subsystems shut down. Client shutdown complete.
[2020-04-22 20:23:18.419688 CEST] [3365] [info] All subsystems shut down. Client shutdown complete.
