IOR-3.2.1: MPI Coordinated Test of Parallel I/O
Began               : Wed Apr 22 21:14:44 2020
Command line        : /root/benchmarks/ior-3.2.1/src/ior -a MPIIO -b 128m -t 2m -B -w -r -o /mnt/gkfs/output-D-2
Machine             : Linux gros-53
TestID              : 0
StartTime           : Wed Apr 22 21:14:44 2020
Path                : /mnt/gkfs
FS                  : 11.8 TiB   Used FS: 8.9%   Inodes: 0.0 Mi   Used Inodes: -nan%

Options: 
api                 : MPIIO
apiVersion          : (3.1)
test filename       : /mnt/gkfs/output-D-2
access              : single-shared-file
type                : independent
segments            : 1
ordering in a file  : sequential
ordering inter file : no tasks offsets
tasks               : 128
clients per node    : 8
repetitions         : 1
xfersize            : 2 MiB
blocksize           : 128 MiB
aggregate filesize  : 16 GiB

Results: 

access    bw(MiB/s)  block(KiB) xfer(KiB)  open(s)    wr/rd(s)   close(s)   total(s)   iter
------    ---------  ---------- ---------  --------   --------   --------   --------   ----
WARNING: Expected aggregate file size       = 17179869184.
WARNING: Stat() of aggregate file size      = 4.
WARNING: Using actual aggregate bytes moved = 17179869184.
write     70.86      131072     2048.00    1.48       229.65     5.53       231.22     0   
WARNING: Expected aggregate file size       = 17179869184.
WARNING: Stat() of aggregate file size      = 4.
WARNING: Using actual aggregate bytes moved = 17179869184.
read      2094.48    131072     2048.00    0.254092   7.50       2.70       7.82       0   
remove    -          -          -          -          -          -          56.72      0   
Max Write: 70.86 MiB/sec (74.30 MB/sec)
Max Read:  2094.48 MiB/sec (2196.23 MB/sec)

Summary of all tests:
Operation   Max(MiB)   Min(MiB)  Mean(MiB)     StdDev   Max(OPs)   Min(OPs)  Mean(OPs)     StdDev    Mean(s) Test# #Tasks tPN reps fPP reord reordoff reordrand seed segcnt   blksiz    xsize aggs(MiB)   API RefNum
write          70.86      70.86      70.86       0.00      35.43      35.43      35.43       0.00  231.22491     0    128   8    1   0     0        1         0    0      1 134217728  2097152   16384.0 MPIIO      0
read         2094.48    2094.48    2094.48       0.00    1047.24    1047.24    1047.24       0.00    7.82245     0    128   8    1   0     0        1         0    0      1 134217728  2097152   16384.0 MPIIO      0
Finished            : Wed Apr 22 21:19:40 2020
