[2020-04-22 21:14:44.369639 CEST] [3869] [info] Process cmdline: '/root/benchmarks/ior-3.2.1/src/ior -a POSIX -b 128m -t 2m -B -w -r -o /mnt/gkfs/output-E-1'
[2020-04-22 21:14:44.369922 CEST] [3869] [info] Initializing RPC subsystem...
[2020-04-22 21:14:44.375479 CEST] [3870] [info] Process cmdline: '/root/benchmarks/ior-3.2.1/src/ior -a POSIX -b 128m -t 2m -B -w -r -o /mnt/gkfs/output-E-1'
[2020-04-22 21:14:44.375729 CEST] [3870] [info] Initializing RPC subsystem...
[2020-04-22 21:14:44.375897 CEST] [3871] [info] Process cmdline: '/root/benchmarks/ior-3.2.1/src/ior -a POSIX -b 128m -t 2m -B -w -r -o /mnt/gkfs/output-E-1'
[2020-04-22 21:14:44.376132 CEST] [3871] [info] Initializing RPC subsystem...
[2020-04-22 21:14:44.377547 CEST] [3872] [info] Process cmdline: '/root/benchmarks/ior-3.2.1/src/ior -a POSIX -b 128m -t 2m -B -w -r -o /mnt/gkfs/output-E-1'
[2020-04-22 21:14:44.377773 CEST] [3872] [info] Initializing RPC subsystem...
[2020-04-22 21:14:44.378767 CEST] [3873] [info] Process cmdline: '/root/benchmarks/ior-3.2.1/src/ior -a POSIX -b 128m -t 2m -B -w -r -o /mnt/gkfs/output-E-1'
[2020-04-22 21:14:44.379005 CEST] [3873] [info] Initializing RPC subsystem...
[2020-04-22 21:14:44.385502 CEST] [3875] [info] Process cmdline: '/root/benchmarks/ior-3.2.1/src/ior -a POSIX -b 128m -t 2m -B -w -r -o /mnt/gkfs/output-E-1'
[2020-04-22 21:14:44.385742 CEST] [3875] [info] Initializing RPC subsystem...
[2020-04-22 21:14:44.386986 CEST] [3874] [info] Process cmdline: '/root/benchmarks/ior-3.2.1/src/ior -a POSIX -b 128m -t 2m -B -w -r -o /mnt/gkfs/output-E-1'
[2020-04-22 21:14:44.387228 CEST] [3874] [info] Initializing RPC subsystem...
[2020-04-22 21:14:44.388280 CEST] [3876] [info] Process cmdline: '/root/benchmarks/ior-3.2.1/src/ior -a POSIX -b 128m -t 2m -B -w -r -o /mnt/gkfs/output-E-1'
[2020-04-22 21:14:44.388514 CEST] [3876] [info] Initializing RPC subsystem...
[2020-04-22 21:14:44.414971 CEST] [3869] [info] Loading peer addresses...
[2020-04-22 21:14:44.420637 CEST] [3869] [info] Hosts pool size: 12
[2020-04-22 21:14:44.427427 CEST] [3871] [info] Loading peer addresses...
[2020-04-22 21:14:44.428288 CEST] [3870] [info] Loading peer addresses...
[2020-04-22 21:14:44.428390 CEST] [3874] [info] Loading peer addresses...
[2020-04-22 21:14:44.429136 CEST] [3872] [info] Loading peer addresses...
[2020-04-22 21:14:44.429152 CEST] [3869] [info] Forwarding map loaded for 'gros-91' as '11'
[2020-04-22 21:14:44.429239 CEST] [3873] [info] Loading peer addresses...
[2020-04-22 21:14:44.429336 CEST] [3869] [info] init_ld_environment_() Forward to 11
[2020-04-22 21:14:44.429464 CEST] [3869] [info] Retrieving file system configuration...
[2020-04-22 21:14:44.429483 CEST] [3871] [info] Hosts pool size: 12
[2020-04-22 21:14:44.429581 CEST] [3876] [info] Loading peer addresses...
[2020-04-22 21:14:44.429983 CEST] [3874] [info] Hosts pool size: 12
[2020-04-22 21:14:44.429988 CEST] [3870] [info] Hosts pool size: 12
[2020-04-22 21:14:44.430427 CEST] [3875] [info] Loading peer addresses...
[2020-04-22 21:14:44.430743 CEST] [3872] [info] Hosts pool size: 12
[2020-04-22 21:14:44.430811 CEST] [3873] [info] Hosts pool size: 12
[2020-04-22 21:14:44.431127 CEST] [3876] [info] Hosts pool size: 12
[2020-04-22 21:14:44.431672 CEST] [3869] [info] Mountdir: '/mnt/gkfs'
[2020-04-22 21:14:44.431725 CEST] [3869] [info] Environment initialization successful.
[2020-04-22 21:14:44.432159 CEST] [3875] [info] Hosts pool size: 12
[2020-04-22 21:14:44.433191 CEST] [3871] [info] Forwarding map loaded for 'gros-91' as '11'
[2020-04-22 21:14:44.433256 CEST] [3871] [info] init_ld_environment_() Forward to 11
[2020-04-22 21:14:44.433305 CEST] [3871] [info] Retrieving file system configuration...
[2020-04-22 21:14:44.433347 CEST] [3870] [info] Forwarding map loaded for 'gros-91' as '11'
[2020-04-22 21:14:44.433409 CEST] [3870] [info] init_ld_environment_() Forward to 11
[2020-04-22 21:14:44.433458 CEST] [3870] [info] Retrieving file system configuration...
[2020-04-22 21:14:44.433712 CEST] [3874] [info] Forwarding map loaded for 'gros-91' as '11'
[2020-04-22 21:14:44.433780 CEST] [3874] [info] init_ld_environment_() Forward to 11
[2020-04-22 21:14:44.433832 CEST] [3874] [info] Retrieving file system configuration...
[2020-04-22 21:14:44.433917 CEST] [3872] [info] Forwarding map loaded for 'gros-91' as '11'
[2020-04-22 21:14:44.433988 CEST] [3872] [info] init_ld_environment_() Forward to 11
[2020-04-22 21:14:44.434036 CEST] [3872] [info] Retrieving file system configuration...
[2020-04-22 21:14:44.434052 CEST] [3873] [info] Forwarding map loaded for 'gros-91' as '11'
[2020-04-22 21:14:44.434114 CEST] [3873] [info] init_ld_environment_() Forward to 11
[2020-04-22 21:14:44.434161 CEST] [3873] [info] Retrieving file system configuration...
[2020-04-22 21:14:44.434339 CEST] [3876] [info] Forwarding map loaded for 'gros-91' as '11'
[2020-04-22 21:14:44.434400 CEST] [3876] [info] init_ld_environment_() Forward to 11
[2020-04-22 21:14:44.434448 CEST] [3876] [info] Retrieving file system configuration...
[2020-04-22 21:14:44.434623 CEST] [3871] [info] Mountdir: '/mnt/gkfs'
[2020-04-22 21:14:44.434681 CEST] [3871] [info] Environment initialization successful.
[2020-04-22 21:14:44.434837 CEST] [3870] [info] Mountdir: '/mnt/gkfs'
[2020-04-22 21:14:44.434882 CEST] [3870] [info] Environment initialization successful.
[2020-04-22 21:14:44.435115 CEST] [3874] [info] Mountdir: '/mnt/gkfs'
[2020-04-22 21:14:44.435160 CEST] [3874] [info] Environment initialization successful.
[2020-04-22 21:14:44.435416 CEST] [3872] [info] Mountdir: '/mnt/gkfs'
[2020-04-22 21:14:44.435462 CEST] [3872] [info] Environment initialization successful.
[2020-04-22 21:14:44.435490 CEST] [3873] [info] Mountdir: '/mnt/gkfs'
[2020-04-22 21:14:44.435550 CEST] [3873] [info] Environment initialization successful.
[2020-04-22 21:14:44.435864 CEST] [3876] [info] Mountdir: '/mnt/gkfs'
[2020-04-22 21:14:44.435906 CEST] [3875] [info] Forwarding map loaded for 'gros-91' as '11'
[2020-04-22 21:14:44.435971 CEST] [3876] [info] Environment initialization successful.
[2020-04-22 21:14:44.436015 CEST] [3875] [info] init_ld_environment_() Forward to 11
[2020-04-22 21:14:44.436098 CEST] [3875] [info] Retrieving file system configuration...
[2020-04-22 21:14:44.437740 CEST] [3875] [info] Mountdir: '/mnt/gkfs'
[2020-04-22 21:14:44.437813 CEST] [3875] [info] Environment initialization successful.
[2020-04-22 21:14:44.448898 CEST] [3909] [info] Forwarding map loaded for 'gros-91' as '11'
[2020-04-22 21:14:44.448962 CEST] [3909] [info] forwarding_mapper() Forward to 11
[2020-04-22 21:14:44.449053 CEST] [3913] [info] Forwarding map loaded for 'gros-91' as '11'
[2020-04-22 21:14:44.449194 CEST] [3913] [info] forwarding_mapper() Forward to 11
[2020-04-22 21:14:44.449793 CEST] [3910] [info] Forwarding map loaded for 'gros-91' as '11'
[2020-04-22 21:14:44.449858 CEST] [3910] [info] forwarding_mapper() Forward to 11
[2020-04-22 21:14:44.450360 CEST] [3911] [info] Forwarding map loaded for 'gros-91' as '11'
[2020-04-22 21:14:44.450490 CEST] [3911] [info] forwarding_mapper() Forward to 11
[2020-04-22 21:14:44.451875 CEST] [3912] [info] Forwarding map loaded for 'gros-91' as '11'
[2020-04-22 21:14:44.452040 CEST] [3912] [info] forwarding_mapper() Forward to 11
[2020-04-22 21:14:44.453105 CEST] [3914] [info] Forwarding map loaded for 'gros-91' as '11'
[2020-04-22 21:14:44.453191 CEST] [3914] [info] forwarding_mapper() Forward to 11
[2020-04-22 21:14:44.455207 CEST] [3919] [info] Forwarding map loaded for 'gros-91' as '11'
[2020-04-22 21:14:44.455287 CEST] [3919] [info] forwarding_mapper() Forward to 11
[2020-04-22 21:14:44.464048 CEST] [3928] [info] Forwarding map loaded for 'gros-91' as '11'
[2020-04-22 21:14:44.464201 CEST] [3928] [info] forwarding_mapper() Forward to 11
[2020-04-22 21:14:54.455454 CEST] [3910] [info] Forwarding map loaded for 'gros-91' as '11'
[2020-04-22 21:14:54.455635 CEST] [3910] [info] forwarding_mapper() Forward to 11
[2020-04-22 21:14:54.455995 CEST] [3913] [info] Forwarding map loaded for 'gros-91' as '11'
[2020-04-22 21:14:54.456160 CEST] [3913] [info] forwarding_mapper() Forward to 11
[2020-04-22 21:14:54.456270 CEST] [3911] [info] Forwarding map loaded for 'gros-91' as '11'
[2020-04-22 21:14:54.456439 CEST] [3911] [info] forwarding_mapper() Forward to 11
[2020-04-22 21:14:54.456744 CEST] [3912] [info] Forwarding map loaded for 'gros-91' as '11'
[2020-04-22 21:14:54.456900 CEST] [3912] [info] forwarding_mapper() Forward to 11
[2020-04-22 21:14:54.458651 CEST] [3914] [info] Forwarding map loaded for 'gros-91' as '11'
[2020-04-22 21:14:54.458803 CEST] [3914] [info] forwarding_mapper() Forward to 11
[2020-04-22 21:14:54.459823 CEST] [3909] [info] Forwarding map loaded for 'gros-91' as '11'
[2020-04-22 21:14:54.459983 CEST] [3909] [info] forwarding_mapper() Forward to 11
[2020-04-22 21:14:54.466841 CEST] [3919] [info] Forwarding map loaded for 'gros-91' as '11'
[2020-04-22 21:14:54.466995 CEST] [3919] [info] forwarding_mapper() Forward to 11
[2020-04-22 21:14:54.469387 CEST] [3928] [info] Forwarding map loaded for 'gros-91' as '11'
[2020-04-22 21:14:54.469548 CEST] [3928] [info] forwarding_mapper() Forward to 11
[2020-04-22 21:15:04.462151 CEST] [3910] [info] Forwarding map loaded for 'gros-91' as '11'
[2020-04-22 21:15:04.462302 CEST] [3910] [info] forwarding_mapper() Forward to 11
[2020-04-22 21:15:04.462455 CEST] [3911] [info] Forwarding map loaded for 'gros-91' as '11'
[2020-04-22 21:15:04.462516 CEST] [3912] [info] Forwarding map loaded for 'gros-91' as '11'
[2020-04-22 21:15:04.462605 CEST] [3911] [info] forwarding_mapper() Forward to 11
[2020-04-22 21:15:04.462566 CEST] [3913] [info] Forwarding map loaded for 'gros-91' as '11'
[2020-04-22 21:15:04.462671 CEST] [3912] [info] forwarding_mapper() Forward to 11
[2020-04-22 21:15:04.462725 CEST] [3913] [info] forwarding_mapper() Forward to 11
[2020-04-22 21:15:04.464651 CEST] [3914] [info] Forwarding map loaded for 'gros-91' as '11'
[2020-04-22 21:15:04.464800 CEST] [3914] [info] forwarding_mapper() Forward to 11
[2020-04-22 21:15:04.466133 CEST] [3909] [info] Forwarding map loaded for 'gros-91' as '11'
[2020-04-22 21:15:04.466290 CEST] [3909] [info] forwarding_mapper() Forward to 11
[2020-04-22 21:15:04.473782 CEST] [3919] [info] Forwarding map loaded for 'gros-91' as '11'
[2020-04-22 21:15:04.473934 CEST] [3919] [info] forwarding_mapper() Forward to 11
[2020-04-22 21:15:04.474612 CEST] [3928] [info] Forwarding map loaded for 'gros-91' as '11'
[2020-04-22 21:15:04.474785 CEST] [3928] [info] forwarding_mapper() Forward to 11
[2020-04-22 21:15:14.467971 CEST] [3912] [info] Forwarding map loaded for 'gros-91' as '11'
[2020-04-22 21:15:14.468128 CEST] [3912] [info] forwarding_mapper() Forward to 11
[2020-04-22 21:15:14.468316 CEST] [3911] [info] Forwarding map loaded for 'gros-91' as '11'
[2020-04-22 21:15:14.468467 CEST] [3911] [info] forwarding_mapper() Forward to 11
[2020-04-22 21:15:14.468643 CEST] [3910] [info] Forwarding map loaded for 'gros-91' as '11'
[2020-04-22 21:15:14.468792 CEST] [3910] [info] forwarding_mapper() Forward to 11
[2020-04-22 21:15:14.469045 CEST] [3913] [info] Forwarding map loaded for 'gros-91' as '11'
[2020-04-22 21:15:14.469192 CEST] [3913] [info] forwarding_mapper() Forward to 11
[2020-04-22 21:15:14.470668 CEST] [3914] [info] Forwarding map loaded for 'gros-91' as '11'
[2020-04-22 21:15:14.470816 CEST] [3914] [info] forwarding_mapper() Forward to 11
[2020-04-22 21:15:14.474063 CEST] [3909] [info] Forwarding map loaded for 'gros-91' as '11'
[2020-04-22 21:15:14.474218 CEST] [3909] [info] forwarding_mapper() Forward to 11
[2020-04-22 21:15:14.485182 CEST] [3919] [info] Forwarding map loaded for 'gros-91' as '11'
[2020-04-22 21:15:14.485335 CEST] [3919] [info] forwarding_mapper() Forward to 11
[2020-04-22 21:15:14.485638 CEST] [3928] [info] Forwarding map loaded for 'gros-91' as '11'
[2020-04-22 21:15:14.485798 CEST] [3928] [info] forwarding_mapper() Forward to 11
[2020-04-22 21:15:24.473513 CEST] [3912] [info] Forwarding map loaded for 'gros-91' as '11'
[2020-04-22 21:15:24.473681 CEST] [3912] [info] forwarding_mapper() Forward to 11
[2020-04-22 21:15:24.474194 CEST] [3911] [info] Forwarding map loaded for 'gros-91' as '11'
[2020-04-22 21:15:24.474346 CEST] [3911] [info] forwarding_mapper() Forward to 11
[2020-04-22 21:15:24.474687 CEST] [3910] [info] Forwarding map loaded for 'gros-91' as '11'
[2020-04-22 21:15:24.474837 CEST] [3910] [info] forwarding_mapper() Forward to 11
[2020-04-22 21:15:24.475175 CEST] [3913] [info] Forwarding map loaded for 'gros-91' as '11'
[2020-04-22 21:15:24.475323 CEST] [3913] [info] forwarding_mapper() Forward to 11
[2020-04-22 21:15:24.476663 CEST] [3914] [info] Forwarding map loaded for 'gros-91' as '11'
[2020-04-22 21:15:24.476813 CEST] [3914] [info] forwarding_mapper() Forward to 11
[2020-04-22 21:15:24.480544 CEST] [3909] [info] Forwarding map loaded for 'gros-91' as '11'
[2020-04-22 21:15:24.480708 CEST] [3909] [info] forwarding_mapper() Forward to 11
[2020-04-22 21:15:24.491090 CEST] [3928] [info] Forwarding map loaded for 'gros-91' as '11'
[2020-04-22 21:15:24.491239 CEST] [3928] [info] forwarding_mapper() Forward to 11
[2020-04-22 21:15:24.491896 CEST] [3919] [info] Forwarding map loaded for 'gros-91' as '11'
[2020-04-22 21:15:24.492055 CEST] [3919] [info] forwarding_mapper() Forward to 11
[2020-04-22 21:15:34.478944 CEST] [3912] [info] Forwarding map loaded for 'gros-91' as '11'
[2020-04-22 21:15:34.479016 CEST] [3911] [info] Forwarding map loaded for 'gros-91' as '11'
[2020-04-22 21:15:34.479101 CEST] [3912] [info] forwarding_mapper() Forward to 11
[2020-04-22 21:15:34.479163 CEST] [3911] [info] forwarding_mapper() Forward to 11
[2020-04-22 21:15:34.481192 CEST] [3910] [info] Forwarding map loaded for 'gros-91' as '11'
[2020-04-22 21:15:34.481343 CEST] [3910] [info] forwarding_mapper() Forward to 11
[2020-04-22 21:15:34.482520 CEST] [3913] [info] Forwarding map loaded for 'gros-91' as '11'
[2020-04-22 21:15:34.482690 CEST] [3913] [info] forwarding_mapper() Forward to 11
[2020-04-22 21:15:34.488079 CEST] [3914] [info] Forwarding map loaded for 'gros-91' as '11'
[2020-04-22 21:15:34.488231 CEST] [3914] [info] forwarding_mapper() Forward to 11
[2020-04-22 21:15:34.491742 CEST] [3909] [info] Forwarding map loaded for 'gros-91' as '11'
[2020-04-22 21:15:34.491898 CEST] [3909] [info] forwarding_mapper() Forward to 11
[2020-04-22 21:15:34.502420 CEST] [3928] [info] Forwarding map loaded for 'gros-91' as '11'
[2020-04-22 21:15:34.502572 CEST] [3928] [info] forwarding_mapper() Forward to 11
[2020-04-22 21:15:34.503067 CEST] [3919] [info] Forwarding map loaded for 'gros-91' as '11'
[2020-04-22 21:15:34.503224 CEST] [3919] [info] forwarding_mapper() Forward to 11
[2020-04-22 21:15:44.484418 CEST] [3912] [info] Forwarding map loaded for 'gros-91' as '11'
[2020-04-22 21:15:44.484582 CEST] [3912] [info] forwarding_mapper() Forward to 11
[2020-04-22 21:15:44.484602 CEST] [3911] [info] Forwarding map loaded for 'gros-91' as '11'
[2020-04-22 21:15:44.484768 CEST] [3911] [info] forwarding_mapper() Forward to 11
[2020-04-22 21:15:44.485894 CEST] [3910] [info] Forwarding map loaded for 'gros-91' as '11'
[2020-04-22 21:15:44.486046 CEST] [3910] [info] forwarding_mapper() Forward to 11
[2020-04-22 21:15:44.488680 CEST] [3913] [info] Forwarding map loaded for 'gros-91' as '11'
[2020-04-22 21:15:44.488841 CEST] [3913] [info] forwarding_mapper() Forward to 11
[2020-04-22 21:15:44.493762 CEST] [3914] [info] Forwarding map loaded for 'gros-91' as '11'
[2020-04-22 21:15:44.493921 CEST] [3914] [info] forwarding_mapper() Forward to 11
[2020-04-22 21:15:44.498644 CEST] [3909] [info] Forwarding map loaded for 'gros-91' as '11'
[2020-04-22 21:15:44.498802 CEST] [3909] [info] forwarding_mapper() Forward to 11
[2020-04-22 21:15:44.508949 CEST] [3928] [info] Forwarding map loaded for 'gros-91' as '11'
[2020-04-22 21:15:44.509100 CEST] [3928] [info] forwarding_mapper() Forward to 11
[2020-04-22 21:15:44.509913 CEST] [3919] [info] Forwarding map loaded for 'gros-91' as '11'
[2020-04-22 21:15:44.510074 CEST] [3919] [info] forwarding_mapper() Forward to 11
[2020-04-22 21:15:54.490097 CEST] [3911] [info] Forwarding map loaded for 'gros-91' as '11'
[2020-04-22 21:15:54.490261 CEST] [3911] [info] forwarding_mapper() Forward to 11
[2020-04-22 21:15:54.492273 CEST] [3910] [info] Forwarding map loaded for 'gros-91' as '11'
[2020-04-22 21:15:54.492442 CEST] [3910] [info] forwarding_mapper() Forward to 11
[2020-04-22 21:15:54.493712 CEST] [3912] [info] Forwarding map loaded for 'gros-91' as '11'
[2020-04-22 21:15:54.493867 CEST] [3912] [info] forwarding_mapper() Forward to 11
[2020-04-22 21:15:54.498132 CEST] [3913] [info] Forwarding map loaded for 'gros-91' as '11'
[2020-04-22 21:15:54.498285 CEST] [3913] [info] forwarding_mapper() Forward to 11
[2020-04-22 21:15:54.498850 CEST] [3914] [info] Forwarding map loaded for 'gros-91' as '11'
[2020-04-22 21:15:54.499012 CEST] [3914] [info] forwarding_mapper() Forward to 11
[2020-04-22 21:15:54.507294 CEST] [3909] [info] Forwarding map loaded for 'gros-91' as '11'
[2020-04-22 21:15:54.507452 CEST] [3909] [info] forwarding_mapper() Forward to 11
[2020-04-22 21:15:54.517219 CEST] [3919] [info] Forwarding map loaded for 'gros-91' as '11'
[2020-04-22 21:15:54.517372 CEST] [3919] [info] forwarding_mapper() Forward to 11
[2020-04-22 21:15:54.520166 CEST] [3928] [info] Forwarding map loaded for 'gros-91' as '11'
[2020-04-22 21:15:54.520321 CEST] [3928] [info] forwarding_mapper() Forward to 11
[2020-04-22 21:16:04.495718 CEST] [3911] [info] Forwarding map loaded for 'gros-91' as '11'
[2020-04-22 21:16:04.495899 CEST] [3911] [info] forwarding_mapper() Forward to 11
[2020-04-22 21:16:04.498422 CEST] [3910] [info] Forwarding map loaded for 'gros-91' as '11'
[2020-04-22 21:16:04.498572 CEST] [3910] [info] forwarding_mapper() Forward to 11
[2020-04-22 21:16:04.500019 CEST] [3912] [info] Forwarding map loaded for 'gros-91' as '11'
[2020-04-22 21:16:04.500177 CEST] [3912] [info] forwarding_mapper() Forward to 11
[2020-04-22 21:16:04.503282 CEST] [3913] [info] Forwarding map loaded for 'gros-91' as '11'
[2020-04-22 21:16:04.503433 CEST] [3913] [info] forwarding_mapper() Forward to 11
[2020-04-22 21:16:04.503998 CEST] [3914] [info] Forwarding map loaded for 'gros-91' as '11'
[2020-04-22 21:16:04.504156 CEST] [3914] [info] forwarding_mapper() Forward to 11
[2020-04-22 21:16:04.514409 CEST] [3909] [info] Forwarding map loaded for 'gros-91' as '11'
[2020-04-22 21:16:04.514566 CEST] [3909] [info] forwarding_mapper() Forward to 11
[2020-04-22 21:16:04.523996 CEST] [3919] [info] Forwarding map loaded for 'gros-91' as '11'
[2020-04-22 21:16:04.524150 CEST] [3919] [info] forwarding_mapper() Forward to 11
[2020-04-22 21:16:04.526690 CEST] [3928] [info] Forwarding map loaded for 'gros-91' as '11'
[2020-04-22 21:16:04.526846 CEST] [3928] [info] forwarding_mapper() Forward to 11
[2020-04-22 21:16:14.501433 CEST] [3911] [info] Forwarding map loaded for 'gros-91' as '11'
[2020-04-22 21:16:14.501600 CEST] [3911] [info] forwarding_mapper() Forward to 11
[2020-04-22 21:16:14.506828 CEST] [3910] [info] Forwarding map loaded for 'gros-91' as '11'
[2020-04-22 21:16:14.507018 CEST] [3910] [info] forwarding_mapper() Forward to 11
[2020-04-22 21:16:14.508887 CEST] [3913] [info] Forwarding map loaded for 'gros-91' as '11'
[2020-04-22 21:16:14.509039 CEST] [3913] [info] forwarding_mapper() Forward to 11
[2020-04-22 21:16:14.509451 CEST] [3912] [info] Forwarding map loaded for 'gros-91' as '11'
[2020-04-22 21:16:14.509605 CEST] [3912] [info] forwarding_mapper() Forward to 11
[2020-04-22 21:16:14.513812 CEST] [3914] [info] Forwarding map loaded for 'gros-91' as '11'
[2020-04-22 21:16:14.513970 CEST] [3914] [info] forwarding_mapper() Forward to 11
[2020-04-22 21:16:14.526433 CEST] [3909] [info] Forwarding map loaded for 'gros-91' as '11'
[2020-04-22 21:16:14.526590 CEST] [3909] [info] forwarding_mapper() Forward to 11
[2020-04-22 21:16:14.532818 CEST] [3919] [info] Forwarding map loaded for 'gros-91' as '11'
[2020-04-22 21:16:14.532976 CEST] [3919] [info] forwarding_mapper() Forward to 11
[2020-04-22 21:16:14.538601 CEST] [3928] [info] Forwarding map loaded for 'gros-91' as '11'
[2020-04-22 21:16:14.538765 CEST] [3928] [info] forwarding_mapper() Forward to 11
[2020-04-22 21:16:24.507432 CEST] [3911] [info] Forwarding map loaded for 'gros-91' as '11'
[2020-04-22 21:16:24.507597 CEST] [3911] [info] forwarding_mapper() Forward to 11
[2020-04-22 21:16:24.511743 CEST] [3910] [info] Forwarding map loaded for 'gros-91' as '11'
[2020-04-22 21:16:24.511893 CEST] [3910] [info] forwarding_mapper() Forward to 11
[2020-04-22 21:16:24.515053 CEST] [3913] [info] Forwarding map loaded for 'gros-91' as '11'
[2020-04-22 21:16:24.515205 CEST] [3913] [info] forwarding_mapper() Forward to 11
[2020-04-22 21:16:24.515856 CEST] [3912] [info] Forwarding map loaded for 'gros-91' as '11'
[2020-04-22 21:16:24.516014 CEST] [3912] [info] forwarding_mapper() Forward to 11
[2020-04-22 21:16:24.518911 CEST] [3914] [info] Forwarding map loaded for 'gros-91' as '11'
[2020-04-22 21:16:24.519066 CEST] [3914] [info] forwarding_mapper() Forward to 11
[2020-04-22 21:16:24.532522 CEST] [3909] [info] Forwarding map loaded for 'gros-91' as '11'
[2020-04-22 21:16:24.532691 CEST] [3909] [info] forwarding_mapper() Forward to 11
[2020-04-22 21:16:24.538765 CEST] [3919] [info] Forwarding map loaded for 'gros-91' as '11'
[2020-04-22 21:16:24.538923 CEST] [3919] [info] forwarding_mapper() Forward to 11
[2020-04-22 21:16:24.544481 CEST] [3928] [info] Forwarding map loaded for 'gros-91' as '11'
[2020-04-22 21:16:24.544661 CEST] [3928] [info] forwarding_mapper() Forward to 11
[2020-04-22 21:16:34.513707 CEST] [3911] [info] Forwarding map loaded for 'gros-91' as '11'
[2020-04-22 21:16:34.513872 CEST] [3911] [info] forwarding_mapper() Forward to 11
[2020-04-22 21:16:34.516550 CEST] [3910] [info] Forwarding map loaded for 'gros-91' as '11'
[2020-04-22 21:16:34.516706 CEST] [3910] [info] forwarding_mapper() Forward to 11
[2020-04-22 21:16:34.520724 CEST] [3913] [info] Forwarding map loaded for 'gros-91' as '11'
[2020-04-22 21:16:34.520875 CEST] [3913] [info] forwarding_mapper() Forward to 11
[2020-04-22 21:16:34.521162 CEST] [3912] [info] Forwarding map loaded for 'gros-91' as '11'
[2020-04-22 21:16:34.521316 CEST] [3912] [info] forwarding_mapper() Forward to 11
[2020-04-22 21:16:34.524059 CEST] [3914] [info] Forwarding map loaded for 'gros-91' as '11'
[2020-04-22 21:16:34.524213 CEST] [3914] [info] forwarding_mapper() Forward to 11
[2020-04-22 21:16:34.540140 CEST] [3909] [info] Forwarding map loaded for 'gros-91' as '11'
[2020-04-22 21:16:34.540294 CEST] [3909] [info] forwarding_mapper() Forward to 11
[2020-04-22 21:16:34.551067 CEST] [3919] [info] Forwarding map loaded for 'gros-91' as '11'
[2020-04-22 21:16:34.551238 CEST] [3919] [info] forwarding_mapper() Forward to 11
[2020-04-22 21:16:34.556388 CEST] [3928] [info] Forwarding map loaded for 'gros-91' as '11'
[2020-04-22 21:16:34.556548 CEST] [3928] [info] forwarding_mapper() Forward to 11
[2020-04-22 21:16:44.519972 CEST] [3911] [info] Forwarding map loaded for 'gros-91' as '11'
[2020-04-22 21:16:44.520133 CEST] [3911] [info] forwarding_mapper() Forward to 11
[2020-04-22 21:16:44.521277 CEST] [3910] [info] Forwarding map loaded for 'gros-91' as '11'
[2020-04-22 21:16:44.521426 CEST] [3910] [info] forwarding_mapper() Forward to 11
[2020-04-22 21:16:44.525552 CEST] [3913] [info] Forwarding map loaded for 'gros-91' as '11'
[2020-04-22 21:16:44.525711 CEST] [3913] [info] forwarding_mapper() Forward to 11
[2020-04-22 21:16:44.525964 CEST] [3912] [info] Forwarding map loaded for 'gros-91' as '11'
[2020-04-22 21:16:44.526117 CEST] [3912] [info] forwarding_mapper() Forward to 11
[2020-04-22 21:16:44.529154 CEST] [3914] [info] Forwarding map loaded for 'gros-91' as '11'
[2020-04-22 21:16:44.529310 CEST] [3914] [info] forwarding_mapper() Forward to 11
[2020-04-22 21:16:44.547415 CEST] [3909] [info] Forwarding map loaded for 'gros-91' as '11'
[2020-04-22 21:16:44.547571 CEST] [3909] [info] forwarding_mapper() Forward to 11
[2020-04-22 21:16:44.556865 CEST] [3919] [info] Forwarding map loaded for 'gros-91' as '11'
[2020-04-22 21:16:44.557026 CEST] [3919] [info] forwarding_mapper() Forward to 11
[2020-04-22 21:16:44.563583 CEST] [3928] [info] Forwarding map loaded for 'gros-91' as '11'
[2020-04-22 21:16:44.563748 CEST] [3928] [info] forwarding_mapper() Forward to 11
[2020-04-22 21:16:54.525421 CEST] [3911] [info] Forwarding map loaded for 'gros-91' as '11'
[2020-04-22 21:16:54.525594 CEST] [3911] [info] forwarding_mapper() Forward to 11
[2020-04-22 21:16:54.526657 CEST] [3910] [info] Forwarding map loaded for 'gros-91' as '11'
[2020-04-22 21:16:54.526819 CEST] [3910] [info] forwarding_mapper() Forward to 11
[2020-04-22 21:16:54.537325 CEST] [3912] [info] Forwarding map loaded for 'gros-91' as '11'
[2020-04-22 21:16:54.537473 CEST] [3912] [info] forwarding_mapper() Forward to 11
[2020-04-22 21:16:54.537467 CEST] [3913] [info] Forwarding map loaded for 'gros-91' as '11'
[2020-04-22 21:16:54.537619 CEST] [3913] [info] forwarding_mapper() Forward to 11
[2020-04-22 21:16:54.540558 CEST] [3914] [info] Forwarding map loaded for 'gros-91' as '11'
[2020-04-22 21:16:54.540725 CEST] [3914] [info] forwarding_mapper() Forward to 11
[2020-04-22 21:16:54.553241 CEST] [3909] [info] Forwarding map loaded for 'gros-91' as '11'
[2020-04-22 21:16:54.553395 CEST] [3909] [info] forwarding_mapper() Forward to 11
[2020-04-22 21:16:54.562904 CEST] [3919] [info] Forwarding map loaded for 'gros-91' as '11'
[2020-04-22 21:16:54.563063 CEST] [3919] [info] forwarding_mapper() Forward to 11
[2020-04-22 21:16:54.569763 CEST] [3928] [info] Forwarding map loaded for 'gros-91' as '11'
[2020-04-22 21:16:54.569920 CEST] [3928] [info] forwarding_mapper() Forward to 11
[2020-04-22 21:17:04.531581 CEST] [3911] [info] Forwarding map loaded for 'gros-91' as '11'
[2020-04-22 21:17:04.531749 CEST] [3911] [info] forwarding_mapper() Forward to 11
[2020-04-22 21:17:04.532760 CEST] [3910] [info] Forwarding map loaded for 'gros-91' as '11'
[2020-04-22 21:17:04.532918 CEST] [3910] [info] forwarding_mapper() Forward to 11
[2020-04-22 21:17:04.544290 CEST] [3912] [info] Forwarding map loaded for 'gros-91' as '11'
[2020-04-22 21:17:04.544442 CEST] [3912] [info] forwarding_mapper() Forward to 11
[2020-04-22 21:17:04.544577 CEST] [3913] [info] Forwarding map loaded for 'gros-91' as '11'
[2020-04-22 21:17:04.544737 CEST] [3913] [info] forwarding_mapper() Forward to 11
[2020-04-22 21:17:04.547176 CEST] [3914] [info] Forwarding map loaded for 'gros-91' as '11'
[2020-04-22 21:17:04.547333 CEST] [3914] [info] forwarding_mapper() Forward to 11
[2020-04-22 21:17:04.560407 CEST] [3909] [info] Forwarding map loaded for 'gros-91' as '11'
[2020-04-22 21:17:04.560566 CEST] [3909] [info] forwarding_mapper() Forward to 11
[2020-04-22 21:17:04.570426 CEST] [3919] [info] Forwarding map loaded for 'gros-91' as '11'
[2020-04-22 21:17:04.570585 CEST] [3919] [info] forwarding_mapper() Forward to 11
[2020-04-22 21:17:04.576815 CEST] [3928] [info] Forwarding map loaded for 'gros-91' as '11'
[2020-04-22 21:17:04.576970 CEST] [3928] [info] forwarding_mapper() Forward to 11
[2020-04-22 21:17:14.537229 CEST] [3911] [info] Forwarding map loaded for 'gros-91' as '11'
[2020-04-22 21:17:14.537388 CEST] [3911] [info] forwarding_mapper() Forward to 11
[2020-04-22 21:17:14.537994 CEST] [3910] [info] Forwarding map loaded for 'gros-91' as '11'
[2020-04-22 21:17:14.538155 CEST] [3910] [info] forwarding_mapper() Forward to 11
[2020-04-22 21:17:14.552554 CEST] [3913] [info] Forwarding map loaded for 'gros-91' as '11'
[2020-04-22 21:17:14.552714 CEST] [3913] [info] forwarding_mapper() Forward to 11
[2020-04-22 21:17:14.553177 CEST] [3912] [info] Forwarding map loaded for 'gros-91' as '11'
[2020-04-22 21:17:14.553326 CEST] [3912] [info] forwarding_mapper() Forward to 11
[2020-04-22 21:17:14.554966 CEST] [3914] [info] Forwarding map loaded for 'gros-91' as '11'
[2020-04-22 21:17:14.555122 CEST] [3914] [info] forwarding_mapper() Forward to 11
[2020-04-22 21:17:14.569765 CEST] [3909] [info] Forwarding map loaded for 'gros-91' as '11'
[2020-04-22 21:17:14.569921 CEST] [3909] [info] forwarding_mapper() Forward to 11
[2020-04-22 21:17:14.578685 CEST] [3919] [info] Forwarding map loaded for 'gros-91' as '11'
[2020-04-22 21:17:14.578845 CEST] [3919] [info] forwarding_mapper() Forward to 11
[2020-04-22 21:17:14.586756 CEST] [3928] [info] Forwarding map loaded for 'gros-91' as '11'
[2020-04-22 21:17:14.586912 CEST] [3928] [info] forwarding_mapper() Forward to 11
[2020-04-22 21:17:24.543532 CEST] [3910] [info] Forwarding map loaded for 'gros-91' as '11'
[2020-04-22 21:17:24.543709 CEST] [3910] [info] forwarding_mapper() Forward to 11
[2020-04-22 21:17:24.544673 CEST] [3911] [info] Forwarding map loaded for 'gros-91' as '11'
[2020-04-22 21:17:24.544834 CEST] [3911] [info] forwarding_mapper() Forward to 11
[2020-04-22 21:17:24.557933 CEST] [3913] [info] Forwarding map loaded for 'gros-91' as '11'
[2020-04-22 21:17:24.558085 CEST] [3913] [info] forwarding_mapper() Forward to 11
[2020-04-22 21:17:24.559703 CEST] [3912] [info] Forwarding map loaded for 'gros-91' as '11'
[2020-04-22 21:17:24.559852 CEST] [3912] [info] forwarding_mapper() Forward to 11
[2020-04-22 21:17:24.561683 CEST] [3914] [info] Forwarding map loaded for 'gros-91' as '11'
[2020-04-22 21:17:24.561839 CEST] [3914] [info] forwarding_mapper() Forward to 11
[2020-04-22 21:17:24.575644 CEST] [3909] [info] Forwarding map loaded for 'gros-91' as '11'
[2020-04-22 21:17:24.575802 CEST] [3909] [info] forwarding_mapper() Forward to 11
[2020-04-22 21:17:24.584710 CEST] [3919] [info] Forwarding map loaded for 'gros-91' as '11'
[2020-04-22 21:17:24.584870 CEST] [3919] [info] forwarding_mapper() Forward to 11
[2020-04-22 21:17:24.592913 CEST] [3928] [info] Forwarding map loaded for 'gros-91' as '11'
[2020-04-22 21:17:24.593067 CEST] [3928] [info] forwarding_mapper() Forward to 11
[2020-04-22 21:17:34.549580 CEST] [3910] [info] Forwarding map loaded for 'gros-91' as '11'
[2020-04-22 21:17:34.549760 CEST] [3910] [info] forwarding_mapper() Forward to 11
[2020-04-22 21:17:34.556726 CEST] [3911] [info] Forwarding map loaded for 'gros-91' as '11'
[2020-04-22 21:17:34.556887 CEST] [3911] [info] forwarding_mapper() Forward to 11
[2020-04-22 21:17:34.565199 CEST] [3912] [info] Forwarding map loaded for 'gros-91' as '11'
[2020-04-22 21:17:34.565350 CEST] [3912] [info] forwarding_mapper() Forward to 11
[2020-04-22 21:17:34.566038 CEST] [3913] [info] Forwarding map loaded for 'gros-91' as '11'
[2020-04-22 21:17:34.566191 CEST] [3913] [info] forwarding_mapper() Forward to 11
[2020-04-22 21:17:34.566867 CEST] [3914] [info] Forwarding map loaded for 'gros-91' as '11'
[2020-04-22 21:17:34.567024 CEST] [3914] [info] forwarding_mapper() Forward to 11
[2020-04-22 21:17:34.587722 CEST] [3909] [info] Forwarding map loaded for 'gros-91' as '11'
[2020-04-22 21:17:34.587880 CEST] [3909] [info] forwarding_mapper() Forward to 11
[2020-04-22 21:17:34.597273 CEST] [3919] [info] Forwarding map loaded for 'gros-91' as '11'
[2020-04-22 21:17:34.597435 CEST] [3919] [info] forwarding_mapper() Forward to 11
[2020-04-22 21:17:34.605111 CEST] [3928] [info] Forwarding map loaded for 'gros-91' as '11'
[2020-04-22 21:17:34.605269 CEST] [3928] [info] forwarding_mapper() Forward to 11
[2020-04-22 21:17:44.555467 CEST] [3910] [info] Forwarding map loaded for 'gros-91' as '11'
[2020-04-22 21:17:44.555639 CEST] [3910] [info] forwarding_mapper() Forward to 11
[2020-04-22 21:17:44.562651 CEST] [3911] [info] Forwarding map loaded for 'gros-91' as '11'
[2020-04-22 21:17:44.562813 CEST] [3911] [info] forwarding_mapper() Forward to 11
[2020-04-22 21:17:44.572255 CEST] [3912] [info] Forwarding map loaded for 'gros-91' as '11'
[2020-04-22 21:17:44.572311 CEST] [3913] [info] Forwarding map loaded for 'gros-91' as '11'
[2020-04-22 21:17:44.572408 CEST] [3912] [info] forwarding_mapper() Forward to 11
[2020-04-22 21:17:44.572465 CEST] [3913] [info] forwarding_mapper() Forward to 11
[2020-04-22 21:17:44.573506 CEST] [3914] [info] Forwarding map loaded for 'gros-91' as '11'
[2020-04-22 21:17:44.573677 CEST] [3914] [info] forwarding_mapper() Forward to 11
[2020-04-22 21:17:44.594937 CEST] [3909] [info] Forwarding map loaded for 'gros-91' as '11'
[2020-04-22 21:17:44.595094 CEST] [3909] [info] forwarding_mapper() Forward to 11
[2020-04-22 21:17:44.605001 CEST] [3919] [info] Forwarding map loaded for 'gros-91' as '11'
[2020-04-22 21:17:44.605161 CEST] [3919] [info] forwarding_mapper() Forward to 11
[2020-04-22 21:17:44.612414 CEST] [3928] [info] Forwarding map loaded for 'gros-91' as '11'
[2020-04-22 21:17:44.612571 CEST] [3928] [info] forwarding_mapper() Forward to 11
[2020-04-22 21:17:54.561330 CEST] [3910] [info] Forwarding map loaded for 'gros-91' as '11'
[2020-04-22 21:17:54.561494 CEST] [3910] [info] forwarding_mapper() Forward to 11
[2020-04-22 21:17:54.568453 CEST] [3911] [info] Forwarding map loaded for 'gros-91' as '11'
[2020-04-22 21:17:54.568611 CEST] [3911] [info] forwarding_mapper() Forward to 11
[2020-04-22 21:17:54.577630 CEST] [3912] [info] Forwarding map loaded for 'gros-91' as '11'
[2020-04-22 21:17:54.577779 CEST] [3912] [info] forwarding_mapper() Forward to 11
[2020-04-22 21:17:54.578334 CEST] [3914] [info] Forwarding map loaded for 'gros-91' as '11'
[2020-04-22 21:17:54.578483 CEST] [3914] [info] forwarding_mapper() Forward to 11
[2020-04-22 21:17:54.580104 CEST] [3913] [info] Forwarding map loaded for 'gros-91' as '11'
[2020-04-22 21:17:54.580263 CEST] [3913] [info] forwarding_mapper() Forward to 11
[2020-04-22 21:17:54.600923 CEST] [3909] [info] Forwarding map loaded for 'gros-91' as '11'
[2020-04-22 21:17:54.601081 CEST] [3909] [info] forwarding_mapper() Forward to 11
[2020-04-22 21:17:54.611030 CEST] [3919] [info] Forwarding map loaded for 'gros-91' as '11'
[2020-04-22 21:17:54.611189 CEST] [3919] [info] forwarding_mapper() Forward to 11
[2020-04-22 21:17:54.618609 CEST] [3928] [info] Forwarding map loaded for 'gros-91' as '11'
[2020-04-22 21:17:54.618779 CEST] [3928] [info] forwarding_mapper() Forward to 11
[2020-04-22 21:18:04.567116 CEST] [3910] [info] Forwarding map loaded for 'gros-91' as '11'
[2020-04-22 21:18:04.567282 CEST] [3910] [info] forwarding_mapper() Forward to 11
[2020-04-22 21:18:04.575783 CEST] [3911] [info] Forwarding map loaded for 'gros-91' as '11'
[2020-04-22 21:18:04.575943 CEST] [3911] [info] forwarding_mapper() Forward to 11
[2020-04-22 21:18:04.583595 CEST] [3912] [info] Forwarding map loaded for 'gros-91' as '11'
[2020-04-22 21:18:04.583758 CEST] [3912] [info] forwarding_mapper() Forward to 11
[2020-04-22 21:18:04.583969 CEST] [3914] [info] Forwarding map loaded for 'gros-91' as '11'
[2020-04-22 21:18:04.584122 CEST] [3914] [info] forwarding_mapper() Forward to 11
[2020-04-22 21:18:04.586882 CEST] [3913] [info] Forwarding map loaded for 'gros-91' as '11'
[2020-04-22 21:18:04.587039 CEST] [3913] [info] forwarding_mapper() Forward to 11
[2020-04-22 21:18:04.607266 CEST] [3909] [info] Forwarding map loaded for 'gros-91' as '11'
[2020-04-22 21:18:04.607423 CEST] [3909] [info] forwarding_mapper() Forward to 11
[2020-04-22 21:18:04.618620 CEST] [3919] [info] Forwarding map loaded for 'gros-91' as '11'
[2020-04-22 21:18:04.618787 CEST] [3919] [info] forwarding_mapper() Forward to 11
[2020-04-22 21:18:04.626097 CEST] [3928] [info] Forwarding map loaded for 'gros-91' as '11'
[2020-04-22 21:18:04.626256 CEST] [3928] [info] forwarding_mapper() Forward to 11
[2020-04-22 21:18:14.572914 CEST] [3910] [info] Forwarding map loaded for 'gros-91' as '11'
[2020-04-22 21:18:14.573082 CEST] [3910] [info] forwarding_mapper() Forward to 11
[2020-04-22 21:18:14.582703 CEST] [3911] [info] Forwarding map loaded for 'gros-91' as '11'
[2020-04-22 21:18:14.582862 CEST] [3911] [info] forwarding_mapper() Forward to 11
[2020-04-22 21:18:14.588995 CEST] [3912] [info] Forwarding map loaded for 'gros-91' as '11'
[2020-04-22 21:18:14.589148 CEST] [3912] [info] forwarding_mapper() Forward to 11
[2020-04-22 21:18:14.591858 CEST] [3913] [info] Forwarding map loaded for 'gros-91' as '11'
[2020-04-22 21:18:14.592009 CEST] [3913] [info] forwarding_mapper() Forward to 11
[2020-04-22 21:18:14.592701 CEST] [3914] [info] Forwarding map loaded for 'gros-91' as '11'
[2020-04-22 21:18:14.592863 CEST] [3914] [info] forwarding_mapper() Forward to 11
[2020-04-22 21:18:14.616537 CEST] [3909] [info] Forwarding map loaded for 'gros-91' as '11'
[2020-04-22 21:18:14.616702 CEST] [3909] [info] forwarding_mapper() Forward to 11
[2020-04-22 21:18:14.626269 CEST] [3919] [info] Forwarding map loaded for 'gros-91' as '11'
[2020-04-22 21:18:14.626429 CEST] [3919] [info] forwarding_mapper() Forward to 11
[2020-04-22 21:18:14.638354 CEST] [3928] [info] Forwarding map loaded for 'gros-91' as '11'
[2020-04-22 21:18:14.638525 CEST] [3928] [info] forwarding_mapper() Forward to 11
[2020-04-22 21:18:24.579018 CEST] [3910] [info] Forwarding map loaded for 'gros-91' as '11'
[2020-04-22 21:18:24.579186 CEST] [3910] [info] forwarding_mapper() Forward to 11
[2020-04-22 21:18:24.585333 CEST] [3911] [info] Forwarding map loaded for 'gros-91' as '11'
[2020-04-22 21:18:24.585412 CEST] [3911] [info] forwarding_mapper() Forward to 11
[2020-04-22 21:18:24.594252 CEST] [3912] [info] Forwarding map loaded for 'gros-91' as '11'
[2020-04-22 21:18:24.594401 CEST] [3912] [info] forwarding_mapper() Forward to 11
[2020-04-22 21:18:24.596533 CEST] [3913] [info] Forwarding map loaded for 'gros-91' as '11'
[2020-04-22 21:18:24.596687 CEST] [3913] [info] forwarding_mapper() Forward to 11
[2020-04-22 21:18:24.598003 CEST] [3914] [info] Forwarding map loaded for 'gros-91' as '11'
[2020-04-22 21:18:24.598154 CEST] [3914] [info] forwarding_mapper() Forward to 11
[2020-04-22 21:18:24.622700 CEST] [3909] [info] Forwarding map loaded for 'gros-91' as '11'
[2020-04-22 21:18:24.622854 CEST] [3909] [info] forwarding_mapper() Forward to 11
[2020-04-22 21:18:24.631971 CEST] [3919] [info] Forwarding map loaded for 'gros-91' as '11'
[2020-04-22 21:18:24.632123 CEST] [3919] [info] forwarding_mapper() Forward to 11
[2020-04-22 21:18:24.645642 CEST] [3928] [info] Forwarding map loaded for 'gros-91' as '11'
[2020-04-22 21:18:24.645795 CEST] [3928] [info] forwarding_mapper() Forward to 11
[2020-04-22 21:18:34.590640 CEST] [3910] [info] Forwarding map loaded for 'gros-91' as '11'
[2020-04-22 21:18:34.590812 CEST] [3910] [info] forwarding_mapper() Forward to 11
[2020-04-22 21:18:34.596579 CEST] [3911] [info] Forwarding map loaded for 'gros-91' as '11'
[2020-04-22 21:18:34.596742 CEST] [3911] [info] forwarding_mapper() Forward to 11
[2020-04-22 21:18:34.598993 CEST] [3912] [info] Forwarding map loaded for 'gros-91' as '11'
[2020-04-22 21:18:34.599137 CEST] [3912] [info] forwarding_mapper() Forward to 11
[2020-04-22 21:18:34.601253 CEST] [3913] [info] Forwarding map loaded for 'gros-91' as '11'
[2020-04-22 21:18:34.601398 CEST] [3913] [info] forwarding_mapper() Forward to 11
[2020-04-22 21:18:34.602942 CEST] [3914] [info] Forwarding map loaded for 'gros-91' as '11'
[2020-04-22 21:18:34.603092 CEST] [3914] [info] forwarding_mapper() Forward to 11
[2020-04-22 21:18:34.632248 CEST] [3909] [info] Forwarding map loaded for 'gros-91' as '11'
[2020-04-22 21:18:34.632326 CEST] [3909] [info] forwarding_mapper() Forward to 11
[2020-04-22 21:18:34.637036 CEST] [3919] [info] Forwarding map loaded for 'gros-91' as '11'
[2020-04-22 21:18:34.637189 CEST] [3919] [info] forwarding_mapper() Forward to 11
[2020-04-22 21:18:34.655066 CEST] [3928] [info] Forwarding map loaded for 'gros-91' as '11'
[2020-04-22 21:18:34.655143 CEST] [3928] [info] forwarding_mapper() Forward to 11
[2020-04-22 21:18:44.597466 CEST] [3910] [info] Forwarding map loaded for 'gros-91' as '11'
[2020-04-22 21:18:44.597613 CEST] [3910] [info] forwarding_mapper() Forward to 11
[2020-04-22 21:18:44.603365 CEST] [3911] [info] Forwarding map loaded for 'gros-91' as '11'
[2020-04-22 21:18:44.603504 CEST] [3911] [info] forwarding_mapper() Forward to 11
[2020-04-22 21:18:44.603578 CEST] [3912] [info] Forwarding map loaded for 'gros-91' as '11'
[2020-04-22 21:18:44.603724 CEST] [3912] [info] forwarding_mapper() Forward to 11
[2020-04-22 21:18:44.606160 CEST] [3913] [info] Forwarding map loaded for 'gros-91' as '11'
[2020-04-22 21:18:44.606299 CEST] [3913] [info] forwarding_mapper() Forward to 11
[2020-04-22 21:18:44.608090 CEST] [3914] [info] Forwarding map loaded for 'gros-91' as '11'
[2020-04-22 21:18:44.608233 CEST] [3914] [info] forwarding_mapper() Forward to 11
[2020-04-22 21:18:44.636886 CEST] [3909] [info] Forwarding map loaded for 'gros-91' as '11'
[2020-04-22 21:18:44.636952 CEST] [3909] [info] forwarding_mapper() Forward to 11
[2020-04-22 21:18:44.642242 CEST] [3919] [info] Forwarding map loaded for 'gros-91' as '11'
[2020-04-22 21:18:44.642384 CEST] [3919] [info] forwarding_mapper() Forward to 11
[2020-04-22 21:18:44.659784 CEST] [3928] [info] Forwarding map loaded for 'gros-91' as '11'
[2020-04-22 21:18:44.659850 CEST] [3928] [info] forwarding_mapper() Forward to 11
[2020-04-22 21:18:54.608707 CEST] [3912] [info] Forwarding map loaded for 'gros-91' as '11'
[2020-04-22 21:18:54.608850 CEST] [3912] [info] forwarding_mapper() Forward to 11
[2020-04-22 21:18:54.609219 CEST] [3910] [info] Forwarding map loaded for 'gros-91' as '11'
[2020-04-22 21:18:54.609359 CEST] [3910] [info] forwarding_mapper() Forward to 11
[2020-04-22 21:18:54.611225 CEST] [3913] [info] Forwarding map loaded for 'gros-91' as '11'
[2020-04-22 21:18:54.611364 CEST] [3913] [info] forwarding_mapper() Forward to 11
[2020-04-22 21:18:54.612886 CEST] [3914] [info] Forwarding map loaded for 'gros-91' as '11'
[2020-04-22 21:18:54.613026 CEST] [3914] [info] forwarding_mapper() Forward to 11
[2020-04-22 21:18:54.614734 CEST] [3911] [info] Forwarding map loaded for 'gros-91' as '11'
[2020-04-22 21:18:54.614877 CEST] [3911] [info] forwarding_mapper() Forward to 11
[2020-04-22 21:18:54.645927 CEST] [3909] [info] Forwarding map loaded for 'gros-91' as '11'
[2020-04-22 21:18:54.645989 CEST] [3909] [info] forwarding_mapper() Forward to 11
[2020-04-22 21:18:54.647520 CEST] [3919] [info] Forwarding map loaded for 'gros-91' as '11'
[2020-04-22 21:18:54.647671 CEST] [3919] [info] forwarding_mapper() Forward to 11
[2020-04-22 21:18:54.666425 CEST] [3928] [info] Forwarding map loaded for 'gros-91' as '11'
[2020-04-22 21:18:54.666489 CEST] [3928] [info] forwarding_mapper() Forward to 11
[2020-04-22 21:19:04.613962 CEST] [3912] [info] Forwarding map loaded for 'gros-91' as '11'
[2020-04-22 21:19:04.614104 CEST] [3912] [info] forwarding_mapper() Forward to 11
[2020-04-22 21:19:04.615604 CEST] [3910] [info] Forwarding map loaded for 'gros-91' as '11'
[2020-04-22 21:19:04.615749 CEST] [3910] [info] forwarding_mapper() Forward to 11
[2020-04-22 21:19:04.616219 CEST] [3913] [info] Forwarding map loaded for 'gros-91' as '11'
[2020-04-22 21:19:04.616357 CEST] [3913] [info] forwarding_mapper() Forward to 11
[2020-04-22 21:19:04.617592 CEST] [3914] [info] Forwarding map loaded for 'gros-91' as '11'
[2020-04-22 21:19:04.617739 CEST] [3914] [info] forwarding_mapper() Forward to 11
[2020-04-22 21:19:04.619723 CEST] [3911] [info] Forwarding map loaded for 'gros-91' as '11'
[2020-04-22 21:19:04.619866 CEST] [3911] [info] forwarding_mapper() Forward to 11
[2020-04-22 21:19:04.650631 CEST] [3909] [info] Forwarding map loaded for 'gros-91' as '11'
[2020-04-22 21:19:04.650694 CEST] [3909] [info] forwarding_mapper() Forward to 11
[2020-04-22 21:19:04.652458 CEST] [3919] [info] Forwarding map loaded for 'gros-91' as '11'
[2020-04-22 21:19:04.652600 CEST] [3919] [info] forwarding_mapper() Forward to 11
[2020-04-22 21:19:04.671091 CEST] [3928] [info] Forwarding map loaded for 'gros-91' as '11'
[2020-04-22 21:19:04.671154 CEST] [3928] [info] forwarding_mapper() Forward to 11
[2020-04-22 21:19:14.619092 CEST] [3912] [info] Forwarding map loaded for 'gros-91' as '11'
[2020-04-22 21:19:14.619234 CEST] [3912] [info] forwarding_mapper() Forward to 11
[2020-04-22 21:19:14.620937 CEST] [3913] [info] Forwarding map loaded for 'gros-91' as '11'
[2020-04-22 21:19:14.621077 CEST] [3913] [info] forwarding_mapper() Forward to 11
[2020-04-22 21:19:14.622437 CEST] [3914] [info] Forwarding map loaded for 'gros-91' as '11'
[2020-04-22 21:19:14.622576 CEST] [3914] [info] forwarding_mapper() Forward to 11
[2020-04-22 21:19:14.624547 CEST] [3911] [info] Forwarding map loaded for 'gros-91' as '11'
[2020-04-22 21:19:14.624692 CEST] [3911] [info] forwarding_mapper() Forward to 11
[2020-04-22 21:19:14.626982 CEST] [3910] [info] Forwarding map loaded for 'gros-91' as '11'
[2020-04-22 21:19:14.627124 CEST] [3910] [info] forwarding_mapper() Forward to 11
[2020-04-22 21:19:14.657499 CEST] [3919] [info] Forwarding map loaded for 'gros-91' as '11'
[2020-04-22 21:19:14.657644 CEST] [3919] [info] forwarding_mapper() Forward to 11
[2020-04-22 21:19:14.659897 CEST] [3909] [info] Forwarding map loaded for 'gros-91' as '11'
[2020-04-22 21:19:14.659967 CEST] [3909] [info] forwarding_mapper() Forward to 11
[2020-04-22 21:19:14.680553 CEST] [3928] [info] Forwarding map loaded for 'gros-91' as '11'
[2020-04-22 21:19:14.680616 CEST] [3928] [info] forwarding_mapper() Forward to 11
[2020-04-22 21:19:24.669414 CEST] [3870] [info] All subsystems shut down. Client shutdown complete.
[2020-04-22 21:19:24.670878 CEST] [3874] [info] All subsystems shut down. Client shutdown complete.
[2020-04-22 21:19:24.671483 CEST] [3872] [info] All subsystems shut down. Client shutdown complete.
[2020-04-22 21:19:24.675016 CEST] [3871] [info] All subsystems shut down. Client shutdown complete.
[2020-04-22 21:19:24.676874 CEST] [3876] [info] All subsystems shut down. Client shutdown complete.
[2020-04-22 21:19:24.687371 CEST] [3869] [info] All subsystems shut down. Client shutdown complete.
[2020-04-22 21:19:24.719417 CEST] [3873] [info] All subsystems shut down. Client shutdown complete.
[2020-04-22 21:19:24.768423 CEST] [3875] [info] All subsystems shut down. Client shutdown complete.
