[2020-04-22 20:25:48.431565 CEST] [3387] [info] Process cmdline: '/root/benchmarks/MADbench2/MADbench2.x 4096 64 1 8 8 4 4 /mnt/gkfs/output-G-2'
[2020-04-22 20:25:48.431632 CEST] [3388] [info] Process cmdline: '/root/benchmarks/MADbench2/MADbench2.x 4096 64 1 8 8 4 4 /mnt/gkfs/output-G-2'
[2020-04-22 20:25:48.431830 CEST] [3387] [info] Initializing RPC subsystem...
[2020-04-22 20:25:48.431851 CEST] [3388] [info] Initializing RPC subsystem...
[2020-04-22 20:25:48.452279 CEST] [3388] [info] Loading peer addresses...
[2020-04-22 20:25:48.452294 CEST] [3387] [info] Loading peer addresses...
[2020-04-22 20:25:48.455495 CEST] [3387] [info] Hosts pool size: 12
[2020-04-22 20:25:48.456104 CEST] [3388] [info] Hosts pool size: 12
[2020-04-22 20:25:48.476521 CEST] [3388] [info] Forwarding map loaded for 'gros-49' as '11'
[2020-04-22 20:25:48.476616 CEST] [3388] [info] init_ld_environment_() Forward to 11
[2020-04-22 20:25:48.476692 CEST] [3388] [info] Retrieving file system configuration...
[2020-04-22 20:25:48.476947 CEST] [3387] [info] Forwarding map loaded for 'gros-49' as '11'
[2020-04-22 20:25:48.477047 CEST] [3387] [info] init_ld_environment_() Forward to 11
[2020-04-22 20:25:48.477134 CEST] [3387] [info] Retrieving file system configuration...
[2020-04-22 20:25:48.478768 CEST] [3388] [info] Mountdir: '/mnt/gkfs'
[2020-04-22 20:25:48.478889 CEST] [3388] [info] Environment initialization successful.
[2020-04-22 20:25:48.478928 CEST] [3387] [info] Mountdir: '/mnt/gkfs'
[2020-04-22 20:25:48.478994 CEST] [3387] [info] Environment initialization successful.
[2020-04-22 20:25:48.505345 CEST] [3397] [info] Forwarding map loaded for 'gros-49' as '11'
[2020-04-22 20:25:48.505493 CEST] [3397] [info] forwarding_mapper() Forward to 11
[2020-04-22 20:25:48.506988 CEST] [3398] [info] Forwarding map loaded for 'gros-49' as '11'
[2020-04-22 20:25:48.507231 CEST] [3398] [info] forwarding_mapper() Forward to 11
[2020-04-22 20:25:58.513361 CEST] [3398] [info] Forwarding map loaded for 'gros-49' as '11'
[2020-04-22 20:25:58.513515 CEST] [3398] [info] forwarding_mapper() Forward to 11
[2020-04-22 20:25:58.516760 CEST] [3397] [info] Forwarding map loaded for 'gros-49' as '11'
[2020-04-22 20:25:58.516918 CEST] [3397] [info] forwarding_mapper() Forward to 11
[2020-04-22 20:26:08.519182 CEST] [3398] [info] Forwarding map loaded for 'gros-49' as '11'
[2020-04-22 20:26:08.519327 CEST] [3398] [info] forwarding_mapper() Forward to 11
[2020-04-22 20:26:08.523452 CEST] [3397] [info] Forwarding map loaded for 'gros-49' as '11'
[2020-04-22 20:26:08.523599 CEST] [3397] [info] forwarding_mapper() Forward to 11
[2020-04-22 20:26:18.525379 CEST] [3398] [info] Forwarding map loaded for 'gros-49' as '11'
[2020-04-22 20:26:18.525532 CEST] [3398] [info] forwarding_mapper() Forward to 11
[2020-04-22 20:26:18.535476 CEST] [3397] [info] Forwarding map loaded for 'gros-49' as '11'
[2020-04-22 20:26:18.535623 CEST] [3397] [info] forwarding_mapper() Forward to 11
[2020-04-22 20:26:28.531504 CEST] [3398] [info] Forwarding map loaded for 'gros-49' as '11'
[2020-04-22 20:26:28.531657 CEST] [3398] [info] forwarding_mapper() Forward to 11
[2020-04-22 20:26:28.542679 CEST] [3397] [info] Forwarding map loaded for 'gros-49' as '11'
[2020-04-22 20:26:28.542831 CEST] [3397] [info] forwarding_mapper() Forward to 11
[2020-04-22 20:26:38.537780 CEST] [3398] [info] Forwarding map loaded for 'gros-49' as '11'
[2020-04-22 20:26:38.537934 CEST] [3398] [info] forwarding_mapper() Forward to 11
[2020-04-22 20:26:38.554704 CEST] [3397] [info] Forwarding map loaded for 'gros-49' as '11'
[2020-04-22 20:26:38.554851 CEST] [3397] [info] forwarding_mapper() Forward to 11
[2020-04-22 20:26:48.543709 CEST] [3398] [info] Forwarding map loaded for 'gros-49' as '11'
[2020-04-22 20:26:48.543863 CEST] [3398] [info] forwarding_mapper() Forward to 11
[2020-04-22 20:26:48.562135 CEST] [3397] [info] Forwarding map loaded for 'gros-49' as '11'
[2020-04-22 20:26:48.562281 CEST] [3397] [info] forwarding_mapper() Forward to 11
[2020-04-22 20:26:58.550526 CEST] [3398] [info] Forwarding map loaded for 'gros-49' as '11'
[2020-04-22 20:26:58.550692 CEST] [3398] [info] forwarding_mapper() Forward to 11
[2020-04-22 20:26:58.568180 CEST] [3397] [info] Forwarding map loaded for 'gros-49' as '11'
[2020-04-22 20:26:58.568331 CEST] [3397] [info] forwarding_mapper() Forward to 11
[2020-04-22 20:27:08.555073 CEST] [3398] [info] Forwarding map loaded for 'gros-49' as '11'
[2020-04-22 20:27:08.555220 CEST] [3398] [info] forwarding_mapper() Forward to 11
[2020-04-22 20:27:08.575534 CEST] [3397] [info] Forwarding map loaded for 'gros-49' as '11'
[2020-04-22 20:27:08.575680 CEST] [3397] [info] forwarding_mapper() Forward to 11
[2020-04-22 20:27:18.561278 CEST] [3398] [info] Forwarding map loaded for 'gros-49' as '11'
[2020-04-22 20:27:18.561433 CEST] [3398] [info] forwarding_mapper() Forward to 11
[2020-04-22 20:27:18.587695 CEST] [3397] [info] Forwarding map loaded for 'gros-49' as '11'
[2020-04-22 20:27:18.587842 CEST] [3397] [info] forwarding_mapper() Forward to 11
[2020-04-22 20:27:28.567644 CEST] [3398] [info] Forwarding map loaded for 'gros-49' as '11'
[2020-04-22 20:27:28.567796 CEST] [3398] [info] forwarding_mapper() Forward to 11
[2020-04-22 20:27:28.594034 CEST] [3397] [info] Forwarding map loaded for 'gros-49' as '11'
[2020-04-22 20:27:28.594190 CEST] [3397] [info] forwarding_mapper() Forward to 11
[2020-04-22 20:27:38.577508 CEST] [3398] [info] Forwarding map loaded for 'gros-49' as '3'
[2020-04-22 20:27:38.577664 CEST] [3398] [info] forwarding_mapper() Forward to 3
[2020-04-22 20:27:38.608727 CEST] [3397] [info] Forwarding map loaded for 'gros-49' as '3'
[2020-04-22 20:27:38.608876 CEST] [3397] [info] forwarding_mapper() Forward to 3
[2020-04-22 20:27:48.584059 CEST] [3398] [info] Forwarding map loaded for 'gros-49' as '3'
[2020-04-22 20:27:48.584219 CEST] [3398] [info] forwarding_mapper() Forward to 3
[2020-04-22 20:27:48.616202 CEST] [3397] [info] Forwarding map loaded for 'gros-49' as '3'
[2020-04-22 20:27:48.616348 CEST] [3397] [info] forwarding_mapper() Forward to 3
[2020-04-22 20:27:58.590545 CEST] [3398] [info] Forwarding map loaded for 'gros-49' as '3'
[2020-04-22 20:27:58.590698 CEST] [3398] [info] forwarding_mapper() Forward to 3
[2020-04-22 20:27:58.628059 CEST] [3397] [info] Forwarding map loaded for 'gros-49' as '3'
[2020-04-22 20:27:58.628212 CEST] [3397] [info] forwarding_mapper() Forward to 3
[2020-04-22 20:28:08.616710 CEST] [3388] [info] All subsystems shut down. Client shutdown complete.
[2020-04-22 20:28:08.712943 CEST] [3387] [info] All subsystems shut down. Client shutdown complete.
